%!PS-Adobe-2.0 EPSF-1.2
%%BoundingBox: 0 0 468 360
%%%%DocumentFonts: /Helvetica
%%Title: Axum PostScript file
%%Creator: TriMetrix, Inc.
%%Pages: 1
%%EndComments
% Copyright 1988-1991 by TriMetrix, Inc. All rights reserved.
/downdict 4 dict def
/sdown
 {downdict begin
  /thestring exch def
  /lineskip exch def
  thestring
   {
    /charcode exch def
    /thechar ( ) dup 0 charcode put def
    0 lineskip neg rmoveto
    gsave
     thechar stringwidth pop 2 div neg 0 rmoveto
     thechar show
    grestore
   } forall
   end
  } def

/updict 4 dict def
/sup
 {updict begin
  /thestring exch def
  /lineskip exch def
  thestring 
   {
    /charcode exch def
    /thechar ( ) dup 0 charcode put def
    0 lineskip rmoveto
    gsave
     thechar stringwidth pop 2 div neg 0 rmoveto
     thechar show
    grestore
   } forall
   end
  } def

/leftdict 4 dict def
/sleft
 {leftdict begin
  /thestring exch def
  thestring
   {
    /charcode exch def
    /thechar ( ) dup 0 charcode put def
    gsave
     thechar stringwidth pop neg 0 rmoveto
     thechar show
    grestore
   } forall

   thechar stringwidth pop neg 0 rmoveto
   end
  } def

/path{newpath moveto{lineto}repeat} bind def 
/cnp{newpath moveto{lineto}repeat closepath} bind def
/clp{moveto{lineto}repeat closepath} bind def
/rps{ 3 1 roll path stroke} bind def
/rcs{ 3 1 roll clp stroke} bind def
/setF { currentscreen 4 -2 roll pop 3 1 roll setscreen} bind def
% required due to WinWord 2.0 bug:
/II { } def

/reencodedict 5 dict def
/reencode
{
   reencodedict begin
   /newencoding exch def
   /newfontname exch def
   /basefontname exch def

   /basefontdict basefontname findfont def
   /newfont basefontdict maxlength dict def

   basefontdict
   {
      exch dup dup /FID ne exch /Encoding ne and
      { exch newfont 3 1 roll put }
      { pop pop }
      ifelse
   }
   forall

   newfont /FontName newfontname put
   newfont /Encoding newencoding put
   newfontname newfont definefont pop
   end
}
def

/axumencoding
[
/.notdef        %   0
/.notdef        %   1
/.notdef        %   2
/.notdef        %   3
/.notdef        %   4
/.notdef        %   5
/.notdef        %   6
/.notdef        %   7
/.notdef        %   8
/.notdef        %   9
/.notdef        %  10
/.notdef        %  11
/.notdef        %  12
/.notdef        %  13
/.notdef        %  14
/.notdef        %  15
/.notdef        %  16
/.notdef        %  17
/.notdef        %  18
/.notdef        %  19
/.notdef        %  20
/.notdef        %  21
/.notdef        %  22
/.notdef        %  23
/.notdef        %  24
/.notdef        %  25
/.notdef        %  26
/.notdef        %  27
/.notdef        %  28
/.notdef        %  29
/.notdef        %  30
/.notdef        %  31
/space          %  32
/exclam         %  33
/quotedbl       %  34
/numbersign     %  35
/dollar         %  36
/percent        %  37
/ampersand      %  38
/quoteright     %  39
/parenleft      %  40
/parenright     %  41
/asterisk       %  42
/plus           %  43
/comma          %  44
/hyphen         %  45
/period         %  46
/slash          %  47
/zero           %  48
/one            %  49
/two            %  50
/three          %  51
/four           %  52
/five           %  53
/six            %  54
/seven          %  55
/eight          %  56
/nine           %  57
/colon          %  58
/semicolon      %  59
/less           %  60
/equal          %  61
/greater        %  62
/question       %  63
/at             %  64
/A              %  65
/B              %  66
/C              %  67
/D              %  68
/E              %  69
/F              %  70
/G              %  71
/H              %  72
/I              %  73
/J              %  74
/K              %  75
/L              %  76
/M              %  77
/N              %  78
/O              %  79
/P              %  80
/Q              %  81
/R              %  82
/S              %  83
/T              %  84
/U              %  85
/V              %  86
/W              %  87
/X              %  88
/Y              %  89
/Z              %  90
/bracketleft    %  91
/backslash      %  92
/bracketright   %  93
/asciicircum    %  94
/underscore     %  95
/quoteleft      %  96
/a              %  97
/b              %  98
/c              %  99
/d              % 100
/e              % 101
/f              % 102
/g              % 103
/h              % 104
/i              % 105
/j              % 106
/k              % 107
/l              % 108
/m              % 109
/n              % 110
/o              % 111
/p              % 112
/q              % 113
/r              % 114
/s              % 115
/t              % 116
/u              % 117
/v              % 118
/w              % 119
/x              % 120
/y              % 121
/z              % 122
/braceleft      % 123
/bar            % 124
/braceright     % 125
/asciitilde     % 126
/.notdef        % 127
/Ccedilla       % 128
/udieresis      % 129
/eacute         % 130
/acircumflex    % 131
/adieresis      % 132
/agrave         % 133
/aring          % 134
/ccedilla       % 135
/ecircumflex    % 136
/edieresis      % 137
/egrave         % 138
/idieresis      % 139
/icircumflex    % 140
/igrave         % 141
/Adieresis      % 142
/Aring          % 143
/Eacute         % 144
/ae             % 145
/AE             % 146
/ocircumflex    % 147
/odieresis      % 148
/ograve         % 149
/ucircumflex    % 150
/ugrave         % 151
/ydieresis      % 152
/Odieresis      % 153
/Udieresis      % 154
/cent           % 155
/sterling       % 156
/yen            % 157
/currency       % 158
/florin         % 159
/aacute         % 160
/iacute         % 161
/oacute         % 162
/uacute         % 163
/ntilde         % 164
/Ntilde         % 165
/ordfeminine    % 166
/ordmasculine   % 167
/questiondown   % 168
/quotedblleft   % 169
/quotedblright  % 170
/Aacute         % 171
/Acircumflex    % 172
/exclamdown     % 173
/Egrave         % 174
/Ecircumflex    % 175
/atilde         % 176
/otilde         % 177
/Edieresis      % 178
/Igrave         % 179
/oe             % 180
/OE             % 181
/Agrave         % 182
/Atilde         % 183
/Otilde         % 184
/section        % 185
/Iacute         % 186
/Icircumflex    % 187
/Idieresis      % 188
/Ograve         % 189
/Oacute         % 190
/Ocircumflex    % 191
/Ugrave         % 192
/Uacute         % 193
/Ucircumflex    % 194
/Ydieresis      % 195
/germandbls     % 196
/guillemotleft  % 197
/guillemotright % 198
/bullet         % 199
/.notdef        % 200
/.notdef        % 201
/.notdef        % 202
/.notdef        % 203
/.notdef        % 204
/.notdef        % 205
/.notdef        % 206
/.notdef        % 207
/.notdef        % 208
/.notdef        % 209
/.notdef        % 210
/.notdef        % 211
/.notdef        % 212
/.notdef        % 213
/.notdef        % 214
/.notdef        % 215
/.notdef        % 216
/.notdef        % 217
/.notdef        % 218
/.notdef        % 219
/.notdef        % 220
/.notdef        % 221
/.notdef        % 222
/.notdef        % 223
/.notdef        % 224
/.notdef        % 225
/.notdef        % 226
/.notdef        % 227
/.notdef        % 228
/.notdef        % 229
/.notdef        % 230
/.notdef        % 231
/.notdef        % 232
/.notdef        % 233
/.notdef        % 234
/.notdef        % 235
/.notdef        % 236
/.notdef        % 237
/.notdef        % 238
/.notdef        % 239
/.notdef        % 240
/.notdef        % 241
/.notdef        % 242
/.notdef        % 243
/.notdef        % 244
/.notdef        % 245
/.notdef        % 246
/.notdef        % 247
/.notdef        % 248
/.notdef        % 249
/.notdef        % 250
/.notdef        % 251
/.notdef        % 252
/.notdef        % 253
/.notdef        % 254
/.notdef        % 255
] 
def

/axumfindfont
{
   /axumfont axumencoding reencode
   /axumfont findfont
}
def


/MainFont /Helvetica axumfindfont 98 scalefont def
MainFont setfont
1 setlinejoin 0 setlinecap 0 setgray
 gsave 72 630 div dup scale
 0.0 setgray [] 0 setdash

1 setlinewidth
 686 454 3867 454 1 rps
 686 454 3867 454 1 rps
 682 2728 3871 2728 1 rps
 685 453 3868 453 1 rps
 685 453 3867 453 1 rps
 682 2729 3871 2729 1 rps
 684 452 3869 452 1 rps
 684 452 3867 452 1 rps
 682 2730 3871 2730 1 rps
 683 451 3870 451 1 rps
 683 451 3867 451 1 rps
 682 2731 3871 2731 1 rps
 682 450 3871 450 1 rps
 682 450 3867 450 1 rps
 682 2732 3871 2732 1 rps
 951 454 951 490 1 rps
 951 2728 951 2692 1 rps
 818 454 818 472 1 rps
 818 2728 818 2710 1 rps
 1083 454 1083 472 1 rps
 1083 2728 1083 2710 1 rps
 1216 454 1216 490 1 rps
 1216 2728 1216 2692 1 rps
 1348 454 1348 472 1 rps
 1348 2728 1348 2710 1 rps
 1481 454 1481 490 1 rps
 1481 2728 1481 2692 1 rps
 1613 454 1613 472 1 rps
 1613 2728 1613 2710 1 rps
 1746 454 1746 490 1 rps
 1746 2728 1746 2692 1 rps
 1878 454 1878 472 1 rps
 1878 2728 1878 2710 1 rps
 2011 454 2011 490 1 rps
 2011 2728 2011 2692 1 rps
 2143 454 2143 472 1 rps
 2143 2728 2143 2710 1 rps
 2276 454 2276 490 1 rps
 2276 2728 2276 2692 1 rps
 2408 454 2408 472 1 rps
 2408 2728 2408 2710 1 rps
 2542 454 2542 490 1 rps
 2542 2728 2542 2692 1 rps
 2674 454 2674 472 1 rps
 2674 2728 2674 2710 1 rps
 2807 454 2807 490 1 rps
 2807 2728 2807 2692 1 rps
 2939 454 2939 472 1 rps
 2939 2728 2939 2710 1 rps
 3072 454 3072 490 1 rps
 3072 2728 3072 2692 1 rps
 3204 454 3204 472 1 rps
 3204 2728 3204 2710 1 rps
 3337 454 3337 490 1 rps
 3337 2728 3337 2692 1 rps
 3469 454 3469 472 1 rps
 3469 2728 3469 2710 1 rps
 3602 454 3602 490 1 rps
 3602 2728 3602 2692 1 rps
 3734 454 3734 472 1 rps
 3734 2728 3734 2710 1 rps
 3867 454 3867 490 1 rps
 3867 2728 3867 2692 1 rps
 686 454 686 2728 1 rps
 685 453 685 2729 1 rps
 684 452 684 2730 1 rps
 683 451 683 2731 1 rps
 682 450 682 2732 1 rps
 3867 454 3867 2728 1 rps
 3868 453 3868 2729 1 rps
 3869 452 3869 2730 1 rps
 3870 451 3870 2731 1 rps
 3871 450 3871 2732 1 rps
 686 454 722 454 1 rps
 3867 454 3831 454 1 rps
 686 927 704 927 1 rps
 3867 927 3849 927 1 rps
 686 1401 722 1401 1 rps
 3867 1401 3831 1401 1 rps
 686 1874 704 1874 1 rps
 3867 1874 3849 1874 1 rps
 686 2349 722 2349 1 rps
 3867 2349 3831 2349 1 rps

/Times-Roman axumfindfont 124 scalefont setfont
 476 414 moveto  (0.0) show 
 476 1361 moveto  (0.5) show 
 476 2309 moveto  (1.0) show 
 2464 454
 2464 2349 2089 2349 2089 454 2464 454
 4 3 1 roll cnp
 0.93 setgray eofill 0.0 setgray 0.0 setgray
7 setlinewidth
 686 2349 691 2349 718 2349 745 2349 771 2349 798 2349 825 2349 851 2349 878 2349
 904 2349 931 2349 958 2349 984 2349 1011 2349 1038 2349 1064 2349 1091 2349
 1118 2349 1144 2349 1171 2349 1198 2349 1224 2349 1251 2349 1277 2349 1304 2349
 1331 2349 1357 2349 1384 2349 1411 2349 1437 2349 1464 2349 1491 2349 1517 2349
 1544 2348 1570 2348 1597 2347 1624 2345 1650 2343 1677 2340 1704 2335 1730 2327
 1757 2316 1784 2301 1810 2280 1837 2252 1864 2215 1890 2168 1917 2108 1943 2036
 1970 1950 1997 1851 2023 1740 2050 1618 2077 1490 2103 1360 2130 1232 2157 1113
 2183 1009 2210 926 2237 867 2263 837 2290 837 2316 867 2343 926 2370 1009
 2396 1113 2423 1232 2450 1360 2476 1490 2503 1618 2530 1740 2556 1851 2583 1950
 2610 2036 2636 2108 2663 2168 2689 2215 2716 2252 2743 2280 2769 2301 2796 2316
 2823 2327 2849 2335 2876 2340 2903 2343 2929 2345 2956 2347 2983 2348 3009 2348
 3036 2349 3062 2349 3089 2349 3116 2349 3142 2349 3169 2349 3196 2349 3222 2349
 3249 2349 3276 2349 3302 2349 3329 2349 3355 2349 101 rps
 3355 2349 3382 2349 3409 2349 3435 2349 3462 2349 3489 2349 3515 2349 3542 2349 3569 2349
 3595 2349 3622 2349 3649 2349 3675 2349 3702 2349 3728 2349 3755 2349 3782 2349
 3808 2349 3835 2349 3862 2349 3867 2349 20 rps
 [40 20] 0 setdash

1 setlinewidth
 2464 454 2464 2349 2089 2349 2089 454 3 rps
 1972 287 moveto  (Wavelength) show 

/Times-Italic axumfindfont 128 scalefont setfont
 368 1444 moveto  90 rotate (F) show  -90 rotate

/Symbol findfont 91 scalefont setfont
 396 1522 moveto  90 rotate (l) show  -90 rotate

/Times-Roman axumfindfont 124 scalefont setfont
 367 1573 moveto  90 rotate (/) show  -90 rotate

/Times-Italic axumfindfont 128 scalefont setfont
 367 1608 moveto  90 rotate (F) show  -90 rotate

/Times-Italic axumfindfont 95 scalefont setfont
 395 1686 moveto  90 rotate (c) show  -90 rotate

/Times-Italic axumfindfont 128 scalefont setfont
 2215 2497 moveto  (W) show 

/Symbol findfont 124 scalefont setfont
 2224 696 moveto  (l) show 

/Times-Roman axumfindfont 95 scalefont setfont
 2292 668 moveto  (o) show 
 [] 0 setdash
 2088 2443 2461 2443 1 rps
 2461 2443
 2393 2420 2393 2465 2461 2443 3 3 1 roll cnp
 0.00 setgray
gsave eofill grestore  0.0 setgray
 stroke 0.0 setgray 2088 2443
 2156 2465 2156 2420 2088 2443 3 3 1 roll cnp
 0.00 setgray
gsave eofill grestore  0.0 setgray
 stroke 0.0 setgray 0.0 setgray 2275 641 2275 455 1 rps
 2275 455
 2252 545 2297 545 2275 455 3 3 1 roll cnp
 0.00 setgray
gsave eofill grestore  0.0 setgray
 stroke 0.0 setgray 0.0 setgray [40 20] 0 setdash
 687 2347 3867 2347 1 rps
 grestore showpage
%Trailer
%EOF
