%!PS-Adobe-2.0 EPSF-1.2
%%BoundingBox: 0 0 468 360
%%%%DocumentFonts: /Helvetica
%%Title: Axum PostScript file
%%Creator: TriMetrix, Inc.
%%Pages: 1
%%EndComments
% Copyright 1988-1991 by TriMetrix, Inc. All rights reserved.
/downdict 4 dict def
/sdown
 {downdict begin
  /thestring exch def
  /lineskip exch def
  thestring
   {
    /charcode exch def
    /thechar ( ) dup 0 charcode put def
    0 lineskip neg rmoveto
    gsave
     thechar stringwidth pop 2 div neg 0 rmoveto
     thechar show
    grestore
   } forall
   end
  } def

/updict 4 dict def
/sup
 {updict begin
  /thestring exch def
  /lineskip exch def
  thestring 
   {
    /charcode exch def
    /thechar ( ) dup 0 charcode put def
    0 lineskip rmoveto
    gsave
     thechar stringwidth pop 2 div neg 0 rmoveto
     thechar show
    grestore
   } forall
   end
  } def

/leftdict 4 dict def
/sleft
 {leftdict begin
  /thestring exch def
  thestring
   {
    /charcode exch def
    /thechar ( ) dup 0 charcode put def
    gsave
     thechar stringwidth pop neg 0 rmoveto
     thechar show
    grestore
   } forall

   thechar stringwidth pop neg 0 rmoveto
   end
  } def

/path{newpath moveto{lineto}repeat} bind def 
/cnp{newpath moveto{lineto}repeat closepath} bind def
/clp{moveto{lineto}repeat closepath} bind def
/rps{ 3 1 roll path stroke} bind def
/rcs{ 3 1 roll clp stroke} bind def
/setF { currentscreen 4 -2 roll pop 3 1 roll setscreen} bind def
% required due to WinWord 2.0 bug:
/II { } def

/reencodedict 5 dict def
/reencode
{
   reencodedict begin
   /newencoding exch def
   /newfontname exch def
   /basefontname exch def

   /basefontdict basefontname findfont def
   /newfont basefontdict maxlength dict def

   basefontdict
   {
      exch dup dup /FID ne exch /Encoding ne and
      { exch newfont 3 1 roll put }
      { pop pop }
      ifelse
   }
   forall

   newfont /FontName newfontname put
   newfont /Encoding newencoding put
   newfontname newfont definefont pop
   end
}
def

/axumencoding
[
/.notdef        %   0
/.notdef        %   1
/.notdef        %   2
/.notdef        %   3
/.notdef        %   4
/.notdef        %   5
/.notdef        %   6
/.notdef        %   7
/.notdef        %   8
/.notdef        %   9
/.notdef        %  10
/.notdef        %  11
/.notdef        %  12
/.notdef        %  13
/.notdef        %  14
/.notdef        %  15
/.notdef        %  16
/.notdef        %  17
/.notdef        %  18
/.notdef        %  19
/.notdef        %  20
/.notdef        %  21
/.notdef        %  22
/.notdef        %  23
/.notdef        %  24
/.notdef        %  25
/.notdef        %  26
/.notdef        %  27
/.notdef        %  28
/.notdef        %  29
/.notdef        %  30
/.notdef        %  31
/space          %  32
/exclam         %  33
/quotedbl       %  34
/numbersign     %  35
/dollar         %  36
/percent        %  37
/ampersand      %  38
/quoteright     %  39
/parenleft      %  40
/parenright     %  41
/asterisk       %  42
/plus           %  43
/comma          %  44
/hyphen         %  45
/period         %  46
/slash          %  47
/zero           %  48
/one            %  49
/two            %  50
/three          %  51
/four           %  52
/five           %  53
/six            %  54
/seven          %  55
/eight          %  56
/nine           %  57
/colon          %  58
/semicolon      %  59
/less           %  60
/equal          %  61
/greater        %  62
/question       %  63
/at             %  64
/A              %  65
/B              %  66
/C              %  67
/D              %  68
/E              %  69
/F              %  70
/G              %  71
/H              %  72
/I              %  73
/J              %  74
/K              %  75
/L              %  76
/M              %  77
/N              %  78
/O              %  79
/P              %  80
/Q              %  81
/R              %  82
/S              %  83
/T              %  84
/U              %  85
/V              %  86
/W              %  87
/X              %  88
/Y              %  89
/Z              %  90
/bracketleft    %  91
/backslash      %  92
/bracketright   %  93
/asciicircum    %  94
/underscore     %  95
/quoteleft      %  96
/a              %  97
/b              %  98
/c              %  99
/d              % 100
/e              % 101
/f              % 102
/g              % 103
/h              % 104
/i              % 105
/j              % 106
/k              % 107
/l              % 108
/m              % 109
/n              % 110
/o              % 111
/p              % 112
/q              % 113
/r              % 114
/s              % 115
/t              % 116
/u              % 117
/v              % 118
/w              % 119
/x              % 120
/y              % 121
/z              % 122
/braceleft      % 123
/bar            % 124
/braceright     % 125
/asciitilde     % 126
/.notdef        % 127
/Ccedilla       % 128
/udieresis      % 129
/eacute         % 130
/acircumflex    % 131
/adieresis      % 132
/agrave         % 133
/aring          % 134
/ccedilla       % 135
/ecircumflex    % 136
/edieresis      % 137
/egrave         % 138
/idieresis      % 139
/icircumflex    % 140
/igrave         % 141
/Adieresis      % 142
/Aring          % 143
/Eacute         % 144
/ae             % 145
/AE             % 146
/ocircumflex    % 147
/odieresis      % 148
/ograve         % 149
/ucircumflex    % 150
/ugrave         % 151
/ydieresis      % 152
/Odieresis      % 153
/Udieresis      % 154
/cent           % 155
/sterling       % 156
/yen            % 157
/currency       % 158
/florin         % 159
/aacute         % 160
/iacute         % 161
/oacute         % 162
/uacute         % 163
/ntilde         % 164
/Ntilde         % 165
/ordfeminine    % 166
/ordmasculine   % 167
/questiondown   % 168
/quotedblleft   % 169
/quotedblright  % 170
/Aacute         % 171
/Acircumflex    % 172
/exclamdown     % 173
/Egrave         % 174
/Ecircumflex    % 175
/atilde         % 176
/otilde         % 177
/Edieresis      % 178
/Igrave         % 179
/oe             % 180
/OE             % 181
/Agrave         % 182
/Atilde         % 183
/Otilde         % 184
/section        % 185
/Iacute         % 186
/Icircumflex    % 187
/Idieresis      % 188
/Ograve         % 189
/Oacute         % 190
/Ocircumflex    % 191
/Ugrave         % 192
/Uacute         % 193
/Ucircumflex    % 194
/Ydieresis      % 195
/germandbls     % 196
/guillemotleft  % 197
/guillemotright % 198
/bullet         % 199
/.notdef        % 200
/.notdef        % 201
/.notdef        % 202
/.notdef        % 203
/.notdef        % 204
/.notdef        % 205
/.notdef        % 206
/.notdef        % 207
/.notdef        % 208
/.notdef        % 209
/.notdef        % 210
/.notdef        % 211
/.notdef        % 212
/.notdef        % 213
/.notdef        % 214
/.notdef        % 215
/.notdef        % 216
/.notdef        % 217
/.notdef        % 218
/.notdef        % 219
/.notdef        % 220
/.notdef        % 221
/.notdef        % 222
/.notdef        % 223
/.notdef        % 224
/.notdef        % 225
/.notdef        % 226
/.notdef        % 227
/.notdef        % 228
/.notdef        % 229
/.notdef        % 230
/.notdef        % 231
/.notdef        % 232
/.notdef        % 233
/.notdef        % 234
/.notdef        % 235
/.notdef        % 236
/.notdef        % 237
/.notdef        % 238
/.notdef        % 239
/.notdef        % 240
/.notdef        % 241
/.notdef        % 242
/.notdef        % 243
/.notdef        % 244
/.notdef        % 245
/.notdef        % 246
/.notdef        % 247
/.notdef        % 248
/.notdef        % 249
/.notdef        % 250
/.notdef        % 251
/.notdef        % 252
/.notdef        % 253
/.notdef        % 254
/.notdef        % 255
] 
def

/axumfindfont
{
   /axumfont axumencoding reencode
   /axumfont findfont
}
def


/MainFont /Helvetica axumfindfont 98 scalefont def
MainFont setfont
1 setlinejoin 0 setlinecap 0 setgray
 gsave 72 630 div dup scale
 0.0 setgray [] 0 setdash

1 setlinewidth
 686 409 3867 409 1 rps
 686 409 3867 409 1 rps
 682 2683 3871 2683 1 rps
 685 408 3868 408 1 rps
 685 408 3867 408 1 rps
 682 2684 3871 2684 1 rps
 684 407 3869 407 1 rps
 684 407 3867 407 1 rps
 682 2685 3871 2685 1 rps
 683 406 3870 406 1 rps
 683 406 3867 406 1 rps
 682 2686 3871 2686 1 rps
 682 405 3871 405 1 rps
 682 405 3867 405 1 rps
 682 2687 3871 2687 1 rps
 686 409 686 445 1 rps
 686 2683 686 2647 1 rps
 1083 409 1083 427 1 rps
 1083 2683 1083 2665 1 rps
 1481 409 1481 445 1 rps
 1481 2683 1481 2647 1 rps
 1878 409 1878 427 1 rps
 1878 2683 1878 2665 1 rps
 2276 409 2276 445 1 rps
 2276 2683 2276 2647 1 rps
 2673 409 2673 427 1 rps
 2673 2683 2673 2665 1 rps
 3072 409 3072 445 1 rps
 3072 2683 3072 2647 1 rps
 3469 409 3469 427 1 rps
 3469 2683 3469 2665 1 rps
 3867 409 3867 445 1 rps
 3867 2683 3867 2647 1 rps
 686 409 686 2683 1 rps
 685 408 685 2684 1 rps
 684 407 684 2685 1 rps
 683 406 683 2686 1 rps
 682 405 682 2687 1 rps
 3867 409 3867 2683 1 rps
 3868 408 3868 2684 1 rps
 3869 407 3869 2685 1 rps
 3870 406 3870 2686 1 rps
 3871 405 3871 2687 1 rps
 686 409 722 409 1 rps
 3867 409 3831 409 1 rps
 686 882 704 882 1 rps
 3867 882 3849 882 1 rps
 686 1356 722 1356 1 rps
 3867 1356 3831 1356 1 rps
 686 1829 704 1829 1 rps
 3867 1829 3849 1829 1 rps
 686 2304 722 2304 1 rps
 3867 2304 3831 2304 1 rps

/Times-Roman axumfindfont 124 scalefont setfont
 476 369 moveto  (0.0) show 
 476 1316 moveto  (0.5) show 
 476 2264 moveto  (1.0) show 
 686 2290 702 2290 718 2290 734 2290 750 2289 766 2289 782 2289 798 2288 814 2288
 830 2288 846 2287 862 2287 878 2286 894 2286 910 2286 926 2285 942 2285
 958 2284 974 2284 990 2283 1006 2283 1022 2282 1038 2282 1054 2281 1070 2281
 1086 2280 1102 2279 1118 2279 1134 2278 1150 2277 1166 2276 1182 2276 1198 2275
 1214 2274 1229 2273 1245 2272 1261 2271 1277 2270 1293 2269 1309 2268 1325 2267
 1341 2265 1357 2264 1373 2263 1389 2261 1405 2260 1421 2258 1437 2256 1453 2255
 1469 2253 1485 2251 1501 2249 1517 2246 1533 2244 1549 2241 1565 2239 1581 2236
 1597 2233 1613 2229 1629 2226 1645 2222 1661 2218 1677 2214 1693 2209 1709 2204
 1725 2199 1741 2193 1757 2186 1773 2180 1789 2172 1805 2164 1821 2155 1837 2145
 1853 2134 1869 2123 1885 2110 1901 2095 1917 2080 1933 2062 1949 2042 1965 2021
 1981 1996 1997 1969 2013 1938 2029 1904 2045 1865 2061 1821 2077 1772 2093 1717
 2109 1655 2125 1586 2141 1511 2157 1429 2173 1342 2189 1253 2205 1165 2221 1083
 2237 1013 2253 962 2269 935 2284 935 2300 962 101 rps
 2300 962 2316 1013 2332 1083 2348 1165 2364 1253 2380 1342 2396 1429 2412 1511 2428 1586
 2444 1655 2460 1717 2476 1772 2492 1821 2508 1865 2524 1904 2540 1938 2556 1969
 2572 1996 2588 2021 2604 2042 2620 2062 2636 2080 2652 2095 2668 2110 2684 2123
 2700 2134 2716 2145 2732 2155 2748 2164 2764 2172 2780 2180 2796 2186 2812 2193
 2828 2199 2844 2204 2860 2209 2876 2214 2892 2218 2908 2222 2924 2226 2940 2229
 2956 2233 2972 2236 2988 2239 3004 2241 3020 2244 3036 2246 3052 2249 3068 2251
 3084 2253 3100 2255 3116 2256 3132 2258 3148 2260 3164 2261 3180 2263 3196 2264
 3212 2265 3228 2267 3244 2268 3260 2269 3276 2270 3292 2271 3308 2272 3324 2273
 3339 2274 3355 2275 3371 2276 3387 2276 3403 2277 3419 2278 3435 2279 3451 2279
 3467 2280 3483 2281 3499 2281 3515 2282 3531 2282 3547 2283 3563 2283 3579 2284
 3595 2284 3611 2285 3627 2285 3643 2286 3659 2286 3675 2286 3691 2287 3707 2287
 3723 2288 3739 2288 3755 2288 3771 2289 3787 2289 3803 2289 3819 2290 3835 2290
 3851 2290 3867 2290 98 rps
 [40 20] 0 setdash
 686 2304 702 2304 718 2304 734 2304 750 2304 766 2304 782 2304 798 2304 814 2304
 830 2304 846 2304 862 2304 878 2304 894 2304 910 2304 926 2304 942 2304
 958 2304 974 2304 990 2304 1006 2304 1022 2304 1038 2304 1054 2304 1070 2304
 1086 2304 1102 2304 1118 2304 1134 2304 1150 2304 1166 2304 1182 2304 1198 2304
 1214 2304 1229 2304 1245 2304 1261 2304 1277 2304 1293 2304 1309 2304 1325 2304
 1341 2304 1357 2304 1373 2304 1389 2303 1405 2303 1421 2303 1437 2303 1453 2302
 1469 2302 1485 2301 1501 2300 1517 2299 1533 2298 1549 2296 1565 2294 1581 2291
 1597 2288 1613 2284 1629 2280 1645 2275 1661 2268 1677 2260 1693 2252 1709 2241
 1725 2229 1741 2215 1757 2199 1773 2180 1789 2159 1805 2136 1821 2109 1837 2079
 1853 2047 1869 2011 1885 1971 1901 1928 1917 1882 1933 1832 1949 1779 1965 1724
 1981 1665 1997 1604 2013 1542 2029 1478 2045 1412 2061 1347 2077 1282 2093 1218
 2109 1156 2125 1097 2141 1041 2157 989 2173 941 2189 899 2205 864 2221 834
 2237 812 2253 797 2269 789 2284 789 2300 797 101 rps
 2300 797 2316 812 2332 834 2348 864 2364 899 2380 941 2396 989 2412 1041 2428 1097
 2444 1156 2460 1218 2476 1282 2492 1347 2508 1412 2524 1478 2540 1542 2556 1604
 2572 1665 2588 1724 2604 1779 2620 1832 2636 1882 2652 1928 2668 1971 2684 2011
 2700 2047 2716 2079 2732 2109 2748 2136 2764 2159 2780 2180 2796 2199 2812 2215
 2828 2229 2844 2241 2860 2252 2876 2260 2892 2268 2908 2275 2924 2280 2940 2284
 2956 2288 2972 2291 2988 2294 3004 2296 3020 2298 3036 2299 3052 2300 3068 2301
 3084 2302 3100 2302 3116 2303 3132 2303 3148 2303 3164 2303 3180 2304 3196 2304
 3212 2304 3228 2304 3244 2304 3260 2304 3276 2304 3292 2304 3308 2304 3324 2304
 3339 2304 3355 2304 3371 2304 3387 2304 3403 2304 3419 2304 3435 2304 3451 2304
 3467 2304 3483 2304 3499 2304 3515 2304 3531 2304 3547 2304 3563 2304 3579 2304
 3595 2304 3611 2304 3627 2304 3643 2304 3659 2304 3675 2304 3691 2304 3707 2304
 3723 2304 3739 2304 3755 2304 3771 2304 3787 2304 3803 2304 3819 2304 3835 2304
 3851 2304 3867 2304 98 rps
 1972 243 moveto  (Wavelength) show 

/Times-Italic axumfindfont 128 scalefont setfont
 368 1399 moveto  90 rotate (F) show  -90 rotate

/Symbol findfont 91 scalefont setfont
 396 1477 moveto  90 rotate (l) show  -90 rotate

/Times-Roman axumfindfont 124 scalefont setfont
 367 1528 moveto  90 rotate (/) show  -90 rotate

/Times-Italic axumfindfont 128 scalefont setfont
 367 1563 moveto  90 rotate (F) show  -90 rotate

/Times-Italic axumfindfont 95 scalefont setfont
 395 1641 moveto  90 rotate (c) show  -90 rotate

/Symbol findfont 170 scalefont setfont
 2243 505 moveto  (l) show 

/Times-Roman axumfindfont 131 scalefont setfont
 2337 466 moveto  (o) show 
 [] 0 setdash
 937 892 1210 892 1 rps

/Times-Roman axumfindfont 124 scalefont setfont
 1301 851 moveto  (Damping) show 
 [40 20] 0 setdash
 937 761 1210 761 1 rps
 1301 720 moveto  (Doppler) show 
 [] 0 setdash
 846 1073 846 629 1860 629 1860 1073 3 rcs

 grestore showpage
%Trailer
%EOF
