%!PS-Adobe-2.0 EPSF-1.2
%%BoundingBox: 0 0 468 360
%%%%DocumentFonts: /Helvetica
%%Title: Axum PostScript file
%%Creator: TriMetrix, Inc.
%%Pages: 1
%%EndComments
% Copyright 1988-1991 by TriMetrix, Inc. All rights reserved.
/downdict 4 dict def
/sdown
 {downdict begin
  /thestring exch def
  /lineskip exch def
  thestring
   {
    /charcode exch def
    /thechar ( ) dup 0 charcode put def
    0 lineskip neg rmoveto
    gsave
     thechar stringwidth pop 2 div neg 0 rmoveto
     thechar show
    grestore
   } forall
   end
  } def

/updict 4 dict def
/sup
 {updict begin
  /thestring exch def
  /lineskip exch def
  thestring 
   {
    /charcode exch def
    /thechar ( ) dup 0 charcode put def
    0 lineskip rmoveto
    gsave
     thechar stringwidth pop 2 div neg 0 rmoveto
     thechar show
    grestore
   } forall
   end
  } def

/leftdict 4 dict def
/sleft
 {leftdict begin
  /thestring exch def
  thestring
   {
    /charcode exch def
    /thechar ( ) dup 0 charcode put def
    gsave
     thechar stringwidth pop neg 0 rmoveto
     thechar show
    grestore
   } forall

   thechar stringwidth pop neg 0 rmoveto
   end
  } def

/path{newpath moveto{lineto}repeat} bind def 
/cnp{newpath moveto{lineto}repeat closepath} bind def
/clp{moveto{lineto}repeat closepath} bind def
/rps{ 3 1 roll path stroke} bind def
/rcs{ 3 1 roll clp stroke} bind def
/setF { currentscreen 4 -2 roll pop 3 1 roll setscreen} bind def
% required due to WinWord 2.0 bug:
/II { } def

/reencodedict 5 dict def
/reencode
{
   reencodedict begin
   /newencoding exch def
   /newfontname exch def
   /basefontname exch def

   /basefontdict basefontname findfont def
   /newfont basefontdict maxlength dict def

   basefontdict
   {
      exch dup dup /FID ne exch /Encoding ne and
      { exch newfont 3 1 roll put }
      { pop pop }
      ifelse
   }
   forall

   newfont /FontName newfontname put
   newfont /Encoding newencoding put
   newfontname newfont definefont pop
   end
}
def

/axumencoding
[
/.notdef        %   0
/.notdef        %   1
/.notdef        %   2
/.notdef        %   3
/.notdef        %   4
/.notdef        %   5
/.notdef        %   6
/.notdef        %   7
/.notdef        %   8
/.notdef        %   9
/.notdef        %  10
/.notdef        %  11
/.notdef        %  12
/.notdef        %  13
/.notdef        %  14
/.notdef        %  15
/.notdef        %  16
/.notdef        %  17
/.notdef        %  18
/.notdef        %  19
/.notdef        %  20
/.notdef        %  21
/.notdef        %  22
/.notdef        %  23
/.notdef        %  24
/.notdef        %  25
/.notdef        %  26
/.notdef        %  27
/.notdef        %  28
/.notdef        %  29
/.notdef        %  30
/.notdef        %  31
/space          %  32
/exclam         %  33
/quotedbl       %  34
/numbersign     %  35
/dollar         %  36
/percent        %  37
/ampersand      %  38
/quoteright     %  39
/parenleft      %  40
/parenright     %  41
/asterisk       %  42
/plus           %  43
/comma          %  44
/hyphen         %  45
/period         %  46
/slash          %  47
/zero           %  48
/one            %  49
/two            %  50
/three          %  51
/four           %  52
/five           %  53
/six            %  54
/seven          %  55
/eight          %  56
/nine           %  57
/colon          %  58
/semicolon      %  59
/less           %  60
/equal          %  61
/greater        %  62
/question       %  63
/at             %  64
/A              %  65
/B              %  66
/C              %  67
/D              %  68
/E              %  69
/F              %  70
/G              %  71
/H              %  72
/I              %  73
/J              %  74
/K              %  75
/L              %  76
/M              %  77
/N              %  78
/O              %  79
/P              %  80
/Q              %  81
/R              %  82
/S              %  83
/T              %  84
/U              %  85
/V              %  86
/W              %  87
/X              %  88
/Y              %  89
/Z              %  90
/bracketleft    %  91
/backslash      %  92
/bracketright   %  93
/asciicircum    %  94
/underscore     %  95
/quoteleft      %  96
/a              %  97
/b              %  98
/c              %  99
/d              % 100
/e              % 101
/f              % 102
/g              % 103
/h              % 104
/i              % 105
/j              % 106
/k              % 107
/l              % 108
/m              % 109
/n              % 110
/o              % 111
/p              % 112
/q              % 113
/r              % 114
/s              % 115
/t              % 116
/u              % 117
/v              % 118
/w              % 119
/x              % 120
/y              % 121
/z              % 122
/braceleft      % 123
/bar            % 124
/braceright     % 125
/asciitilde     % 126
/.notdef        % 127
/Ccedilla       % 128
/udieresis      % 129
/eacute         % 130
/acircumflex    % 131
/adieresis      % 132
/agrave         % 133
/aring          % 134
/ccedilla       % 135
/ecircumflex    % 136
/edieresis      % 137
/egrave         % 138
/idieresis      % 139
/icircumflex    % 140
/igrave         % 141
/Adieresis      % 142
/Aring          % 143
/Eacute         % 144
/ae             % 145
/AE             % 146
/ocircumflex    % 147
/odieresis      % 148
/ograve         % 149
/ucircumflex    % 150
/ugrave         % 151
/ydieresis      % 152
/Odieresis      % 153
/Udieresis      % 154
/cent           % 155
/sterling       % 156
/yen            % 157
/currency       % 158
/florin         % 159
/aacute         % 160
/iacute         % 161
/oacute         % 162
/uacute         % 163
/ntilde         % 164
/Ntilde         % 165
/ordfeminine    % 166
/ordmasculine   % 167
/questiondown   % 168
/quotedblleft   % 169
/quotedblright  % 170
/Aacute         % 171
/Acircumflex    % 172
/exclamdown     % 173
/Egrave         % 174
/Ecircumflex    % 175
/atilde         % 176
/otilde         % 177
/Edieresis      % 178
/Igrave         % 179
/oe             % 180
/OE             % 181
/Agrave         % 182
/Atilde         % 183
/Otilde         % 184
/section        % 185
/Iacute         % 186
/Icircumflex    % 187
/Idieresis      % 188
/Ograve         % 189
/Oacute         % 190
/Ocircumflex    % 191
/Ugrave         % 192
/Uacute         % 193
/Ucircumflex    % 194
/Ydieresis      % 195
/germandbls     % 196
/guillemotleft  % 197
/guillemotright % 198
/bullet         % 199
/.notdef        % 200
/.notdef        % 201
/.notdef        % 202
/.notdef        % 203
/.notdef        % 204
/.notdef        % 205
/.notdef        % 206
/.notdef        % 207
/.notdef        % 208
/.notdef        % 209
/.notdef        % 210
/.notdef        % 211
/.notdef        % 212
/.notdef        % 213
/.notdef        % 214
/.notdef        % 215
/.notdef        % 216
/.notdef        % 217
/.notdef        % 218
/.notdef        % 219
/.notdef        % 220
/.notdef        % 221
/.notdef        % 222
/.notdef        % 223
/.notdef        % 224
/.notdef        % 225
/.notdef        % 226
/.notdef        % 227
/.notdef        % 228
/.notdef        % 229
/.notdef        % 230
/.notdef        % 231
/.notdef        % 232
/.notdef        % 233
/.notdef        % 234
/.notdef        % 235
/.notdef        % 236
/.notdef        % 237
/.notdef        % 238
/.notdef        % 239
/.notdef        % 240
/.notdef        % 241
/.notdef        % 242
/.notdef        % 243
/.notdef        % 244
/.notdef        % 245
/.notdef        % 246
/.notdef        % 247
/.notdef        % 248
/.notdef        % 249
/.notdef        % 250
/.notdef        % 251
/.notdef        % 252
/.notdef        % 253
/.notdef        % 254
/.notdef        % 255
] 
def

/axumfindfont
{
   /axumfont axumencoding reencode
   /axumfont findfont
}
def


/MainFont /Helvetica axumfindfont 98 scalefont def
MainFont setfont
1 setlinejoin 0 setlinecap 0 setgray
 gsave 72 630 div dup scale
 0.0 setgray [] 0 setdash

1 setlinewidth
 2825 2334 2825 2334 2825 2335 2825 2335 2825 2336 2825 2336 2825 2336 2825 2337 2825 2337
 2825 2338 2825 2338 2825 2338 2825 2339 2825 2339 2825 2339 2825 2340 2825 2340
 2825 2341 2825 2341 2825 2341 2825 2342 2825 2342 2825 2343 2824 2343 2824 2343
 2824 2344 2824 2344 2824 2345 2824 2345 2824 2345 2824 2346 2824 2346 2824 2347
 2824 2347 2824 2347 2824 2348 2824 2348 2824 2349 2824 2349 2823 2349 2823 2350
 2823 2350 2823 2351 2823 2351 2823 2351 2823 2352 2823 2352 2823 2353 2823 2353
 2823 2353 2822 2354 2822 2354 2822 2355 2822 2355 2822 2355 2822 2356 2822 2356
 2822 2357 2821 2357 2821 2358 2821 2358 2821 2358 2821 2359 2821 2359 2821 2360
 2820 2360 2820 2361 2820 2361 2820 2361 2820 2362 2820 2362 2820 2363 2819 2363
 2819 2364 2819 2364 2819 2365 2819 2365 2818 2365 2818 2366 2818 2366 2818 2367
 2818 2367 2817 2368 2817 2368 2817 2369 2817 2369 2817 2369 2816 2370 2816 2370
 2816 2371 2816 2371 2816 2372 2815 2372 2815 2373 2815 2373 2815 2374 2814 2374
 2814 2375 2814 2375 2813 2376 2813 2376 2813 2377 101 rps
 2813 2377 2813 2377 2812 2378 2812 2378 2812 2379 2811 2379 2811 2380 2811 2380 2810 2381
 2810 2381 2810 2382 2809 2382 2809 2383 2809 2383 2808 2384 2808 2384 2808 2385
 2807 2385 2807 2386 2807 2387 2806 2387 2806 2388 2805 2388 2805 2389 2805 2389
 2804 2390 2804 2391 2803 2391 2803 2392 2802 2392 2802 2393 2801 2393 2801 2394
 2800 2395 2800 2395 2799 2396 2799 2396 2798 2397 2798 2398 2797 2398 2797 2399
 2796 2400 2795 2400 2795 2401 2794 2402 2794 2402 2793 2403 2792 2404 2792 2404
 2791 2405 2790 2406 2790 2406 2789 2407 2788 2408 2788 2408 2787 2409 2786 2410
 2785 2411 2785 2411 2784 2412 2783 2413 2782 2413 2781 2414 2780 2415 2780 2416
 2779 2417 2778 2417 2777 2418 2776 2419 2775 2420 2774 2421 2773 2421 2772 2422
 2771 2423 2770 2424 2769 2425 2768 2426 2766 2426 2765 2427 2764 2428 2763 2429
 2762 2430 2760 2431 2759 2432 2758 2433 2756 2434 2755 2435 2754 2436 2752 2437
 2751 2438 2749 2439 2748 2440 2746 2441 2744 2442 2743 2443 2741 2444 2739 2445
 2738 2446 2736 2447 2734 2448 2732 2449 2730 2450 101 rps
 2730 2450 2728 2451 2726 2453 2724 2454 2722 2455 2719 2456 2717 2457 2715 2459 2713 2460
 2710 2461 2708 2462 2705 2464 2702 2465 2700 2466 2697 2468 2694 2469 2691 2470
 2688 2472 2685 2473 2682 2475 2678 2476 2675 2477 2672 2479 2668 2480 2664 2482
 2660 2483 2657 2485 2653 2487 2648 2488 2644 2490 2640 2491 2635 2493 2631 2495
 2626 2496 2621 2498 2616 2500 2610 2502 2605 2503 2599 2505 2594 2507 2588 2509
 2581 2511 2575 2512 2568 2514 2561 2516 2554 2518 2547 2520 2540 2522 2532 2524
 2524 2526 2515 2528 2507 2530 2498 2532 2488 2534 2479 2536 2469 2538 2458 2540
 2448 2542 2437 2544 2425 2546 2413 2548 2401 2550 2388 2552 2375 2554 2361 2556
 2346 2558 2332 2560 2316 2562 2300 2564 2284 2565 2266 2567 2249 2569 2230 2570
 2211 2571 2191 2573 2171 2574 2149 2575 2127 2576 2105 2576 2081 2577 2057 2577
 2032 2577 2006 2577 1980 2576 1953 2575 1925 2574 1896 2572 1867 2570 1837 2568
 1806 2565 1776 2562 1744 2558 1713 2553 1681 2548 1649 2543 1617 2537 1586 2530
 1555 2522 1524 2514 1494 2505 1465 2495 1438 2485 101 rps
 1438 2485 1411 2474 1387 2463 1364 2450 1343 2437 1325 2424 1308 2410 1295 2396 1284 2381
 1276 2367 1271 2352 1269 2336 1270 2321 1274 2306 1281 2291 1291 2277 1304 2262
 1305 2261 17 rps
 1460 2175 1485 2166 1515 2157 1545 2148 1576 2141 1607 2134 1639 2127 1671 2121 1703 2116
 1734 2112 1766 2108 1797 2104 1827 2101 1857 2098 1887 2096 1916 2095 1944 2093
 1971 2092 1998 2092 2024 2091 2049 2091 2074 2091 2097 2092 2120 2092 2142 2093
 2164 2094 2185 2095 2205 2096 2224 2097 2243 2099 2261 2100 2278 2102 2295 2104
 2311 2105 2327 2107 2342 2109 2356 2111 2370 2113 2384 2115 2397 2117 2409 2119
 2421 2121 2433 2123 2444 2125 2455 2127 2465 2129 2476 2131 2485 2133 2495 2135
 2504 2137 2513 2139 2521 2141 2529 2143 2537 2145 2545 2147 2552 2149 2559 2151
 2566 2153 2573 2155 58 rps
 2573 2155 2579 2157 2586 2159 2592 2161 2597 2162 2603 2164 2609 2166 2614 2168 2619 2169
 2624 2171 2629 2173 2634 2174 2638 2176 2643 2178 2647 2179 2651 2181 2655 2183
 2659 2184 2663 2186 2667 2187 2670 2189 2674 2190 2677 2192 2681 2193 2684 2194
 2687 2196 2690 2197 2693 2199 2696 2200 2699 2201 2701 2203 2704 2204 2707 2205
 2709 2207 2712 2208 2714 2209 2716 2210 2719 2211 2721 2213 2723 2214 2725 2215
 2727 2216 2729 2217 2731 2218 2733 2220 2735 2221 2737 2222 2739 2223 2741 2224
 2742 2225 2744 2226 2746 2227 2747 2228 2749 2229 2750 2230 2752 2231 2753 2232
 2755 2233 2756 2234 2757 2235 2759 2236 2760 2237 2761 2238 2763 2239 2764 2240
 2765 2240 2766 2241 2767 2242 2768 2243 2769 2244 2771 2245 2772 2246 2773 2246
 2774 2247 2775 2248 2776 2249 2777 2250 2778 2250 2778 2251 2779 2252 2780 2253
 2781 2254 2782 2254 2783 2255 2784 2256 2784 2257 2785 2257 2786 2258 2787 2259
 2787 2259 2788 2260 2789 2261 2790 2262 2790 2262 2791 2263 2792 2264 2792 2264
 2793 2265 2793 2266 2794 2266 2795 2267 2795 2268 101 rps
 2795 2268 2796 2268 2796 2269 2797 2269 2798 2270 2798 2271 2799 2271 2799 2272 2800 2273
 2800 2273 2801 2274 2801 2274 2802 2275 2802 2276 2803 2276 2803 2277 2803 2277
 2804 2278 2804 2278 2805 2279 2805 2280 2806 2280 2806 2281 2806 2281 2807 2282
 2807 2282 2808 2283 2808 2283 2808 2284 2809 2284 2809 2285 2809 2286 2810 2286
 2810 2287 2810 2287 2811 2288 2811 2288 2811 2289 2812 2289 2812 2290 2812 2290
 2813 2291 2813 2291 2813 2292 2813 2292 2814 2293 2814 2293 2814 2294 2814 2294
 2815 2295 2815 2295 2815 2296 2815 2296 2816 2296 2816 2297 2816 2297 2816 2298
 2817 2298 2817 2299 2817 2299 2817 2300 2817 2300 2818 2301 2818 2301 2818 2302
 2818 2302 2818 2302 2819 2303 2819 2303 2819 2304 2819 2304 2819 2305 2819 2305
 2820 2306 2820 2306 2820 2306 2820 2307 2820 2307 2820 2308 2821 2308 2821 2309
 2821 2309 2821 2309 2821 2310 2821 2310 2821 2311 2822 2311 2822 2312 2822 2312
 2822 2312 2822 2313 2822 2313 2822 2314 2822 2314 2822 2314 2823 2315 2823 2315
 2823 2316 2823 2316 2823 2316 2823 2317 2823 2317 101 rps
 2823 2317 2823 2318 2823 2318 2823 2319 2824 2319 2824 2319 2824 2320 2824 2320 2824 2321
 2824 2321 2824 2321 2824 2322 2824 2322 2824 2323 2824 2323 2824 2323 2824 2324
 2824 2324 2824 2324 2824 2325 2824 2325 2825 2326 2825 2326 2825 2326 2825 2327
 2825 2327 2825 2328 2825 2328 2825 2328 2825 2329 2825 2329 2825 2330 2825 2330
 2825 2330 2825 2331 2825 2331 2825 2332 2825 2332 2825 2332 2825 2333 2825 2333
 2825 2333 2825 2334 42 rps
 2825 778 2825 778 2825 779 2825 779 2825 780 2825 780 2825 780 2825 781 2825 781
 2825 782 2825 782 2825 782 2825 783 2825 783 2825 783 2825 784 2825 784
 2825 785 2825 785 2825 785 2825 786 2825 786 2825 787 2824 787 2824 787
 2824 788 2824 788 2824 789 2824 789 2824 789 2824 790 2824 790 2824 791
 2824 791 2824 791 2824 792 2824 792 2824 793 2824 793 2823 793 2823 794
 2823 794 2823 795 2823 795 2823 795 2823 796 2823 796 2823 797 2823 797
 2823 797 2822 798 2822 798 2822 799 2822 799 2822 799 2822 800 2822 800
 2822 801 2821 801 2821 802 2821 802 2821 802 2821 803 2821 803 2821 804
 2820 804 2820 805 2820 805 2820 805 2820 806 2820 806 2820 807 2819 807
 2819 808 2819 808 2819 809 2819 809 2818 809 2818 810 2818 810 2818 811
 2818 811 2817 812 2817 812 2817 813 2817 813 2817 813 2816 814 2816 814
 2816 815 2816 815 2816 816 2815 816 2815 817 2815 817 2815 818 2814 818
 2814 819 2814 819 2813 820 2813 820 2813 821 101 rps
 2813 821 2813 821 2812 822 2812 822 2812 823 2811 823 2811 824 2811 824 2810 825
 2810 825 2810 826 2809 826 2809 827 2809 827 2808 828 2808 828 2808 829
 2807 829 2807 830 2807 831 2806 831 2806 832 2805 832 2805 833 2805 833
 2804 834 2804 835 2803 835 2803 836 2802 836 2802 837 2801 837 2801 838
 2800 839 2800 839 2799 840 2799 840 2798 841 2798 842 2797 842 2797 843
 2796 844 2795 844 2795 845 2794 846 2794 846 2793 847 2792 848 2792 848
 2791 849 2790 850 2790 850 2789 851 2788 852 2788 852 2787 853 2786 854
 2785 855 2785 855 2784 856 2783 857 2782 857 2781 858 2780 859 2780 860
 2779 861 2778 861 2777 862 2776 863 2775 864 2774 865 2773 865 2772 866
 2771 867 2770 868 2769 869 2768 870 2766 870 2765 871 2764 872 2763 873
 2762 874 2760 875 2759 876 2758 877 2756 878 2755 879 2754 880 2752 881
 2751 882 2749 883 2748 884 2746 885 2744 886 2743 887 2741 888 2739 889
 2738 890 2736 891 2734 892 2732 893 2730 894 101 rps
 2730 894 2728 895 2726 897 2724 898 2722 899 2719 900 2717 901 2715 903 2713 904
 2710 905 2708 906 2705 908 2702 909 2700 910 2697 912 2694 913 2691 914
 2688 916 2685 917 2682 919 2678 920 2675 921 2672 923 2668 924 2664 926
 2660 927 2657 929 2653 931 2648 932 2644 934 2640 935 2635 937 2631 939
 2626 940 2621 942 2616 944 2610 946 2605 947 2599 949 2594 951 2588 953
 2581 955 2575 956 2568 958 2561 960 2554 962 2547 964 2540 966 2532 968
 2524 970 2515 972 2507 974 2498 976 2488 978 2479 980 2469 982 2458 984
 2448 986 2437 988 2425 990 2413 992 2401 994 2388 996 2375 998 2361 1000
 2346 1002 2332 1004 2316 1006 2300 1008 2284 1009 2266 1011 2249 1013 2230 1014
 2211 1015 2191 1017 2171 1018 2149 1019 2127 1020 2105 1020 2081 1021 2057 1021
 2032 1021 2006 1021 1980 1020 1953 1019 1925 1018 1896 1016 1867 1014 1837 1012
 1806 1009 1776 1006 1744 1002 1713 997 1681 992 1649 987 1617 981 1586 974
 1555 966 1524 958 1494 949 1465 939 1438 929 101 rps
 1438 929 1411 918 1387 907 1364 894 1343 881 1325 868 1308 854 1295 840 1284 825
 1276 811 1271 796 1269 780 1270 765 1274 750 1281 735 1291 721 1304 706
 1319 692 1337 679 1357 666 1379 653 1403 641 1429 630 1457 620 1485 610
 1515 601 1545 592 1576 585 1607 578 1639 571 1671 565 1703 560 1734 556
 1766 552 1797 548 1827 545 1857 542 1887 540 1916 539 1944 537 1971 536
 1998 536 2024 535 2049 535 2074 535 2097 536 2120 536 2142 537 2164 538
 2185 539 2205 540 2224 541 2243 543 2261 544 2278 546 2295 548 2311 549
 2327 551 2342 553 2356 555 2370 557 2384 559 2397 561 2409 563 2421 565
 2433 567 2444 569 2455 571 2465 573 2476 575 2485 577 2495 579 2504 581
 2513 583 2521 585 2529 587 2537 589 2545 591 2552 593 2559 595 2566 597
 2573 599 81 rps
 2573 599 2579 601 2586 603 2592 605 2597 606 2603 608 2609 610 2614 612 2619 613
 2624 615 2629 617 2634 618 2638 620 2643 622 2647 623 2651 625 2655 627
 2659 628 2663 630 2667 631 2670 633 2674 634 2677 636 2681 637 2684 638
 2687 640 2690 641 2693 643 2696 644 2699 645 2701 647 2704 648 2707 649
 2709 651 2712 652 2714 653 2716 654 2719 655 2721 657 2723 658 2725 659
 2727 660 2729 661 2731 662 2733 664 2735 665 2737 666 2739 667 2741 668
 2742 669 2744 670 2746 671 2747 672 2749 673 2750 674 2752 675 2753 676
 2755 677 2756 678 2757 679 2759 680 2760 681 2761 682 2763 683 2764 684
 2765 684 2766 685 2767 686 2768 687 2769 688 2771 689 2772 690 2773 690
 2774 691 2775 692 2776 693 2777 694 2778 694 2778 695 2779 696 2780 697
 2781 698 2782 698 2783 699 2784 700 2784 701 2785 701 2786 702 2787 703
 2787 703 2788 704 2789 705 2790 706 2790 706 2791 707 2792 708 2792 708
 2793 709 2793 710 2794 710 2795 711 2795 712 101 rps
 2795 712 2796 712 2796 713 2797 713 2798 714 2798 715 2799 715 2799 716 2800 717
 2800 717 2801 718 2801 718 2802 719 2802 720 2803 720 2803 721 2803 721
 2804 722 2804 722 2805 723 2805 724 2806 724 2806 725 2806 725 2807 726
 2807 726 2808 727 2808 727 2808 728 2809 728 2809 729 2809 730 2810 730
 2810 731 2810 731 2811 732 2811 732 2811 733 2812 733 2812 734 2812 734
 2813 735 2813 735 2813 736 2813 736 2814 737 2814 737 2814 738 2814 738
 2815 739 2815 739 2815 740 2815 740 2816 740 2816 741 2816 741 2816 742
 2817 742 2817 743 2817 743 2817 744 2817 744 2818 745 2818 745 2818 746
 2818 746 2818 746 2819 747 2819 747 2819 748 2819 748 2819 749 2819 749
 2820 750 2820 750 2820 750 2820 751 2820 751 2820 752 2821 752 2821 753
 2821 753 2821 753 2821 754 2821 754 2821 755 2822 755 2822 756 2822 756
 2822 756 2822 757 2822 757 2822 758 2822 758 2822 758 2823 759 2823 759
 2823 760 2823 760 2823 760 2823 761 2823 761 101 rps
 2823 761 2823 762 2823 762 2823 763 2824 763 2824 763 2824 764 2824 764 2824 765
 2824 765 2824 765 2824 766 2824 766 2824 767 2824 767 2824 767 2824 768
 2824 768 2824 768 2824 769 2824 769 2825 770 2825 770 2825 770 2825 771
 2825 771 2825 772 2825 772 2825 772 2825 773 2825 773 2825 774 2825 774
 2825 774 2825 775 2825 775 2825 776 2825 776 2825 776 2825 777 2825 777
 2825 777 2825 778 42 rps
 2514 1559 2522 1559 2529 1560 2537 1561 2545 1562 2553 1563 2560 1565 2568 1566 2576 1568
 2584 1570 2592 1572 2599 1575 2607 1578 2615 1581 2623 1585 2630 1589 2638 1593
 2646 1597 2654 1602 2662 1608 2669 1613 2677 1619 2685 1625 2693 1632 2701 1638
 2708 1645 2716 1651 2724 1658 2732 1665 2739 1671 2747 1677 2755 1683 2763 1689
 2771 1694 2778 1698 2786 1702 2794 1705 2802 1708 2809 1710 2817 1711 2825 1712
 2833 1711 2841 1710 2848 1708 2856 1705 2864 1702 2872 1698 2879 1694 2887 1689
 2895 1683 2903 1677 2911 1671 2918 1665 2926 1658 2934 1651 2942 1645 2949 1638
 2957 1632 2965 1625 2973 1619 2981 1613 2988 1608 2996 1602 3004 1597 3012 1593
 3019 1589 3027 1585 3035 1581 3043 1578 3051 1575 3058 1572 3066 1570 3074 1568
 3082 1566 3090 1565 3097 1563 3105 1562 3113 1561 3121 1560 3128 1559 3136 1559
 80 rps
 2514 1553 2522 1553 2529 1552 2537 1551 2545 1550 2553 1549 2560 1547 2568 1546 2576 1544
 2584 1542 2592 1540 2599 1537 2607 1534 2615 1531 2623 1527 2630 1523 2638 1519
 2646 1515 2654 1510 2662 1504 2669 1499 2677 1493 2685 1487 2693 1480 2701 1474
 2708 1467 2716 1461 2724 1454 2732 1447 2739 1441 2747 1435 2755 1429 2763 1423
 2771 1418 2778 1414 2786 1410 2794 1407 2802 1404 2809 1402 2817 1401 2825 1400
 2833 1401 2841 1402 2848 1404 2856 1407 2864 1410 2872 1414 2879 1418 2887 1423
 2895 1429 2903 1435 2911 1441 2918 1447 2926 1454 2934 1461 2942 1467 2949 1474
 2957 1480 2965 1487 2973 1493 2981 1499 2988 1504 2996 1510 3004 1515 3012 1519
 3019 1523 3027 1527 3035 1531 3043 1534 3051 1537 3058 1540 3066 1542 3074 1544
 3082 1546 3090 1547 3097 1549 3105 1550 3113 1551 3121 1552 3128 1553 3136 1553
 80 rps
 2514 1556 2522 1557 2529 1559 2537 1561 2545 1562 2553 1563 2560 1562 2568 1560 2576 1556
 2584 1551 2592 1544 2599 1538 2607 1534 2615 1533 2623 1536 2630 1544 2638 1556
 2646 1572 2654 1589 2662 1604 2669 1613 2677 1614 2685 1605 2693 1585 2701 1556
 2708 1522 2716 1489 2724 1462 2732 1447 2739 1450 2747 1470 2755 1507 2763 1556
 2771 1609 2778 1657 2786 1691 2794 1705 2802 1697 2809 1665 2817 1615 2825 1556
 2833 1497 2841 1447 2848 1415 2856 1407 2864 1421 2872 1455 2879 1503 2887 1556
 2895 1605 2903 1642 2911 1662 2918 1665 2926 1650 2934 1623 2942 1590 2949 1556
 2957 1527 2965 1507 2973 1498 2981 1499 2988 1508 2996 1523 3004 1540 3012 1556
 3019 1568 3027 1576 3035 1579 3043 1578 3051 1574 3058 1568 3066 1561 3074 1556
 3082 1552 3090 1550 3097 1549 3105 1550 3113 1551 3121 1553 3128 1555 3136 1556
 80 rps
 2203 2490 2203 2490 1 rcs

 2203 2490 2203 2490 1 rcs

 2203 2490 2203 2490 1 rcs

 2203 2490 2203 2490 1 rcs

 2203 2490 2203 2490 1 rcs

 2203 2490 2203 2490 2203 2491 2203 2491 2203 2491 2203 2491 2203 2491 2203 2491 2203 2491
 2203 2491 2203 2491 2203 2491 2203 2491 2202 2491 2202 2491 2202 2492 2202 2492
 2202 2492 2202 2492 2202 2492 2202 2492 2202 2492 2202 2492 2202 2492 2202 2492
 2202 2492 2202 2492 2202 2493 2202 2493 2202 2493 2202 2493 2202 2493 2202 2493
 2202 2493 2202 2493 2202 2493 2202 2493 2202 2493 2202 2493 2202 2493 2202 2494
 2202 2494 2202 2494 2202 2494 2202 2494 2202 2494 2202 2494 2202 2494 2202 2494
 2202 2494 2202 2494 2202 2494 2202 2495 2202 2495 2202 2495 2202 2495 2202 2495
 2202 2495 2202 2495 2202 2495 2202 2495 2202 2495 2201 2495 2201 2496 2201 2496
 2201 2496 2201 2496 2201 2496 2201 2496 2201 2496 2201 2496 2201 2496 2201 2496
 2201 2496 2201 2497 2201 2497 2201 2497 2201 2497 2201 2497 2201 2497 2201 2497
 2201 2497 2201 2497 2201 2497 2201 2497 2201 2498 2200 2498 2200 2498 2200 2498
 2200 2498 2200 2498 2200 2498 2200 2498 2200 2498 2200 2498 2200 2499 2200 2499
 2200 2499 2200 2499 2200 2499 2200 2499 2200 2499 101 rps
 2200 2499 2199 2499 2199 2499 2199 2499 2199 2500 2199 2500 2199 2500 2199 2500 2199 2500
 2199 2500 2199 2500 2199 2500 2199 2500 2199 2501 2199 2501 2198 2501 2198 2501
 2198 2501 2198 2501 2198 2501 2198 2501 2198 2501 2198 2502 2198 2502 2198 2502
 2197 2502 2197 2502 2197 2502 2197 2502 2197 2502 2197 2503 2197 2503 2197 2503
 2197 2503 2196 2503 2196 2503 2196 2503 2196 2504 2196 2504 2196 2504 2196 2504
 2196 2504 2195 2504 2195 2504 2195 2504 2195 2505 2195 2505 2195 2505 2195 2505
 2194 2505 2194 2505 2194 2505 2194 2506 2194 2506 2194 2506 2193 2506 2193 2506
 2193 2506 2193 2507 2193 2507 2192 2507 2192 2507 2192 2507 2192 2507 2192 2508
 2191 2508 2191 2508 2191 2508 2191 2508 2190 2508 2190 2509 2190 2509 2190 2509
 2189 2509 2189 2509 2189 2510 2189 2510 2188 2510 2188 2510 2188 2510 2187 2511
 2187 2511 2187 2511 2186 2511 2186 2511 2186 2512 2185 2512 2185 2512 2185 2512
 2184 2512 2184 2513 2184 2513 2183 2513 2183 2513 2182 2514 2182 2514 2181 2514
 2181 2514 2181 2515 2180 2515 2180 2515 2179 2515 101 rps
 2179 2515 2179 2516 2178 2516 2178 2516 2177 2516 2176 2517 2176 2517 2175 2517 2175 2517
 2174 2518 2173 2518 2173 2518 2172 2519 2171 2519 2170 2519 2170 2519 2169 2520
 2168 2520 2167 2520 2166 2521 2166 2521 2165 2521 2164 2522 2163 2522 2162 2522
 2161 2523 2160 2523 2159 2523 2157 2524 2156 2524 2155 2525 2154 2525 2153 2525
 2151 2526 2150 2526 2148 2526 2147 2527 2146 2527 2144 2528 2142 2528 2141 2528
 2139 2529 2137 2529 2135 2530 2133 2530 2131 2530 2129 2531 2127 2531 2125 2532
 2123 2532 2120 2532 2118 2533 2115 2533 2113 2534 2110 2534 2107 2534 2104 2535
 2101 2535 2098 2536 2094 2536 2091 2536 2087 2537 2084 2537 2080 2537 2076 2537
 2072 2538 2067 2538 2063 2538 2059 2538 2054 2538 2049 2538 2044 2538 2039 2538
 2034 2538 2028 2538 2023 2538 2017 2537 2011 2537 2005 2536 1999 2536 1993 2535
 1986 2534 1980 2533 1974 2532 1967 2531 1961 2530 1955 2529 1949 2527 1942 2526
 1936 2524 1931 2522 1925 2520 1920 2518 1915 2515 1910 2513 1906 2510 1903 2508
 1899 2505 1897 2502 1894 2499 1893 2496 1892 2493 101 rps
 1892 2493 1891 2490 1892 2487 1892 2484 1894 2481 1896 2478 1898 2475 1901 2472 1905 2470
 1909 2467 1913 2465 1918 2462 1923 2460 1929 2458 1935 2456 1941 2454 1947 2452
 1953 2451 1959 2450 1965 2448 1972 2447 1978 2446 1984 2445 1991 2444 1997 2444
 2003 2443 2009 2442 2015 2442 2021 2442 2026 2441 2032 2441 2037 2441 2042 2441
 2047 2441 2052 2441 2057 2441 2062 2441 2066 2441 2070 2442 2075 2442 2079 2442
 2082 2442 2086 2443 2090 2443 2093 2443 2097 2444 2100 2444 2103 2444 2106 2445
 2109 2445 2112 2445 2114 2446 2117 2446 2119 2447 2122 2447 2124 2447 2126 2448
 2129 2448 2131 2449 2133 2449 2135 2449 2137 2450 2138 2450 2140 2451 2142 2451
 2143 2451 2145 2452 2147 2452 2148 2453 2149 2453 2151 2453 2152 2454 71 rps
 2152 2454 2153 2454 2155 2455 2156 2455 2157 2455 2158 2456 2159 2456 2160 2456 2161 2457
 2162 2457 2163 2457 2164 2458 2165 2458 2166 2458 2167 2459 2168 2459 2169 2459
 2169 2460 2170 2460 2171 2460 2172 2461 2172 2461 2173 2461 2174 2461 2174 2462
 2175 2462 2176 2462 2176 2463 2177 2463 2177 2463 2178 2463 2178 2464 2179 2464
 2179 2464 2180 2464 2180 2465 2181 2465 2181 2465 2182 2465 2182 2466 2183 2466
 2183 2466 2183 2466 2184 2466 2184 2467 2185 2467 2185 2467 2185 2467 2186 2468
 2186 2468 2186 2468 2187 2468 2187 2468 2187 2469 2188 2469 2188 2469 2188 2469
 2189 2469 2189 2470 2189 2470 2189 2470 2190 2470 2190 2470 2190 2471 2190 2471
 2191 2471 2191 2471 2191 2471 2191 2471 2191 2472 2192 2472 2192 2472 2192 2472
 2192 2472 2193 2472 2193 2473 2193 2473 2193 2473 2193 2473 2193 2473 2194 2473
 2194 2474 2194 2474 2194 2474 2194 2474 2194 2474 2195 2474 2195 2474 2195 2475
 2195 2475 2195 2475 2195 2475 2196 2475 2196 2475 2196 2475 2196 2476 2196 2476
 2196 2476 2196 2476 2196 2476 2197 2476 2197 2476 101 rps
 2197 2476 2197 2476 2197 2477 2197 2477 2197 2477 2197 2477 2197 2477 2197 2477 2198 2477
 2198 2477 2198 2478 2198 2478 2198 2478 2198 2478 2198 2478 2198 2478 2198 2478
 2198 2478 2198 2478 2199 2479 2199 2479 2199 2479 2199 2479 2199 2479 2199 2479
 2199 2479 2199 2479 2199 2479 2199 2480 2199 2480 2199 2480 2199 2480 2200 2480
 2200 2480 2200 2480 2200 2480 2200 2480 2200 2481 2200 2481 2200 2481 2200 2481
 2200 2481 2200 2481 2200 2481 2200 2481 2200 2481 2200 2481 2200 2482 2200 2482
 2201 2482 2201 2482 2201 2482 2201 2482 2201 2482 2201 2482 2201 2482 2201 2482
 2201 2482 2201 2483 2201 2483 2201 2483 2201 2483 2201 2483 2201 2483 2201 2483
 2201 2483 2201 2483 2201 2483 2201 2483 2201 2484 2201 2484 2201 2484 2201 2484
 2202 2484 2202 2484 2202 2484 2202 2484 2202 2484 2202 2484 2202 2484 2202 2485
 2202 2485 2202 2485 2202 2485 2202 2485 2202 2485 2202 2485 2202 2485 2202 2485
 2202 2485 2202 2485 2202 2485 2202 2486 2202 2486 2202 2486 2202 2486 2202 2486
 2202 2486 2202 2486 2202 2486 2202 2486 2202 2486 101 rps
 2202 2486 2202 2486 1 rcs

 2202 2486 2202 2487 2202 2487 2202 2487 2202 2487 2202 2487 2202 2487 2202 2487 2202 2487
 2202 2487 2202 2487 2202 2487 2202 2487 2202 2487 2202 2488 2202 2488 2202 2488
 2202 2488 2202 2488 2203 2488 2203 2488 2203 2488 2203 2488 2203 2488 2203 2488
 2203 2488 2203 2488 2203 2489 2203 2489 2203 2489 2203 2489 2203 2489 2203 2489
 2203 2489 2203 2489 2203 2489 2203 2489 2203 2489 2203 2489 2203 2489 2203 2490
 40 rps
 2203 934 2203 934 1 rcs

 2203 934 2203 934 1 rcs

 2203 934 2203 934 1 rcs

 2203 934 2203 934 1 rcs

 2203 934 2203 934 1 rcs

 2203 934 2203 934 2203 935 2203 935 2203 935 2203 935 2203 935 2203 935 2203 935
 2203 935 2203 935 2203 935 2203 935 2202 935 2202 935 2202 936 2202 936
 2202 936 2202 936 2202 936 2202 936 2202 936 2202 936 2202 936 2202 936
 2202 936 2202 936 2202 937 2202 937 2202 937 2202 937 2202 937 2202 937
 2202 937 2202 937 2202 937 2202 937 2202 937 2202 937 2202 937 2202 938
 2202 938 2202 938 2202 938 2202 938 2202 938 2202 938 2202 938 2202 938
 2202 938 2202 938 2202 938 2202 939 2202 939 2202 939 2202 939 2202 939
 2202 939 2202 939 2202 939 2202 939 2202 939 2201 939 2201 940 2201 940
 2201 940 2201 940 2201 940 2201 940 2201 940 2201 940 2201 940 2201 940
 2201 940 2201 941 2201 941 2201 941 2201 941 2201 941 2201 941 2201 941
 2201 941 2201 941 2201 941 2201 941 2201 942 2200 942 2200 942 2200 942
 2200 942 2200 942 2200 942 2200 942 2200 942 2200 942 2200 943 2200 943
 2200 943 2200 943 2200 943 2200 943 2200 943 101 rps
 2200 943 2199 943 2199 943 2199 943 2199 944 2199 944 2199 944 2199 944 2199 944
 2199 944 2199 944 2199 944 2199 944 2199 945 2199 945 2198 945 2198 945
 2198 945 2198 945 2198 945 2198 945 2198 945 2198 946 2198 946 2198 946
 2197 946 2197 946 2197 946 2197 946 2197 946 2197 947 2197 947 2197 947
 2197 947 2196 947 2196 947 2196 947 2196 948 2196 948 2196 948 2196 948
 2196 948 2195 948 2195 948 2195 948 2195 949 2195 949 2195 949 2195 949
 2194 949 2194 949 2194 949 2194 950 2194 950 2194 950 2193 950 2193 950
 2193 950 2193 951 2193 951 2192 951 2192 951 2192 951 2192 951 2192 952
 2191 952 2191 952 2191 952 2191 952 2190 952 2190 953 2190 953 2190 953
 2189 953 2189 953 2189 954 2189 954 2188 954 2188 954 2188 954 2187 955
 2187 955 2187 955 2186 955 2186 955 2186 956 2185 956 2185 956 2185 956
 2184 956 2184 957 2184 957 2183 957 2183 957 2182 958 2182 958 2181 958
 2181 958 2181 959 2180 959 2180 959 2179 959 101 rps
 2179 959 2179 960 2178 960 2178 960 2177 960 2176 961 2176 961 2175 961 2175 961
 2174 962 2173 962 2173 962 2172 963 2171 963 2170 963 2170 963 2169 964
 2168 964 2167 964 2166 965 2166 965 2165 965 2164 966 2163 966 2162 966
 2161 967 2160 967 2159 967 2157 968 2156 968 2155 969 2154 969 2153 969
 2151 970 2150 970 2148 970 2147 971 2146 971 2144 972 2142 972 2141 972
 2139 973 2137 973 2135 974 2133 974 2131 974 2129 975 2127 975 2125 976
 2123 976 2120 976 2118 977 2115 977 2113 978 2110 978 2107 978 2104 979
 2101 979 2098 980 2094 980 2091 980 2087 981 2084 981 2080 981 2076 981
 2072 982 2067 982 2063 982 2059 982 2054 982 2049 982 2044 982 2039 982
 2034 982 2028 982 2023 982 2017 981 2011 981 2005 980 1999 980 1993 979
 1986 978 1980 977 1974 976 1967 975 1961 974 1955 973 1949 971 1942 970
 1936 968 1931 966 1925 964 1920 962 1915 959 1910 957 1906 954 1903 952
 1899 949 1897 946 1894 943 1893 940 1892 937 101 rps
 1892 937 1891 934 1892 931 1892 928 1894 925 1896 922 1898 919 1901 916 1905 914
 1909 911 1913 909 1918 906 1923 904 1929 902 1935 900 1941 898 1947 896
 1953 895 1959 894 1965 892 1972 891 1978 890 1984 889 1991 888 1997 888
 2003 887 2009 886 2015 886 2021 886 2026 885 2032 885 2037 885 2042 885
 2047 885 2052 885 2057 885 2062 885 2066 885 2070 886 2075 886 2079 886
 2082 886 2086 887 2090 887 2093 887 2097 888 2100 888 2103 888 2106 889
 2109 889 2112 889 2114 890 2117 890 2119 891 2122 891 2124 891 2126 892
 2129 892 2131 893 2133 893 2135 893 2137 894 2138 894 2140 895 2142 895
 2143 895 2145 896 2147 896 2148 897 2149 897 2151 897 2152 898 71 rps
 2152 898 2153 898 2155 899 2156 899 2157 899 2158 900 2159 900 2160 900 2161 901
 2162 901 2163 901 2164 902 2165 902 2166 902 2167 903 2168 903 2169 903
 2169 904 2170 904 2171 904 2172 905 2172 905 2173 905 2174 905 2174 906
 2175 906 2176 906 2176 907 2177 907 2177 907 2178 907 2178 908 2179 908
 2179 908 2180 908 2180 909 2181 909 2181 909 2182 909 2182 910 2183 910
 2183 910 2183 910 2184 910 2184 911 2185 911 2185 911 2185 911 2186 912
 2186 912 2186 912 2187 912 2187 912 2187 913 2188 913 2188 913 2188 913
 2189 913 2189 914 2189 914 2189 914 2190 914 2190 914 2190 915 2190 915
 2191 915 2191 915 2191 915 2191 915 2191 916 2192 916 2192 916 2192 916
 2192 916 2193 916 2193 917 2193 917 2193 917 2193 917 2193 917 2194 917
 2194 918 2194 918 2194 918 2194 918 2194 918 2195 918 2195 918 2195 919
 2195 919 2195 919 2195 919 2196 919 2196 919 2196 919 2196 920 2196 920
 2196 920 2196 920 2196 920 2197 920 2197 920 101 rps
 2197 920 2197 920 2197 921 2197 921 2197 921 2197 921 2197 921 2197 921 2198 921
 2198 921 2198 922 2198 922 2198 922 2198 922 2198 922 2198 922 2198 922
 2198 922 2198 922 2199 923 2199 923 2199 923 2199 923 2199 923 2199 923
 2199 923 2199 923 2199 923 2199 924 2199 924 2199 924 2199 924 2200 924
 2200 924 2200 924 2200 924 2200 924 2200 925 2200 925 2200 925 2200 925
 2200 925 2200 925 2200 925 2200 925 2200 925 2200 925 2200 926 2200 926
 2201 926 2201 926 2201 926 2201 926 2201 926 2201 926 2201 926 2201 926
 2201 926 2201 927 2201 927 2201 927 2201 927 2201 927 2201 927 2201 927
 2201 927 2201 927 2201 927 2201 927 2201 928 2201 928 2201 928 2201 928
 2202 928 2202 928 2202 928 2202 928 2202 928 2202 928 2202 928 2202 929
 2202 929 2202 929 2202 929 2202 929 2202 929 2202 929 2202 929 2202 929
 2202 929 2202 929 2202 929 2202 930 2202 930 2202 930 2202 930 2202 930
 2202 930 2202 930 2202 930 2202 930 2202 930 101 rps
 2202 930 2202 930 1 rcs

 2202 930 2202 931 2202 931 2202 931 2202 931 2202 931 2202 931 2202 931 2202 931
 2202 931 2202 931 2202 931 2202 931 2202 931 2202 932 2202 932 2202 932
 2202 932 2202 932 2203 932 2203 932 2203 932 2203 932 2203 932 2203 932
 2203 932 2203 932 2203 933 2203 933 2203 933 2203 933 2203 933 2203 933
 2203 933 2203 933 2203 933 2203 933 2203 933 2203 933 2203 933 2203 934
 40 rps
 1425 2490 1425 2490 1 rcs

 1425 2490 1425 2490 1 rcs

 1425 2490 1425 2490 1 rcs

 1425 2490 1425 2490 1 rcs

 1425 2490 1425 2490 1 rcs

 1425 2490 1425 2490 1425 2491 1425 2491 1425 2491 1425 2491 1425 2491 1425 2491 1425 2491
 1425 2491 1425 2491 1425 2491 1425 2491 1424 2491 1424 2491 1424 2492 1424 2492
 1424 2492 1424 2492 1424 2492 1424 2492 1424 2492 1424 2492 1424 2492 1424 2492
 1424 2492 1424 2492 1424 2493 1424 2493 1424 2493 1424 2493 1424 2493 1424 2493
 1424 2493 1424 2493 1424 2493 1424 2493 1424 2493 1424 2493 1424 2493 1424 2494
 1424 2494 1424 2494 1424 2494 1424 2494 1424 2494 1424 2494 1424 2494 1424 2494
 1424 2494 1424 2494 1424 2494 1424 2495 1424 2495 1424 2495 1424 2495 1424 2495
 1424 2495 1424 2495 1424 2495 1424 2495 1424 2495 1423 2495 1423 2496 1423 2496
 1423 2496 1423 2496 1423 2496 1423 2496 1423 2496 1423 2496 1423 2496 1423 2496
 1423 2496 1423 2497 1423 2497 1423 2497 1423 2497 1423 2497 1423 2497 1423 2497
 1423 2497 1423 2497 1423 2497 1423 2497 1423 2498 1422 2498 1422 2498 1422 2498
 1422 2498 1422 2498 1422 2498 1422 2498 1422 2498 1422 2498 1422 2499 1422 2499
 1422 2499 1422 2499 1422 2499 1422 2499 1422 2499 101 rps
 1422 2499 1421 2499 1421 2499 1421 2499 1421 2500 1421 2500 1421 2500 1421 2500 1421 2500
 1421 2500 1421 2500 1421 2500 1421 2500 1421 2501 1421 2501 1420 2501 1420 2501
 1420 2501 1420 2501 1420 2501 1420 2501 1420 2501 1420 2502 1420 2502 1420 2502
 1419 2502 1419 2502 1419 2502 1419 2502 1419 2502 1419 2503 1419 2503 1419 2503
 1419 2503 1418 2503 1418 2503 1418 2503 1418 2504 1418 2504 1418 2504 1418 2504
 1418 2504 1417 2504 1417 2504 1417 2504 1417 2505 1417 2505 1417 2505 1417 2505
 1416 2505 1416 2505 1416 2505 1416 2506 1416 2506 1416 2506 1415 2506 1415 2506
 1415 2506 1415 2507 1415 2507 1414 2507 1414 2507 1414 2507 1414 2507 1414 2508
 1413 2508 1413 2508 1413 2508 1413 2508 1412 2508 1412 2509 1412 2509 1412 2509
 1411 2509 1411 2509 1411 2510 1411 2510 1410 2510 1410 2510 1410 2510 1409 2511
 1409 2511 1409 2511 1408 2511 1408 2511 1408 2512 1407 2512 1407 2512 1407 2512
 1406 2512 1406 2513 1406 2513 1405 2513 1405 2513 1404 2514 1404 2514 1403 2514
 1403 2514 1403 2515 1402 2515 1402 2515 1401 2515 101 rps
 1401 2515 1401 2516 1400 2516 1400 2516 1399 2516 1398 2517 1398 2517 1397 2517 1397 2517
 1396 2518 1395 2518 1395 2518 1394 2519 1393 2519 1392 2519 1392 2519 1391 2520
 1390 2520 1389 2520 1388 2521 1388 2521 1387 2521 1386 2522 1385 2522 1384 2522
 1383 2523 1382 2523 1381 2523 1379 2524 1378 2524 1377 2525 1376 2525 1375 2525
 1373 2526 1372 2526 1370 2526 1369 2527 1368 2527 1366 2528 1364 2528 1363 2528
 1361 2529 1359 2529 1357 2530 1355 2530 1353 2530 1351 2531 1349 2531 1347 2532
 1345 2532 1342 2532 1340 2533 1337 2533 1335 2534 1332 2534 1329 2534 1326 2535
 1323 2535 1320 2536 1316 2536 1313 2536 1309 2537 1306 2537 1302 2537 1298 2537
 1294 2538 1289 2538 1285 2538 1281 2538 1276 2538 1271 2538 1266 2538 1261 2538
 1256 2538 1250 2538 1245 2538 1239 2537 1233 2537 1227 2536 1221 2536 1215 2535
 1208 2534 1202 2533 1196 2532 1189 2531 1183 2530 1177 2529 1171 2527 1164 2526
 1158 2524 1153 2522 1147 2520 1142 2518 1137 2515 1132 2513 1128 2510 1125 2508
 1121 2505 1119 2502 1116 2499 1115 2496 1114 2493 101 rps
 1114 2493 1113 2490 1114 2487 1114 2484 1116 2481 1118 2478 1120 2475 1123 2472 1127 2470
 1131 2467 1135 2465 1140 2462 1145 2460 1151 2458 1157 2456 1163 2454 1169 2452
 1175 2451 1181 2450 1187 2448 1194 2447 1200 2446 1206 2445 1213 2444 1219 2444
 1225 2443 1231 2442 1237 2442 1243 2442 1248 2441 1254 2441 1259 2441 1264 2441
 1269 2441 1274 2441 1279 2441 1284 2441 1288 2441 1292 2442 1297 2442 1301 2442
 1304 2442 1308 2443 1312 2443 1315 2443 1319 2444 1322 2444 1325 2444 1328 2445
 1331 2445 1334 2445 1336 2446 1339 2446 1341 2447 1344 2447 1346 2447 1348 2448
 1351 2448 1353 2449 1355 2449 1357 2449 1359 2450 1360 2450 1362 2451 1364 2451
 1365 2451 1367 2452 1369 2452 1370 2453 1371 2453 1373 2453 1374 2454 71 rps
 1374 2454 1375 2454 1377 2455 1378 2455 1379 2455 1380 2456 1381 2456 1382 2456 1383 2457
 1384 2457 1385 2457 1386 2458 1387 2458 1388 2458 1389 2459 1390 2459 1391 2459
 1391 2460 1392 2460 1393 2460 1394 2461 1394 2461 1395 2461 1396 2461 1396 2462
 1397 2462 1398 2462 1398 2463 1399 2463 1399 2463 1400 2463 1400 2464 1401 2464
 1401 2464 1402 2464 1402 2465 1403 2465 1403 2465 1404 2465 1404 2466 1405 2466
 1405 2466 1405 2466 1406 2466 1406 2467 1407 2467 1407 2467 1407 2467 1408 2468
 1408 2468 1408 2468 1409 2468 1409 2468 1409 2469 1410 2469 1410 2469 1410 2469
 1411 2469 1411 2470 1411 2470 1411 2470 1412 2470 1412 2470 1412 2471 1412 2471
 1413 2471 1413 2471 1413 2471 1413 2471 1413 2472 1414 2472 1414 2472 1414 2472
 1414 2472 1415 2472 1415 2473 1415 2473 1415 2473 1415 2473 1415 2473 1416 2473
 1416 2474 1416 2474 1416 2474 1416 2474 1416 2474 1417 2474 1417 2474 1417 2475
 1417 2475 1417 2475 1417 2475 1418 2475 1418 2475 1418 2475 1418 2476 1418 2476
 1418 2476 1418 2476 1418 2476 1419 2476 1419 2476 101 rps
 1419 2476 1419 2476 1419 2477 1419 2477 1419 2477 1419 2477 1419 2477 1419 2477 1420 2477
 1420 2477 1420 2478 1420 2478 1420 2478 1420 2478 1420 2478 1420 2478 1420 2478
 1420 2478 1420 2478 1421 2479 1421 2479 1421 2479 1421 2479 1421 2479 1421 2479
 1421 2479 1421 2479 1421 2479 1421 2480 1421 2480 1421 2480 1421 2480 1422 2480
 1422 2480 1422 2480 1422 2480 1422 2480 1422 2481 1422 2481 1422 2481 1422 2481
 1422 2481 1422 2481 1422 2481 1422 2481 1422 2481 1422 2481 1422 2482 1422 2482
 1423 2482 1423 2482 1423 2482 1423 2482 1423 2482 1423 2482 1423 2482 1423 2482
 1423 2482 1423 2483 1423 2483 1423 2483 1423 2483 1423 2483 1423 2483 1423 2483
 1423 2483 1423 2483 1423 2483 1423 2483 1423 2484 1423 2484 1423 2484 1423 2484
 1424 2484 1424 2484 1424 2484 1424 2484 1424 2484 1424 2484 1424 2484 1424 2485
 1424 2485 1424 2485 1424 2485 1424 2485 1424 2485 1424 2485 1424 2485 1424 2485
 1424 2485 1424 2485 1424 2485 1424 2486 1424 2486 1424 2486 1424 2486 1424 2486
 1424 2486 1424 2486 1424 2486 1424 2486 1424 2486 101 rps
 1424 2486 1424 2486 1 rcs

 1424 2486 1424 2487 1424 2487 1424 2487 1424 2487 1424 2487 1424 2487 1424 2487 1424 2487
 1424 2487 1424 2487 1424 2487 1424 2487 1424 2487 1424 2488 1424 2488 1424 2488
 1424 2488 1424 2488 1425 2488 1425 2488 1425 2488 1425 2488 1425 2488 1425 2488
 1425 2488 1425 2488 1425 2489 1425 2489 1425 2489 1425 2489 1425 2489 1425 2489
 1425 2489 1425 2489 1425 2489 1425 2489 1425 2489 1425 2489 1425 2489 1425 2490
 40 rps
 1425 622 1425 622 1425 623 1425 623 1425 623 1425 623 1425 623 1425 623 1425 623
 1425 623 1425 623 1425 623 1425 623 1425 623 1425 623 1425 624 1425 624
 1425 624 1425 624 1425 624 1425 624 1425 624 1425 624 1424 624 1424 624
 1424 624 1424 624 1424 625 1424 625 1424 625 1424 625 1424 625 1424 625
 1424 625 1424 625 1424 625 1424 625 1424 625 1424 625 1424 625 1424 626
 1424 626 1424 626 1424 626 1424 626 1424 626 1424 626 1424 626 1424 626
 1424 626 1424 626 1424 626 1424 627 1424 627 1424 627 1424 627 1424 627
 1424 627 1424 627 1424 627 1424 627 1424 627 1424 627 1424 627 1424 628
 1424 628 1424 628 1424 628 1424 628 1424 628 1424 628 1424 628 1423 628
 1423 628 1423 628 1423 629 1423 629 1423 629 1423 629 1423 629 1423 629
 1423 629 1423 629 1423 629 1423 629 1423 629 1423 629 1423 630 1423 630
 1423 630 1423 630 1423 630 1423 630 1423 630 1423 630 1423 630 1422 630
 1422 631 1422 631 1422 631 1422 631 1422 631 101 rps
 1422 631 1422 631 1 rcs

 1422 631 1422 631 1 rcs

 1422 631 1422 631 1422 632 1422 632 1422 632 1422 632 1422 632 1421 632 1421 632
 1421 632 1421 632 1421 632 1421 633 1421 633 1421 633 1421 633 1421 633
 1421 633 1421 633 1421 633 1421 633 1420 634 1420 634 1420 634 1420 634
 1420 634 1420 634 1420 634 1420 634 1420 635 1420 635 1419 635 1419 635
 1419 635 1419 635 1419 635 1419 635 1419 636 1419 636 1419 636 1418 636
 1418 636 1418 636 1418 636 1418 636 1418 637 1418 637 1418 637 1417 637
 1417 637 1417 637 1417 637 1417 638 1417 638 1417 638 1416 638 1416 638
 1416 638 1416 638 1416 639 1416 639 1415 639 1415 639 1415 639 1415 639
 1415 640 1414 640 1414 640 1414 640 1414 640 1414 640 1413 641 1413 641
 1413 641 1413 641 1412 641 1412 641 1412 642 1412 642 1411 642 1411 642
 1411 642 1411 643 1410 643 1410 643 1410 643 1409 643 1409 644 1409 644
 1408 644 1408 644 1408 644 1407 645 1407 645 1407 645 1406 645 1406 645
 1406 646 1405 646 1405 646 1404 646 1404 647 101 rps
 1404 647 1403 647 1403 647 1403 647 1402 648 1402 648 1401 648 1401 648 1400 649
 1400 649 1399 649 1398 649 1398 650 1397 650 1397 650 1396 651 1395 651
 1395 651 1394 651 1393 652 1392 652 1392 652 1391 653 1390 653 1389 653
 1388 654 1388 654 1387 654 1386 655 1385 655 1384 655 1383 656 1382 656
 1381 656 1379 657 1378 657 1377 657 1376 658 1375 658 1373 658 1372 659
 1370 659 1369 660 1368 660 1366 660 1364 661 1363 661 1361 662 1359 662
 1357 662 1355 663 1353 663 1351 664 1349 664 1347 664 1345 665 1342 665
 1340 666 1337 666 1335 666 1332 667 1329 667 1326 668 1323 668 1320 668
 1316 669 1313 669 1309 669 1306 670 1302 670 1298 670 1294 670 1289 671
 1285 671 1281 671 1276 671 1271 671 1266 671 1261 671 1256 671 1250 671
 1245 670 1239 670 1233 670 1227 669 1221 669 1215 668 1208 667 1202 666
 1196 665 1189 664 1183 663 1177 662 1171 660 1164 658 1158 657 1153 655
 1147 653 1142 650 1137 648 1132 646 1128 643 101 rps
 1128 643 1125 640 1121 638 1119 635 1116 632 1115 629 1114 626 1113 623 1114 620
 1114 617 1116 614 1118 611 1120 608 1123 605 1127 603 1131 600 1135 597
 1140 595 1145 593 1151 591 1157 589 1163 587 1169 585 1175 584 1181 582
 1187 581 1194 580 1200 579 1206 578 1213 577 1219 576 1225 576 1231 575
 1237 575 1243 575 1248 574 1254 574 1259 574 1264 574 1269 574 1274 574
 1279 574 1284 574 1288 574 1292 574 1297 575 1301 575 1304 575 1308 575
 1312 576 1315 576 1319 576 1322 577 1325 577 1328 577 1331 578 1334 578
 1336 579 1339 579 1341 579 1344 580 1346 580 1348 581 1351 581 1353 581
 1355 582 1357 582 1359 583 1360 583 1362 583 1364 584 1365 584 1367 585
 1369 585 1370 585 1371 586 1373 586 1374 587 77 rps
 1374 587 1375 587 1377 587 1378 588 1379 588 1380 588 1381 589 1382 589 1383 589
 1384 590 1385 590 1386 590 1387 591 1388 591 1389 591 1390 592 1391 592
 1391 592 1392 593 1393 593 1394 593 1394 594 1395 594 1396 594 1396 594
 1397 595 1398 595 1398 595 1399 596 1399 596 1400 596 1400 596 1401 597
 1401 597 1402 597 1402 597 1403 598 1403 598 1404 598 1404 598 1405 599
 1405 599 1405 599 1406 599 1406 600 1407 600 1407 600 1407 600 1408 600
 1408 601 1408 601 1409 601 1409 601 1409 601 1410 602 1410 602 1410 602
 1411 602 1411 602 1411 603 1411 603 1412 603 1412 603 1412 603 1412 604
 1413 604 1413 604 1413 604 1413 604 1413 604 1414 605 1414 605 1414 605
 1414 605 1415 605 1415 605 1415 606 1415 606 1415 606 1415 606 1416 606
 1416 606 1416 606 1416 607 1416 607 1416 607 1417 607 1417 607 1417 607
 1417 607 1417 608 1417 608 1418 608 1418 608 1418 608 1418 608 1418 608
 1418 609 1418 609 1418 609 1419 609 1419 609 101 rps
 1419 609 1419 609 1 rcs

 1419 609 1419 609 1419 610 1419 610 1419 610 1419 610 1420 610 1420 610 1420 610
 1420 610 1420 611 1420 611 1420 611 1420 611 1420 611 1420 611 1420 611
 1421 611 1421 612 1421 612 1421 612 1421 612 1421 612 1421 612 1421 612
 1421 612 1421 612 1421 612 1421 613 1421 613 1422 613 1422 613 1422 613
 1422 613 1422 613 1422 613 1422 613 1422 614 1422 614 1422 614 1422 614
 1422 614 1422 614 1422 614 1422 614 1422 614 1422 614 1423 615 1423 615
 1423 615 1423 615 1423 615 1423 615 1423 615 1423 615 1423 615 1423 615
 1423 615 1423 616 1423 616 1423 616 1423 616 1423 616 1423 616 1423 616
 1423 616 1423 616 1423 616 1423 616 1423 617 1423 617 1424 617 1424 617
 1424 617 1424 617 1424 617 1424 617 1424 617 1424 617 1424 617 1424 617
 1424 618 1424 618 1424 618 1424 618 1424 618 1424 618 1424 618 1424 618
 1424 618 1424 618 1424 618 1424 618 1424 619 1424 619 1424 619 1424 619
 1424 619 1424 619 1424 619 1424 619 1424 619 101 rps
 1424 619 1424 619 1 rcs

 1424 619 1424 619 1424 620 1424 620 1424 620 1424 620 1424 620 1424 620 1424 620
 1424 620 1424 620 1424 620 1424 620 1424 620 1424 620 1424 621 1424 621
 1425 621 1425 621 1425 621 1425 621 1425 621 1425 621 1425 621 1425 621
 1425 621 1425 621 1425 622 1425 622 1425 622 1425 622 1425 622 1425 622
 1425 622 1425 622 1425 622 1425 622 1425 622 1425 622 1 add 38 rps
 2047 2334 2047 2720 1 rps
 2047 2720
 2069 2630 2024 2630 2047 2720 3 3 1 roll cnp
 0.00 setgray
gsave eofill grestore  0.0 setgray
 stroke 0.0 setgray 0.0 setgray 2047 778 2047 1164 1 rps
 2047 1164
 2069 1074 2024 1074 2047 1164 3 3 1 roll cnp
 0.00 setgray
gsave eofill grestore  0.0 setgray
 stroke 0.0 setgray 0.0 setgray 1269 2334 1269 2720 1 rps
 1269 2720
 1291 2630 1246 2630 1269 2720 3 3 1 roll cnp
 0.00 setgray
gsave eofill grestore  0.0 setgray
 stroke 0.0 setgray 0.0 setgray 1269 778 1269 386 1 rps
 1269 386
 1246 476 1291 476 1269 386 3 3 1 roll cnp
 0.00 setgray
gsave eofill grestore  0.0 setgray
 stroke 0.0 setgray 0.0 setgray
10 setlinewidth
 2047 1710 2047 1401 1 rps

1 setlinewidth
 2047 1401
 2013 1514 2080 1514 2047 1401 3 3 1 roll cnp
 0.00 setgray
gsave eofill grestore  0.0 setgray
 stroke 0.0 setgray 0.0 setgray 3212 1556 3444 1556 1 rps
 3444 1556
 3354 1533 3354 1578 3444 1556 3 3 1 roll cnp
 0.00 setgray
gsave eofill grestore  0.0 setgray
 stroke 0.0 setgray 2038 2289
 2056 2289 2074 2298 2083 2307 2092 2325
 2092 2343 2083 2361 2074 2370 2056 2379
 2038 2379 2020 2370 2011 2361 2002 2343
 2002 2325 2011 2307 2020 2298 2038 2289
 16 3 1 roll cnp
 0.00 setgray
gsave eofill grestore  0.0 setgray
 stroke 0.0 setgray 2038 733
 2056 733 2074 742 2083 751 2092 769
 2092 787 2083 805 2074 814 2056 823
 2038 823 2020 814 2011 805 2002 787
 2002 769 2011 751 2020 742 2038 733
 16 3 1 roll cnp
 0.00 setgray
gsave eofill grestore  0.0 setgray
 stroke 0.0 setgray 1266 2319
 1272 2319 1278 2322 1281 2325 1284 2331
 1284 2337 1281 2343 1278 2346 1272 2349
 1266 2349 1260 2346 1257 2343 1254 2337
 1254 2331 1257 2325 1260 2322 1266 2319
 16 3 1 roll cnp
 0.00 setgray
gsave eofill grestore  0.0 setgray
 stroke 0.0 setgray 1266 763
 1272 763 1278 766 1281 769 1284 775
 1284 781 1281 787 1278 790 1272 793
 1266 793 1260 790 1257 787 1254 781
 1254 775 1257 769 1260 766 1266 763
 16 3 1 roll cnp
 0.00 setgray
gsave eofill grestore  0.0 setgray
 stroke 0.0 setgray 0.0 setgray
/Times-Roman axumfindfont 124 scalefont setfont
 1874 2174 moveto  (Proton) show 
 1055 2188 moveto  (Electron) show 
 2975 2293 moveto  (Aligned) show 
 2975 746 moveto  (Antialigned) show 
 2652 1278 moveto  (Photon) show 
 1779 1765 moveto  (Transition) show 
 2092 2443 2165 2456 1 rps
 2165 2456
 2100 2428 2095 2459 2165 2456 3 3 1 roll cnp
 0.00 setgray
gsave eofill grestore  0.0 setgray
 stroke 0.0 setgray 0.0 setgray 2133 896 2165 900 1 rps
 2165 900
 2099 875 2095 907 2165 900 3 3 1 roll cnp
 0.00 setgray
gsave eofill grestore  0.0 setgray
 stroke 0.0 setgray 0.0 setgray 1160 2456 1219 2443 1 rps
 1219 2443
 1149 2442 1156 2473 1219 2443 3 3 1 roll cnp
 0.00 setgray
gsave eofill grestore  0.0 setgray
 stroke 0.0 setgray 0.0 setgray 1178 586 1151 591 1 rps
 1151 591
 1220 594 1214 563 1151 591 3 3 1 roll cnp
 0.00 setgray
gsave eofill grestore  0.0 setgray
 stroke 0.0 setgray grestore showpage
%Trailer
%EOF
