%!PS-Adobe-2.0 EPSF-1.2
%%BoundingBox: 0 0 468 360
%%%%DocumentFonts: /Helvetica
%%Title: Axum PostScript file
%%Creator: TriMetrix, Inc.
%%Pages: 1
%%EndComments
% Copyright 1988-1991 by TriMetrix, Inc. All rights reserved.
/downdict 4 dict def
/sdown
 {downdict begin
  /thestring exch def
  /lineskip exch def
  thestring
   {
    /charcode exch def
    /thechar ( ) dup 0 charcode put def
    0 lineskip neg rmoveto
    gsave
     thechar stringwidth pop 2 div neg 0 rmoveto
     thechar show
    grestore
   } forall
   end
  } def

/updict 4 dict def
/sup
 {updict begin
  /thestring exch def
  /lineskip exch def
  thestring 
   {
    /charcode exch def
    /thechar ( ) dup 0 charcode put def
    0 lineskip rmoveto
    gsave
     thechar stringwidth pop 2 div neg 0 rmoveto
     thechar show
    grestore
   } forall
   end
  } def

/leftdict 4 dict def
/sleft
 {leftdict begin
  /thestring exch def
  thestring
   {
    /charcode exch def
    /thechar ( ) dup 0 charcode put def
    gsave
     thechar stringwidth pop neg 0 rmoveto
     thechar show
    grestore
   } forall

   thechar stringwidth pop neg 0 rmoveto
   end
  } def

/path{newpath moveto{lineto}repeat} bind def 
/cnp{newpath moveto{lineto}repeat closepath} bind def
/clp{moveto{lineto}repeat closepath} bind def
/rps{ 3 1 roll path stroke} bind def
/rcs{ 3 1 roll clp stroke} bind def
/setF { currentscreen 4 -2 roll pop 3 1 roll setscreen} bind def
% required due to WinWord 2.0 bug:
/II { } def

/reencodedict 5 dict def
/reencode
{
   reencodedict begin
   /newencoding exch def
   /newfontname exch def
   /basefontname exch def

   /basefontdict basefontname findfont def
   /newfont basefontdict maxlength dict def

   basefontdict
   {
      exch dup dup /FID ne exch /Encoding ne and
      { exch newfont 3 1 roll put }
      { pop pop }
      ifelse
   }
   forall

   newfont /FontName newfontname put
   newfont /Encoding newencoding put
   newfontname newfont definefont pop
   end
}
def

/axumencoding
[
/.notdef        %   0
/.notdef        %   1
/.notdef        %   2
/.notdef        %   3
/.notdef        %   4
/.notdef        %   5
/.notdef        %   6
/.notdef        %   7
/.notdef        %   8
/.notdef        %   9
/.notdef        %  10
/.notdef        %  11
/.notdef        %  12
/.notdef        %  13
/.notdef        %  14
/.notdef        %  15
/.notdef        %  16
/.notdef        %  17
/.notdef        %  18
/.notdef        %  19
/.notdef        %  20
/.notdef        %  21
/.notdef        %  22
/.notdef        %  23
/.notdef        %  24
/.notdef        %  25
/.notdef        %  26
/.notdef        %  27
/.notdef        %  28
/.notdef        %  29
/.notdef        %  30
/.notdef        %  31
/space          %  32
/exclam         %  33
/quotedbl       %  34
/numbersign     %  35
/dollar         %  36
/percent        %  37
/ampersand      %  38
/quoteright     %  39
/parenleft      %  40
/parenright     %  41
/asterisk       %  42
/plus           %  43
/comma          %  44
/hyphen         %  45
/period         %  46
/slash          %  47
/zero           %  48
/one            %  49
/two            %  50
/three          %  51
/four           %  52
/five           %  53
/six            %  54
/seven          %  55
/eight          %  56
/nine           %  57
/colon          %  58
/semicolon      %  59
/less           %  60
/equal          %  61
/greater        %  62
/question       %  63
/at             %  64
/A              %  65
/B              %  66
/C              %  67
/D              %  68
/E              %  69
/F              %  70
/G              %  71
/H              %  72
/I              %  73
/J              %  74
/K              %  75
/L              %  76
/M              %  77
/N              %  78
/O              %  79
/P              %  80
/Q              %  81
/R              %  82
/S              %  83
/T              %  84
/U              %  85
/V              %  86
/W              %  87
/X              %  88
/Y              %  89
/Z              %  90
/bracketleft    %  91
/backslash      %  92
/bracketright   %  93
/asciicircum    %  94
/underscore     %  95
/quoteleft      %  96
/a              %  97
/b              %  98
/c              %  99
/d              % 100
/e              % 101
/f              % 102
/g              % 103
/h              % 104
/i              % 105
/j              % 106
/k              % 107
/l              % 108
/m              % 109
/n              % 110
/o              % 111
/p              % 112
/q              % 113
/r              % 114
/s              % 115
/t              % 116
/u              % 117
/v              % 118
/w              % 119
/x              % 120
/y              % 121
/z              % 122
/braceleft      % 123
/bar            % 124
/braceright     % 125
/asciitilde     % 126
/.notdef        % 127
/Ccedilla       % 128
/udieresis      % 129
/eacute         % 130
/acircumflex    % 131
/adieresis      % 132
/agrave         % 133
/aring          % 134
/ccedilla       % 135
/ecircumflex    % 136
/edieresis      % 137
/egrave         % 138
/idieresis      % 139
/icircumflex    % 140
/igrave         % 141
/Adieresis      % 142
/Aring          % 143
/Eacute         % 144
/ae             % 145
/AE             % 146
/ocircumflex    % 147
/odieresis      % 148
/ograve         % 149
/ucircumflex    % 150
/ugrave         % 151
/ydieresis      % 152
/Odieresis      % 153
/Udieresis      % 154
/cent           % 155
/sterling       % 156
/yen            % 157
/currency       % 158
/florin         % 159
/aacute         % 160
/iacute         % 161
/oacute         % 162
/uacute         % 163
/ntilde         % 164
/Ntilde         % 165
/ordfeminine    % 166
/ordmasculine   % 167
/questiondown   % 168
/quotedblleft   % 169
/quotedblright  % 170
/Aacute         % 171
/Acircumflex    % 172
/exclamdown     % 173
/Egrave         % 174
/Ecircumflex    % 175
/atilde         % 176
/otilde         % 177
/Edieresis      % 178
/Igrave         % 179
/oe             % 180
/OE             % 181
/Agrave         % 182
/Atilde         % 183
/Otilde         % 184
/section        % 185
/Iacute         % 186
/Icircumflex    % 187
/Idieresis      % 188
/Ograve         % 189
/Oacute         % 190
/Ocircumflex    % 191
/Ugrave         % 192
/Uacute         % 193
/Ucircumflex    % 194
/Ydieresis      % 195
/germandbls     % 196
/guillemotleft  % 197
/guillemotright % 198
/bullet         % 199
/.notdef        % 200
/.notdef        % 201
/.notdef        % 202
/.notdef        % 203
/.notdef        % 204
/.notdef        % 205
/.notdef        % 206
/.notdef        % 207
/.notdef        % 208
/.notdef        % 209
/.notdef        % 210
/.notdef        % 211
/.notdef        % 212
/.notdef        % 213
/.notdef        % 214
/.notdef        % 215
/.notdef        % 216
/.notdef        % 217
/.notdef        % 218
/.notdef        % 219
/.notdef        % 220
/.notdef        % 221
/.notdef        % 222
/.notdef        % 223
/.notdef        % 224
/.notdef        % 225
/.notdef        % 226
/.notdef        % 227
/.notdef        % 228
/.notdef        % 229
/.notdef        % 230
/.notdef        % 231
/.notdef        % 232
/.notdef        % 233
/.notdef        % 234
/.notdef        % 235
/.notdef        % 236
/.notdef        % 237
/.notdef        % 238
/.notdef        % 239
/.notdef        % 240
/.notdef        % 241
/.notdef        % 242
/.notdef        % 243
/.notdef        % 244
/.notdef        % 245
/.notdef        % 246
/.notdef        % 247
/.notdef        % 248
/.notdef        % 249
/.notdef        % 250
/.notdef        % 251
/.notdef        % 252
/.notdef        % 253
/.notdef        % 254
/.notdef        % 255
] 
def

/axumfindfont
{
   /axumfont axumencoding reencode
   /axumfont findfont
}
def


/MainFont /Helvetica axumfindfont 98 scalefont def
MainFont setfont
1 setlinejoin 0 setlinecap 0 setgray
 gsave 72 630 div dup scale
 [] 0 setdash

1 setlinewidth
 2910 1565
 3336 1076 3345 1090 3353 1104 3361 1118
 3368 1133 3376 1147 3383 1162 3390 1178
 3397 1193 3403 1208 3410 1224 3416 1240
 3422 1256 3427 1272 3433 1288 3438 1305
 3442 1321 3447 1338 3451 1355 3455 1372
 3458 1389 3462 1406 3465 1424 3467 1441
 3469 1459 3471 1476 3473 1494 3474 1512
 3475 1529 3475 1547 3476 1565 3475 1583
 3475 1601 3474 1618 3473 1636 3471 1654
 3469 1671 3467 1689 3465 1706 3462 1724
 3458 1741 3455 1759 3451 1776 3447 1793
 3442 1810 3437 1826 3432 1843 3427 1860
 3421 1876 3415 1892 3409 1908 3403 1924
 3396 1939 3389 1955 3382 1970 3374 1985
 3367 2000 3359 2015 3351 2030 3343 2044
 3334 2058 2910 1565 62 3 1 roll cnp
 0.87 setgray eofill 0.0 setgray 0.0 setgray 2910 1565 3336 1076 3345 1090 3353 1104 3361 1118 3368 1133 3376 1147 3383 1162 3390 1178
 3397 1193 3403 1208 3410 1224 3416 1240 3422 1256 3427 1272 3433 1288 3438 1305
 3442 1321 3447 1338 3451 1355 3455 1372 3458 1389 3462 1406 3465 1424 3467 1441
 3469 1459 3471 1476 3473 1494 3474 1512 3475 1529 3475 1547 3476 1565 3476 1565
 3475 1583 3475 1601 3474 1618 3473 1636 3471 1654 3469 1671 3467 1689 3465 1706
 3462 1724 3458 1741 3455 1759 3451 1776 3447 1793 3442 1810 3437 1826 3432 1843
 3427 1860 3421 1876 3415 1892 3409 1908 3403 1924 3396 1939 3389 1955 3382 1970
 3374 1985 3367 2000 3359 2015 3351 2030 3343 2044 3334 2058 62 rcs

 2910 1565 2910 1565 1 rps
 2910 1565
 2093 2696 2084 2696 2075 2697 2066 2697
 2057 2697 2048 2697 2040 2696 2031 2696
 2022 2696 2013 2696 2005 2696 1996 2696
 1987 2695 1979 2695 1970 2694 1961 2694
 1953 2693 1944 2693 1936 2692 1928 2692
 1919 2691 1911 2690 1902 2690 1894 2689
 1886 2688 1878 2687 1870 2686 1861 2685
 1853 2684 1845 2683 1837 2682 1829 2681
 1821 2680 1813 2679 1805 2678 1797 2677
 1789 2676 1782 2674 1774 2673 1766 2672
 1758 2670 1751 2669 1743 2668 1735 2666
 1728 2665 1720 2663 1713 2662 1705 2660
 1698 2659 1690 2657 1683 2655 1675 2654
 1668 2652 1661 2650 1653 2649 1646 2647
 1639 2645 1632 2643 1625 2641 1617 2640
 1610 2638 2910 1565 62 3 1 roll cnp
 0.87 setgray eofill 0.0 setgray 0.0 setgray 2910 1565 2093 2696 2084 2696 2075 2697 2066 2697 2057 2697 2048 2697 2040 2696 2031 2696
 2022 2696 2013 2696 2005 2696 1996 2696 1987 2695 1979 2695 1970 2694 1961 2694
 1953 2693 1944 2693 1936 2692 1928 2692 1919 2691 1911 2690 1902 2690 1894 2689
 1886 2688 1878 2687 1870 2686 1861 2685 1853 2684 1845 2683 1837 2682 1829 2681
 1821 2680 1813 2679 1805 2678 1797 2677 1789 2676 1782 2674 1774 2673 1766 2672
 1758 2670 1751 2669 1743 2668 1735 2666 1728 2665 1720 2663 1713 2662 1705 2660
 1698 2659 1690 2657 1683 2655 1675 2654 1668 2652 1661 2650 1653 2649 1646 2647
 1639 2645 1632 2643 1625 2641 1617 2640 1610 2638 61 rcs

 2910 1565 2910 1565 1 rps
 2910 1565
 655 1692 655 1688 654 1683 654 1679
 653 1674 653 1670 652 1665 652 1661
 651 1657 651 1652 650 1648 650 1643
 649 1639 649 1634 649 1630 648 1626
 648 1621 648 1617 648 1612 647 1608
 647 1603 647 1599 647 1594 647 1590
 647 1586 647 1581 647 1577 646 1572
 646 1568 646 1563 646 1559 646 1554
 647 1550 647 1545 647 1541 647 1537
 647 1532 647 1528 647 1523 648 1519
 648 1515 648 1510 648 1506 649 1501
 649 1497 649 1492 650 1488 650 1483
 651 1479 651 1474 651 1470 652 1466
 652 1461 653 1457 654 1452 654 1448
 655 1443 655 1439 2910 1565 59 3 1 roll cnp
 0.87 setgray eofill 0.0 setgray 0.0 setgray 2910 1565 655 1692 655 1688 654 1683 654 1679 653 1674 653 1670 652 1665 652 1661
 651 1657 651 1652 650 1648 650 1643 649 1639 649 1634 649 1630 648 1626
 648 1621 648 1617 648 1612 647 1608 647 1603 647 1599 647 1594 647 1590
 647 1586 647 1581 647 1577 646 1572 646 1568 646 1563 646 1559 646 1554
 647 1550 647 1545 647 1541 647 1537 647 1532 647 1528 647 1523 648 1519
 648 1515 648 1510 648 1506 649 1501 649 1497 649 1492 650 1488 650 1483
 651 1479 651 1474 651 1470 652 1466 652 1461 653 1457 654 1452 654 1448
 655 1443 655 1439 58 rcs

 2910 1565 2910 1565 1 rps
 2910 1565
 1556 508 1563 506 1570 504 1577 502
 1584 500 1591 498 1597 496 1605 494
 1612 492 1619 490 1626 488 1633 486
 1640 485 1647 483 1654 481 1662 479
 1669 478 1676 476 1684 474 1691 473
 1698 471 1706 470 1713 468 1721 467
 1728 465 1736 464 1744 462 1751 461
 1759 460 1766 458 1774 457 1782 456
 1790 454 1798 453 1805 452 1813 451
 1821 450 1829 449 1837 448 1845 447
 1853 446 1861 445 1869 444 1878 443
 1886 442 1894 441 1902 441 1910 440
 1919 439 1927 438 1935 438 1944 437
 1952 437 1961 436 1969 436 1978 435
 1986 435 1995 435 2003 434 2012 434
 2021 434 2910 1565 62 3 1 roll cnp
 0.87 setgray eofill 0.0 setgray 0.0 setgray 2910 1565 1556 508 1563 506 1570 504 1577 502 1584 500 1591 498 1597 496 1605 494
 1612 492 1619 490 1626 488 1633 486 1640 485 1647 483 1654 481 1662 479
 1669 478 1676 476 1684 474 1691 473 1698 471 1706 470 1713 468 1721 467
 1728 465 1736 464 1744 462 1751 461 1759 460 1766 458 1774 457 1782 456
 1790 454 1798 453 1805 452 1813 451 1821 450 1829 449 1837 448 1845 447
 1853 446 1861 445 1869 444 1878 443 1886 442 1894 441 1902 441 1910 440
 1919 439 1927 438 1935 438 1944 437 1952 437 1961 436 1969 436 1978 435
 1986 435 1995 435 2003 434 2012 434 2021 434 61 rcs

 2910 1565 2910 1565 1 add 1 rps
 3476 1565 3475 1583 3475 1601 3474 1618 3473 1636 3471 1654 3469 1671 3467 1689 3465 1706
 3462 1724 3458 1741 3455 1759 3451 1776 3447 1793 3442 1810 3437 1826 3432 1843
 3427 1860 3421 1876 3415 1892 3409 1908 3403 1924 3396 1939 3389 1955 3382 1970
 3374 1985 3367 2000 3359 2015 3351 2030 3343 2044 3334 2058 3326 2072 3317 2086
 3308 2099 3299 2112 3290 2126 3280 2138 3271 2151 3261 2164 3252 2176 3242 2188
 3232 2200 3222 2212 3212 2223 3202 2234 3191 2246 3181 2256 3170 2267 3160 2278
 3149 2288 3138 2298 3128 2308 3117 2318 3106 2328 3095 2337 3084 2346 3074 2355
 3062 2364 3051 2373 3040 2381 3029 2390 3018 2398 3007 2406 2996 2414 2985 2422
 2974 2430 2962 2437 2951 2444 2940 2451 2929 2459 2918 2465 2907 2472 2895 2479
 2884 2485 2873 2492 2862 2498 2851 2504 2840 2510 2828 2516 2817 2521 2806 2527
 2795 2532 2784 2538 2773 2543 2762 2548 2751 2553 2740 2558 2729 2563 2718 2567
 2707 2572 2696 2576 2685 2581 2674 2585 2663 2589 2652 2593 2641 2597 2630 2601
 2620 2605 2609 2608 2598 2612 2588 2615 2577 2619 101 rps
 2577 2619 2566 2622 2556 2625 2545 2628 2534 2631 2524 2634 2514 2637 2503 2640 2493 2643
 2482 2645 2472 2648 2461 2650 2451 2653 2441 2655 2431 2657 2420 2659 2410 2662
 2400 2664 2390 2666 2380 2667 2370 2669 2360 2671 2350 2673 2340 2674 2330 2676
 2320 2678 2310 2679 2300 2680 2291 2682 2281 2683 2271 2684 2262 2685 2252 2686
 2242 2687 2233 2688 2223 2689 2214 2690 2204 2691 2195 2692 2185 2692 2176 2693
 2167 2694 2157 2694 2148 2695 2139 2695 2130 2695 2121 2696 2111 2696 2102 2696
 2093 2696 2084 2696 2075 2697 2066 2697 2057 2697 2048 2697 2040 2696 2031 2696
 2022 2696 2013 2696 2005 2696 1996 2696 1987 2695 1979 2695 1970 2694 1961 2694
 1953 2693 1944 2693 1936 2692 1928 2692 1919 2691 1911 2690 1902 2690 1894 2689
 1886 2688 1878 2687 1870 2686 1861 2685 1853 2684 1845 2683 1837 2682 1829 2681
 1821 2680 1813 2679 1805 2678 1797 2677 1789 2676 1782 2674 1774 2673 1766 2672
 1758 2670 1751 2669 1743 2668 1735 2666 1728 2665 1720 2663 1713 2662 1705 2660
 1698 2659 1690 2657 1683 2655 1675 2654 1668 2652 101 rps
 1668 2652 1661 2650 1653 2649 1646 2647 1639 2645 1632 2643 1625 2641 1617 2640 1610 2638
 1603 2636 1596 2634 1589 2632 1582 2630 1575 2628 1568 2626 1561 2624 1555 2622
 1548 2620 1541 2617 1534 2615 1527 2613 1521 2611 1514 2609 1507 2606 1501 2604
 1494 2602 1488 2599 1481 2597 1475 2595 1468 2592 1462 2590 1455 2588 1449 2585
 1442 2583 1436 2580 1430 2578 1424 2575 1417 2573 1411 2570 1405 2567 1399 2565
 1393 2562 1387 2560 1380 2557 1374 2554 1368 2552 1362 2549 1356 2546 1350 2544
 1345 2541 1339 2538 1333 2535 1327 2532 1321 2530 1316 2527 1310 2524 1304 2521
 1298 2518 1293 2515 1287 2512 1282 2509 1276 2506 1270 2503 1265 2500 1259 2497
 1254 2494 1248 2491 1243 2488 1238 2485 1232 2482 1227 2479 1222 2476 1217 2473
 1211 2470 1206 2466 1201 2463 1196 2460 1190 2457 1185 2454 1180 2451 1175 2447
 1170 2444 1165 2441 1160 2437 1155 2434 1150 2431 1146 2428 1141 2424 1136 2421
 1131 2418 1126 2414 1121 2411 1117 2408 1112 2404 1107 2401 1103 2397 1098 2394
 1093 2390 1089 2387 1084 2383 1080 2380 1075 2377 101 rps
 1075 2377 1071 2373 1066 2369 1062 2366 1057 2362 1053 2359 1048 2355 1044 2352 1040 2348
 1036 2345 1031 2341 1027 2337 1023 2334 1019 2330 1015 2326 1010 2323 1006 2319
 1002 2315 998 2312 994 2308 990 2304 986 2301 982 2297 978 2293 974 2290
 970 2286 967 2282 963 2278 959 2274 955 2271 951 2267 948 2263 944 2259
 940 2255 937 2252 933 2248 929 2244 926 2240 922 2236 919 2232 915 2228
 912 2225 908 2221 905 2217 901 2213 898 2209 894 2205 891 2201 888 2197
 884 2193 881 2189 878 2185 875 2181 872 2177 868 2173 865 2169 862 2165
 859 2161 856 2157 853 2153 850 2149 847 2145 844 2141 841 2137 838 2133
 835 2129 832 2125 829 2121 826 2117 823 2113 820 2109 818 2105 815 2101
 812 2096 809 2092 807 2088 804 2084 801 2080 799 2076 796 2072 794 2068
 791 2063 81 rps
 791 2063 788 2059 786 2055 784 2051 781 2047 779 2043 776 2038 774 2034 772 2030
 769 2026 767 2022 764 2018 762 2013 760 2009 758 2005 756 2001 753 1996
 751 1992 749 1988 747 1984 745 1979 743 1975 741 1971 739 1967 737 1962
 735 1958 733 1954 731 1950 729 1945 727 1941 725 1937 723 1932 721 1928
 719 1924 718 1919 716 1915 714 1911 713 1907 711 1902 709 1898 707 1894
 706 1889 704 1885 703 1881 701 1876 699 1872 698 1868 697 1863 695 1859
 694 1855 692 1850 691 1846 689 1842 688 1837 687 1833 685 1829 684 1824
 683 1820 682 1815 680 1811 679 1807 678 1802 677 1798 676 1793 674 1789
 673 1785 672 1780 671 1776 670 1772 669 1767 668 1763 667 1758 666 1754
 665 1749 664 1745 664 1741 663 1736 662 1732 661 1727 660 1723 659 1719
 659 1714 658 1710 657 1705 657 1701 656 1696 655 1692 655 1688 654 1683
 654 1679 653 1674 653 1670 652 1665 652 1661 651 1657 651 1652 650 1648
 650 1643 649 1639 649 1634 649 1630 648 1626 101 rps
 648 1626 648 1621 648 1617 648 1612 647 1608 647 1603 647 1599 647 1594 647 1590
 647 1586 647 1581 647 1577 646 1572 646 1568 646 1563 646 1559 646 1554
 647 1550 647 1545 647 1541 647 1537 647 1532 647 1528 647 1523 648 1519
 648 1515 648 1510 648 1506 649 1501 649 1497 649 1492 650 1488 650 1483
 651 1479 651 1474 651 1470 652 1466 652 1461 653 1457 654 1452 654 1448
 655 1443 655 1439 656 1435 656 1430 657 1426 658 1421 659 1417 659 1413
 660 1408 661 1404 662 1399 663 1395 663 1390 664 1386 665 1382 666 1377
 667 1373 668 1368 669 1364 670 1360 671 1355 672 1351 673 1346 674 1342
 675 1338 676 1333 678 1329 679 1325 680 1320 681 1316 682 1311 684 1307
 685 1303 686 1298 688 1294 689 1290 690 1285 692 1281 693 1277 695 1272
 696 1268 698 1264 699 1259 701 1255 702 1251 704 1246 705 1242 707 1238
 709 1233 710 1229 712 1225 714 1220 715 1216 717 1212 719 1207 721 1203
 723 1199 724 1195 726 1190 728 1186 730 1182 101 rps
 730 1182 732 1177 734 1173 736 1169 738 1165 740 1160 742 1156 744 1152 746 1148
 748 1143 750 1139 753 1135 755 1131 757 1126 759 1122 761 1118 764 1114
 766 1110 768 1105 771 1101 773 1097 775 1093 778 1089 780 1084 783 1080
 785 1076 788 1072 790 1068 793 1064 795 1060 798 1055 801 1051 803 1047
 806 1043 809 1039 811 1035 814 1031 817 1027 820 1023 822 1019 825 1014
 828 1010 831 1006 834 1002 837 998 840 994 843 990 846 986 849 982
 852 978 855 974 858 970 861 966 864 962 867 958 870 954 873 950
 877 946 880 942 883 938 887 934 890 930 893 926 897 923 900 919
 903 915 907 911 910 907 914 903 917 899 921 895 924 891 928 888
 931 884 935 880 939 876 942 872 946 868 950 865 954 861 957 857
 961 853 965 850 969 846 973 842 977 838 981 835 984 831 988 827
 992 823 996 820 1001 816 1004 812 1009 809 1013 805 1017 802 1021 798
 1025 794 1029 791 1034 787 1038 783 1042 780 101 rps
 1042 780 1046 776 1051 773 1055 769 1060 766 1064 762 1068 759 1073 755 1077 752
 1082 748 1087 745 1091 741 1096 738 1100 734 1105 731 1110 728 1114 724
 1119 721 1124 717 1129 714 1133 711 1138 707 1143 704 1148 701 1153 697
 1158 694 1163 691 1168 688 1173 684 1178 681 1183 678 1188 675 1193 672
 1198 668 1203 665 1208 662 1214 659 1219 656 1224 653 1229 650 1235 647
 1240 643 1245 640 1251 637 1256 634 1262 631 1267 628 1273 625 1278 622
 1284 620 1289 617 1295 614 1301 611 1306 608 1312 605 1318 602 1323 599
 1329 597 1335 594 1341 591 1347 588 1353 586 1359 583 1364 580 1370 577
 1376 575 1382 572 1389 569 1395 567 1401 564 1407 562 1413 559 1419 557
 1425 554 1432 551 1438 549 1444 547 1451 544 1457 542 1463 539 1470 537
 1476 535 81 rps
 1476 535 1483 532 1489 530 1496 528 1502 525 1509 523 1516 521 1522 519 1529 516
 1536 514 1542 512 1549 510 1556 508 1563 506 1570 504 1577 502 1584 500
 1591 498 1597 496 1605 494 1612 492 1619 490 1626 488 1633 486 1640 485
 1647 483 1654 481 1662 479 1669 478 1676 476 1684 474 1691 473 1698 471
 1706 470 1713 468 1721 467 1728 465 1736 464 1744 462 1751 461 1759 460
 1766 458 1774 457 1782 456 1790 454 1798 453 1805 452 1813 451 1821 450
 1829 449 1837 448 1845 447 1853 446 1861 445 1869 444 1878 443 1886 442
 1894 441 1902 441 1910 440 1919 439 1927 438 1935 438 1944 437 1952 437
 1961 436 1969 436 1978 435 1986 435 1995 435 2003 434 2012 434 2021 434
 2029 434 2038 434 2047 433 2056 433 2065 433 2074 433 2083 434 2091 434
 2100 434 2109 434 2118 434 2127 435 2137 435 2146 435 2155 436 2164 436
 2173 437 2183 438 2192 438 2201 439 2211 440 2220 441 2230 441 2239 442
 2249 443 2258 444 2268 446 2277 447 2287 448 101 rps
 2287 448 2297 449 2306 450 2316 452 2326 453 2336 455 2346 457 2355 458 2365 460
 2375 462 2385 463 2395 465 2405 467 2415 469 2425 472 2436 474 2446 476
 2456 478 2466 481 2476 483 2487 486 2497 488 2507 491 2518 494 2528 497
 2538 500 2549 503 2559 506 2570 509 2580 512 2591 516 2601 519 2612 523
 2623 526 2633 530 2644 534 2655 538 2665 542 2676 546 2687 550 2698 555
 2709 559 2719 564 2730 568 2741 573 2752 578 2763 583 2774 588 2785 593
 2796 598 2807 603 2818 609 2829 615 2840 620 2851 626 2862 632 2873 638
 2884 645 2895 651 2906 657 2917 664 2928 671 2939 678 2950 685 2961 692
 2972 699 2983 707 2994 714 3005 722 3016 730 3027 738 3038 746 3048 755
 3059 763 3070 772 3081 781 3092 790 3102 799 3113 809 3124 818 3134 828
 3145 838 3155 848 3166 858 3176 869 3186 879 3196 890 3206 901 3217 912
 3226 924 3236 935 3246 947 3256 959 3265 971 3275 984 3284 996 3293 1009
 3302 1022 3311 1035 3320 1048 3328 1062 3336 1076 101 rps
 3336 1076 3345 1090 3353 1104 3361 1118 3368 1133 3376 1147 3383 1162 3390 1178 3397 1193
 3403 1208 3410 1224 3416 1240 3422 1256 3427 1272 3433 1288 3438 1305 3442 1321
 3447 1338 3451 1355 3455 1372 3458 1389 3462 1406 3465 1424 3467 1441 3469 1459
 3471 1476 3473 1494 3474 1512 3475 1529 3475 1547 3476 1565 30 rps
 3473 1550
 3479 1550 3485 1553 3488 1556 3491 1562
 3491 1568 3488 1574 3485 1577 3479 1580
 3473 1580 3467 1577 3464 1574 3461 1568
 3461 1562 3464 1556 3467 1553 3473 1550
 16 3 1 roll cnp
 0.00 setgray
gsave eofill grestore  0.0 setgray
 stroke 0.0 setgray 3455 1726
 3461 1726 3467 1729 3470 1732 3473 1738
 3473 1744 3470 1750 3467 1753 3461 1756
 3455 1756 3449 1753 3446 1750 3443 1744
 3443 1738 3446 1732 3449 1729 3455 1726
 16 3 1 roll cnp
 0.00 setgray
gsave eofill grestore  0.0 setgray
 stroke 0.0 setgray 3406 1893
 3412 1893 3418 1896 3421 1899 3424 1905
 3424 1911 3421 1917 3418 1920 3412 1923
 3406 1923 3400 1920 3397 1917 3394 1911
 3394 1905 3397 1899 3400 1896 3406 1893
 16 3 1 roll cnp
 0.00 setgray
gsave eofill grestore  0.0 setgray
 stroke 0.0 setgray 3331 2043
 3337 2043 3343 2046 3346 2049 3349 2055
 3349 2061 3346 2067 3343 2070 3337 2073
 3331 2073 3325 2070 3322 2067 3319 2061
 3319 2055 3322 2049 3325 2046 3331 2043
 16 3 1 roll cnp
 0.00 setgray
gsave eofill grestore  0.0 setgray
 stroke 0.0 setgray 3239 2173
 3245 2173 3251 2176 3254 2179 3257 2185
 3257 2191 3254 2197 3251 2200 3245 2203
 3239 2203 3233 2200 3230 2197 3227 2191
 3227 2185 3230 2179 3233 2176 3239 2173
 16 3 1 roll cnp
 0.00 setgray
gsave eofill grestore  0.0 setgray
 stroke 0.0 setgray 3135 2283
 3141 2283 3147 2286 3150 2289 3153 2295
 3153 2301 3150 2307 3147 2310 3141 2313
 3135 2313 3129 2310 3126 2307 3123 2301
 3123 2295 3126 2289 3129 2286 3135 2283
 16 3 1 roll cnp
 0.00 setgray
gsave eofill grestore  0.0 setgray
 stroke 0.0 setgray 3026 2375
 3032 2375 3038 2378 3041 2381 3044 2387
 3044 2393 3041 2399 3038 2402 3032 2405
 3026 2405 3020 2402 3017 2399 3014 2393
 3014 2387 3017 2381 3020 2378 3026 2375
 16 3 1 roll cnp
 0.00 setgray
gsave eofill grestore  0.0 setgray
 stroke 0.0 setgray 2915 2450
 2921 2450 2927 2453 2930 2456 2933 2462
 2933 2468 2930 2474 2927 2477 2921 2480
 2915 2480 2909 2477 2906 2474 2903 2468
 2903 2462 2906 2456 2909 2453 2915 2450
 16 3 1 roll cnp
 0.00 setgray
gsave eofill grestore  0.0 setgray
 stroke 0.0 setgray 2803 2512
 2809 2512 2815 2515 2818 2518 2821 2524
 2821 2530 2818 2536 2815 2539 2809 2542
 2803 2542 2797 2539 2794 2536 2791 2530
 2791 2524 2794 2518 2797 2515 2803 2512
 16 3 1 roll cnp
 0.00 setgray
gsave eofill grestore  0.0 setgray
 stroke 0.0 setgray 2693 2561
 2699 2561 2705 2564 2708 2567 2711 2573
 2711 2579 2708 2585 2705 2588 2699 2591
 2693 2591 2687 2588 2684 2585 2681 2579
 2681 2573 2684 2567 2687 2564 2693 2561
 16 3 1 roll cnp
 0.00 setgray
gsave eofill grestore  0.0 setgray
 stroke 0.0 setgray 2585 2600
 2591 2600 2597 2603 2600 2606 2603 2612
 2603 2618 2600 2624 2597 2627 2591 2630
 2585 2630 2579 2627 2576 2624 2573 2618
 2573 2612 2576 2606 2579 2603 2585 2600
 16 3 1 roll cnp
 0.00 setgray
gsave eofill grestore  0.0 setgray
 stroke 0.0 setgray 2479 2630
 2485 2630 2491 2633 2494 2636 2497 2642
 2497 2648 2494 2654 2491 2657 2485 2660
 2479 2660 2473 2657 2470 2654 2467 2648
 2467 2642 2470 2636 2473 2633 2479 2630
 16 3 1 roll cnp
 0.00 setgray
gsave eofill grestore  0.0 setgray
 stroke 0.0 setgray 2377 2652
 2383 2652 2389 2655 2392 2658 2395 2664
 2395 2670 2392 2676 2389 2679 2383 2682
 2377 2682 2371 2679 2368 2676 2365 2670
 2365 2664 2368 2658 2371 2655 2377 2652
 16 3 1 roll cnp
 0.00 setgray
gsave eofill grestore  0.0 setgray
 stroke 0.0 setgray 2278 2668
 2284 2668 2290 2671 2293 2674 2296 2680
 2296 2686 2293 2692 2290 2695 2284 2698
 2278 2698 2272 2695 2269 2692 2266 2686
 2266 2680 2269 2674 2272 2671 2278 2668
 16 3 1 roll cnp
 0.00 setgray
gsave eofill grestore  0.0 setgray
 stroke 0.0 setgray 2182 2677
 2188 2677 2194 2680 2197 2683 2200 2689
 2200 2695 2197 2701 2194 2704 2188 2707
 2182 2707 2176 2704 2173 2701 2170 2695
 2170 2689 2173 2683 2176 2680 2182 2677
 16 3 1 roll cnp
 0.00 setgray
gsave eofill grestore  0.0 setgray
 stroke 0.0 setgray 2090 2681
 2096 2681 2102 2684 2105 2687 2108 2693
 2108 2699 2105 2705 2102 2708 2096 2711
 2090 2711 2084 2708 2081 2705 2078 2699
 2078 2693 2081 2687 2084 2684 2090 2681
 16 3 1 roll cnp
 0.00 setgray
gsave eofill grestore  0.0 setgray
 stroke 0.0 setgray 2002 2681
 2008 2681 2014 2684 2017 2687 2020 2693
 2020 2699 2017 2705 2014 2708 2008 2711
 2002 2711 1996 2708 1993 2705 1990 2699
 1990 2693 1993 2687 1996 2684 2002 2681
 16 3 1 roll cnp
 0.00 setgray
gsave eofill grestore  0.0 setgray
 stroke 0.0 setgray 1916 2676
 1922 2676 1928 2679 1931 2682 1934 2688
 1934 2694 1931 2700 1928 2703 1922 2706
 1916 2706 1910 2703 1907 2700 1904 2694
 1904 2688 1907 2682 1910 2679 1916 2676
 16 3 1 roll cnp
 0.00 setgray
gsave eofill grestore  0.0 setgray
 stroke 0.0 setgray 1834 2667
 1840 2667 1846 2670 1849 2673 1852 2679
 1852 2685 1849 2691 1846 2694 1840 2697
 1834 2697 1828 2694 1825 2691 1822 2685
 1822 2679 1825 2673 1828 2670 1834 2667
 16 3 1 roll cnp
 0.00 setgray
gsave eofill grestore  0.0 setgray
 stroke 0.0 setgray 1755 2655
 1761 2655 1767 2658 1770 2661 1773 2667
 1773 2673 1770 2679 1767 2682 1761 2685
 1755 2685 1749 2682 1746 2679 1743 2673
 1743 2667 1746 2661 1749 2658 1755 2655
 16 3 1 roll cnp
 0.00 setgray
gsave eofill grestore  0.0 setgray
 stroke 0.0 setgray 1680 2640
 1686 2640 1692 2643 1695 2646 1698 2652
 1698 2658 1695 2664 1692 2667 1686 2670
 1680 2670 1674 2667 1671 2664 1668 2658
 1668 2652 1671 2646 1674 2643 1680 2640
 16 3 1 roll cnp
 0.00 setgray
gsave eofill grestore  0.0 setgray
 stroke 0.0 setgray 1607 2623
 1613 2623 1619 2626 1622 2629 1625 2635
 1625 2641 1622 2647 1619 2650 1613 2653
 1607 2653 1601 2650 1598 2647 1595 2641
 1595 2635 1598 2629 1601 2626 1607 2623
 16 3 1 roll cnp
 0.00 setgray
gsave eofill grestore  0.0 setgray
 stroke 0.0 setgray 1538 2602
 1544 2602 1550 2605 1553 2608 1556 2614
 1556 2620 1553 2626 1550 2629 1544 2632
 1538 2632 1532 2629 1529 2626 1526 2620
 1526 2614 1529 2608 1532 2605 1538 2602
 16 3 1 roll cnp
 0.00 setgray
gsave eofill grestore  0.0 setgray
 stroke 0.0 setgray 1472 2580
 1478 2580 1484 2583 1487 2586 1490 2592
 1490 2598 1487 2604 1484 2607 1478 2610
 1472 2610 1466 2607 1463 2604 1460 2598
 1460 2592 1463 2586 1466 2583 1472 2580
 16 3 1 roll cnp
 0.00 setgray
gsave eofill grestore  0.0 setgray
 stroke 0.0 setgray 1408 2555
 1414 2555 1420 2558 1423 2561 1426 2567
 1426 2573 1423 2579 1420 2582 1414 2585
 1408 2585 1402 2582 1399 2579 1396 2573
 1396 2567 1399 2561 1402 2558 1408 2555
 16 3 1 roll cnp
 0.00 setgray
gsave eofill grestore  0.0 setgray
 stroke 0.0 setgray 1347 2529
 1353 2529 1359 2532 1362 2535 1365 2541
 1365 2547 1362 2553 1359 2556 1353 2559
 1347 2559 1341 2556 1338 2553 1335 2547
 1335 2541 1338 2535 1341 2532 1347 2529
 16 3 1 roll cnp
 0.00 setgray
gsave eofill grestore  0.0 setgray
 stroke 0.0 setgray 1290 2500
 1296 2500 1302 2503 1305 2506 1308 2512
 1308 2518 1305 2524 1302 2527 1296 2530
 1290 2530 1284 2527 1281 2524 1278 2518
 1278 2512 1281 2506 1284 2503 1290 2500
 16 3 1 roll cnp
 0.00 setgray
gsave eofill grestore  0.0 setgray
 stroke 0.0 setgray 1235 2470
 1241 2470 1247 2473 1250 2476 1253 2482
 1253 2488 1250 2494 1247 2497 1241 2500
 1235 2500 1229 2497 1226 2494 1223 2488
 1223 2482 1226 2476 1229 2473 1235 2470
 16 3 1 roll cnp
 0.00 setgray
gsave eofill grestore  0.0 setgray
 stroke 0.0 setgray 1182 2439
 1188 2439 1194 2442 1197 2445 1200 2451
 1200 2457 1197 2463 1194 2466 1188 2469
 1182 2469 1176 2466 1173 2463 1170 2457
 1170 2451 1173 2445 1176 2442 1182 2439
 16 3 1 roll cnp
 0.00 setgray
gsave eofill grestore  0.0 setgray
 stroke 0.0 setgray 1133 2406
 1139 2406 1145 2409 1148 2412 1151 2418
 1151 2424 1148 2430 1145 2433 1139 2436
 1133 2436 1127 2433 1124 2430 1121 2424
 1121 2418 1124 2412 1127 2409 1133 2406
 16 3 1 roll cnp
 0.00 setgray
gsave eofill grestore  0.0 setgray
 stroke 0.0 setgray 1086 2372
 1092 2372 1098 2375 1101 2378 1104 2384
 1104 2390 1101 2396 1098 2399 1092 2402
 1086 2402 1080 2399 1077 2396 1074 2390
 1074 2384 1077 2378 1080 2375 1086 2372
 16 3 1 roll cnp
 0.00 setgray
gsave eofill grestore  0.0 setgray
 stroke 0.0 setgray 1041 2337
 1047 2337 1053 2340 1056 2343 1059 2349
 1059 2355 1056 2361 1053 2364 1047 2367
 1041 2367 1035 2364 1032 2361 1029 2355
 1029 2349 1032 2343 1035 2340 1041 2337
 16 3 1 roll cnp
 0.00 setgray
gsave eofill grestore  0.0 setgray
 stroke 0.0 setgray 999 2300
 1005 2300 1011 2303 1014 2306 1017 2312
 1017 2318 1014 2324 1011 2327 1005 2330
 999 2330 993 2327 990 2324 987 2318
 987 2312 990 2306 993 2303 999 2300
 16 3 1 roll cnp
 0.00 setgray
gsave eofill grestore  0.0 setgray
 stroke 0.0 setgray 960 2263
 966 2263 972 2266 975 2269 978 2275
 978 2281 975 2287 972 2290 966 2293
 960 2293 954 2290 951 2287 948 2281
 948 2275 951 2269 954 2266 960 2263
 16 3 1 roll cnp
 0.00 setgray
gsave eofill grestore  0.0 setgray
 stroke 0.0 setgray 923 2225
 929 2225 935 2228 938 2231 941 2237
 941 2243 938 2249 935 2252 929 2255
 923 2255 917 2252 914 2249 911 2243
 911 2237 914 2231 917 2228 923 2225
 16 3 1 roll cnp
 0.00 setgray
gsave eofill grestore  0.0 setgray
 stroke 0.0 setgray 888 2186
 894 2186 900 2189 903 2192 906 2198
 906 2204 903 2210 900 2213 894 2216
 888 2216 882 2213 879 2210 876 2204
 876 2198 879 2192 882 2189 888 2186
 16 3 1 roll cnp
 0.00 setgray
gsave eofill grestore  0.0 setgray
 stroke 0.0 setgray 856 2146
 862 2146 868 2149 871 2152 874 2158
 874 2164 871 2170 868 2173 862 2176
 856 2176 850 2173 847 2170 844 2164
 844 2158 847 2152 850 2149 856 2146
 16 3 1 roll cnp
 0.00 setgray
gsave eofill grestore  0.0 setgray
 stroke 0.0 setgray 826 2106
 832 2106 838 2109 841 2112 844 2118
 844 2124 841 2130 838 2133 832 2136
 826 2136 820 2133 817 2130 814 2124
 814 2118 817 2112 820 2109 826 2106
 16 3 1 roll cnp
 0.00 setgray
gsave eofill grestore  0.0 setgray
 stroke 0.0 setgray 798 2065
 804 2065 810 2068 813 2071 816 2077
 816 2083 813 2089 810 2092 804 2095
 798 2095 792 2092 789 2089 786 2083
 786 2077 789 2071 792 2068 798 2065
 16 3 1 roll cnp
 0.00 setgray
gsave eofill grestore  0.0 setgray
 stroke 0.0 setgray 773 2023
 779 2023 785 2026 788 2029 791 2035
 791 2041 788 2047 785 2050 779 2053
 773 2053 767 2050 764 2047 761 2041
 761 2035 764 2029 767 2026 773 2023
 16 3 1 roll cnp
 0.00 setgray
gsave eofill grestore  0.0 setgray
 stroke 0.0 setgray 750 1981
 756 1981 762 1984 765 1987 768 1993
 768 1999 765 2005 762 2008 756 2011
 750 2011 744 2008 741 2005 738 1999
 738 1993 741 1987 744 1984 750 1981
 16 3 1 roll cnp
 0.00 setgray
gsave eofill grestore  0.0 setgray
 stroke 0.0 setgray 730 1939
 736 1939 742 1942 745 1945 748 1951
 748 1957 745 1963 742 1966 736 1969
 730 1969 724 1966 721 1963 718 1957
 718 1951 721 1945 724 1942 730 1939
 16 3 1 roll cnp
 0.00 setgray
gsave eofill grestore  0.0 setgray
 stroke 0.0 setgray 711 1896
 717 1896 723 1899 726 1902 729 1908
 729 1914 726 1920 723 1923 717 1926
 711 1926 705 1923 702 1920 699 1914
 699 1908 702 1902 705 1899 711 1896
 16 3 1 roll cnp
 0.00 setgray
gsave eofill grestore  0.0 setgray
 stroke 0.0 setgray 695 1853
 701 1853 707 1856 710 1859 713 1865
 713 1871 710 1877 707 1880 701 1883
 695 1883 689 1880 686 1877 683 1871
 683 1865 686 1859 689 1856 695 1853
 16 3 1 roll cnp
 0.00 setgray
gsave eofill grestore  0.0 setgray
 stroke 0.0 setgray 681 1809
 687 1809 693 1812 696 1815 699 1821
 699 1827 696 1833 693 1836 687 1839
 681 1839 675 1836 672 1833 669 1827
 669 1821 672 1815 675 1812 681 1809
 16 3 1 roll cnp
 0.00 setgray
gsave eofill grestore  0.0 setgray
 stroke 0.0 setgray 669 1765
 675 1765 681 1768 684 1771 687 1777
 687 1783 684 1789 681 1792 675 1795
 669 1795 663 1792 660 1789 657 1783
 657 1777 660 1771 663 1768 669 1765
 16 3 1 roll cnp
 0.00 setgray
gsave eofill grestore  0.0 setgray
 stroke 0.0 setgray 660 1721
 666 1721 672 1724 675 1727 678 1733
 678 1739 675 1745 672 1748 666 1751
 660 1751 654 1748 651 1745 648 1739
 648 1733 651 1727 654 1724 660 1721
 16 3 1 roll cnp
 0.00 setgray
gsave eofill grestore  0.0 setgray
 stroke 0.0 setgray 652 1677
 658 1677 664 1680 667 1683 670 1689
 670 1695 667 1701 664 1704 658 1707
 652 1707 646 1704 643 1701 640 1695
 640 1689 643 1683 646 1680 652 1677
 16 3 1 roll cnp
 0.00 setgray
gsave eofill grestore  0.0 setgray
 stroke 0.0 setgray 647 1633
 653 1633 659 1636 662 1639 665 1645
 665 1651 662 1657 659 1660 653 1663
 647 1663 641 1660 638 1657 635 1651
 635 1645 638 1639 641 1636 647 1633
 16 3 1 roll cnp
 0.00 setgray
gsave eofill grestore  0.0 setgray
 stroke 0.0 setgray 644 1588
 650 1588 656 1591 659 1594 662 1600
 662 1606 659 1612 656 1615 650 1618
 644 1618 638 1615 635 1612 632 1606
 632 1600 635 1594 638 1591 644 1588
 16 3 1 roll cnp
 0.00 setgray
gsave eofill grestore  0.0 setgray
 stroke 0.0 setgray 643 1544
 649 1544 655 1547 658 1550 661 1556
 661 1562 658 1568 655 1571 649 1574
 643 1574 637 1571 634 1568 631 1562
 631 1556 634 1550 637 1547 643 1544
 16 3 1 roll cnp
 0.00 setgray
gsave eofill grestore  0.0 setgray
 stroke 0.0 setgray 645 1500
 651 1500 657 1503 660 1506 663 1512
 663 1518 660 1524 657 1527 651 1530
 645 1530 639 1527 636 1524 633 1518
 633 1512 636 1506 639 1503 645 1500
 16 3 1 roll cnp
 0.00 setgray
gsave eofill grestore  0.0 setgray
 stroke 0.0 setgray 648 1455
 654 1455 660 1458 663 1461 666 1467
 666 1473 663 1479 660 1482 654 1485
 648 1485 642 1482 639 1479 636 1473
 636 1467 639 1461 642 1458 648 1455
 16 3 1 roll cnp
 0.00 setgray
gsave eofill grestore  0.0 setgray
 stroke 0.0 setgray 654 1411
 660 1411 666 1414 669 1417 672 1423
 672 1429 669 1435 666 1438 660 1441
 654 1441 648 1438 645 1435 642 1429
 642 1423 645 1417 648 1414 654 1411
 16 3 1 roll cnp
 0.00 setgray
gsave eofill grestore  0.0 setgray
 stroke 0.0 setgray 662 1367
 668 1367 674 1370 677 1373 680 1379
 680 1385 677 1391 674 1394 668 1397
 662 1397 656 1394 653 1391 650 1385
 650 1379 653 1373 656 1370 662 1367
 16 3 1 roll cnp
 0.00 setgray
gsave eofill grestore  0.0 setgray
 stroke 0.0 setgray 672 1323
 678 1323 684 1326 687 1329 690 1335
 690 1341 687 1347 684 1350 678 1353
 672 1353 666 1350 663 1347 660 1341
 660 1335 663 1329 666 1326 672 1323
 16 3 1 roll cnp
 0.00 setgray
gsave eofill grestore  0.0 setgray
 stroke 0.0 setgray 685 1279
 691 1279 697 1282 700 1285 703 1291
 703 1297 700 1303 697 1306 691 1309
 685 1309 679 1306 676 1303 673 1297
 673 1291 676 1285 679 1282 685 1279
 16 3 1 roll cnp
 0.00 setgray
gsave eofill grestore  0.0 setgray
 stroke 0.0 setgray 699 1236
 705 1236 711 1239 714 1242 717 1248
 717 1254 714 1260 711 1263 705 1266
 699 1266 693 1263 690 1260 687 1254
 687 1248 690 1242 693 1239 699 1236
 16 3 1 roll cnp
 0.00 setgray
gsave eofill grestore  0.0 setgray
 stroke 0.0 setgray 716 1192
 722 1192 728 1195 731 1198 734 1204
 734 1210 731 1216 728 1219 722 1222
 716 1222 710 1219 707 1216 704 1210
 704 1204 707 1198 710 1195 716 1192
 16 3 1 roll cnp
 0.00 setgray
gsave eofill grestore  0.0 setgray
 stroke 0.0 setgray 735 1150
 741 1150 747 1153 750 1156 753 1162
 753 1168 750 1174 747 1177 741 1180
 735 1180 729 1177 726 1174 723 1168
 723 1162 726 1156 729 1153 735 1150
 16 3 1 roll cnp
 0.00 setgray
gsave eofill grestore  0.0 setgray
 stroke 0.0 setgray 756 1107
 762 1107 768 1110 771 1113 774 1119
 774 1125 771 1131 768 1134 762 1137
 756 1137 750 1134 747 1131 744 1125
 744 1119 747 1113 750 1110 756 1107
 16 3 1 roll cnp
 0.00 setgray
gsave eofill grestore  0.0 setgray
 stroke 0.0 setgray 780 1065
 786 1065 792 1068 795 1071 798 1077
 798 1083 795 1089 792 1092 786 1095
 780 1095 774 1092 771 1089 768 1083
 768 1077 771 1071 774 1068 780 1065
 16 3 1 roll cnp
 0.00 setgray
gsave eofill grestore  0.0 setgray
 stroke 0.0 setgray 806 1024
 812 1024 818 1027 821 1030 824 1036
 824 1042 821 1048 818 1051 812 1054
 806 1054 800 1051 797 1048 794 1042
 794 1036 797 1030 800 1027 806 1024
 16 3 1 roll cnp
 0.00 setgray
gsave eofill grestore  0.0 setgray
 stroke 0.0 setgray 834 983
 840 983 846 986 849 989 852 995
 852 1001 849 1007 846 1010 840 1013
 834 1013 828 1010 825 1007 822 1001
 822 995 825 989 828 986 834 983
 16 3 1 roll cnp
 0.00 setgray
gsave eofill grestore  0.0 setgray
 stroke 0.0 setgray 864 943
 870 943 876 946 879 949 882 955
 882 961 879 967 876 970 870 973
 864 973 858 970 855 967 852 961
 852 955 855 949 858 946 864 943
 16 3 1 roll cnp
 0.00 setgray
gsave eofill grestore  0.0 setgray
 stroke 0.0 setgray 897 904
 903 904 909 907 912 910 915 916
 915 922 912 928 909 931 903 934
 897 934 891 931 888 928 885 922
 885 916 888 910 891 907 897 904
 16 3 1 roll cnp
 0.00 setgray
gsave eofill grestore  0.0 setgray
 stroke 0.0 setgray 932 865
 938 865 944 868 947 871 950 877
 950 883 947 889 944 892 938 895
 932 895 926 892 923 889 920 883
 920 877 923 871 926 868 932 865
 16 3 1 roll cnp
 0.00 setgray
gsave eofill grestore  0.0 setgray
 stroke 0.0 setgray 970 827
 976 827 982 830 985 833 988 839
 988 845 985 851 982 854 976 857
 970 857 964 854 961 851 958 845
 958 839 961 833 964 830 970 827
 16 3 1 roll cnp
 0.00 setgray
gsave eofill grestore  0.0 setgray
 stroke 0.0 setgray 1010 790
 1016 790 1022 793 1025 796 1028 802
 1028 808 1025 814 1022 817 1016 820
 1010 820 1004 817 1001 814 998 808
 998 802 1001 796 1004 793 1010 790
 16 3 1 roll cnp
 0.00 setgray
gsave eofill grestore  0.0 setgray
 stroke 0.0 setgray 1052 754
 1058 754 1064 757 1067 760 1070 766
 1070 772 1067 778 1064 781 1058 784
 1052 784 1046 781 1043 778 1040 772
 1040 766 1043 760 1046 757 1052 754
 16 3 1 roll cnp
 0.00 setgray
gsave eofill grestore  0.0 setgray
 stroke 0.0 setgray 1097 719
 1103 719 1109 722 1112 725 1115 731
 1115 737 1112 743 1109 746 1103 749
 1097 749 1091 746 1088 743 1085 737
 1085 731 1088 725 1091 722 1097 719
 16 3 1 roll cnp
 0.00 setgray
gsave eofill grestore  0.0 setgray
 stroke 0.0 setgray 1145 686
 1151 686 1157 689 1160 692 1163 698
 1163 704 1160 710 1157 713 1151 716
 1145 716 1139 713 1136 710 1133 704
 1133 698 1136 692 1139 689 1145 686
 16 3 1 roll cnp
 0.00 setgray
gsave eofill grestore  0.0 setgray
 stroke 0.0 setgray 1195 653
 1201 653 1207 656 1210 659 1213 665
 1213 671 1210 677 1207 680 1201 683
 1195 683 1189 680 1186 677 1183 671
 1183 665 1186 659 1189 656 1195 653
 16 3 1 roll cnp
 0.00 setgray
gsave eofill grestore  0.0 setgray
 stroke 0.0 setgray 1248 622
 1254 622 1260 625 1263 628 1266 634
 1266 640 1263 646 1260 649 1254 652
 1248 652 1242 649 1239 646 1236 640
 1236 634 1239 628 1242 625 1248 622
 16 3 1 roll cnp
 0.00 setgray
gsave eofill grestore  0.0 setgray
 stroke 0.0 setgray 1303 593
 1309 593 1315 596 1318 599 1321 605
 1321 611 1318 617 1315 620 1309 623
 1303 623 1297 620 1294 617 1291 611
 1291 605 1294 599 1297 596 1303 593
 16 3 1 roll cnp
 0.00 setgray
gsave eofill grestore  0.0 setgray
 stroke 0.0 setgray 1361 565
 1367 565 1373 568 1376 571 1379 577
 1379 583 1376 589 1373 592 1367 595
 1361 595 1355 592 1352 589 1349 583
 1349 577 1352 571 1355 568 1361 565
 16 3 1 roll cnp
 0.00 setgray
gsave eofill grestore  0.0 setgray
 stroke 0.0 setgray 1422 539
 1428 539 1434 542 1437 545 1440 551
 1440 557 1437 563 1434 566 1428 569
 1422 569 1416 566 1413 563 1410 557
 1410 551 1413 545 1416 542 1422 539
 16 3 1 roll cnp
 0.00 setgray
gsave eofill grestore  0.0 setgray
 stroke 0.0 setgray 1486 515
 1492 515 1498 518 1501 521 1504 527
 1504 533 1501 539 1498 542 1492 545
 1486 545 1480 542 1477 539 1474 533
 1474 527 1477 521 1480 518 1486 515
 16 3 1 roll cnp
 0.00 setgray
gsave eofill grestore  0.0 setgray
 stroke 0.0 setgray 1553 493
 1559 493 1565 496 1568 499 1571 505
 1571 511 1568 517 1565 520 1559 523
 1553 523 1547 520 1544 517 1541 511
 1541 505 1544 499 1547 496 1553 493
 16 3 1 roll cnp
 0.00 setgray
gsave eofill grestore  0.0 setgray
 stroke 0.0 setgray 1623 473
 1629 473 1635 476 1638 479 1641 485
 1641 491 1638 497 1635 500 1629 503
 1623 503 1617 500 1614 497 1611 491
 1611 485 1614 479 1617 476 1623 473
 16 3 1 roll cnp
 0.00 setgray
gsave eofill grestore  0.0 setgray
 stroke 0.0 setgray 1695 456
 1701 456 1707 459 1710 462 1713 468
 1713 474 1710 480 1707 483 1701 486
 1695 486 1689 483 1686 480 1683 474
 1683 468 1686 462 1689 459 1695 456
 16 3 1 roll cnp
 0.00 setgray
gsave eofill grestore  0.0 setgray
 stroke 0.0 setgray 1771 442
 1777 442 1783 445 1786 448 1789 454
 1789 460 1786 466 1783 469 1777 472
 1771 472 1765 469 1762 466 1759 460
 1759 454 1762 448 1765 445 1771 442
 16 3 1 roll cnp
 0.00 setgray
gsave eofill grestore  0.0 setgray
 stroke 0.0 setgray 1850 431
 1856 431 1862 434 1865 437 1868 443
 1868 449 1865 455 1862 458 1856 461
 1850 461 1844 458 1841 455 1838 449
 1838 443 1841 437 1844 434 1850 431
 16 3 1 roll cnp
 0.00 setgray
gsave eofill grestore  0.0 setgray
 stroke 0.0 setgray 1932 423
 1938 423 1944 426 1947 429 1950 435
 1950 441 1947 447 1944 450 1938 453
 1932 453 1926 450 1923 447 1920 441
 1920 435 1923 429 1926 426 1932 423
 16 3 1 roll cnp
 0.00 setgray
gsave eofill grestore  0.0 setgray
 stroke 0.0 setgray 2018 419
 2024 419 2030 422 2033 425 2036 431
 2036 437 2033 443 2030 446 2024 449
 2018 449 2012 446 2009 443 2006 437
 2006 431 2009 425 2012 422 2018 419
 16 3 1 roll cnp
 0.00 setgray
gsave eofill grestore  0.0 setgray
 stroke 0.0 setgray 2106 419
 2112 419 2118 422 2121 425 2124 431
 2124 437 2121 443 2118 446 2112 449
 2106 449 2100 446 2097 443 2094 437
 2094 431 2097 425 2100 422 2106 419
 16 3 1 roll cnp
 0.00 setgray
gsave eofill grestore  0.0 setgray
 stroke 0.0 setgray 2198 424
 2204 424 2210 427 2213 430 2216 436
 2216 442 2213 448 2210 451 2204 454
 2198 454 2192 451 2189 448 2186 442
 2186 436 2189 430 2192 427 2198 424
 16 3 1 roll cnp
 0.00 setgray
gsave eofill grestore  0.0 setgray
 stroke 0.0 setgray 2294 434
 2300 434 2306 437 2309 440 2312 446
 2312 452 2309 458 2306 461 2300 464
 2294 464 2288 461 2285 458 2282 452
 2282 446 2285 440 2288 437 2294 434
 16 3 1 roll cnp
 0.00 setgray
gsave eofill grestore  0.0 setgray
 stroke 0.0 setgray 2392 450
 2398 450 2404 453 2407 456 2410 462
 2410 468 2407 474 2404 477 2398 480
 2392 480 2386 477 2383 474 2380 468
 2380 462 2383 456 2386 453 2392 450
 16 3 1 roll cnp
 0.00 setgray
gsave eofill grestore  0.0 setgray
 stroke 0.0 setgray 2494 473
 2500 473 2506 476 2509 479 2512 485
 2512 491 2509 497 2506 500 2500 503
 2494 503 2488 500 2485 497 2482 491
 2482 485 2485 479 2488 476 2494 473
 16 3 1 roll cnp
 0.00 setgray
gsave eofill grestore  0.0 setgray
 stroke 0.0 setgray 2598 504
 2604 504 2610 507 2613 510 2616 516
 2616 522 2613 528 2610 531 2604 534
 2598 534 2592 531 2589 528 2586 522
 2586 516 2589 510 2592 507 2598 504
 16 3 1 roll cnp
 0.00 setgray
gsave eofill grestore  0.0 setgray
 stroke 0.0 setgray 2706 544
 2712 544 2718 547 2721 550 2724 556
 2724 562 2721 568 2718 571 2712 574
 2706 574 2700 571 2697 568 2694 562
 2694 556 2697 550 2700 547 2706 544
 16 3 1 roll cnp
 0.00 setgray
gsave eofill grestore  0.0 setgray
 stroke 0.0 setgray 2815 594
 2821 594 2827 597 2830 600 2833 606
 2833 612 2830 618 2827 621 2821 624
 2815 624 2809 621 2806 618 2803 612
 2803 606 2806 600 2809 597 2815 594
 16 3 1 roll cnp
 0.00 setgray
gsave eofill grestore  0.0 setgray
 stroke 0.0 setgray 2925 656
 2931 656 2937 659 2940 662 2943 668
 2943 674 2940 680 2937 683 2931 686
 2925 686 2919 683 2916 680 2913 674
 2913 668 2916 662 2919 659 2925 656
 16 3 1 roll cnp
 0.00 setgray
gsave eofill grestore  0.0 setgray
 stroke 0.0 setgray 3035 731
 3041 731 3047 734 3050 737 3053 743
 3053 749 3050 755 3047 758 3041 761
 3035 761 3029 758 3026 755 3023 749
 3023 743 3026 737 3029 734 3035 731
 16 3 1 roll cnp
 0.00 setgray
gsave eofill grestore  0.0 setgray
 stroke 0.0 setgray 3142 823
 3148 823 3154 826 3157 829 3160 835
 3160 841 3157 847 3154 850 3148 853
 3142 853 3136 850 3133 847 3130 841
 3130 835 3133 829 3136 826 3142 823
 16 3 1 roll cnp
 0.00 setgray
gsave eofill grestore  0.0 setgray
 stroke 0.0 setgray 3243 932
 3249 932 3255 935 3258 938 3261 944
 3261 950 3258 956 3255 959 3249 962
 3243 962 3237 959 3234 956 3231 950
 3231 944 3234 938 3237 935 3243 932
 16 3 1 roll cnp
 0.00 setgray
gsave eofill grestore  0.0 setgray
 stroke 0.0 setgray 3333 1061
 3339 1061 3345 1064 3348 1067 3351 1073
 3351 1079 3348 1085 3345 1088 3339 1091
 3333 1091 3327 1088 3324 1085 3321 1079
 3321 1073 3324 1067 3327 1064 3333 1061
 16 3 1 roll cnp
 0.00 setgray
gsave eofill grestore  0.0 setgray
 stroke 0.0 setgray 3407 1209
 3413 1209 3419 1212 3422 1215 3425 1221
 3425 1227 3422 1233 3419 1236 3413 1239
 3407 1239 3401 1236 3398 1233 3395 1227
 3395 1221 3398 1215 3401 1212 3407 1209
 16 3 1 roll cnp
 0.00 setgray
gsave eofill grestore  0.0 setgray
 stroke 0.0 setgray 3455 1374
 3461 1374 3467 1377 3470 1380 3473 1386
 3473 1392 3470 1398 3467 1401 3461 1404
 3455 1404 3449 1401 3446 1398 3443 1392
 3443 1386 3446 1380 3449 1377 3455 1374
 16 3 1 roll cnp
 0.00 setgray
gsave eofill grestore  0.0 setgray
 stroke 0.0 setgray 3473 1550
 3479 1550 3485 1553 3488 1556 3491 1562
 3491 1568 3488 1574 3485 1577 3479 1580
 3473 1580 3467 1577 3464 1574 3461 1568
 3461 1562 3464 1556 3467 1553 3473 1550
 16 3 1 roll cnp
 0.00 setgray
gsave eofill grestore  0.0 setgray
 stroke 0.0 setgray grestore showpage
%Trailer
%EOF
