%!PS-Adobe-2.0 EPSF-1.2
%%BoundingBox: 0 0 468 360
%%%%DocumentFonts: /Helvetica
%%Title: Axum PostScript file
%%Creator: TriMetrix, Inc.
%%Pages: 1
%%EndComments
% Copyright 1988-1991 by TriMetrix, Inc. All rights reserved.
/downdict 4 dict def
/sdown
 {downdict begin
  /thestring exch def
  /lineskip exch def
  thestring
   {
    /charcode exch def
    /thechar ( ) dup 0 charcode put def
    0 lineskip neg rmoveto
    gsave
     thechar stringwidth pop 2 div neg 0 rmoveto
     thechar show
    grestore
   } forall
   end
  } def

/updict 4 dict def
/sup
 {updict begin
  /thestring exch def
  /lineskip exch def
  thestring 
   {
    /charcode exch def
    /thechar ( ) dup 0 charcode put def
    0 lineskip rmoveto
    gsave
     thechar stringwidth pop 2 div neg 0 rmoveto
     thechar show
    grestore
   } forall
   end
  } def

/leftdict 4 dict def
/sleft
 {leftdict begin
  /thestring exch def
  thestring
   {
    /charcode exch def
    /thechar ( ) dup 0 charcode put def
    gsave
     thechar stringwidth pop neg 0 rmoveto
     thechar show
    grestore
   } forall

   thechar stringwidth pop neg 0 rmoveto
   end
  } def

/path{newpath moveto{lineto}repeat} bind def 
/cnp{newpath moveto{lineto}repeat closepath} bind def
/clp{moveto{lineto}repeat closepath} bind def
/rps{ 3 1 roll path stroke} bind def
/rcs{ 3 1 roll clp stroke} bind def
/setF { currentscreen 4 -2 roll pop 3 1 roll setscreen} bind def
% required due to WinWord 2.0 bug:
/II { } def

/reencodedict 5 dict def
/reencode
{
   reencodedict begin
   /newencoding exch def
   /newfontname exch def
   /basefontname exch def

   /basefontdict basefontname findfont def
   /newfont basefontdict maxlength dict def

   basefontdict
   {
      exch dup dup /FID ne exch /Encoding ne and
      { exch newfont 3 1 roll put }
      { pop pop }
      ifelse
   }
   forall

   newfont /FontName newfontname put
   newfont /Encoding newencoding put
   newfontname newfont definefont pop
   end
}
def

/axumencoding
[
/.notdef        %   0
/.notdef        %   1
/.notdef        %   2
/.notdef        %   3
/.notdef        %   4
/.notdef        %   5
/.notdef        %   6
/.notdef        %   7
/.notdef        %   8
/.notdef        %   9
/.notdef        %  10
/.notdef        %  11
/.notdef        %  12
/.notdef        %  13
/.notdef        %  14
/.notdef        %  15
/.notdef        %  16
/.notdef        %  17
/.notdef        %  18
/.notdef        %  19
/.notdef        %  20
/.notdef        %  21
/.notdef        %  22
/.notdef        %  23
/.notdef        %  24
/.notdef        %  25
/.notdef        %  26
/.notdef        %  27
/.notdef        %  28
/.notdef        %  29
/.notdef        %  30
/.notdef        %  31
/space          %  32
/exclam         %  33
/quotedbl       %  34
/numbersign     %  35
/dollar         %  36
/percent        %  37
/ampersand      %  38
/quoteright     %  39
/parenleft      %  40
/parenright     %  41
/asterisk       %  42
/plus           %  43
/comma          %  44
/hyphen         %  45
/period         %  46
/slash          %  47
/zero           %  48
/one            %  49
/two            %  50
/three          %  51
/four           %  52
/five           %  53
/six            %  54
/seven          %  55
/eight          %  56
/nine           %  57
/colon          %  58
/semicolon      %  59
/less           %  60
/equal          %  61
/greater        %  62
/question       %  63
/at             %  64
/A              %  65
/B              %  66
/C              %  67
/D              %  68
/E              %  69
/F              %  70
/G              %  71
/H              %  72
/I              %  73
/J              %  74
/K              %  75
/L              %  76
/M              %  77
/N              %  78
/O              %  79
/P              %  80
/Q              %  81
/R              %  82
/S              %  83
/T              %  84
/U              %  85
/V              %  86
/W              %  87
/X              %  88
/Y              %  89
/Z              %  90
/bracketleft    %  91
/backslash      %  92
/bracketright   %  93
/asciicircum    %  94
/underscore     %  95
/quoteleft      %  96
/a              %  97
/b              %  98
/c              %  99
/d              % 100
/e              % 101
/f              % 102
/g              % 103
/h              % 104
/i              % 105
/j              % 106
/k              % 107
/l              % 108
/m              % 109
/n              % 110
/o              % 111
/p              % 112
/q              % 113
/r              % 114
/s              % 115
/t              % 116
/u              % 117
/v              % 118
/w              % 119
/x              % 120
/y              % 121
/z              % 122
/braceleft      % 123
/bar            % 124
/braceright     % 125
/asciitilde     % 126
/.notdef        % 127
/Ccedilla       % 128
/udieresis      % 129
/eacute         % 130
/acircumflex    % 131
/adieresis      % 132
/agrave         % 133
/aring          % 134
/ccedilla       % 135
/ecircumflex    % 136
/edieresis      % 137
/egrave         % 138
/idieresis      % 139
/icircumflex    % 140
/igrave         % 141
/Adieresis      % 142
/Aring          % 143
/Eacute         % 144
/ae             % 145
/AE             % 146
/ocircumflex    % 147
/odieresis      % 148
/ograve         % 149
/ucircumflex    % 150
/ugrave         % 151
/ydieresis      % 152
/Odieresis      % 153
/Udieresis      % 154
/cent           % 155
/sterling       % 156
/yen            % 157
/currency       % 158
/florin         % 159
/aacute         % 160
/iacute         % 161
/oacute         % 162
/uacute         % 163
/ntilde         % 164
/Ntilde         % 165
/ordfeminine    % 166
/ordmasculine   % 167
/questiondown   % 168
/quotedblleft   % 169
/quotedblright  % 170
/Aacute         % 171
/Acircumflex    % 172
/exclamdown     % 173
/Egrave         % 174
/Ecircumflex    % 175
/atilde         % 176
/otilde         % 177
/Edieresis      % 178
/Igrave         % 179
/oe             % 180
/OE             % 181
/Agrave         % 182
/Atilde         % 183
/Otilde         % 184
/section        % 185
/Iacute         % 186
/Icircumflex    % 187
/Idieresis      % 188
/Ograve         % 189
/Oacute         % 190
/Ocircumflex    % 191
/Ugrave         % 192
/Uacute         % 193
/Ucircumflex    % 194
/Ydieresis      % 195
/germandbls     % 196
/guillemotleft  % 197
/guillemotright % 198
/bullet         % 199
/.notdef        % 200
/.notdef        % 201
/.notdef        % 202
/.notdef        % 203
/.notdef        % 204
/.notdef        % 205
/.notdef        % 206
/.notdef        % 207
/.notdef        % 208
/.notdef        % 209
/.notdef        % 210
/.notdef        % 211
/.notdef        % 212
/.notdef        % 213
/.notdef        % 214
/.notdef        % 215
/.notdef        % 216
/.notdef        % 217
/.notdef        % 218
/.notdef        % 219
/.notdef        % 220
/.notdef        % 221
/.notdef        % 222
/.notdef        % 223
/.notdef        % 224
/.notdef        % 225
/.notdef        % 226
/.notdef        % 227
/.notdef        % 228
/.notdef        % 229
/.notdef        % 230
/.notdef        % 231
/.notdef        % 232
/.notdef        % 233
/.notdef        % 234
/.notdef        % 235
/.notdef        % 236
/.notdef        % 237
/.notdef        % 238
/.notdef        % 239
/.notdef        % 240
/.notdef        % 241
/.notdef        % 242
/.notdef        % 243
/.notdef        % 244
/.notdef        % 245
/.notdef        % 246
/.notdef        % 247
/.notdef        % 248
/.notdef        % 249
/.notdef        % 250
/.notdef        % 251
/.notdef        % 252
/.notdef        % 253
/.notdef        % 254
/.notdef        % 255
] 
def

/axumfindfont
{
   /axumfont axumencoding reencode
   /axumfont findfont
}
def


/MainFont /Helvetica axumfindfont 98 scalefont def
MainFont setfont
1 setlinejoin 0 setlinecap 0 setgray
 gsave 72 630 div dup scale
 0.0 setgray [] 0 setdash

1 setlinewidth
 674 463 674 499 1 rps
 674 2737 674 2701 1 rps

/Times-Roman axumfindfont 105 scalefont setfont
 609 345 moveto  (0.1) show 
 935 463 935 490 1 rps
 935 2737 935 2710 1 rps
 1088 463 1088 490 1 rps
 1088 2737 1088 2710 1 rps
 1197 463 1197 490 1 rps
 1197 2737 1197 2710 1 rps
 1281 463 1281 490 1 rps
 1281 2737 1281 2710 1 rps
 1350 463 1350 490 1 rps
 1350 2737 1350 2710 1 rps
 1408 463 1408 490 1 rps
 1408 2737 1408 2710 1 rps
 1458 463 1458 490 1 rps
 1458 2737 1458 2710 1 rps
 1503 463 1503 490 1 rps
 1503 2737 1503 2710 1 rps
 1543 463 1543 499 1 rps
 1543 2737 1543 2701 1 rps
 1517 345 moveto  (1) show 
 1804 463 1804 490 1 rps
 1804 2737 1804 2710 1 rps
 1957 463 1957 490 1 rps
 1957 2737 1957 2710 1 rps
 2065 463 2065 490 1 rps
 2065 2737 2065 2710 1 rps
 2150 463 2150 490 1 rps
 2150 2737 2150 2710 1 rps
 2218 463 2218 490 1 rps
 2218 2737 2218 2710 1 rps
 2277 463 2277 490 1 rps
 2277 2737 2277 2710 1 rps
 2327 463 2327 490 1 rps
 2327 2737 2327 2710 1 rps
 2371 463 2371 490 1 rps
 2371 2737 2371 2710 1 rps
 2412 463 2412 499 1 rps
 2412 2737 2412 2701 1 rps
 2360 345 moveto  (10) show 
 2673 463 2673 490 1 rps
 2673 2737 2673 2710 1 rps
 2826 463 2826 490 1 rps
 2826 2737 2826 2710 1 rps
 2934 463 2934 490 1 rps
 2934 2737 2934 2710 1 rps
 3018 463 3018 490 1 rps
 3018 2737 3018 2710 1 rps
 3087 463 3087 490 1 rps
 3087 2737 3087 2710 1 rps
 3145 463 3145 490 1 rps
 3145 2737 3145 2710 1 rps
 3196 463 3196 490 1 rps
 3196 2737 3196 2710 1 rps
 3240 463 3240 490 1 rps
 3240 2737 3240 2710 1 rps
 3281 463 3281 499 1 rps
 3281 2737 3281 2701 1 rps
 3203 345 moveto  (100) show 
 3542 463 3542 490 1 rps
 3542 2737 3542 2710 1 rps
 3695 463 3695 490 1 rps
 3695 2737 3695 2710 1 rps
 674 463 3755 463 1 rps
 3755 463 3755 2737 1 rps
 3755 2737 674 2737 1 rps
 673 462 3755 462 1 rps
 3756 462 3756 2737 1 rps
 3756 2738 673 2738 1 rps
 672 461 3755 461 1 rps
 3757 461 3757 2737 1 rps
 3757 2739 672 2739 1 rps
 671 460 3755 460 1 rps
 3758 460 3758 2737 1 rps
 3758 2740 671 2740 1 rps
 670 459 3755 459 1 rps
 3759 459 3759 2737 1 rps
 3759 2741 670 2741 1 rps
 674 463 701 463 1 rps
 3755 463 3728 463 1 rps
 674 590 701 590 1 rps
 3755 590 3728 590 1 rps
 674 690 701 690 1 rps
 3755 690 3728 690 1 rps
 674 771 701 771 1 rps
 3755 771 3728 771 1 rps
 674 839 701 839 1 rps
 3755 839 3728 839 1 rps
 674 899 701 899 1 rps
 3755 899 3728 899 1 rps
 674 951 701 951 1 rps
 3755 951 3728 951 1 rps
 674 999 710 999 1 rps
 3755 999 3719 999 1 rps
 572 965 moveto  (1) show 
 674 1306 701 1306 1 rps
 3755 1306 3728 1306 1 rps
 674 1487 701 1487 1 rps
 3755 1487 3728 1487 1 rps
 674 1615 701 1615 1 rps
 3755 1615 3728 1615 1 rps
 674 1714 701 1714 1 rps
 3755 1714 3728 1714 1 rps
 674 1795 701 1795 1 rps
 3755 1795 3728 1795 1 rps
 674 1864 701 1864 1 rps
 3755 1864 3728 1864 1 rps
 674 1923 701 1923 1 rps
 3755 1923 3728 1923 1 rps
 674 1975 701 1975 1 rps
 3755 1975 3728 1975 1 rps
 674 2023 710 2023 1 rps
 3755 2023 3719 2023 1 rps
 520 1989 moveto  (10) show 
 674 2331 701 2331 1 rps
 3755 2331 3728 2331 1 rps
 674 2511 701 2511 1 rps
 3755 2511 3728 2511 1 rps
 674 2639 701 2639 1 rps
 3755 2639 3728 2639 1 rps
 674 2737 674 463 1 rps
 3755 463 3755 2737 1 rps
 3755 2737 674 2737 1 rps
 673 2737 673 462 1 rps
 3756 462 3756 2737 1 rps
 3756 2738 673 2738 1 rps
 672 2737 672 461 1 rps
 3757 461 3757 2737 1 rps
 3757 2739 672 2739 1 rps
 671 2737 671 460 1 rps
 3758 460 3758 2737 1 rps
 3758 2740 671 2740 1 rps
 670 2737 670 459 1 rps
 3759 459 3759 2737 1 rps
 3759 2741 670 2741 1 rps
 1002 554
 1010 554 1019 558 1024 563 1028 572
 1028 580 1024 589 1019 594 1010 598
 1002 598 993 594 988 589 984 580
 984 572 988 563 993 558 1002 554
 16 3 1 roll cnp
 0.00 setgray
gsave eofill grestore  0.0 setgray
 stroke 0.0 setgray 0.0 setgray 1006 576 1360 854 1 rps
 1356 832
 1364 832 1373 836 1378 841 1382 850
 1382 858 1378 867 1373 872 1364 876
 1356 876 1347 872 1342 867 1338 858
 1338 850 1342 841 1347 836 1356 832
 16 3 1 roll cnp
 0.00 setgray
gsave eofill grestore  0.0 setgray
 stroke 0.0 setgray 0.0 setgray 1360 854 1543 999 1 rps
 1539 977
 1547 977 1556 981 1561 986 1565 995
 1565 1003 1561 1012 1556 1017 1547 1021
 1539 1021 1530 1017 1525 1012 1521 1003
 1521 995 1525 986 1530 981 1539 977
 16 3 1 roll cnp
 0.00 setgray
gsave eofill grestore  0.0 setgray
 stroke 0.0 setgray 0.0 setgray 1543 999 1781 1186 1 rps
 1777 1164
 1785 1164 1794 1168 1799 1173 1803 1182
 1803 1190 1799 1199 1794 1204 1785 1208
 1777 1208 1768 1204 1763 1199 1759 1190
 1759 1182 1763 1173 1768 1168 1777 1164
 16 3 1 roll cnp
 0.00 setgray
gsave eofill grestore  0.0 setgray
 stroke 0.0 setgray 0.0 setgray 1781 1186 2476 1732 1 rps
 2472 1710
 2480 1710 2489 1714 2494 1719 2498 1728
 2498 1736 2494 1745 2489 1750 2480 1754
 2472 1754 2463 1750 2458 1745 2454 1736
 2454 1728 2458 1719 2463 1714 2472 1710
 16 3 1 roll cnp
 0.00 setgray
gsave eofill grestore  0.0 setgray
 stroke 0.0 setgray 0.0 setgray 2476 1732 2819 2002 1 rps
 2815 1980
 2823 1980 2832 1984 2837 1989 2841 1998
 2841 2006 2837 2015 2832 2020 2823 2024
 2815 2024 2806 2020 2801 2015 2797 2006
 2797 1998 2801 1989 2806 1984 2815 1980
 16 3 1 roll cnp
 0.00 setgray
gsave eofill grestore  0.0 setgray
 stroke 0.0 setgray 0.0 setgray 2819 2002 3215 2313 1 rps
 3211 2291
 3219 2291 3228 2295 3233 2300 3237 2309
 3237 2317 3233 2326 3228 2331 3219 2335
 3211 2335 3202 2331 3197 2326 3193 2317
 3193 2309 3197 2300 3202 2295 3211 2291
 16 3 1 roll cnp
 0.00 setgray
gsave eofill grestore  0.0 setgray
 stroke 0.0 setgray 0.0 setgray 3215 2313 3469 2512 1 rps
 3465 2490
 3473 2490 3482 2494 3487 2499 3491 2508
 3491 2516 3487 2525 3482 2530 3473 2534
 3465 2534 3456 2530 3451 2525 3447 2516
 3447 2508 3451 2499 3456 2494 3465 2490
 16 3 1 roll cnp
 0.00 setgray
gsave eofill grestore  0.0 setgray
 stroke 0.0 setgray 0.0 setgray 3469 2512 3624 2634 1 rps
 3620 2612
 3628 2612 3637 2616 3642 2621 3646 2630
 3646 2638 3642 2647 3637 2652 3628 2656
 3620 2656 3611 2652 3606 2647 3602 2638
 3602 2630 3606 2621 3611 2616 3620 2612
 16 3 1 roll cnp
 0.00 setgray
gsave eofill grestore  0.0 setgray
 stroke 0.0 setgray 0.0 setgray
/Times-Roman axumfindfont 124 scalefont setfont
 1985 174 moveto  (Period \(yr\)) show 
 441 1054 moveto  90 rotate (Semimajor axis \(AU\)) show  -90 rotate
 1073 532 moveto  (Mercury) show 
 1424 809 moveto  (Venus) show 
 1597 950 moveto  (Earth) show 
 1842 1142 moveto  (Mars) show 
 2079 1701 moveto  (Jupiter) show 
 2438 1965 moveto  (Saturn) show 
 2798 2279 moveto  (Uranus) show 
 2989 2475 moveto  (Neptune) show 
 3303 2598 moveto  (Pluto) show 
 grestore showpage
%Trailer
%EOF
