%!PS-Adobe-2.0 EPSF-1.2
%%BoundingBox: 0 0 468 360
%%%%DocumentFonts: /Helvetica
%%Title: Axum PostScript file
%%Creator: TriMetrix, Inc.
%%Pages: 1
%%EndComments
% Copyright 1988-1991 by TriMetrix, Inc. All rights reserved.
/downdict 4 dict def
/sdown
 {downdict begin
  /thestring exch def
  /lineskip exch def
  thestring
   {
    /charcode exch def
    /thechar ( ) dup 0 charcode put def
    0 lineskip neg rmoveto
    gsave
     thechar stringwidth pop 2 div neg 0 rmoveto
     thechar show
    grestore
   } forall
   end
  } def

/updict 4 dict def
/sup
 {updict begin
  /thestring exch def
  /lineskip exch def
  thestring 
   {
    /charcode exch def
    /thechar ( ) dup 0 charcode put def
    0 lineskip rmoveto
    gsave
     thechar stringwidth pop 2 div neg 0 rmoveto
     thechar show
    grestore
   } forall
   end
  } def

/leftdict 4 dict def
/sleft
 {leftdict begin
  /thestring exch def
  thestring
   {
    /charcode exch def
    /thechar ( ) dup 0 charcode put def
    gsave
     thechar stringwidth pop neg 0 rmoveto
     thechar show
    grestore
   } forall

   thechar stringwidth pop neg 0 rmoveto
   end
  } def

/path{newpath moveto{lineto}repeat} bind def 
/cnp{newpath moveto{lineto}repeat closepath} bind def
/clp{moveto{lineto}repeat closepath} bind def
/rps{ 3 1 roll path stroke} bind def
/rcs{ 3 1 roll clp stroke} bind def
/setF { currentscreen 4 -2 roll pop 3 1 roll setscreen} bind def
% required due to WinWord 2.0 bug:
/II { } def

/reencodedict 5 dict def
/reencode
{
   reencodedict begin
   /newencoding exch def
   /newfontname exch def
   /basefontname exch def

   /basefontdict basefontname findfont def
   /newfont basefontdict maxlength dict def

   basefontdict
   {
      exch dup dup /FID ne exch /Encoding ne and
      { exch newfont 3 1 roll put }
      { pop pop }
      ifelse
   }
   forall

   newfont /FontName newfontname put
   newfont /Encoding newencoding put
   newfontname newfont definefont pop
   end
}
def

/axumencoding
[
/.notdef        %   0
/.notdef        %   1
/.notdef        %   2
/.notdef        %   3
/.notdef        %   4
/.notdef        %   5
/.notdef        %   6
/.notdef        %   7
/.notdef        %   8
/.notdef        %   9
/.notdef        %  10
/.notdef        %  11
/.notdef        %  12
/.notdef        %  13
/.notdef        %  14
/.notdef        %  15
/.notdef        %  16
/.notdef        %  17
/.notdef        %  18
/.notdef        %  19
/.notdef        %  20
/.notdef        %  21
/.notdef        %  22
/.notdef        %  23
/.notdef        %  24
/.notdef        %  25
/.notdef        %  26
/.notdef        %  27
/.notdef        %  28
/.notdef        %  29
/.notdef        %  30
/.notdef        %  31
/space          %  32
/exclam         %  33
/quotedbl       %  34
/numbersign     %  35
/dollar         %  36
/percent        %  37
/ampersand      %  38
/quoteright     %  39
/parenleft      %  40
/parenright     %  41
/asterisk       %  42
/plus           %  43
/comma          %  44
/hyphen         %  45
/period         %  46
/slash          %  47
/zero           %  48
/one            %  49
/two            %  50
/three          %  51
/four           %  52
/five           %  53
/six            %  54
/seven          %  55
/eight          %  56
/nine           %  57
/colon          %  58
/semicolon      %  59
/less           %  60
/equal          %  61
/greater        %  62
/question       %  63
/at             %  64
/A              %  65
/B              %  66
/C              %  67
/D              %  68
/E              %  69
/F              %  70
/G              %  71
/H              %  72
/I              %  73
/J              %  74
/K              %  75
/L              %  76
/M              %  77
/N              %  78
/O              %  79
/P              %  80
/Q              %  81
/R              %  82
/S              %  83
/T              %  84
/U              %  85
/V              %  86
/W              %  87
/X              %  88
/Y              %  89
/Z              %  90
/bracketleft    %  91
/backslash      %  92
/bracketright   %  93
/asciicircum    %  94
/underscore     %  95
/quoteleft      %  96
/a              %  97
/b              %  98
/c              %  99
/d              % 100
/e              % 101
/f              % 102
/g              % 103
/h              % 104
/i              % 105
/j              % 106
/k              % 107
/l              % 108
/m              % 109
/n              % 110
/o              % 111
/p              % 112
/q              % 113
/r              % 114
/s              % 115
/t              % 116
/u              % 117
/v              % 118
/w              % 119
/x              % 120
/y              % 121
/z              % 122
/braceleft      % 123
/bar            % 124
/braceright     % 125
/asciitilde     % 126
/.notdef        % 127
/Ccedilla       % 128
/udieresis      % 129
/eacute         % 130
/acircumflex    % 131
/adieresis      % 132
/agrave         % 133
/aring          % 134
/ccedilla       % 135
/ecircumflex    % 136
/edieresis      % 137
/egrave         % 138
/idieresis      % 139
/icircumflex    % 140
/igrave         % 141
/Adieresis      % 142
/Aring          % 143
/Eacute         % 144
/ae             % 145
/AE             % 146
/ocircumflex    % 147
/odieresis      % 148
/ograve         % 149
/ucircumflex    % 150
/ugrave         % 151
/ydieresis      % 152
/Odieresis      % 153
/Udieresis      % 154
/cent           % 155
/sterling       % 156
/yen            % 157
/currency       % 158
/florin         % 159
/aacute         % 160
/iacute         % 161
/oacute         % 162
/uacute         % 163
/ntilde         % 164
/Ntilde         % 165
/ordfeminine    % 166
/ordmasculine   % 167
/questiondown   % 168
/quotedblleft   % 169
/quotedblright  % 170
/Aacute         % 171
/Acircumflex    % 172
/exclamdown     % 173
/Egrave         % 174
/Ecircumflex    % 175
/atilde         % 176
/otilde         % 177
/Edieresis      % 178
/Igrave         % 179
/oe             % 180
/OE             % 181
/Agrave         % 182
/Atilde         % 183
/Otilde         % 184
/section        % 185
/Iacute         % 186
/Icircumflex    % 187
/Idieresis      % 188
/Ograve         % 189
/Oacute         % 190
/Ocircumflex    % 191
/Ugrave         % 192
/Uacute         % 193
/Ucircumflex    % 194
/Ydieresis      % 195
/germandbls     % 196
/guillemotleft  % 197
/guillemotright % 198
/bullet         % 199
/.notdef        % 200
/.notdef        % 201
/.notdef        % 202
/.notdef        % 203
/.notdef        % 204
/.notdef        % 205
/.notdef        % 206
/.notdef        % 207
/.notdef        % 208
/.notdef        % 209
/.notdef        % 210
/.notdef        % 211
/.notdef        % 212
/.notdef        % 213
/.notdef        % 214
/.notdef        % 215
/.notdef        % 216
/.notdef        % 217
/.notdef        % 218
/.notdef        % 219
/.notdef        % 220
/.notdef        % 221
/.notdef        % 222
/.notdef        % 223
/.notdef        % 224
/.notdef        % 225
/.notdef        % 226
/.notdef        % 227
/.notdef        % 228
/.notdef        % 229
/.notdef        % 230
/.notdef        % 231
/.notdef        % 232
/.notdef        % 233
/.notdef        % 234
/.notdef        % 235
/.notdef        % 236
/.notdef        % 237
/.notdef        % 238
/.notdef        % 239
/.notdef        % 240
/.notdef        % 241
/.notdef        % 242
/.notdef        % 243
/.notdef        % 244
/.notdef        % 245
/.notdef        % 246
/.notdef        % 247
/.notdef        % 248
/.notdef        % 249
/.notdef        % 250
/.notdef        % 251
/.notdef        % 252
/.notdef        % 253
/.notdef        % 254
/.notdef        % 255
] 
def

/axumfindfont
{
   /axumfont axumencoding reencode
   /axumfont findfont
}
def


/MainFont /Helvetica axumfindfont 98 scalefont def
MainFont setfont
1 setlinejoin 0 setlinecap 0 setgray
 gsave 72 630 div dup scale
 0.0 setgray [] 0 setdash

1 setlinewidth
 592 476 3796 476 1 rps
 592 476 3796 476 1 rps
 588 2750 3800 2750 1 rps
 591 475 3797 475 1 rps
 591 475 3796 475 1 rps
 588 2751 3800 2751 1 rps
 590 474 3798 474 1 rps
 590 474 3796 474 1 rps
 588 2752 3800 2752 1 rps
 589 473 3799 473 1 rps
 589 473 3796 473 1 rps
 588 2753 3800 2753 1 rps
 588 472 3800 472 1 rps
 588 472 3796 472 1 rps
 588 2754 3800 2754 1 rps
 592 476 592 512 1 rps
 592 2750 592 2714 1 rps
 770 476 770 494 1 rps
 770 2750 770 2732 1 rps
 948 476 948 512 1 rps
 948 2750 948 2714 1 rps
 1126 476 1126 494 1 rps
 1126 2750 1126 2732 1 rps
 1304 476 1304 512 1 rps
 1304 2750 1304 2714 1 rps
 1482 476 1482 494 1 rps
 1482 2750 1482 2732 1 rps
 1660 476 1660 512 1 rps
 1660 2750 1660 2714 1 rps
 1838 476 1838 494 1 rps
 1838 2750 1838 2732 1 rps
 2016 476 2016 512 1 rps
 2016 2750 2016 2714 1 rps
 2194 476 2194 494 1 rps
 2194 2750 2194 2732 1 rps
 2372 476 2372 512 1 rps
 2372 2750 2372 2714 1 rps
 2550 476 2550 494 1 rps
 2550 2750 2550 2732 1 rps
 2728 476 2728 512 1 rps
 2728 2750 2728 2714 1 rps
 2906 476 2906 494 1 rps
 2906 2750 2906 2732 1 rps
 3084 476 3084 512 1 rps
 3084 2750 3084 2714 1 rps
 3262 476 3262 494 1 rps
 3262 2750 3262 2732 1 rps
 3440 476 3440 512 1 rps
 3440 2750 3440 2714 1 rps
 3618 476 3618 494 1 rps
 3618 2750 3618 2732 1 rps
 3796 476 3796 512 1 rps
 3796 2750 3796 2714 1 rps

/Times-Roman axumfindfont 124 scalefont setfont
 561 341 moveto  (0) show 
 917 341 moveto  (1) show 
 1273 341 moveto  (2) show 
 1629 341 moveto  (3) show 
 1985 341 moveto  (4) show 
 2341 341 moveto  (5) show 
 2697 341 moveto  (6) show 
 3053 341 moveto  (7) show 
 3409 341 moveto  (8) show 
 3765 341 moveto  (9) show 
 592 476 592 2750 1 rps
 591 475 591 2751 1 rps
 590 474 590 2752 1 rps
 589 473 589 2753 1 rps
 588 472 588 2754 1 rps
 3796 476 3796 2750 1 rps
 3797 475 3797 2751 1 rps
 3798 474 3798 2752 1 rps
 3799 473 3799 2753 1 rps
 3800 472 3800 2754 1 rps
 592 476 628 476 1 rps
 3796 476 3760 476 1 rps
 592 618 610 618 1 rps
 3796 618 3778 618 1 rps
 592 760 628 760 1 rps
 3796 760 3760 760 1 rps
 592 902 610 902 1 rps
 3796 902 3778 902 1 rps
 592 1044 628 1044 1 rps
 3796 1044 3760 1044 1 rps
 592 1186 610 1186 1 rps
 3796 1186 3778 1186 1 rps
 592 1329 628 1329 1 rps
 3796 1329 3760 1329 1 rps
 592 1471 610 1471 1 rps
 3796 1471 3778 1471 1 rps
 592 1613 628 1613 1 rps
 3796 1613 3760 1613 1 rps
 592 1755 610 1755 1 rps
 3796 1755 3778 1755 1 rps
 592 1897 628 1897 1 rps
 3796 1897 3760 1897 1 rps
 592 2039 610 2039 1 rps
 3796 2039 3778 2039 1 rps
 592 2181 628 2181 1 rps
 3796 2181 3760 2181 1 rps
 592 2323 610 2323 1 rps
 3796 2323 3778 2323 1 rps
 592 2466 628 2466 1 rps
 3796 2466 3760 2466 1 rps
 592 2608 610 2608 1 rps
 3796 2608 3778 2608 1 rps
 592 2750 628 2750 1 rps
 3796 2750 3760 2750 1 rps
 476 436 moveto  (0) show 
 476 720 moveto  (1) show 
 476 1004 moveto  (2) show 
 476 1289 moveto  (3) show 
 476 1573 moveto  (4) show 
 476 1857 moveto  (5) show 
 476 2141 moveto  (6) show 
 476 2426 moveto  (7) show 
 476 2710 moveto  (8) show 
 592 476 592 476 1 rcs

 592 476 592 477 592 477 592 478 592 479 593 480 593 482 593 483 594 485
 594 486 595 489 596 491 597 493 598 496 599 499 601 501 602 505
 604 508 606 512 609 515 611 520 614 524 617 528 620 533 624 538
 628 543 632 549 637 554 642 560 647 567 653 573 659 580 666 587
 673 595 681 602 689 610 697 619 706 627 716 637 726 646 737 656
 748 666 760 677 773 688 786 699 800 711 815 724 831 736 847 750
 864 763 882 778 902 793 921 808 942 824 964 841 987 858 1011 876
 1036 894 1063 913 1090 933 1119 954 1149 975 1180 997 1213 1020 1247 1044
 1283 1069 1320 1094 1359 1120 1399 1148 1442 1176 1486 1205 1531 1236 1579 1267
 1629 1300 1681 1334 1734 1369 1790 1405 1849 1442 1909 1481 1972 1521 2038 1563
 2106 1606 2177 1651 2251 1697 2327 1745 2407 1795 2489 1846 2575 1899 2665 1954
 2757 2012 2853 2070 2953 2132 3057 2195 3165 2261 3277 2328 3393 2399 3513 2471
 3638 2547 97 rps
 592 476 592 476 1 rcs

 592 476 592 477 592 478 592 479 592 480 593 481 593 483 593 485 594 487
 594 489 595 492 596 494 597 497 598 501 599 504 601 508 602 511
 604 516 606 520 609 524 611 529 614 534 617 540 620 545 624 551
 628 557 632 563 637 570 642 577 647 584 653 591 659 599 666 607
 673 615 681 623 689 632 697 641 706 651 716 660 726 670 737 680
 748 691 760 702 773 713 786 725 800 737 815 749 831 761 847 774
 864 788 882 801 902 815 921 830 942 845 964 860 987 875 1011 891
 1036 908 1063 925 1090 942 1119 960 1149 978 1180 997 1213 1016 1247 1035
 1283 1056 1320 1076 1359 1097 1399 1119 1442 1141 1486 1164 1531 1187 1579 1211
 1629 1236 1681 1261 1734 1286 1790 1313 1849 1340 1909 1367 1972 1395 2038 1424
 2106 1454 2177 1484 2251 1515 2327 1547 2407 1579 2489 1612 2575 1647 2665 1682
 2757 1717 2853 1753 2953 1791 3057 1829 3165 1868 3277 1908 3393 1949 3513 1991
 3638 2034 97 rps
 592 476 592 477 592 481 593 487 595 495 598 505 601 517 607 532 614 548
 623 566 635 586 648 607 665 629 683 652 705 677 729 702 756 727
 786 753 819 779 855 805 894 830 936 855 980 878 1027 902 1077 923
 1129 944 1184 963 1240 980 1298 996 1358 1009 1420 1020 1482 1030 1546 1037
 1610 1042 1674 1044 1739 1044 1803 1042 1868 1037 1931 1031 1994 1022 2056 1010
 2116 997 2174 982 2231 965 2285 946 2338 926 2388 904 2435 881 2480 857
 2522 833 2561 807 2597 782 2631 756 2661 730 2689 705 2713 680 2735 655
 2754 632 2771 609 2785 588 2796 568 2806 550 2813 533 2819 519 2823 506
 2826 496 2827 487 2828 481 2829 477 2829 476 2829 477 2829 480 2830 486
 2831 494 2834 504 2838 516 2843 530 2850 546 2859 564 2870 583 2884 604
 2899 626 2918 650 2939 674 2963 699 2990 724 3020 750 3052 776 3088 802
 3126 827 3168 852 3212 876 3259 899 3308 921 3360 942 3414 961 3470 978
 3528 994 3588 1008 3649 1019 99 rps

/Times-Italic axumfindfont 128 scalefont setfont
 2106 159 moveto  (t) show 

/Times-Roman axumfindfont 124 scalefont setfont
 2141 159 moveto  (/) show 

/Times-Italic axumfindfont 128 scalefont setfont
 2176 159 moveto  (t) show 

/Times-Italic axumfindfont 95 scalefont setfont
 2212 131 moveto  (H) show 

/Times-Roman axumfindfont 124 scalefont setfont
 368 1242 moveto  90 rotate (Scale factor ) show  -90 rotate

/Times-Italic axumfindfont 128 scalefont setfont
 368 1871 moveto  90 rotate (R) show  -90 rotate

/Symbol findfont 124 scalefont setfont
 2816 964 moveto  (W) show 

/Times-Roman axumfindfont 95 scalefont setfont
 2911 936 moveto  (0) show 

/Times-Roman axumfindfont 124 scalefont setfont
 2957 964 moveto  ( = 2) show 

/Symbol findfont 124 scalefont setfont
 2816 1583 moveto  (W) show 

/Times-Roman axumfindfont 95 scalefont setfont
 2911 1555 moveto  (0) show 

/Times-Roman axumfindfont 124 scalefont setfont
 2957 1583 moveto  ( = 1) show 

/Symbol findfont 124 scalefont setfont
 2816 2452 moveto  (W) show 

/Times-Roman axumfindfont 95 scalefont setfont
 2911 2424 moveto  (0) show 

/Times-Roman axumfindfont 124 scalefont setfont
 2957 2452 moveto  ( = 0.5) show 
 grestore showpage
%Trailer
%EOF
