%!PS-Adobe-2.0 EPSF-1.2
%%BoundingBox: 0 0 468 360
%%%%DocumentFonts: /Helvetica
%%Title: Axum PostScript file
%%Creator: TriMetrix, Inc.
%%Pages: 1
%%EndComments
% Copyright 1988-1991 by TriMetrix, Inc. All rights reserved.
/downdict 4 dict def
/sdown
 {downdict begin
  /thestring exch def
  /lineskip exch def
  thestring
   {
    /charcode exch def
    /thechar ( ) dup 0 charcode put def
    0 lineskip neg rmoveto
    gsave
     thechar stringwidth pop 2 div neg 0 rmoveto
     thechar show
    grestore
   } forall
   end
  } def

/updict 4 dict def
/sup
 {updict begin
  /thestring exch def
  /lineskip exch def
  thestring 
   {
    /charcode exch def
    /thechar ( ) dup 0 charcode put def
    0 lineskip rmoveto
    gsave
     thechar stringwidth pop 2 div neg 0 rmoveto
     thechar show
    grestore
   } forall
   end
  } def

/leftdict 4 dict def
/sleft
 {leftdict begin
  /thestring exch def
  thestring
   {
    /charcode exch def
    /thechar ( ) dup 0 charcode put def
    gsave
     thechar stringwidth pop neg 0 rmoveto
     thechar show
    grestore
   } forall

   thechar stringwidth pop neg 0 rmoveto
   end
  } def

/path{newpath moveto{lineto}repeat} bind def 
/cnp{newpath moveto{lineto}repeat closepath} bind def
/clp{moveto{lineto}repeat closepath} bind def
/rps{ 3 1 roll path stroke} bind def
/rcs{ 3 1 roll clp stroke} bind def
/setF { currentscreen 4 -2 roll pop 3 1 roll setscreen} bind def
% required due to WinWord 2.0 bug:
/II { } def

/reencodedict 5 dict def
/reencode
{
   reencodedict begin
   /newencoding exch def
   /newfontname exch def
   /basefontname exch def

   /basefontdict basefontname findfont def
   /newfont basefontdict maxlength dict def

   basefontdict
   {
      exch dup dup /FID ne exch /Encoding ne and
      { exch newfont 3 1 roll put }
      { pop pop }
      ifelse
   }
   forall

   newfont /FontName newfontname put
   newfont /Encoding newencoding put
   newfontname newfont definefont pop
   end
}
def

/axumencoding
[
/.notdef        %   0
/.notdef        %   1
/.notdef        %   2
/.notdef        %   3
/.notdef        %   4
/.notdef        %   5
/.notdef        %   6
/.notdef        %   7
/.notdef        %   8
/.notdef        %   9
/.notdef        %  10
/.notdef        %  11
/.notdef        %  12
/.notdef        %  13
/.notdef        %  14
/.notdef        %  15
/.notdef        %  16
/.notdef        %  17
/.notdef        %  18
/.notdef        %  19
/.notdef        %  20
/.notdef        %  21
/.notdef        %  22
/.notdef        %  23
/.notdef        %  24
/.notdef        %  25
/.notdef        %  26
/.notdef        %  27
/.notdef        %  28
/.notdef        %  29
/.notdef        %  30
/.notdef        %  31
/space          %  32
/exclam         %  33
/quotedbl       %  34
/numbersign     %  35
/dollar         %  36
/percent        %  37
/ampersand      %  38
/quoteright     %  39
/parenleft      %  40
/parenright     %  41
/asterisk       %  42
/plus           %  43
/comma          %  44
/hyphen         %  45
/period         %  46
/slash          %  47
/zero           %  48
/one            %  49
/two            %  50
/three          %  51
/four           %  52
/five           %  53
/six            %  54
/seven          %  55
/eight          %  56
/nine           %  57
/colon          %  58
/semicolon      %  59
/less           %  60
/equal          %  61
/greater        %  62
/question       %  63
/at             %  64
/A              %  65
/B              %  66
/C              %  67
/D              %  68
/E              %  69
/F              %  70
/G              %  71
/H              %  72
/I              %  73
/J              %  74
/K              %  75
/L              %  76
/M              %  77
/N              %  78
/O              %  79
/P              %  80
/Q              %  81
/R              %  82
/S              %  83
/T              %  84
/U              %  85
/V              %  86
/W              %  87
/X              %  88
/Y              %  89
/Z              %  90
/bracketleft    %  91
/backslash      %  92
/bracketright   %  93
/asciicircum    %  94
/underscore     %  95
/quoteleft      %  96
/a              %  97
/b              %  98
/c              %  99
/d              % 100
/e              % 101
/f              % 102
/g              % 103
/h              % 104
/i              % 105
/j              % 106
/k              % 107
/l              % 108
/m              % 109
/n              % 110
/o              % 111
/p              % 112
/q              % 113
/r              % 114
/s              % 115
/t              % 116
/u              % 117
/v              % 118
/w              % 119
/x              % 120
/y              % 121
/z              % 122
/braceleft      % 123
/bar            % 124
/braceright     % 125
/asciitilde     % 126
/.notdef        % 127
/Ccedilla       % 128
/udieresis      % 129
/eacute         % 130
/acircumflex    % 131
/adieresis      % 132
/agrave         % 133
/aring          % 134
/ccedilla       % 135
/ecircumflex    % 136
/edieresis      % 137
/egrave         % 138
/idieresis      % 139
/icircumflex    % 140
/igrave         % 141
/Adieresis      % 142
/Aring          % 143
/Eacute         % 144
/ae             % 145
/AE             % 146
/ocircumflex    % 147
/odieresis      % 148
/ograve         % 149
/ucircumflex    % 150
/ugrave         % 151
/ydieresis      % 152
/Odieresis      % 153
/Udieresis      % 154
/cent           % 155
/sterling       % 156
/yen            % 157
/currency       % 158
/florin         % 159
/aacute         % 160
/iacute         % 161
/oacute         % 162
/uacute         % 163
/ntilde         % 164
/Ntilde         % 165
/ordfeminine    % 166
/ordmasculine   % 167
/questiondown   % 168
/quotedblleft   % 169
/quotedblright  % 170
/Aacute         % 171
/Acircumflex    % 172
/exclamdown     % 173
/Egrave         % 174
/Ecircumflex    % 175
/atilde         % 176
/otilde         % 177
/Edieresis      % 178
/Igrave         % 179
/oe             % 180
/OE             % 181
/Agrave         % 182
/Atilde         % 183
/Otilde         % 184
/section        % 185
/Iacute         % 186
/Icircumflex    % 187
/Idieresis      % 188
/Ograve         % 189
/Oacute         % 190
/Ocircumflex    % 191
/Ugrave         % 192
/Uacute         % 193
/Ucircumflex    % 194
/Ydieresis      % 195
/germandbls     % 196
/guillemotleft  % 197
/guillemotright % 198
/bullet         % 199
/.notdef        % 200
/.notdef        % 201
/.notdef        % 202
/.notdef        % 203
/.notdef        % 204
/.notdef        % 205
/.notdef        % 206
/.notdef        % 207
/.notdef        % 208
/.notdef        % 209
/.notdef        % 210
/.notdef        % 211
/.notdef        % 212
/.notdef        % 213
/.notdef        % 214
/.notdef        % 215
/.notdef        % 216
/.notdef        % 217
/.notdef        % 218
/.notdef        % 219
/.notdef        % 220
/.notdef        % 221
/.notdef        % 222
/.notdef        % 223
/.notdef        % 224
/.notdef        % 225
/.notdef        % 226
/.notdef        % 227
/.notdef        % 228
/.notdef        % 229
/.notdef        % 230
/.notdef        % 231
/.notdef        % 232
/.notdef        % 233
/.notdef        % 234
/.notdef        % 235
/.notdef        % 236
/.notdef        % 237
/.notdef        % 238
/.notdef        % 239
/.notdef        % 240
/.notdef        % 241
/.notdef        % 242
/.notdef        % 243
/.notdef        % 244
/.notdef        % 245
/.notdef        % 246
/.notdef        % 247
/.notdef        % 248
/.notdef        % 249
/.notdef        % 250
/.notdef        % 251
/.notdef        % 252
/.notdef        % 253
/.notdef        % 254
/.notdef        % 255
] 
def

/axumfindfont
{
   /axumfont axumencoding reencode
   /axumfont findfont
}
def


/MainFont /Helvetica axumfindfont 98 scalefont def
MainFont setfont
1 setlinejoin 0 setlinecap 0 setgray
 gsave 72 630 div dup scale
 [] 0 setdash

1 setlinewidth
 3775 1662
 1064 1662 1057 1662 1049 1662 1041 1662
 1033 1661 1026 1661 1018 1660 1010 1659
 1003 1658 995 1657 987 1656 980 1655
 972 1653 964 1652 957 1650 949 1649
 942 1647 934 1645 927 1643 920 1640
 912 1638 905 1636 897 1633 890 1630
 883 1628 876 1625 869 1622 862 1618
 855 1615 848 1612 841 1608 834 1605
 827 1601 820 1597 815 1593 808 1589
 801 1585 795 1581 788 1577 782 1572
 776 1568 770 1563 763 1559 757 1554
 751 1549 745 1544 740 1539 734 1534
 728 1529 722 1523 717 1518 712 1512
 706 1507 701 1501 696 1495 691 1489
 686 1483 681 1477 676 1471 671 1465
 667 1459 662 1453 658 1446 654 1440
 649 1433 645 1427 641 1420 637 1414
 634 1407 630 1400 626 1393 623 1386
 620 1379 616 1372 613 1365 610 1358
 607 1351 604 1344 602 1336 599 1329
 597 1322 594 1314 592 1307 590 1299
 588 1292 586 1284 584 1277 583 1269
 581 1262 580 1254 579 1246 578 1239
 576 1231 576 1223 575 1216 574 1208
 574 1200 573 1193 573 1185 573 1177
 573 1169 573 1162 573 1154 573 1146
 574 1138 574 1131 575 1123 576 1115
 576 1108 578 1100 579 1092 580 1085
 581 1077 583 1069 584 1062 586 1054
 588 1047 590 1039 592 1032 594 1024
 597 1017 599 1010 602 1002 604 995
 607 988 610 981 613 974 616 967
 620 959 623 953 626 946 630 939
 634 932 637 925 641 918 645 912
 649 905 654 899 658 892 662 886
 667 880 671 873 676 867 681 861
 686 855 691 849 696 843 701 838
 706 832 712 826 717 821 722 815
 728 810 734 805 740 800 745 795
 751 790 757 785 763 780 770 775
 776 771 782 766 788 762 795 757
 801 753 808 749 815 745 820 741
 827 737 834 734 841 730 848 727
 855 723 862 720 869 717 876 714
 883 711 890 708 897 706 905 703
 912 701 920 698 927 696 934 694
 942 692 949 690 957 688 964 687
 972 685 980 684 987 683 995 681
 1003 680 1010 679 1018 679 1026 678
 1033 677 1041 677 1049 677 1057 677
 1064 676 3775 676 3775 1662 203 3 1 roll cnp
 0.93 setgray eofill 0.0 setgray 3775 1662
 1064 1662 1063 1662 1062 1662 1061 1662
 1060 1662 1059 1662 1058 1662 1057 1662
 1057 1661 1056 1661 1055 1661 1054 1661
 1053 1661 1052 1661 1052 1660 1051 1660
 1050 1660 1049 1660 1048 1659 1047 1659
 1046 1658 1045 1658 1044 1658 1043 1657
 1042 1657 1041 1656 1040 1656 1039 1655
 1038 1655 1037 1654 1036 1654 1035 1653
 1034 1653 1033 1652 1032 1651 1031 1650
 1030 1649 1029 1649 1027 1648 1026 1647
 1025 1646 1024 1645 1023 1644 1021 1642
 1020 1641 1018 1640 1017 1638 1016 1637
 1014 1635 1013 1633 1011 1632 1009 1630
 1008 1628 1006 1625 1004 1623 1002 1620
 1001 1618 999 1615 997 1612 994 1608
 992 1605 990 1601 988 1596 985 1592
 983 1587 980 1581 977 1575 974 1569
 971 1562 968 1554 965 1546 962 1536
 958 1526 955 1515 951 1502 947 1488
 943 1473 939 1456 935 1436 931 1415
 927 1390 923 1363 919 1332 916 1298
 913 1260 911 1217 911 1169 911 1116
 914 1059 920 998 929 935 942 871
 959 811 980 757 1006 714 1034 686
 1064 676 3775 676 3775 1662 99 3 1 roll cnp
 0.60 setgray eofill 0.0 setgray 3775 1662
 1064 1662 1065 1662 1066 1662 1067 1662
 1068 1662 1069 1662 1070 1662 1071 1662
 1072 1661 1073 1661 1074 1661 1075 1661
 1076 1661 1077 1660 1078 1660 1079 1660
 1080 1660 1081 1659 1082 1659 1083 1658
 1084 1658 1085 1658 1086 1657 1087 1657
 1088 1656 1089 1656 1090 1655 1091 1655
 1092 1654 1093 1654 1094 1653 1095 1653
 1096 1652 1097 1651 1098 1650 1099 1649
 1100 1649 1101 1648 1103 1647 1104 1646
 1105 1645 1106 1644 1108 1642 1109 1641
 1110 1640 1112 1638 1113 1637 1115 1635
 1116 1633 1118 1632 1119 1630 1121 1628
 1123 1625 1125 1623 1126 1620 1128 1618
 1130 1615 1132 1612 1134 1608 1137 1605
 1139 1601 1141 1596 1144 1592 1146 1587
 1149 1581 1152 1575 1154 1569 1157 1562
 1161 1554 1164 1546 1167 1536 1171 1526
 1174 1515 1178 1502 1182 1488 1186 1473
 1190 1456 1194 1436 1198 1415 1202 1390
 1206 1363 1210 1332 1213 1298 1216 1260
 1218 1217 1218 1169 1217 1116 1214 1059
 1209 998 1200 935 1187 871 1170 811
 1149 757 1123 714 1095 686 1064 676
 3775 676 3775 1662 98 3 1 roll cnp
 0.93 setgray eofill 0.0 setgray 3775 676
 1064 676 1072 677 1080 677 1088 677
 1095 677 1103 678 1111 679 1118 679
 1126 680 1134 681 1141 683 1149 684
 1157 685 1164 687 1172 688 1179 690
 1187 692 1194 694 1202 696 1209 698
 1217 701 1224 703 1231 706 1239 708
 1246 711 1253 714 1260 717 1267 720
 1274 723 1281 727 1288 730 1295 734
 1302 737 1309 741 1315 745 1322 749
 1328 753 1335 757 1341 762 1348 766
 1354 771 1360 775 1366 780 1373 785
 1379 790 1384 795 1390 800 1396 805
 1402 810 1407 815 1413 821 1418 826
 1424 832 1429 838 1434 843 1439 849
 1444 855 1449 861 1454 867 1459 873
 1463 880 1468 886 1472 892 1476 899
 1481 905 1485 912 1489 918 1492 925
 1496 932 1500 939 1504 946 1507 953
 1510 959 1514 967 1517 974 1520 981
 1523 988 1525 995 1528 1002 1531 1010
 1533 1017 1535 1024 1538 1032 1540 1039
 1542 1047 1544 1054 1545 1062 1547 1069
 1549 1077 1550 1085 1551 1092 1552 1100
 1553 1108 1554 1115 1555 1123 1556 1131
 1556 1138 1557 1146 1557 1154 1557 1162
 1557 1169 1557 1177 1557 1185 1557 1193
 1556 1200 1556 1208 1555 1216 1554 1223
 1553 1231 1552 1239 1551 1246 1550 1254
 1549 1262 1547 1269 1545 1277 1544 1284
 1542 1292 1540 1299 1538 1307 1535 1314
 1533 1322 1531 1329 1528 1336 1525 1344
 1523 1351 1520 1358 1517 1365 1514 1372
 1510 1379 1507 1386 1504 1393 1500 1400
 1496 1407 1492 1414 1489 1420 1485 1427
 1481 1433 1476 1440 1472 1446 1468 1453
 1463 1459 1459 1465 1454 1471 1449 1477
 1444 1483 1439 1489 1434 1495 1429 1501
 1424 1507 1418 1512 1413 1518 1407 1523
 1402 1529 1396 1534 1390 1539 1384 1544
 1379 1549 1373 1554 1366 1559 1360 1563
 1354 1568 1348 1572 1341 1577 1335 1581
 1328 1585 1322 1589 1315 1593 1309 1597
 1302 1601 1295 1605 1288 1608 1281 1612
 1274 1615 1267 1618 1260 1622 1253 1625
 1246 1628 1239 1630 1231 1633 1224 1636
 1217 1638 1209 1640 1202 1643 1194 1645
 1187 1647 1179 1649 1172 1650 1164 1652
 1157 1653 1149 1655 1141 1656 1134 1657
 1126 1658 1118 1659 1111 1660 1103 1661
 1095 1661 1088 1662 1080 1662 1072 1662
 1064 1662 3775 1662 3775 676 203 3 1 roll cnp
 1.00 setgray eofill 0.0 setgray 0.0 setgray
10 setlinewidth
 1064 1662 1057 1662 1049 1662 1041 1662 1033 1661 1026 1661 1018 1660 1010 1659 1003 1658
 995 1657 987 1656 980 1655 972 1653 964 1652 957 1650 949 1649 942 1647
 934 1645 927 1643 920 1640 912 1638 905 1636 897 1633 890 1630 883 1628
 876 1625 869 1622 862 1618 855 1615 848 1612 841 1608 834 1605 827 1601
 820 1597 815 1593 808 1589 801 1585 795 1581 788 1577 782 1572 776 1568
 770 1563 763 1559 757 1554 751 1549 745 1544 740 1539 734 1534 728 1529
 722 1523 717 1518 712 1512 706 1507 701 1501 696 1495 691 1489 686 1483
 681 1477 676 1471 671 1465 667 1459 662 1453 658 1446 654 1440 649 1433
 645 1427 641 1420 637 1414 634 1407 630 1400 626 1393 623 1386 620 1379
 616 1372 613 1365 610 1358 607 1351 604 1344 602 1336 599 1329 597 1322
 594 1314 592 1307 590 1299 588 1292 586 1284 584 1277 583 1269 581 1262
 580 1254 579 1246 578 1239 576 1231 576 1223 575 1216 574 1208 574 1200
 573 1193 573 1185 573 1177 573 1169 573 1162 101 rps
 573 1162 573 1154 573 1146 574 1138 574 1131 575 1123 576 1115 576 1108 578 1100
 579 1092 580 1085 581 1077 583 1069 584 1062 586 1054 588 1047 590 1039
 592 1032 594 1024 597 1017 599 1010 602 1002 604 995 607 988 610 981
 613 974 616 967 620 959 623 953 626 946 630 939 634 932 637 925
 641 918 645 912 649 905 654 899 658 892 662 886 667 880 671 873
 676 867 681 861 686 855 691 849 696 843 701 838 706 832 712 826
 717 821 722 815 728 810 734 805 740 800 745 795 751 790 757 785
 763 780 770 775 776 771 782 766 788 762 795 757 801 753 808 749
 815 745 820 741 827 737 834 734 841 730 848 727 855 723 862 720
 869 717 876 714 883 711 890 708 897 706 905 703 912 701 920 698
 927 696 934 694 942 692 949 690 957 688 964 687 972 685 980 684
 987 683 995 681 1003 680 1010 679 1018 679 1026 678 1033 677 1041 677
 1049 677 1057 677 1064 676 99 rps
 [20 20] 0 setdash
 1064 676 1072 677 1080 677 1088 677 1095 677 1103 678 1111 679 1118 679 1126 680
 1134 681 1141 683 1149 684 1157 685 1164 687 1172 688 1179 690 1187 692
 1194 694 1202 696 1209 698 1217 701 1224 703 1231 706 1239 708 1246 711
 1253 714 1260 717 1267 720 1274 723 1281 727 1288 730 1295 734 1302 737
 1309 741 1315 745 1322 749 1328 753 1335 757 1341 762 1348 766 1354 771
 1360 775 1366 780 1373 785 1379 790 1384 795 1390 800 1396 805 1402 810
 1407 815 1413 821 1418 826 1424 832 1429 838 1434 843 1439 849 1444 855
 1449 861 1454 867 1459 873 1463 880 1468 886 1472 892 1476 899 1481 905
 1485 912 1489 918 1492 925 1496 932 1500 939 1504 946 1507 953 1510 959
 1514 967 1517 974 1520 981 1523 988 1525 995 1528 1002 1531 1010 1533 1017
 1535 1024 1538 1032 1540 1039 1542 1047 1544 1054 1545 1062 1547 1069 1549 1077
 1550 1085 1551 1092 1552 1100 1553 1108 1554 1115 1555 1123 1556 1131 1556 1138
 1557 1146 1557 1154 1557 1162 1557 1169 1557 1177 101 rps
 1557 1177 1557 1185 1557 1193 1556 1200 1556 1208 1555 1216 1554 1223 1553 1231 1552 1239
 1551 1246 1550 1254 1549 1262 1547 1269 1545 1277 1544 1284 1542 1292 1540 1299
 1538 1307 1535 1314 1533 1322 1531 1329 1528 1336 1525 1344 1523 1351 1520 1358
 1517 1365 1514 1372 1510 1379 1507 1386 1504 1393 1500 1400 1496 1407 1492 1414
 1489 1420 1485 1427 1481 1433 1476 1440 1472 1446 1468 1453 1463 1459 1459 1465
 1454 1471 1449 1477 1444 1483 1439 1489 1434 1495 1429 1501 1424 1507 1418 1512
 1413 1518 1407 1523 1402 1529 1396 1534 1390 1539 1384 1544 1379 1549 1373 1554
 1366 1559 1360 1563 1354 1568 1348 1572 1341 1577 1335 1581 1328 1585 1322 1589
 1315 1593 1309 1597 1302 1601 1295 1605 1288 1608 1281 1612 1274 1615 1267 1618
 1260 1622 1253 1625 1246 1628 1239 1630 1231 1633 1224 1636 1217 1638 1209 1640
 1202 1643 1194 1645 1187 1647 1179 1649 1172 1650 1164 1652 1157 1653 1149 1655
 1141 1656 1134 1657 1126 1658 1118 1659 1111 1660 1103 1661 1095 1661 1088 1662
 1080 1662 1072 1662 1064 1662 99 rps

1 setlinewidth
 1064 1662 1065 1662 1066 1662 1067 1662 1068 1662 1068 1662 1069 1662 1070 1662 1071 1662
 1071 1662 1072 1661 1073 1661 1074 1661 1075 1661 1076 1661 1076 1661 1077 1660
 1078 1660 1079 1660 1080 1660 1081 1659 1081 1659 1082 1659 1083 1658 1084 1658
 1085 1658 1086 1657 1087 1657 1088 1656 1089 1656 1090 1655 1091 1655 1092 1654
 1093 1654 1094 1653 1095 1653 1096 1652 1097 1651 1098 1650 1099 1649 1100 1649
 1101 1648 1103 1647 1104 1646 1105 1645 1106 1644 1108 1642 1109 1641 1110 1640
 1112 1638 1113 1637 1115 1635 1116 1633 1118 1632 1119 1630 1121 1628 1123 1625
 1125 1623 1126 1620 1128 1618 1130 1615 1132 1612 1134 1608 1137 1605 1139 1601
 1141 1596 1144 1592 1146 1587 1149 1581 1152 1575 1154 1569 1157 1562 1161 1554
 1164 1546 1167 1536 1171 1526 1174 1515 1178 1502 1182 1488 1186 1473 1190 1456
 1194 1436 1198 1415 1202 1390 1206 1363 1210 1332 1213 1298 1216 1260 1218 1217
 1218 1169 1217 1116 1214 1059 1209 998 1200 935 1187 871 1170 811 1149 757
 1123 714 1095 686 1064 676 99 rps
 [] 0 setdash
 1064 1662 1064 1662 1063 1662 1062 1662 1061 1662 1060 1662 1060 1662 1059 1662 1058 1662
 1057 1662 1057 1661 1056 1661 1055 1661 1054 1661 1053 1661 1052 1661 1052 1660
 1051 1660 1050 1660 1049 1660 1048 1659 1047 1659 1047 1659 1046 1658 1045 1658
 1044 1658 1043 1657 1042 1657 1041 1656 1040 1656 1039 1655 1038 1655 1037 1654
 1036 1654 1035 1653 1034 1653 1033 1652 1032 1651 1031 1650 1030 1649 1029 1649
 1027 1648 1026 1647 1025 1646 1024 1645 1023 1644 1021 1642 1020 1641 1018 1640
 1017 1638 1016 1637 1014 1635 1013 1633 1011 1632 1009 1630 1008 1628 1006 1625
 1004 1623 1002 1620 1001 1618 999 1615 997 1612 994 1608 992 1605 990 1601
 988 1596 985 1592 983 1587 980 1581 977 1575 974 1569 971 1562 968 1554
 965 1546 962 1536 958 1526 955 1515 951 1502 947 1488 943 1473 939 1456
 935 1436 931 1415 927 1390 923 1363 919 1332 916 1298 913 1260 911 1217
 911 1169 911 1116 914 1059 920 998 929 935 942 871 959 811 980 757
 1006 714 1034 686 1064 676 99 rps
 3529 1662 3529 1662 3530 1662 3531 1662 3532 1662 3533 1662 3533 1662 3534 1662 3535 1662
 3536 1662 3536 1661 3537 1661 3538 1661 3539 1661 3540 1661 3541 1661 3541 1660
 3542 1660 3543 1660 3544 1660 3545 1659 3546 1659 3546 1659 3547 1658 3548 1658
 3549 1658 3550 1657 3551 1657 3552 1656 3553 1656 3554 1655 3555 1655 3556 1654
 3557 1654 3558 1653 3559 1653 3560 1652 3561 1651 3562 1650 3563 1649 3564 1649
 3566 1648 3567 1647 3568 1646 3569 1645 3570 1644 3572 1642 3573 1641 3575 1640
 3576 1638 3577 1637 3579 1635 3580 1633 3582 1632 3584 1630 3585 1628 3587 1625
 3589 1623 3591 1620 3592 1618 3594 1615 3596 1612 3599 1608 3601 1605 3603 1601
 3605 1596 3608 1592 3610 1587 3613 1581 3616 1575 3619 1569 3622 1562 3625 1554
 3628 1546 3631 1536 3635 1526 3638 1515 3642 1502 3646 1488 3650 1473 3654 1456
 3658 1436 3662 1415 3666 1390 3670 1363 3674 1332 3677 1298 3680 1260 3682 1217
 3682 1169 3682 1116 3679 1059 3673 998 3664 935 3651 871 3634 811 3613 757
 3587 714 3559 686 3529 676 99 rps
 3529 1662 3528 1662 3527 1662 3526 1662 3525 1662 3525 1662 3524 1662 3523 1662 3522 1662
 3522 1662 3521 1661 3520 1661 3519 1661 3518 1661 3517 1661 3517 1661 3516 1660
 3515 1660 3514 1660 3513 1660 3512 1659 3512 1659 3511 1659 3510 1658 3509 1658
 3508 1658 3507 1657 3506 1657 3505 1656 3504 1656 3503 1655 3502 1655 3501 1654
 3500 1654 3499 1653 3498 1653 3497 1652 3496 1651 3495 1650 3494 1649 3493 1649
 3492 1648 3490 1647 3489 1646 3488 1645 3487 1644 3485 1642 3484 1641 3483 1640
 3481 1638 3480 1637 3478 1635 3477 1633 3475 1632 3474 1630 3472 1628 3470 1625
 3468 1623 3467 1620 3465 1618 3463 1615 3461 1612 3459 1608 3456 1605 3454 1601
 3452 1596 3449 1592 3447 1587 3444 1581 3441 1575 3439 1569 3436 1562 3432 1554
 3429 1546 3426 1536 3422 1526 3419 1515 3415 1502 3411 1488 3407 1473 3403 1456
 3399 1436 3395 1415 3391 1390 3387 1363 3383 1332 3380 1298 3377 1260 3375 1217
 3375 1169 3376 1116 3379 1059 3384 998 3393 935 3406 871 3423 811 3444 757
 3470 714 3498 686 3529 676 99 rps
 1556 1169 2047 1169 1 rps
 2047 1169
 1957 1146 1957 1191 2047 1169 3 3 1 roll cnp
 0.00 setgray
gsave eofill grestore  0.0 setgray
 stroke 0.0 setgray 0.0 setgray 473 1169 473 1660 1 rps
 473 1660
 495 1570 450 1570 473 1660 3 3 1 roll cnp
 0.00 setgray
gsave eofill grestore  0.0 setgray
 stroke 0.0 setgray 0.0 setgray 1064 505 3526 505 1 rps
 3526 505
 3436 482 3436 527 3526 505 3 3 1 roll cnp
 0.00 setgray
gsave eofill grestore  0.0 setgray
 stroke 0.0 setgray 1064 505
 1154 527 1154 482 1064 505 3 3 1 roll cnp
 0.00 setgray
gsave eofill grestore  0.0 setgray
 stroke 0.0 setgray 0.0 setgray 1064 1660 3526 1660 1 rps
 1064 677 3526 677 1 rps
 450 1169 500 1169 1 rps
 [40 20] 0 setdash
 818 1660 450 1660 1 rps

/Times-Italic axumfindfont 128 scalefont setfont
 2106 1132 moveto  (v) show 
 2247 359 moveto  (vt) show 

/Times-Roman axumfindfont 124 scalefont setfont
 1528 1824 moveto  (Collision cross section ) show 

/Symbol findfont 124 scalefont setfont
 2700 1824 moveto  (s) show 

/Times-Roman axumfindfont 124 scalefont setfont
 2693 1260 moveto  (atoms) show 
 2689 1369 moveto  (Point) show 
 222 1351 moveto  (2) show 

/Times-Italic axumfindfont 128 scalefont setfont
 284 1351 moveto  (a) show 

/Times-Roman axumfindfont 95 scalefont setfont
 348 1323 moveto  (o) show 
 [] 0 setdash
 1515 1806 1091 1337 1 rps
 3116 1392
 3134 1392 3152 1401 3161 1410 3170 1428
 3170 1446 3161 1464 3152 1473 3134 1482
 3116 1482 3098 1473 3089 1464 3080 1446
 3080 1428 3089 1410 3098 1401 3116 1392
 16 3 1 roll cnp
 0.00 setgray
gsave eofill grestore  0.0 setgray
 stroke 0.0 setgray 2466 1461
 2484 1461 2502 1470 2511 1479 2520 1497
 2520 1515 2511 1533 2502 1542 2484 1551
 2466 1551 2448 1542 2439 1533 2430 1515
 2430 1497 2439 1479 2448 1470 2466 1461
 16 3 1 roll cnp
 0.00 setgray
gsave eofill grestore  0.0 setgray
 stroke 0.0 setgray 2557 1046
 2575 1046 2593 1055 2602 1064 2611 1082
 2611 1100 2602 1118 2593 1127 2575 1136
 2557 1136 2539 1127 2530 1118 2521 1100
 2521 1082 2530 1064 2539 1055 2557 1046
 16 3 1 roll cnp
 0.00 setgray
gsave eofill grestore  0.0 setgray
 stroke 0.0 setgray 2088 792
 2106 792 2124 801 2133 810 2142 828
 2142 846 2133 864 2124 873 2106 882
 2088 882 2070 873 2061 864 2052 846
 2052 828 2061 810 2070 801 2088 792
 16 3 1 roll cnp
 0.00 setgray
gsave eofill grestore  0.0 setgray
 stroke 0.0 setgray 2020 1342
 2038 1342 2056 1351 2065 1360 2074 1378
 2074 1396 2065 1414 2056 1423 2038 1432
 2020 1432 2002 1423 1993 1414 1984 1396
 1984 1378 1993 1360 2002 1351 2020 1342
 16 3 1 roll cnp
 0.00 setgray
gsave eofill grestore  0.0 setgray
 stroke 0.0 setgray 2912 828
 2930 828 2948 837 2957 846 2966 864
 2966 882 2957 900 2948 909 2930 918
 2912 918 2894 909 2885 900 2876 882
 2876 864 2885 846 2894 837 2912 828
 16 3 1 roll cnp
 0.00 setgray
gsave eofill grestore  0.0 setgray
 stroke 0.0 setgray 1501 1533
 1519 1533 1537 1542 1546 1551 1555 1569
 1555 1587 1546 1605 1537 1614 1519 1623
 1501 1623 1483 1614 1474 1605 1465 1587
 1465 1569 1474 1551 1483 1542 1501 1533
 16 3 1 roll cnp
 0.00 setgray
gsave eofill grestore  0.0 setgray
 stroke 0.0 setgray 1747 992
 1765 992 1783 1001 1792 1010 1801 1028
 1801 1046 1792 1064 1783 1073 1765 1082
 1747 1082 1729 1073 1720 1064 1711 1046
 1711 1028 1720 1010 1729 1001 1747 992
 16 3 1 roll cnp
 0.00 setgray
gsave eofill grestore  0.0 setgray
 stroke 0.0 setgray 3285 983
 3303 983 3321 992 3330 1001 3339 1019
 3339 1037 3330 1055 3321 1064 3303 1073
 3285 1073 3267 1064 3258 1055 3249 1037
 3249 1019 3258 1001 3267 992 3285 983
 16 3 1 roll cnp
 0.00 setgray
gsave eofill grestore  0.0 setgray
 stroke 0.0 setgray grestore showpage
%Trailer
%EOF
