%!PS-Adobe-2.0 EPSF-1.2
%%BoundingBox: 0 0 468 360
%%%%DocumentFonts: /Helvetica
%%Title: Axum PostScript file
%%Creator: TriMetrix, Inc.
%%Pages: 1
%%EndComments
% Copyright 1988-1991 by TriMetrix, Inc. All rights reserved.
/downdict 4 dict def
/sdown
 {downdict begin
  /thestring exch def
  /lineskip exch def
  thestring
   {
    /charcode exch def
    /thechar ( ) dup 0 charcode put def
    0 lineskip neg rmoveto
    gsave
     thechar stringwidth pop 2 div neg 0 rmoveto
     thechar show
    grestore
   } forall
   end
  } def

/updict 4 dict def
/sup
 {updict begin
  /thestring exch def
  /lineskip exch def
  thestring 
   {
    /charcode exch def
    /thechar ( ) dup 0 charcode put def
    0 lineskip rmoveto
    gsave
     thechar stringwidth pop 2 div neg 0 rmoveto
     thechar show
    grestore
   } forall
   end
  } def

/leftdict 4 dict def
/sleft
 {leftdict begin
  /thestring exch def
  thestring
   {
    /charcode exch def
    /thechar ( ) dup 0 charcode put def
    gsave
     thechar stringwidth pop neg 0 rmoveto
     thechar show
    grestore
   } forall

   thechar stringwidth pop neg 0 rmoveto
   end
  } def

/path{newpath moveto{lineto}repeat} bind def 
/cnp{newpath moveto{lineto}repeat closepath} bind def
/clp{moveto{lineto}repeat closepath} bind def
/rps{ 3 1 roll path stroke} bind def
/rcs{ 3 1 roll clp stroke} bind def
/setF { currentscreen 4 -2 roll pop 3 1 roll setscreen} bind def
% required due to WinWord 2.0 bug:
/II { } def

/reencodedict 5 dict def
/reencode
{
   reencodedict begin
   /newencoding exch def
   /newfontname exch def
   /basefontname exch def

   /basefontdict basefontname findfont def
   /newfont basefontdict maxlength dict def

   basefontdict
   {
      exch dup dup /FID ne exch /Encoding ne and
      { exch newfont 3 1 roll put }
      { pop pop }
      ifelse
   }
   forall

   newfont /FontName newfontname put
   newfont /Encoding newencoding put
   newfontname newfont definefont pop
   end
}
def

/axumencoding
[
/.notdef        %   0
/.notdef        %   1
/.notdef        %   2
/.notdef        %   3
/.notdef        %   4
/.notdef        %   5
/.notdef        %   6
/.notdef        %   7
/.notdef        %   8
/.notdef        %   9
/.notdef        %  10
/.notdef        %  11
/.notdef        %  12
/.notdef        %  13
/.notdef        %  14
/.notdef        %  15
/.notdef        %  16
/.notdef        %  17
/.notdef        %  18
/.notdef        %  19
/.notdef        %  20
/.notdef        %  21
/.notdef        %  22
/.notdef        %  23
/.notdef        %  24
/.notdef        %  25
/.notdef        %  26
/.notdef        %  27
/.notdef        %  28
/.notdef        %  29
/.notdef        %  30
/.notdef        %  31
/space          %  32
/exclam         %  33
/quotedbl       %  34
/numbersign     %  35
/dollar         %  36
/percent        %  37
/ampersand      %  38
/quoteright     %  39
/parenleft      %  40
/parenright     %  41
/asterisk       %  42
/plus           %  43
/comma          %  44
/hyphen         %  45
/period         %  46
/slash          %  47
/zero           %  48
/one            %  49
/two            %  50
/three          %  51
/four           %  52
/five           %  53
/six            %  54
/seven          %  55
/eight          %  56
/nine           %  57
/colon          %  58
/semicolon      %  59
/less           %  60
/equal          %  61
/greater        %  62
/question       %  63
/at             %  64
/A              %  65
/B              %  66
/C              %  67
/D              %  68
/E              %  69
/F              %  70
/G              %  71
/H              %  72
/I              %  73
/J              %  74
/K              %  75
/L              %  76
/M              %  77
/N              %  78
/O              %  79
/P              %  80
/Q              %  81
/R              %  82
/S              %  83
/T              %  84
/U              %  85
/V              %  86
/W              %  87
/X              %  88
/Y              %  89
/Z              %  90
/bracketleft    %  91
/backslash      %  92
/bracketright   %  93
/asciicircum    %  94
/underscore     %  95
/quoteleft      %  96
/a              %  97
/b              %  98
/c              %  99
/d              % 100
/e              % 101
/f              % 102
/g              % 103
/h              % 104
/i              % 105
/j              % 106
/k              % 107
/l              % 108
/m              % 109
/n              % 110
/o              % 111
/p              % 112
/q              % 113
/r              % 114
/s              % 115
/t              % 116
/u              % 117
/v              % 118
/w              % 119
/x              % 120
/y              % 121
/z              % 122
/braceleft      % 123
/bar            % 124
/braceright     % 125
/asciitilde     % 126
/.notdef        % 127
/Ccedilla       % 128
/udieresis      % 129
/eacute         % 130
/acircumflex    % 131
/adieresis      % 132
/agrave         % 133
/aring          % 134
/ccedilla       % 135
/ecircumflex    % 136
/edieresis      % 137
/egrave         % 138
/idieresis      % 139
/icircumflex    % 140
/igrave         % 141
/Adieresis      % 142
/Aring          % 143
/Eacute         % 144
/ae             % 145
/AE             % 146
/ocircumflex    % 147
/odieresis      % 148
/ograve         % 149
/ucircumflex    % 150
/ugrave         % 151
/ydieresis      % 152
/Odieresis      % 153
/Udieresis      % 154
/cent           % 155
/sterling       % 156
/yen            % 157
/currency       % 158
/florin         % 159
/aacute         % 160
/iacute         % 161
/oacute         % 162
/uacute         % 163
/ntilde         % 164
/Ntilde         % 165
/ordfeminine    % 166
/ordmasculine   % 167
/questiondown   % 168
/quotedblleft   % 169
/quotedblright  % 170
/Aacute         % 171
/Acircumflex    % 172
/exclamdown     % 173
/Egrave         % 174
/Ecircumflex    % 175
/atilde         % 176
/otilde         % 177
/Edieresis      % 178
/Igrave         % 179
/oe             % 180
/OE             % 181
/Agrave         % 182
/Atilde         % 183
/Otilde         % 184
/section        % 185
/Iacute         % 186
/Icircumflex    % 187
/Idieresis      % 188
/Ograve         % 189
/Oacute         % 190
/Ocircumflex    % 191
/Ugrave         % 192
/Uacute         % 193
/Ucircumflex    % 194
/Ydieresis      % 195
/germandbls     % 196
/guillemotleft  % 197
/guillemotright % 198
/bullet         % 199
/.notdef        % 200
/.notdef        % 201
/.notdef        % 202
/.notdef        % 203
/.notdef        % 204
/.notdef        % 205
/.notdef        % 206
/.notdef        % 207
/.notdef        % 208
/.notdef        % 209
/.notdef        % 210
/.notdef        % 211
/.notdef        % 212
/.notdef        % 213
/.notdef        % 214
/.notdef        % 215
/.notdef        % 216
/.notdef        % 217
/.notdef        % 218
/.notdef        % 219
/.notdef        % 220
/.notdef        % 221
/.notdef        % 222
/.notdef        % 223
/.notdef        % 224
/.notdef        % 225
/.notdef        % 226
/.notdef        % 227
/.notdef        % 228
/.notdef        % 229
/.notdef        % 230
/.notdef        % 231
/.notdef        % 232
/.notdef        % 233
/.notdef        % 234
/.notdef        % 235
/.notdef        % 236
/.notdef        % 237
/.notdef        % 238
/.notdef        % 239
/.notdef        % 240
/.notdef        % 241
/.notdef        % 242
/.notdef        % 243
/.notdef        % 244
/.notdef        % 245
/.notdef        % 246
/.notdef        % 247
/.notdef        % 248
/.notdef        % 249
/.notdef        % 250
/.notdef        % 251
/.notdef        % 252
/.notdef        % 253
/.notdef        % 254
/.notdef        % 255
] 
def

/axumfindfont
{
   /axumfont axumencoding reencode
   /axumfont findfont
}
def


/MainFont /Helvetica axumfindfont 98 scalefont def
MainFont setfont
1 setlinejoin 0 setlinecap 0 setgray
 gsave 72 630 div dup scale
 0.0 setgray [] 0 setdash

1 setlinewidth
 1151 1559 1151 1560 1151 1561 1151 1562 1150 1562 1150 1563 1150 1564 1150 1565 1150 1566
 1150 1567 1150 1568 1150 1568 1150 1569 1149 1570 1149 1571 1149 1572 1149 1573
 1149 1573 1148 1574 1148 1575 1148 1576 1148 1577 1147 1577 1147 1578 1147 1579
 1146 1580 1146 1581 1146 1581 1145 1582 1145 1583 1145 1584 1144 1584 1144 1585
 1143 1586 1143 1587 1143 1587 1142 1588 1142 1589 1141 1590 1141 1590 1140 1591
 1140 1592 1139 1592 1139 1593 1138 1594 1138 1594 1137 1595 1136 1596 1136 1596
 1135 1597 1135 1597 1134 1598 1133 1599 1133 1599 1132 1600 1132 1600 1131 1601
 1130 1601 1130 1602 1129 1602 1128 1603 1127 1603 1127 1604 1126 1604 1125 1605
 1125 1605 1124 1606 1123 1606 1122 1607 1122 1607 1121 1607 1120 1608 1119 1608
 1119 1609 1118 1609 1117 1609 1116 1610 1115 1610 1115 1610 1114 1610 1113 1611
 1112 1611 1111 1611 1111 1611 1110 1612 1109 1612 1108 1612 1107 1612 1106 1612
 1106 1613 1105 1613 1104 1613 1103 1613 1102 1613 1101 1613 1101 1613 1100 1613
 1099 1613 1098 1613 1097 1613 1096 1613 1095 1613 101 rps
 1095 1613 1095 1613 1094 1613 1093 1613 1092 1613 1091 1613 1090 1613 1089 1613 1089 1613
 1088 1613 1087 1613 1086 1612 1085 1612 1084 1612 1084 1612 1083 1612 1082 1611
 1081 1611 1080 1611 1079 1611 1079 1610 1078 1610 1077 1610 1076 1610 1075 1609
 1075 1609 1074 1609 1073 1608 1072 1608 1072 1607 1071 1607 1070 1607 1069 1606
 1069 1606 1068 1605 1067 1605 1066 1604 1066 1604 1065 1603 1064 1603 1064 1602
 1063 1602 1062 1601 1062 1601 1061 1600 1060 1600 1060 1599 1059 1599 1058 1598
 1058 1597 1057 1597 1057 1596 1056 1596 1056 1595 1055 1594 1054 1594 1054 1593
 1053 1592 1053 1592 1052 1591 1052 1590 1051 1590 1051 1589 1050 1588 1050 1587
 1049 1587 1049 1586 1049 1585 1048 1584 1048 1584 1047 1583 1047 1582 1047 1581
 1046 1581 1046 1580 1046 1579 1045 1578 1045 1577 1045 1577 1045 1576 1044 1575
 1044 1574 1044 1573 1044 1573 1043 1572 1043 1571 1043 1570 1043 1569 1043 1568
 1043 1568 1042 1567 1042 1566 1042 1565 1042 1564 1042 1563 1042 1562 1042 1562
 1042 1561 1042 1560 1042 1559 1042 1558 1042 1557 101 rps
 1042 1557 1042 1557 1042 1556 1042 1555 1042 1554 1042 1553 1042 1552 1042 1551 1043 1551
 1043 1550 1043 1549 1043 1548 1043 1547 1043 1546 1044 1546 1044 1545 1044 1544
 1044 1543 1045 1542 1045 1541 1045 1541 1045 1540 1046 1539 1046 1538 1046 1538
 1047 1537 1047 1536 1047 1535 1048 1534 1048 1534 1049 1533 1049 1532 1049 1531
 1050 1531 1050 1530 1051 1529 1051 1529 1052 1528 1052 1527 1053 1526 1053 1526
 1054 1525 1054 1524 1055 1524 1056 1523 1056 1523 1057 1522 1057 1521 1058 1521
 1058 1520 1059 1519 1060 1519 1060 1518 1061 1518 1062 1517 1062 1517 1063 1516
 1064 1516 1064 1515 1065 1515 1066 1514 1066 1514 1067 1513 1068 1513 1069 1512
 1069 1512 1070 1511 1071 1511 1072 1511 1072 1510 1073 1510 1074 1510 1075 1509
 1075 1509 1076 1509 1077 1508 1078 1508 1079 1508 1079 1507 1080 1507 1081 1507
 1082 1507 1083 1506 1084 1506 1084 1506 1085 1506 1086 1506 1087 1506 1088 1505
 1089 1505 1089 1505 1090 1505 1091 1505 1092 1505 1093 1505 1094 1505 1095 1505
 1095 1505 1096 1505 1097 1505 1098 1505 1099 1505 101 rps
 1099 1505 1100 1505 1101 1505 1101 1505 1102 1505 1103 1505 1104 1505 1105 1505 1106 1506
 1106 1506 1107 1506 1108 1506 1109 1506 1110 1506 1111 1507 1111 1507 1112 1507
 1113 1507 1114 1508 1115 1508 1115 1508 1116 1509 1117 1509 1118 1509 1119 1510
 1119 1510 1120 1510 1121 1511 1122 1511 1122 1511 1123 1512 1124 1512 1125 1513
 1125 1513 1126 1514 1127 1514 1127 1515 1128 1515 1129 1516 1130 1516 1130 1517
 1131 1517 1132 1518 1132 1518 1133 1519 1133 1519 1134 1520 1135 1521 1135 1521
 1136 1522 1136 1523 1137 1523 1138 1524 1138 1524 1139 1525 1139 1526 1140 1526
 1140 1527 1141 1528 1141 1529 1142 1529 1142 1530 1143 1531 1143 1531 1143 1532
 1144 1533 1144 1534 1145 1534 1145 1535 1145 1536 1146 1537 1146 1538 1146 1538
 1147 1539 1147 1540 1147 1541 1148 1541 1148 1542 1148 1543 1148 1544 1149 1545
 1149 1546 81 rps
 1149 1546 1149 1546 1149 1547 1149 1548 1150 1549 1150 1550 1150 1551 1150 1551 1150 1552
 1150 1553 1150 1554 1150 1555 1150 1556 1151 1557 1151 1557 1151 1558 1151 1559
 16 rps
 1314 1559 1314 1562 1313 1566 1313 1569 1313 1573 1313 1576 1313 1580 1312 1583 1312 1586
 1311 1590 1311 1593 1310 1596 1310 1600 1309 1603 1308 1606 1308 1610 1307 1613
 1306 1616 1305 1620 1304 1623 1303 1626 1302 1629 1301 1633 1300 1636 1298 1639
 1297 1642 1296 1645 1294 1648 1293 1652 1291 1655 1290 1658 1288 1661 1287 1664
 1285 1667 1283 1670 1282 1673 1280 1675 1278 1678 1276 1681 1274 1684 1272 1687
 1270 1689 1268 1692 1266 1695 1264 1698 1262 1700 1259 1703 1257 1705 1255 1708
 1252 1710 1250 1713 1247 1715 1245 1717 1243 1720 1240 1722 1237 1724 1235 1726
 1232 1729 1229 1731 1227 1733 1224 1735 1221 1737 1218 1739 1216 1741 1213 1742
 1210 1744 1207 1746 1204 1748 1201 1749 1198 1751 1195 1753 1192 1754 1189 1756
 1186 1757 1183 1758 1179 1760 1176 1761 1173 1762 1170 1763 1167 1765 1163 1766
 1160 1767 1157 1768 1154 1769 1150 1769 1147 1770 1144 1771 1140 1772 1137 1772
 1134 1773 1130 1774 1127 1774 1123 1775 1120 1775 1117 1775 1113 1776 1110 1776
 1106 1776 1103 1776 1100 1776 1096 1776 1093 1776 101 rps
 1093 1776 1089 1776 1086 1776 1083 1776 1079 1776 1076 1775 1072 1775 1069 1775 1066 1774
 1062 1774 1059 1773 1056 1772 1052 1772 1049 1771 1046 1770 1042 1769 1039 1769
 1036 1768 1032 1767 1029 1766 1026 1765 1023 1763 1019 1762 1016 1761 1013 1760
 1010 1758 1007 1757 1004 1756 1001 1754 998 1753 995 1751 992 1749 989 1748
 986 1746 983 1744 980 1742 977 1741 974 1739 971 1737 969 1735 966 1733
 963 1731 960 1729 958 1726 955 1724 953 1722 950 1720 947 1717 945 1715
 943 1713 940 1710 938 1708 936 1705 933 1703 931 1700 929 1698 927 1695
 925 1692 922 1689 920 1687 918 1684 917 1681 915 1678 913 1675 911 1673
 909 1670 907 1667 906 1664 904 1661 903 1658 901 1655 900 1652 898 1648
 897 1645 895 1642 894 1639 893 1636 892 1633 891 1629 890 1626 889 1623
 888 1620 887 1616 886 1613 885 1610 884 1606 883 1603 883 1600 882 1596
 882 1593 881 1590 881 1586 880 1583 880 1580 880 1576 879 1573 879 1569
 879 1566 879 1562 879 1559 879 1556 879 1552 101 rps
 879 1552 879 1549 879 1545 880 1542 880 1539 880 1535 881 1532 881 1528 882 1525
 882 1522 883 1518 883 1515 884 1512 885 1508 886 1505 887 1502 888 1498
 889 1495 890 1492 891 1489 892 1486 893 1482 894 1479 895 1476 897 1473
 898 1470 900 1467 901 1464 903 1460 904 1457 906 1454 907 1451 909 1449
 911 1446 913 1443 915 1440 917 1437 918 1434 920 1431 922 1429 925 1426
 927 1423 929 1421 931 1418 933 1415 936 1413 938 1410 940 1408 943 1405
 945 1403 947 1401 950 1398 953 1396 955 1394 958 1392 960 1390 963 1387
 966 1385 969 1383 971 1381 974 1379 977 1378 980 1376 983 1374 986 1372
 989 1370 992 1369 995 1367 998 1366 1001 1364 1004 1363 1007 1361 1010 1360
 1013 1358 1016 1357 1019 1356 1023 1355 1026 1354 1029 1353 1032 1351 1036 1351
 1039 1350 1042 1349 1046 1348 1049 1347 1052 1346 1056 1346 1059 1345 1062 1345
 1066 1344 1069 1344 1072 1343 1076 1343 1079 1343 1083 1342 1086 1342 1089 1342
 1093 1342 1096 1342 1100 1342 1103 1342 1106 1342 101 rps
 1106 1342 1110 1342 1113 1343 1117 1343 1120 1343 1123 1344 1127 1344 1130 1345 1134 1345
 1137 1346 1140 1346 1144 1347 1147 1348 1150 1349 1154 1350 1157 1351 1160 1351
 1163 1353 1167 1354 1170 1355 1173 1356 1176 1357 1179 1358 1183 1360 1186 1361
 1189 1363 1192 1364 1195 1366 1198 1367 1201 1369 1204 1370 1207 1372 1210 1374
 1213 1376 1216 1378 1218 1379 1221 1381 1224 1383 1227 1385 1229 1387 1232 1390
 1235 1392 1237 1394 1240 1396 1243 1398 1245 1401 1247 1403 1250 1405 1252 1408
 1255 1410 1257 1413 1259 1415 1262 1418 1264 1421 1266 1423 1268 1426 1270 1429
 1272 1431 1274 1434 1276 1437 1278 1440 1280 1443 1282 1446 1283 1449 1285 1451
 1287 1454 1288 1457 1290 1460 1291 1464 1293 1467 1294 1470 1296 1473 1297 1476
 1298 1479 1300 1482 1301 1486 1302 1489 1303 1492 1304 1495 1305 1498 1306 1502
 1307 1505 81 rps
 1307 1505 1308 1508 1308 1512 1309 1515 1310 1518 1310 1522 1311 1525 1311 1528 1312 1532
 1312 1535 1313 1539 1313 1542 1313 1545 1313 1549 1313 1552 1314 1556 1314 1559
 16 rps
 1585 1559 1585 1567 1585 1574 1585 1582 1584 1590 1584 1597 1583 1605 1582 1613 1581 1620
 1580 1628 1579 1636 1578 1643 1577 1651 1575 1658 1573 1666 1572 1673 1570 1681
 1568 1688 1566 1695 1564 1703 1561 1710 1559 1717 1556 1725 1554 1732 1551 1739
 1548 1746 1545 1753 1542 1760 1539 1767 1535 1774 1532 1781 1528 1788 1525 1795
 1521 1801 1517 1808 1513 1814 1509 1821 1505 1827 1501 1834 1496 1840 1492 1846
 1487 1852 1483 1859 1478 1865 1473 1871 1468 1876 1463 1882 1458 1888 1453 1894
 1447 1899 1442 1905 1437 1910 1431 1915 1425 1921 1420 1926 1414 1931 1408 1936
 1402 1940 1396 1945 1390 1950 1384 1954 1377 1959 1371 1963 1365 1968 1358 1972
 1352 1976 1345 1980 1339 1984 1332 1987 1325 1991 1318 1994 1311 1998 1304 2001
 1297 2004 1290 2008 1283 2011 1276 2013 1269 2016 1262 2019 1255 2021 1247 2024
 1240 2026 1233 2028 1225 2030 1218 2032 1210 2034 1203 2036 1195 2038 1188 2039
 1180 2040 1173 2042 1165 2043 1158 2044 1150 2045 1142 2046 1135 2046 1127 2047
 1119 2047 1112 2048 1104 2048 1096 2048 1089 2048 101 rps
 1089 2048 1081 2048 1073 2047 1066 2047 1058 2046 1050 2046 1043 2045 1035 2044 1027 2043
 1020 2042 1012 2040 1005 2039 997 2038 990 2036 982 2034 975 2032 967 2030
 960 2028 952 2026 945 2024 938 2021 931 2019 923 2016 916 2013 909 2011
 902 2008 895 2004 888 2001 881 1998 874 1994 867 1991 861 1987 854 1984
 847 1980 841 1976 834 1972 828 1968 821 1963 815 1959 809 1954 803 1950
 797 1945 791 1940 785 1936 779 1931 773 1926 767 1921 762 1915 756 1910
 751 1905 745 1899 740 1894 735 1888 729 1882 724 1876 720 1871 715 1865
 710 1859 705 1852 701 1846 696 1840 692 1834 688 1827 683 1821 679 1814
 675 1808 672 1801 668 1795 664 1788 661 1781 657 1774 654 1767 651 1760
 648 1753 645 1746 642 1739 639 1732 636 1725 634 1717 631 1710 629 1703
 627 1695 625 1688 623 1681 621 1673 619 1666 617 1658 616 1651 615 1643
 613 1636 612 1628 611 1620 610 1613 609 1605 609 1597 608 1590 608 1582
 608 1574 607 1567 607 1559 607 1551 608 1544 101 rps
 608 1544 608 1536 608 1528 609 1521 609 1513 610 1505 611 1498 612 1490 613 1483
 615 1475 616 1468 617 1460 619 1452 621 1445 623 1438 625 1430 627 1423
 629 1415 631 1408 634 1401 636 1394 639 1386 642 1379 645 1372 648 1365
 651 1358 654 1351 657 1344 661 1337 664 1330 668 1324 672 1317 675 1310
 679 1304 683 1297 688 1291 692 1284 696 1278 701 1272 705 1266 710 1260
 715 1254 720 1248 724 1242 729 1236 735 1230 740 1225 745 1219 751 1214
 756 1208 762 1203 767 1198 773 1193 779 1187 785 1183 791 1178 797 1173
 803 1168 809 1164 815 1159 821 1155 828 1151 834 1146 841 1142 847 1138
 854 1135 861 1131 867 1127 874 1124 881 1120 888 1117 895 1114 902 1111
 909 1108 916 1105 923 1102 931 1099 938 1097 945 1094 952 1092 960 1090
 967 1088 975 1086 982 1084 990 1082 997 1081 1005 1079 1012 1078 1020 1076
 1027 1075 1035 1074 1043 1073 1050 1073 1058 1072 1066 1071 1073 1071 1081 1071
 1089 1070 1096 1070 1104 1070 1112 1071 1119 1071 101 rps
 1119 1071 1127 1071 1135 1072 1142 1073 1150 1073 1158 1074 1165 1075 1173 1076 1180 1078
 1188 1079 1195 1081 1203 1082 1210 1084 1218 1086 1225 1088 1233 1090 1240 1092
 1247 1094 1255 1097 1262 1099 1269 1102 1276 1105 1283 1108 1290 1111 1297 1114
 1304 1117 1311 1120 1318 1124 1325 1127 1332 1131 1339 1135 1345 1138 1352 1142
 1358 1146 1365 1151 1371 1155 1377 1159 1384 1164 1390 1168 1396 1173 1402 1178
 1408 1183 1414 1187 1420 1193 1425 1198 1431 1203 1437 1208 1442 1214 1447 1219
 1453 1225 1458 1230 1463 1236 1468 1242 1473 1248 1478 1254 1483 1260 1487 1266
 1492 1272 1496 1278 1501 1284 1505 1291 1509 1297 1513 1304 1517 1310 1521 1317
 1525 1324 1528 1330 1532 1337 1535 1344 1539 1351 1542 1358 1545 1365 1548 1372
 1551 1379 1554 1386 1556 1394 1559 1401 1561 1408 1564 1415 1566 1423 1568 1430
 1570 1438 81 rps
 1570 1438 1572 1445 1573 1452 1575 1460 1577 1468 1578 1475 1579 1483 1580 1490 1581 1498
 1582 1505 1583 1513 1584 1521 1584 1528 1585 1536 1585 1544 1585 1551 1585 1559
 16 rps
 1966 1559 1965 1573 1965 1586 1965 1600 1964 1614 1963 1627 1962 1641 1960 1654 1959 1668
 1957 1681 1955 1695 1953 1708 1950 1722 1947 1735 1945 1749 1941 1762 1938 1775
 1935 1788 1931 1801 1927 1815 1923 1828 1919 1840 1914 1853 1909 1866 1904 1879
 1899 1892 1894 1904 1888 1917 1883 1929 1877 1941 1871 1953 1864 1966 1858 1978
 1851 1990 1844 2001 1837 2013 1830 2025 1823 2036 1815 2047 1807 2059 1799 2070
 1791 2081 1783 2092 1775 2102 1766 2113 1757 2123 1748 2134 1739 2144 1730 2154
 1720 2164 1711 2173 1701 2183 1691 2192 1681 2202 1671 2211 1661 2220 1650 2228
 1640 2237 1629 2246 1618 2254 1607 2262 1596 2270 1585 2278 1573 2285 1562 2293
 1550 2300 1539 2307 1527 2314 1515 2320 1503 2327 1491 2333 1479 2339 1466 2345
 1454 2351 1441 2356 1429 2362 1416 2367 1404 2372 1391 2376 1378 2381 1365 2385
 1352 2389 1339 2393 1326 2397 1312 2401 1299 2404 1286 2407 1273 2410 1259 2412
 1246 2415 1232 2417 1219 2419 1205 2421 1192 2423 1178 2424 1164 2425 1151 2426
 1137 2427 1124 2427 1110 2428 1096 2428 1083 2428 101 rps
 1083 2428 1069 2427 1055 2427 1042 2426 1028 2425 1014 2424 1001 2423 987 2421 974 2419
 960 2417 947 2415 933 2412 920 2410 907 2407 893 2404 880 2401 867 2397
 854 2393 841 2389 828 2385 815 2381 802 2376 789 2372 776 2367 764 2362
 751 2356 739 2351 726 2345 714 2339 702 2333 690 2327 677 2320 666 2314
 654 2307 642 2300 630 2293 619 2285 608 2278 596 2270 585 2262 574 2254
 563 2246 553 2237 542 2228 532 2220 521 2211 511 2202 501 2192 491 2183
 482 2173 472 2164 463 2154 453 2144 444 2134 435 2123 426 2113 418 2102
 409 2092 401 2081 393 2070 385 2059 377 2047 370 2036 362 2025 355 2013
 348 2001 341 1990 335 1978 328 1966 322 1953 316 1941 310 1929 304 1917
 298 1904 293 1892 288 1879 283 1866 278 1853 274 1840 270 1828 265 1815
 262 1801 258 1788 254 1775 251 1762 248 1749 245 1735 242 1722 240 1708
 238 1695 236 1681 234 1668 232 1654 231 1641 230 1627 229 1614 228 1600
 227 1586 227 1573 227 1559 227 1545 227 1532 101 rps
 227 1532 228 1518 229 1505 230 1491 231 1477 232 1464 234 1450 236 1437 238 1423
 240 1410 242 1396 245 1383 248 1370 251 1356 254 1343 258 1330 262 1317
 265 1304 270 1291 274 1278 278 1265 283 1252 288 1239 293 1227 298 1214
 304 1202 310 1189 316 1177 322 1165 328 1153 335 1141 341 1129 348 1117
 355 1105 362 1094 370 1082 377 1071 385 1060 393 1048 401 1037 409 1027
 418 1016 426 1005 435 995 444 985 453 974 463 964 472 954 482 945
 491 935 501 926 511 917 521 907 532 898 542 890 553 881 563 873
 574 864 585 856 596 848 608 841 619 833 630 826 642 818 654 811
 666 804 677 798 690 791 702 785 714 779 726 773 739 767 751 762
 764 756 776 751 789 746 802 742 815 737 828 733 841 729 854 725
 867 721 880 718 893 714 907 711 920 708 933 706 947 703 960 701
 974 699 987 697 1001 696 1014 694 1028 693 1042 692 1055 691 1069 691
 1083 690 1096 690 1110 690 1124 691 1137 691 101 rps
 1137 691 1151 692 1164 693 1178 694 1192 696 1205 697 1219 699 1232 701 1246 703
 1259 706 1273 708 1286 711 1299 714 1312 718 1326 721 1339 725 1352 729
 1365 733 1378 737 1391 742 1404 746 1416 751 1429 756 1441 762 1454 767
 1466 773 1479 779 1491 785 1503 791 1515 798 1527 804 1539 811 1550 818
 1562 826 1573 833 1585 841 1596 848 1607 856 1618 864 1629 873 1640 881
 1650 890 1661 898 1671 907 1681 917 1691 926 1701 935 1711 945 1720 954
 1730 964 1739 974 1748 985 1757 995 1766 1005 1775 1016 1783 1027 1791 1037
 1799 1048 1807 1060 1815 1071 1823 1082 1830 1094 1837 1105 1844 1117 1851 1129
 1858 1141 1864 1153 1871 1165 1877 1177 1883 1189 1888 1202 1894 1214 1899 1227
 1904 1239 1909 1252 1914 1265 1919 1278 1923 1291 1927 1304 1931 1317 1935 1330
 1938 1343 81 rps
 1938 1343 1941 1356 1945 1370 1947 1383 1950 1396 1953 1410 1955 1423 1957 1437 1959 1450
 1960 1464 1962 1477 1963 1491 1964 1505 1965 1518 1965 1532 1965 1545 1966 1559
 16 rps
 2998 1559 2998 1560 2998 1561 2998 1562 2998 1562 2998 1563 2998 1564 2997 1565 2997 1566
 2997 1567 2997 1568 2997 1568 2997 1569 2997 1570 2996 1571 2996 1572 2996 1573
 2996 1573 2996 1574 2995 1575 2995 1576 2995 1577 2995 1577 2994 1578 2994 1579
 2994 1580 2993 1581 2993 1581 2993 1582 2992 1583 2992 1584 2991 1584 2991 1585
 2991 1586 2990 1587 2990 1587 2989 1588 2989 1589 2988 1590 2988 1590 2987 1591
 2987 1592 2986 1592 2986 1593 2985 1594 2985 1594 2984 1595 2984 1596 2983 1596
 2982 1597 2982 1597 2981 1598 2981 1599 2980 1599 2979 1600 2979 1600 2978 1601
 2977 1601 2977 1602 2976 1602 2975 1603 2975 1603 2974 1604 2973 1604 2973 1605
 2972 1605 2971 1606 2970 1606 2970 1607 2969 1607 2968 1607 2967 1608 2967 1608
 2966 1609 2965 1609 2964 1609 2963 1610 2963 1610 2962 1610 2961 1610 2960 1611
 2959 1611 2959 1611 2958 1611 2957 1612 2956 1612 2955 1612 2954 1612 2954 1612
 2953 1613 2952 1613 2951 1613 2950 1613 2949 1613 2949 1613 2948 1613 2947 1613
 2946 1613 2945 1613 2944 1613 2943 1613 2943 1613 101 rps
 2943 1613 2942 1613 2941 1613 2940 1613 2939 1613 2938 1613 2937 1613 2937 1613 2936 1613
 2935 1613 2934 1613 2933 1612 2932 1612 2932 1612 2931 1612 2930 1612 2929 1611
 2928 1611 2927 1611 2927 1611 2926 1610 2925 1610 2924 1610 2923 1610 2923 1609
 2922 1609 2921 1609 2920 1608 2920 1608 2919 1607 2918 1607 2917 1607 2917 1606
 2916 1606 2915 1605 2914 1605 2914 1604 2913 1604 2912 1603 2911 1603 2911 1602
 2910 1602 2909 1601 2909 1601 2908 1600 2907 1600 2907 1599 2906 1599 2906 1598
 2905 1597 2904 1597 2904 1596 2903 1596 2903 1595 2902 1594 2902 1594 2901 1593
 2900 1592 2900 1592 2899 1591 2899 1590 2898 1590 2898 1589 2898 1588 2897 1587
 2897 1587 2896 1586 2896 1585 2895 1584 2895 1584 2895 1583 2894 1582 2894 1581
 2894 1581 2893 1580 2893 1579 2893 1578 2892 1577 2892 1577 2892 1576 2891 1575
 2891 1574 2891 1573 2891 1573 2891 1572 2890 1571 2890 1570 2890 1569 2890 1568
 2890 1568 2890 1567 2890 1566 2889 1565 2889 1564 2889 1563 2889 1562 2889 1562
 2889 1561 2889 1560 2889 1559 2889 1558 2889 1557 101 rps
 2889 1557 2889 1557 2889 1556 2889 1555 2889 1554 2889 1553 2890 1552 2890 1551 2890 1551
 2890 1550 2890 1549 2890 1548 2890 1547 2891 1546 2891 1546 2891 1545 2891 1544
 2891 1543 2892 1542 2892 1541 2892 1541 2893 1540 2893 1539 2893 1538 2894 1538
 2894 1537 2894 1536 2895 1535 2895 1534 2895 1534 2896 1533 2896 1532 2897 1531
 2897 1531 2898 1530 2898 1529 2898 1529 2899 1528 2899 1527 2900 1526 2900 1526
 2901 1525 2902 1524 2902 1524 2903 1523 2903 1523 2904 1522 2904 1521 2905 1521
 2906 1520 2906 1519 2907 1519 2907 1518 2908 1518 2909 1517 2909 1517 2910 1516
 2911 1516 2911 1515 2912 1515 2913 1514 2914 1514 2914 1513 2915 1513 2916 1512
 2917 1512 2917 1511 2918 1511 2919 1511 2920 1510 2920 1510 2921 1510 2922 1509
 2923 1509 2923 1509 2924 1508 2925 1508 2926 1508 2927 1507 2927 1507 2928 1507
 2929 1507 2930 1506 2931 1506 2932 1506 2932 1506 2933 1506 2934 1506 2935 1505
 2936 1505 2937 1505 2937 1505 2938 1505 2939 1505 2940 1505 2941 1505 2942 1505
 2943 1505 2943 1505 2944 1505 2945 1505 2946 1505 101 rps
 2946 1505 2947 1505 2948 1505 2949 1505 2949 1505 2950 1505 2951 1505 2952 1505 2953 1506
 2954 1506 2954 1506 2955 1506 2956 1506 2957 1506 2958 1507 2959 1507 2959 1507
 2960 1507 2961 1508 2962 1508 2963 1508 2963 1509 2964 1509 2965 1509 2966 1510
 2967 1510 2967 1510 2968 1511 2969 1511 2970 1511 2970 1512 2971 1512 2972 1513
 2973 1513 2973 1514 2974 1514 2975 1515 2975 1515 2976 1516 2977 1516 2977 1517
 2978 1517 2979 1518 2979 1518 2980 1519 2981 1519 2981 1520 2982 1521 2982 1521
 2983 1522 2984 1523 2984 1523 2985 1524 2985 1524 2986 1525 2986 1526 2987 1526
 2987 1527 2988 1528 2988 1529 2989 1529 2989 1530 2990 1531 2990 1531 2991 1532
 2991 1533 2991 1534 2992 1534 2992 1535 2993 1536 2993 1537 2993 1538 2994 1538
 2994 1539 2994 1540 2995 1541 2995 1541 2995 1542 2995 1543 2996 1544 2996 1545
 2996 1546 81 rps
 2996 1546 2996 1546 2996 1547 2997 1548 2997 1549 2997 1550 2997 1551 2997 1551 2997 1552
 2997 1553 2998 1554 2998 1555 2998 1556 2998 1557 2998 1557 2998 1558 2998 1559
 16 rps
 3161 1559 3161 1562 3161 1566 3160 1569 3160 1573 3160 1576 3160 1580 3159 1583 3159 1586
 3159 1590 3158 1593 3157 1596 3157 1600 3156 1603 3155 1606 3155 1610 3154 1613
 3153 1616 3152 1620 3151 1623 3150 1626 3149 1629 3148 1633 3147 1636 3145 1639
 3144 1642 3143 1645 3141 1648 3140 1652 3139 1655 3137 1658 3135 1661 3134 1664
 3132 1667 3130 1670 3129 1673 3127 1675 3125 1678 3123 1681 3121 1684 3119 1687
 3117 1689 3115 1692 3113 1695 3111 1698 3109 1700 3106 1703 3104 1705 3102 1708
 3099 1710 3097 1713 3095 1715 3092 1717 3090 1720 3087 1722 3085 1724 3082 1726
 3079 1729 3077 1731 3074 1733 3071 1735 3068 1737 3066 1739 3063 1741 3060 1742
 3057 1744 3054 1746 3051 1748 3048 1749 3045 1751 3042 1753 3039 1754 3036 1756
 3033 1757 3030 1758 3027 1760 3023 1761 3020 1762 3017 1763 3014 1765 3011 1766
 3007 1767 3004 1768 3001 1769 2997 1769 2994 1770 2991 1771 2987 1772 2984 1772
 2981 1773 2977 1774 2974 1774 2971 1775 2967 1775 2964 1775 2960 1776 2957 1776
 2954 1776 2950 1776 2947 1776 2943 1776 2940 1776 101 rps
 2940 1776 2937 1776 2933 1776 2930 1776 2926 1776 2923 1775 2920 1775 2916 1775 2913 1774
 2909 1774 2906 1773 2903 1772 2899 1772 2896 1771 2893 1770 2889 1769 2886 1769
 2883 1768 2880 1767 2876 1766 2873 1765 2870 1763 2867 1762 2863 1761 2860 1760
 2857 1758 2854 1757 2851 1756 2848 1754 2845 1753 2842 1751 2839 1749 2836 1748
 2833 1746 2830 1744 2827 1742 2824 1741 2821 1739 2818 1737 2816 1735 2813 1733
 2810 1731 2808 1729 2805 1726 2802 1724 2800 1722 2797 1720 2795 1717 2792 1715
 2790 1713 2787 1710 2785 1708 2783 1705 2780 1703 2778 1700 2776 1698 2774 1695
 2772 1692 2770 1689 2768 1687 2766 1684 2764 1681 2762 1678 2760 1675 2758 1673
 2756 1670 2755 1667 2753 1664 2751 1661 2750 1658 2748 1655 2747 1652 2745 1648
 2744 1645 2743 1642 2741 1639 2740 1636 2739 1633 2738 1629 2737 1626 2736 1623
 2735 1620 2734 1616 2733 1613 2732 1610 2731 1606 2731 1603 2730 1600 2729 1596
 2729 1593 2728 1590 2728 1586 2727 1583 2727 1580 2727 1576 2727 1573 2726 1569
 2726 1566 2726 1562 2726 1559 2726 1556 2726 1552 101 rps
 2726 1552 2726 1549 2727 1545 2727 1542 2727 1539 2727 1535 2728 1532 2728 1528 2729 1525
 2729 1522 2730 1518 2731 1515 2731 1512 2732 1508 2733 1505 2734 1502 2735 1498
 2736 1495 2737 1492 2738 1489 2739 1486 2740 1482 2741 1479 2743 1476 2744 1473
 2745 1470 2747 1467 2748 1464 2750 1460 2751 1457 2753 1454 2755 1451 2756 1449
 2758 1446 2760 1443 2762 1440 2764 1437 2766 1434 2768 1431 2770 1429 2772 1426
 2774 1423 2776 1421 2778 1418 2780 1415 2783 1413 2785 1410 2787 1408 2790 1405
 2792 1403 2795 1401 2797 1398 2800 1396 2802 1394 2805 1392 2808 1390 2810 1387
 2813 1385 2816 1383 2818 1381 2821 1379 2824 1378 2827 1376 2830 1374 2833 1372
 2836 1370 2839 1369 2842 1367 2845 1366 2848 1364 2851 1363 2854 1361 2857 1360
 2860 1358 2863 1357 2867 1356 2870 1355 2873 1354 2876 1353 2880 1351 2883 1351
 2886 1350 2889 1349 2893 1348 2896 1347 2899 1346 2903 1346 2906 1345 2909 1345
 2913 1344 2916 1344 2920 1343 2923 1343 2926 1343 2930 1342 2933 1342 2937 1342
 2940 1342 2943 1342 2947 1342 2950 1342 2954 1342 101 rps
 2954 1342 2957 1342 2960 1343 2964 1343 2967 1343 2971 1344 2974 1344 2977 1345 2981 1345
 2984 1346 2987 1346 2991 1347 2994 1348 2997 1349 3001 1350 3004 1351 3007 1351
 3011 1353 3014 1354 3017 1355 3020 1356 3023 1357 3027 1358 3030 1360 3033 1361
 3036 1363 3039 1364 3042 1366 3045 1367 3048 1369 3051 1370 3054 1372 3057 1374
 3060 1376 3063 1378 3066 1379 3068 1381 3071 1383 3074 1385 3077 1387 3079 1390
 3082 1392 3085 1394 3087 1396 3090 1398 3092 1401 3095 1403 3097 1405 3099 1408
 3102 1410 3104 1413 3106 1415 3109 1418 3111 1421 3113 1423 3115 1426 3117 1429
 3119 1431 3121 1434 3123 1437 3125 1440 3127 1443 3129 1446 3130 1449 3132 1451
 3134 1454 3135 1457 3137 1460 3139 1464 3140 1467 3141 1470 3143 1473 3144 1476
 3145 1479 3147 1482 3148 1486 3149 1489 3150 1492 3151 1495 3152 1498 3153 1502
 3154 1505 81 rps
 3154 1505 3155 1508 3155 1512 3156 1515 3157 1518 3157 1522 3158 1525 3159 1528 3159 1532
 3159 1535 3160 1539 3160 1542 3160 1545 3160 1549 3161 1552 3161 1556 3161 1559
 16 rps
 3432 1559 3432 1567 3432 1574 3432 1582 3431 1590 3431 1597 3430 1605 3429 1613 3429 1620
 3427 1628 3426 1636 3425 1643 3424 1651 3422 1658 3421 1666 3419 1673 3417 1681
 3415 1688 3413 1695 3411 1703 3408 1710 3406 1717 3403 1725 3401 1732 3398 1739
 3395 1746 3392 1753 3389 1760 3386 1767 3383 1774 3379 1781 3376 1788 3372 1795
 3368 1801 3364 1808 3360 1814 3356 1821 3352 1827 3348 1834 3343 1840 3339 1846
 3334 1852 3330 1859 3325 1865 3320 1871 3315 1876 3310 1882 3305 1888 3300 1894
 3295 1899 3289 1905 3284 1910 3278 1915 3272 1921 3267 1926 3261 1931 3255 1936
 3249 1940 3243 1945 3237 1950 3231 1954 3225 1959 3218 1963 3212 1968 3205 1972
 3199 1976 3192 1980 3186 1984 3179 1987 3172 1991 3165 1994 3159 1998 3152 2001
 3145 2004 3138 2008 3131 2011 3123 2013 3116 2016 3109 2019 3102 2021 3095 2024
 3087 2026 3080 2028 3072 2030 3065 2032 3058 2034 3050 2036 3043 2038 3035 2039
 3027 2040 3020 2042 3012 2043 3005 2044 2997 2045 2989 2046 2982 2046 2974 2047
 2966 2047 2959 2048 2951 2048 2943 2048 2936 2048 101 rps
 2936 2048 2928 2048 2920 2047 2913 2047 2905 2046 2897 2046 2890 2045 2882 2044 2875 2043
 2867 2042 2859 2040 2852 2039 2844 2038 2837 2036 2829 2034 2822 2032 2814 2030
 2807 2028 2800 2026 2792 2024 2785 2021 2778 2019 2771 2016 2763 2013 2756 2011
 2749 2008 2742 2004 2735 2001 2728 1998 2721 1994 2715 1991 2708 1987 2701 1984
 2695 1980 2688 1976 2681 1972 2675 1968 2669 1963 2662 1959 2656 1954 2650 1950
 2644 1945 2638 1940 2632 1936 2626 1931 2620 1926 2614 1921 2609 1915 2603 1910
 2598 1905 2592 1899 2587 1894 2582 1888 2577 1882 2572 1876 2567 1871 2562 1865
 2557 1859 2552 1852 2548 1846 2543 1840 2539 1834 2535 1827 2531 1821 2527 1814
 2523 1808 2519 1801 2515 1795 2511 1788 2508 1781 2504 1774 2501 1767 2498 1760
 2495 1753 2492 1746 2489 1739 2486 1732 2483 1725 2481 1717 2478 1710 2476 1703
 2474 1695 2472 1688 2470 1681 2468 1673 2466 1666 2465 1658 2463 1651 2462 1643
 2460 1636 2459 1628 2458 1620 2457 1613 2457 1605 2456 1597 2455 1590 2455 1582
 2455 1574 2455 1567 2454 1559 2455 1551 2455 1544 101 rps
 2455 1544 2455 1536 2455 1528 2456 1521 2457 1513 2457 1505 2458 1498 2459 1490 2460 1483
 2462 1475 2463 1468 2465 1460 2466 1452 2468 1445 2470 1438 2472 1430 2474 1423
 2476 1415 2478 1408 2481 1401 2483 1394 2486 1386 2489 1379 2492 1372 2495 1365
 2498 1358 2501 1351 2504 1344 2508 1337 2511 1330 2515 1324 2519 1317 2523 1310
 2527 1304 2531 1297 2535 1291 2539 1284 2543 1278 2548 1272 2552 1266 2557 1260
 2562 1254 2567 1248 2572 1242 2577 1236 2582 1230 2587 1225 2592 1219 2598 1214
 2603 1208 2609 1203 2614 1198 2620 1193 2626 1187 2632 1183 2638 1178 2644 1173
 2650 1168 2656 1164 2662 1159 2669 1155 2675 1151 2681 1146 2688 1142 2695 1138
 2701 1135 2708 1131 2715 1127 2721 1124 2728 1120 2735 1117 2742 1114 2749 1111
 2756 1108 2763 1105 2771 1102 2778 1099 2785 1097 2792 1094 2800 1092 2807 1090
 2814 1088 2822 1086 2829 1084 2837 1082 2844 1081 2852 1079 2859 1078 2867 1076
 2875 1075 2882 1074 2890 1073 2897 1073 2905 1072 2913 1071 2920 1071 2928 1071
 2936 1070 2943 1070 2951 1070 2959 1071 2966 1071 101 rps
 2966 1071 2974 1071 2982 1072 2989 1073 2997 1073 3005 1074 3012 1075 3020 1076 3027 1078
 3035 1079 3043 1081 3050 1082 3058 1084 3065 1086 3072 1088 3080 1090 3087 1092
 3095 1094 3102 1097 3109 1099 3116 1102 3123 1105 3131 1108 3138 1111 3145 1114
 3152 1117 3159 1120 3165 1124 3172 1127 3179 1131 3186 1135 3192 1138 3199 1142
 3205 1146 3212 1151 3218 1155 3225 1159 3231 1164 3237 1168 3243 1173 3249 1178
 3255 1183 3261 1187 3267 1193 3272 1198 3278 1203 3284 1208 3289 1214 3295 1219
 3300 1225 3305 1230 3310 1236 3315 1242 3320 1248 3325 1254 3330 1260 3334 1266
 3339 1272 3343 1278 3348 1284 3352 1291 3356 1297 3360 1304 3364 1310 3368 1317
 3372 1324 3376 1330 3379 1337 3383 1344 3386 1351 3389 1358 3392 1365 3395 1372
 3398 1379 3401 1386 3403 1394 3406 1401 3408 1408 3411 1415 3413 1423 3415 1430
 3417 1438 81 rps
 3417 1438 3419 1445 3421 1452 3422 1460 3424 1468 3425 1475 3426 1483 3427 1490 3429 1498
 3429 1505 3430 1513 3431 1521 3431 1528 3432 1536 3432 1544 3432 1551 3432 1559
 16 rps
 3813 1559 3813 1573 3812 1586 3812 1600 3811 1614 3810 1627 3809 1641 3807 1654 3806 1668
 3804 1681 3802 1695 3800 1708 3797 1722 3795 1735 3792 1749 3789 1762 3785 1775
 3782 1788 3778 1801 3774 1815 3770 1828 3766 1840 3761 1853 3757 1866 3752 1879
 3747 1892 3741 1904 3736 1917 3730 1929 3724 1941 3718 1953 3712 1966 3705 1978
 3698 1990 3692 2001 3685 2013 3677 2025 3670 2036 3662 2047 3655 2059 3647 2070
 3639 2081 3630 2092 3622 2102 3613 2113 3604 2123 3595 2134 3586 2144 3577 2154
 3568 2164 3558 2173 3548 2183 3538 2192 3528 2202 3518 2211 3508 2220 3498 2228
 3487 2237 3476 2246 3465 2254 3454 2262 3443 2270 3432 2278 3421 2285 3409 2293
 3398 2300 3386 2307 3374 2314 3362 2320 3350 2327 3338 2333 3326 2339 3314 2345
 3301 2351 3289 2356 3276 2362 3263 2367 3251 2372 3238 2376 3225 2381 3212 2385
 3199 2389 3186 2393 3173 2397 3160 2401 3146 2404 3133 2407 3120 2410 3106 2412
 3093 2415 3079 2417 3066 2419 3052 2421 3039 2423 3025 2424 3012 2425 2998 2426
 2984 2427 2971 2427 2957 2428 2943 2428 2930 2428 101 rps
 2930 2428 2916 2427 2902 2427 2889 2426 2875 2425 2862 2424 2848 2423 2834 2421 2821 2419
 2807 2417 2794 2415 2781 2412 2767 2410 2754 2407 2740 2404 2727 2401 2714 2397
 2701 2393 2688 2389 2675 2385 2662 2381 2649 2376 2636 2372 2623 2367 2611 2362
 2598 2356 2586 2351 2573 2345 2561 2339 2549 2333 2537 2327 2525 2320 2513 2314
 2501 2307 2489 2300 2478 2293 2466 2285 2455 2278 2444 2270 2432 2262 2422 2254
 2411 2246 2400 2237 2389 2228 2379 2220 2369 2211 2358 2202 2348 2192 2338 2183
 2329 2173 2319 2164 2310 2154 2300 2144 2291 2134 2282 2123 2274 2113 2265 2102
 2257 2092 2248 2081 2240 2070 2232 2059 2224 2047 2217 2036 2209 2025 2202 2013
 2195 2001 2188 1990 2182 1978 2175 1966 2169 1953 2163 1941 2157 1929 2151 1917
 2146 1904 2140 1892 2135 1879 2130 1866 2126 1853 2121 1840 2117 1828 2113 1815
 2109 1801 2105 1788 2101 1775 2098 1762 2095 1749 2092 1735 2090 1722 2087 1708
 2085 1695 2083 1681 2081 1668 2079 1654 2078 1641 2077 1627 2076 1614 2075 1600
 2075 1586 2074 1573 2074 1559 2074 1545 2075 1532 101 rps
 2075 1532 2075 1518 2076 1505 2077 1491 2078 1477 2079 1464 2081 1450 2083 1437 2085 1423
 2087 1410 2090 1396 2092 1383 2095 1370 2098 1356 2101 1343 2105 1330 2109 1317
 2113 1304 2117 1291 2121 1278 2126 1265 2130 1252 2135 1239 2140 1227 2146 1214
 2151 1202 2157 1189 2163 1177 2169 1165 2175 1153 2182 1141 2188 1129 2195 1117
 2202 1105 2209 1094 2217 1082 2224 1071 2232 1060 2240 1048 2248 1037 2257 1027
 2265 1016 2274 1005 2282 995 2291 985 2300 974 2310 964 2319 954 2329 945
 2338 935 2348 926 2358 917 2369 907 2379 898 2389 890 2400 881 2411 873
 2422 864 2432 856 2444 848 2455 841 2466 833 2478 826 2489 818 2501 811
 2513 804 2525 798 2537 791 2549 785 2561 779 2573 773 2586 767 2598 762
 2611 756 2623 751 2636 746 2649 742 2662 737 2675 733 2688 729 2701 725
 2714 721 2727 718 2740 714 2754 711 2767 708 2781 706 2794 703 2807 701
 2821 699 2834 697 2848 696 2862 694 2875 693 2889 692 2902 691 2916 691
 2930 690 2943 690 2957 690 2971 691 2984 691 101 rps
 2984 691 2998 692 3012 693 3025 694 3039 696 3052 697 3066 699 3079 701 3093 703
 3106 706 3120 708 3133 711 3146 714 3160 718 3173 721 3186 725 3199 729
 3212 733 3225 737 3238 742 3251 746 3263 751 3276 756 3289 762 3301 767
 3314 773 3326 779 3338 785 3350 791 3362 798 3374 804 3386 811 3398 818
 3409 826 3421 833 3432 841 3443 848 3454 856 3465 864 3476 873 3487 881
 3498 890 3508 898 3518 907 3528 917 3538 926 3548 935 3558 945 3568 954
 3577 964 3586 974 3595 985 3604 995 3613 1005 3622 1016 3630 1027 3639 1037
 3647 1048 3655 1060 3662 1071 3670 1082 3677 1094 3685 1105 3692 1117 3698 1129
 3705 1141 3712 1153 3718 1165 3724 1177 3730 1189 3736 1202 3741 1214 3747 1227
 3752 1239 3757 1252 3761 1265 3766 1278 3770 1291 3774 1304 3778 1317 3782 1330
 3785 1343 81 rps
 3785 1343 3789 1356 3792 1370 3795 1383 3797 1396 3800 1410 3802 1423 3804 1437 3806 1450
 3807 1464 3809 1477 3810 1491 3811 1505 3812 1518 3812 1532 3813 1545 3813 1559
 16 rps

/Times-Italic axumfindfont 128 scalefont setfont
 2848 1410 moveto  (n) show 

/Times-Roman axumfindfont 124 scalefont setfont
 2911 1410 moveto  (=1) show 

/Times-Italic axumfindfont 128 scalefont setfont
 2848 1237 moveto  2 rotate (n) show  -2 rotate

/Times-Roman axumfindfont 124 scalefont setfont
 2911 1239 moveto  2 rotate (=2) show  -2 rotate

/Times-Italic axumfindfont 128 scalefont setfont
 2848 955 moveto  (n) show 

/Times-Roman axumfindfont 124 scalefont setfont
 2911 955 moveto  (=3) show 

/Times-Italic axumfindfont 128 scalefont setfont
 2848 577 moveto  (n) show 

/Times-Roman axumfindfont 124 scalefont setfont
 2911 577 moveto  (=4) show 

/Times-Italic axumfindfont 128 scalefont setfont
 1000 1419 moveto  (n) show 

/Times-Roman axumfindfont 124 scalefont setfont
 1063 1419 moveto  (=1) show 

/Times-Italic axumfindfont 128 scalefont setfont
 1000 1237 moveto  (n) show 

/Times-Roman axumfindfont 124 scalefont setfont
 1063 1237 moveto  (=2) show 

/Times-Italic axumfindfont 128 scalefont setfont
 1000 955 moveto  (n) show 

/Times-Roman axumfindfont 124 scalefont setfont
 1063 955 moveto  (=3) show 

/Times-Italic axumfindfont 128 scalefont setfont
 1000 577 moveto  (n) show 

/Times-Roman axumfindfont 124 scalefont setfont
 1063 577 moveto  (=4) show 
 1365 1583 moveto  (H) show 

/Symbol findfont 91 scalefont setfont
 1455 1555 moveto  (a) show 

/Times-Roman axumfindfont 124 scalefont setfont
 3216 1597 moveto  (H) show 

/Symbol findfont 91 scalefont setfont
 3306 1569 moveto  (a) show 

/Times-Roman axumfindfont 124 scalefont setfont
 1465 2038 moveto  (H) show 

/Symbol findfont 91 scalefont setfont
 1555 2010 moveto  (b) show 

/Times-Roman axumfindfont 124 scalefont setfont
 3312 2038 moveto  (H) show 

/Symbol findfont 91 scalefont setfont
 3402 2010 moveto  (b) show 
 1283 1669 1519 1801 1 rps
 1283 1669
 1331 1721 1353 1682 1283 1669 3 3 1 roll cnp
 0.00 setgray
gsave eofill grestore  0.0 setgray
 stroke 0.0 setgray 0.0 setgray 3130 1669 3366 1801 1 rps
 3366 1801
 3317 1748 3295 1787 3366 1801 3 3 1 roll cnp
 0.00 setgray
gsave eofill grestore  0.0 setgray
 stroke 0.0 setgray 0.0 setgray 1205 1747 1528 2311 1 rps
 1205 1747
 1219 1817 1258 1794 1205 1747 3 3 1 roll cnp
 0.00 setgray
gsave eofill grestore  0.0 setgray
 stroke 0.0 setgray 0.0 setgray 3053 1747 3376 2311 1 rps
 3376 2311
 3361 2240 3322 2263 3376 2311 3 3 1 roll cnp
 0.00 setgray
gsave eofill grestore  0.0 setgray
 stroke 0.0 setgray 1094 1549
 1098 1549 1102 1551 1105 1554 1107 1558
 1107 1562 1105 1566 1102 1569 1098 1571
 1094 1571 1090 1569 1087 1566 1085 1562
 1085 1558 1087 1554 1090 1551 1094 1549
 16 3 1 roll cnp
 0.00 setgray
gsave eofill grestore  0.0 setgray
 stroke 0.0 setgray 2941 1549
 2945 1549 2949 1551 2952 1554 2954 1558
 2954 1562 2952 1566 2949 1569 2945 1571
 2941 1571 2937 1569 2934 1566 2932 1562
 2932 1558 2934 1554 2937 1551 2941 1549
 16 3 1 roll cnp
 0.00 setgray
gsave eofill grestore  0.0 setgray
 stroke 0.0 setgray grestore showpage
%Trailer
%EOF
