%!PS-Adobe-2.0 EPSF-1.2
%%BoundingBox: 0 0 468 360
%%%%DocumentFonts: /Helvetica
%%Title: Axum PostScript file
%%Creator: TriMetrix, Inc.
%%Pages: 1
%%EndComments
% Copyright 1988-1991 by TriMetrix, Inc. All rights reserved.
/downdict 4 dict def
/sdown
 {downdict begin
  /thestring exch def
  /lineskip exch def
  thestring
   {
    /charcode exch def
    /thechar ( ) dup 0 charcode put def
    0 lineskip neg rmoveto
    gsave
     thechar stringwidth pop 2 div neg 0 rmoveto
     thechar show
    grestore
   } forall
   end
  } def

/updict 4 dict def
/sup
 {updict begin
  /thestring exch def
  /lineskip exch def
  thestring 
   {
    /charcode exch def
    /thechar ( ) dup 0 charcode put def
    0 lineskip rmoveto
    gsave
     thechar stringwidth pop 2 div neg 0 rmoveto
     thechar show
    grestore
   } forall
   end
  } def

/leftdict 4 dict def
/sleft
 {leftdict begin
  /thestring exch def
  thestring
   {
    /charcode exch def
    /thechar ( ) dup 0 charcode put def
    gsave
     thechar stringwidth pop neg 0 rmoveto
     thechar show
    grestore
   } forall

   thechar stringwidth pop neg 0 rmoveto
   end
  } def

/path{newpath moveto{lineto}repeat} bind def 
/cnp{newpath moveto{lineto}repeat closepath} bind def
/clp{moveto{lineto}repeat closepath} bind def
/rps{ 3 1 roll path stroke} bind def
/rcs{ 3 1 roll clp stroke} bind def
/setF { currentscreen 4 -2 roll pop 3 1 roll setscreen} bind def
% required due to WinWord 2.0 bug:
/II { } def

/reencodedict 5 dict def
/reencode
{
   reencodedict begin
   /newencoding exch def
   /newfontname exch def
   /basefontname exch def

   /basefontdict basefontname findfont def
   /newfont basefontdict maxlength dict def

   basefontdict
   {
      exch dup dup /FID ne exch /Encoding ne and
      { exch newfont 3 1 roll put }
      { pop pop }
      ifelse
   }
   forall

   newfont /FontName newfontname put
   newfont /Encoding newencoding put
   newfontname newfont definefont pop
   end
}
def

/axumencoding
[
/.notdef        %   0
/.notdef        %   1
/.notdef        %   2
/.notdef        %   3
/.notdef        %   4
/.notdef        %   5
/.notdef        %   6
/.notdef        %   7
/.notdef        %   8
/.notdef        %   9
/.notdef        %  10
/.notdef        %  11
/.notdef        %  12
/.notdef        %  13
/.notdef        %  14
/.notdef        %  15
/.notdef        %  16
/.notdef        %  17
/.notdef        %  18
/.notdef        %  19
/.notdef        %  20
/.notdef        %  21
/.notdef        %  22
/.notdef        %  23
/.notdef        %  24
/.notdef        %  25
/.notdef        %  26
/.notdef        %  27
/.notdef        %  28
/.notdef        %  29
/.notdef        %  30
/.notdef        %  31
/space          %  32
/exclam         %  33
/quotedbl       %  34
/numbersign     %  35
/dollar         %  36
/percent        %  37
/ampersand      %  38
/quoteright     %  39
/parenleft      %  40
/parenright     %  41
/asterisk       %  42
/plus           %  43
/comma          %  44
/hyphen         %  45
/period         %  46
/slash          %  47
/zero           %  48
/one            %  49
/two            %  50
/three          %  51
/four           %  52
/five           %  53
/six            %  54
/seven          %  55
/eight          %  56
/nine           %  57
/colon          %  58
/semicolon      %  59
/less           %  60
/equal          %  61
/greater        %  62
/question       %  63
/at             %  64
/A              %  65
/B              %  66
/C              %  67
/D              %  68
/E              %  69
/F              %  70
/G              %  71
/H              %  72
/I              %  73
/J              %  74
/K              %  75
/L              %  76
/M              %  77
/N              %  78
/O              %  79
/P              %  80
/Q              %  81
/R              %  82
/S              %  83
/T              %  84
/U              %  85
/V              %  86
/W              %  87
/X              %  88
/Y              %  89
/Z              %  90
/bracketleft    %  91
/backslash      %  92
/bracketright   %  93
/asciicircum    %  94
/underscore     %  95
/quoteleft      %  96
/a              %  97
/b              %  98
/c              %  99
/d              % 100
/e              % 101
/f              % 102
/g              % 103
/h              % 104
/i              % 105
/j              % 106
/k              % 107
/l              % 108
/m              % 109
/n              % 110
/o              % 111
/p              % 112
/q              % 113
/r              % 114
/s              % 115
/t              % 116
/u              % 117
/v              % 118
/w              % 119
/x              % 120
/y              % 121
/z              % 122
/braceleft      % 123
/bar            % 124
/braceright     % 125
/asciitilde     % 126
/.notdef        % 127
/Ccedilla       % 128
/udieresis      % 129
/eacute         % 130
/acircumflex    % 131
/adieresis      % 132
/agrave         % 133
/aring          % 134
/ccedilla       % 135
/ecircumflex    % 136
/edieresis      % 137
/egrave         % 138
/idieresis      % 139
/icircumflex    % 140
/igrave         % 141
/Adieresis      % 142
/Aring          % 143
/Eacute         % 144
/ae             % 145
/AE             % 146
/ocircumflex    % 147
/odieresis      % 148
/ograve         % 149
/ucircumflex    % 150
/ugrave         % 151
/ydieresis      % 152
/Odieresis      % 153
/Udieresis      % 154
/cent           % 155
/sterling       % 156
/yen            % 157
/currency       % 158
/florin         % 159
/aacute         % 160
/iacute         % 161
/oacute         % 162
/uacute         % 163
/ntilde         % 164
/Ntilde         % 165
/ordfeminine    % 166
/ordmasculine   % 167
/questiondown   % 168
/quotedblleft   % 169
/quotedblright  % 170
/Aacute         % 171
/Acircumflex    % 172
/exclamdown     % 173
/Egrave         % 174
/Ecircumflex    % 175
/atilde         % 176
/otilde         % 177
/Edieresis      % 178
/Igrave         % 179
/oe             % 180
/OE             % 181
/Agrave         % 182
/Atilde         % 183
/Otilde         % 184
/section        % 185
/Iacute         % 186
/Icircumflex    % 187
/Idieresis      % 188
/Ograve         % 189
/Oacute         % 190
/Ocircumflex    % 191
/Ugrave         % 192
/Uacute         % 193
/Ucircumflex    % 194
/Ydieresis      % 195
/germandbls     % 196
/guillemotleft  % 197
/guillemotright % 198
/bullet         % 199
/.notdef        % 200
/.notdef        % 201
/.notdef        % 202
/.notdef        % 203
/.notdef        % 204
/.notdef        % 205
/.notdef        % 206
/.notdef        % 207
/.notdef        % 208
/.notdef        % 209
/.notdef        % 210
/.notdef        % 211
/.notdef        % 212
/.notdef        % 213
/.notdef        % 214
/.notdef        % 215
/.notdef        % 216
/.notdef        % 217
/.notdef        % 218
/.notdef        % 219
/.notdef        % 220
/.notdef        % 221
/.notdef        % 222
/.notdef        % 223
/.notdef        % 224
/.notdef        % 225
/.notdef        % 226
/.notdef        % 227
/.notdef        % 228
/.notdef        % 229
/.notdef        % 230
/.notdef        % 231
/.notdef        % 232
/.notdef        % 233
/.notdef        % 234
/.notdef        % 235
/.notdef        % 236
/.notdef        % 237
/.notdef        % 238
/.notdef        % 239
/.notdef        % 240
/.notdef        % 241
/.notdef        % 242
/.notdef        % 243
/.notdef        % 244
/.notdef        % 245
/.notdef        % 246
/.notdef        % 247
/.notdef        % 248
/.notdef        % 249
/.notdef        % 250
/.notdef        % 251
/.notdef        % 252
/.notdef        % 253
/.notdef        % 254
/.notdef        % 255
] 
def

/axumfindfont
{
   /axumfont axumencoding reencode
   /axumfont findfont
}
def


/MainFont /Helvetica axumfindfont 98 scalefont def
MainFont setfont
1 setlinejoin 0 setlinecap 0 setgray
 gsave 72 630 div dup scale
 0.0 setgray [] 0 setdash

1 setlinewidth
 592 476 3654 476 1 rps
 592 476 3654 476 1 rps
 588 2750 3658 2750 1 rps
 591 475 3655 475 1 rps
 591 475 3654 475 1 rps
 588 2751 3658 2751 1 rps
 590 474 3656 474 1 rps
 590 474 3654 474 1 rps
 588 2752 3658 2752 1 rps
 589 473 3657 473 1 rps
 589 473 3654 473 1 rps
 588 2753 3658 2753 1 rps
 588 472 3658 472 1 rps
 588 472 3654 472 1 rps
 588 2754 3658 2754 1 rps
 592 476 592 512 1 rps
 592 2750 592 2714 1 rps
 974 476 974 494 1 rps
 974 2750 974 2732 1 rps
 1357 476 1357 512 1 rps
 1357 2750 1357 2714 1 rps
 1739 476 1739 494 1 rps
 1739 2750 1739 2732 1 rps
 2123 476 2123 512 1 rps
 2123 2750 2123 2714 1 rps
 2505 476 2505 494 1 rps
 2505 2750 2505 2732 1 rps
 2888 476 2888 512 1 rps
 2888 2750 2888 2714 1 rps
 3270 476 3270 494 1 rps
 3270 2750 3270 2732 1 rps
 3654 476 3654 512 1 rps
 3654 2750 3654 2714 1 rps

/Times-Roman axumfindfont 124 scalefont setfont
 467 341 moveto  (5000) show 
 1184 341 moveto  (10,000) show 
 1950 341 moveto  (15,000) show 
 2715 341 moveto  (20,000) show 
 3481 341 moveto  (25,000) show 
 592 476 592 2750 1 rps
 591 475 591 2751 1 rps
 590 474 590 2752 1 rps
 589 473 589 2753 1 rps
 588 472 588 2754 1 rps
 3654 476 3654 2750 1 rps
 3655 475 3655 2751 1 rps
 3656 474 3656 2752 1 rps
 3657 473 3657 2753 1 rps
 3658 472 3658 2754 1 rps
 592 476 628 476 1 rps
 3654 476 3618 476 1 rps
 592 602 610 602 1 rps
 3654 602 3636 602 1 rps
 592 729 628 729 1 rps
 3654 729 3618 729 1 rps
 592 855 610 855 1 rps
 3654 855 3636 855 1 rps
 592 981 628 981 1 rps
 3654 981 3618 981 1 rps
 592 1107 610 1107 1 rps
 3654 1107 3636 1107 1 rps
 592 1234 628 1234 1 rps
 3654 1234 3618 1234 1 rps
 592 1360 610 1360 1 rps
 3654 1360 3636 1360 1 rps
 592 1487 628 1487 1 rps
 3654 1487 3618 1487 1 rps
 592 1613 610 1613 1 rps
 3654 1613 3636 1613 1 rps
 592 1739 628 1739 1 rps
 3654 1739 3618 1739 1 rps
 592 1865 610 1865 1 rps
 3654 1865 3636 1865 1 rps
 592 1992 628 1992 1 rps
 3654 1992 3618 1992 1 rps
 592 2118 610 2118 1 rps
 3654 2118 3636 2118 1 rps
 592 2245 628 2245 1 rps
 3654 2245 3618 2245 1 rps
 592 2371 610 2371 1 rps
 3654 2371 3636 2371 1 rps
 592 2497 628 2497 1 rps
 3654 2497 3618 2497 1 rps
 592 2623 610 2623 1 rps
 3654 2623 3636 2623 1 rps
 592 2750 628 2750 1 rps
 3654 2750 3618 2750 1 rps
 476 436 moveto  (0) show 
 476 689 moveto  (1) show 
 476 941 moveto  (2) show 
 476 1194 moveto  (3) show 
 476 1447 moveto  (4) show 
 476 1699 moveto  (5) show 
 476 1952 moveto  (6) show 
 476 2205 moveto  (7) show 
 476 2457 moveto  (8) show 
 476 2710 moveto  (9) show 
 592 476 607 476 623 476 638 476 653 476 669 476 684 477 699 477 714 477
 730 478 745 479 760 480 776 481 791 483 806 485 822 488 837 492
 852 497 868 504 883 512 898 521 914 534 929 549 944 567 959 589
 975 616 990 648 1005 686 1021 730 1036 783 1051 844 1067 914 1082 994
 1097 1085 1113 1187 1128 1299 1143 1421 1158 1551 1174 1688 1189 1829 1204 1970
 1220 2108 1235 2238 1250 2356 1266 2460 1281 2545 1296 2611 1312 2656 1327 2681
 1342 2686 1357 2673 1373 2646 1388 2605 1403 2555 1419 2496 1434 2432 1449 2363
 1465 2293 1480 2221 1495 2149 1511 2078 1526 2009 1541 1941 1557 1876 1572 1813
 1587 1752 1602 1695 1618 1639 1633 1587 1648 1537 1664 1489 1679 1444 1694 1401
 1710 1361 1725 1322 1740 1285 1756 1251 1771 1218 1786 1187 1801 1157 1817 1129
 1832 1102 1847 1077 1863 1053 1878 1030 1893 1008 1909 987 1924 968 1939 949
 1955 931 1970 914 1985 898 2001 882 2016 868 2031 854 2046 840 2062 828
 2077 815 2092 804 2108 792 2123 782 2138 771 101 rps
 2138 771 2154 762 2169 752 2184 743 2200 735 2215 726 2230 719 2245 711 2261 704
 2276 697 2291 690 2307 683 2322 677 2337 671 2353 665 2368 660 2383 655
 2399 649 2414 645 2429 640 2445 635 2460 631 2475 627 2490 622 2506 618
 2521 615 2536 611 2552 607 2567 604 2582 601 2598 597 2613 594 2628 591
 2644 588 2659 586 2674 583 2689 580 2705 578 2720 575 2735 573 2751 570
 2766 568 2781 566 2797 564 2812 562 2827 560 2843 558 2858 556 2873 554
 2888 552 2904 551 2919 549 2934 548 2950 546 2965 544 2980 543 2996 542
 3011 540 3026 539 3042 537 3057 536 3072 535 3088 534 3103 532 3118 531
 3133 530 3149 529 3164 528 3179 527 3195 526 3210 525 3225 524 3241 523
 3256 522 3271 521 3287 520 3302 520 3317 519 3332 518 3348 517 3363 516
 3378 516 3394 515 3409 514 3424 514 3440 513 3455 512 3470 512 3486 511
 3501 510 3516 510 3532 509 3547 509 3562 508 3577 507 3593 507 3608 506
 3623 506 3639 505 3654 505 99 rps
 1697 159 moveto  (Temperature \(K\)) show 

/Times-Italic axumfindfont 128 scalefont setfont
 343 1229 moveto  90 rotate (N) show  -90 rotate

/Times-Roman axumfindfont 95 scalefont setfont
 371 1314 moveto  90 rotate (2) show  -90 rotate

/Times-Roman axumfindfont 124 scalefont setfont
 342 1361 moveto  90 rotate (/) show  -90 rotate

/Times-Italic axumfindfont 128 scalefont setfont
 342 1396 moveto  90 rotate (N) show  -90 rotate

/Times-Roman axumfindfont 95 scalefont setfont
 370 1482 moveto  90 rotate (total) show  -90 rotate

/Times-Roman axumfindfont 124 scalefont setfont
 342 1650 moveto  90 rotate ( \(10) show  -90 rotate

/Symbol findfont 91 scalefont setfont
 292 1850 moveto  90 rotate (-) show  -90 rotate

/Times-Roman axumfindfont 95 scalefont setfont
 292 1901 moveto  90 rotate (6) show  -90 rotate

/Times-Roman axumfindfont 124 scalefont setfont
 341 1948 moveto  90 rotate (\)) show  -90 rotate
 grestore showpage
%Trailer
%EOF
