%!PS-Adobe-2.0 EPSF-1.2
%%BoundingBox: 0 0 468 360
%%%%DocumentFonts: /Helvetica
%%Title: Axum PostScript file
%%Creator: TriMetrix, Inc.
%%Pages: 1
%%EndComments
% Copyright 1988-1991 by TriMetrix, Inc. All rights reserved.
/downdict 4 dict def
/sdown
 {downdict begin
  /thestring exch def
  /lineskip exch def
  thestring
   {
    /charcode exch def
    /thechar ( ) dup 0 charcode put def
    0 lineskip neg rmoveto
    gsave
     thechar stringwidth pop 2 div neg 0 rmoveto
     thechar show
    grestore
   } forall
   end
  } def

/updict 4 dict def
/sup
 {updict begin
  /thestring exch def
  /lineskip exch def
  thestring 
   {
    /charcode exch def
    /thechar ( ) dup 0 charcode put def
    0 lineskip rmoveto
    gsave
     thechar stringwidth pop 2 div neg 0 rmoveto
     thechar show
    grestore
   } forall
   end
  } def

/leftdict 4 dict def
/sleft
 {leftdict begin
  /thestring exch def
  thestring
   {
    /charcode exch def
    /thechar ( ) dup 0 charcode put def
    gsave
     thechar stringwidth pop neg 0 rmoveto
     thechar show
    grestore
   } forall

   thechar stringwidth pop neg 0 rmoveto
   end
  } def

/path{newpath moveto{lineto}repeat} bind def 
/cnp{newpath moveto{lineto}repeat closepath} bind def
/clp{moveto{lineto}repeat closepath} bind def
/rps{ 3 1 roll path stroke} bind def
/rcs{ 3 1 roll clp stroke} bind def
/setF { currentscreen 4 -2 roll pop 3 1 roll setscreen} bind def
% required due to WinWord 2.0 bug:
/II { } def

/reencodedict 5 dict def
/reencode
{
   reencodedict begin
   /newencoding exch def
   /newfontname exch def
   /basefontname exch def

   /basefontdict basefontname findfont def
   /newfont basefontdict maxlength dict def

   basefontdict
   {
      exch dup dup /FID ne exch /Encoding ne and
      { exch newfont 3 1 roll put }
      { pop pop }
      ifelse
   }
   forall

   newfont /FontName newfontname put
   newfont /Encoding newencoding put
   newfontname newfont definefont pop
   end
}
def

/axumencoding
[
/.notdef        %   0
/.notdef        %   1
/.notdef        %   2
/.notdef        %   3
/.notdef        %   4
/.notdef        %   5
/.notdef        %   6
/.notdef        %   7
/.notdef        %   8
/.notdef        %   9
/.notdef        %  10
/.notdef        %  11
/.notdef        %  12
/.notdef        %  13
/.notdef        %  14
/.notdef        %  15
/.notdef        %  16
/.notdef        %  17
/.notdef        %  18
/.notdef        %  19
/.notdef        %  20
/.notdef        %  21
/.notdef        %  22
/.notdef        %  23
/.notdef        %  24
/.notdef        %  25
/.notdef        %  26
/.notdef        %  27
/.notdef        %  28
/.notdef        %  29
/.notdef        %  30
/.notdef        %  31
/space          %  32
/exclam         %  33
/quotedbl       %  34
/numbersign     %  35
/dollar         %  36
/percent        %  37
/ampersand      %  38
/quoteright     %  39
/parenleft      %  40
/parenright     %  41
/asterisk       %  42
/plus           %  43
/comma          %  44
/hyphen         %  45
/period         %  46
/slash          %  47
/zero           %  48
/one            %  49
/two            %  50
/three          %  51
/four           %  52
/five           %  53
/six            %  54
/seven          %  55
/eight          %  56
/nine           %  57
/colon          %  58
/semicolon      %  59
/less           %  60
/equal          %  61
/greater        %  62
/question       %  63
/at             %  64
/A              %  65
/B              %  66
/C              %  67
/D              %  68
/E              %  69
/F              %  70
/G              %  71
/H              %  72
/I              %  73
/J              %  74
/K              %  75
/L              %  76
/M              %  77
/N              %  78
/O              %  79
/P              %  80
/Q              %  81
/R              %  82
/S              %  83
/T              %  84
/U              %  85
/V              %  86
/W              %  87
/X              %  88
/Y              %  89
/Z              %  90
/bracketleft    %  91
/backslash      %  92
/bracketright   %  93
/asciicircum    %  94
/underscore     %  95
/quoteleft      %  96
/a              %  97
/b              %  98
/c              %  99
/d              % 100
/e              % 101
/f              % 102
/g              % 103
/h              % 104
/i              % 105
/j              % 106
/k              % 107
/l              % 108
/m              % 109
/n              % 110
/o              % 111
/p              % 112
/q              % 113
/r              % 114
/s              % 115
/t              % 116
/u              % 117
/v              % 118
/w              % 119
/x              % 120
/y              % 121
/z              % 122
/braceleft      % 123
/bar            % 124
/braceright     % 125
/asciitilde     % 126
/.notdef        % 127
/Ccedilla       % 128
/udieresis      % 129
/eacute         % 130
/acircumflex    % 131
/adieresis      % 132
/agrave         % 133
/aring          % 134
/ccedilla       % 135
/ecircumflex    % 136
/edieresis      % 137
/egrave         % 138
/idieresis      % 139
/icircumflex    % 140
/igrave         % 141
/Adieresis      % 142
/Aring          % 143
/Eacute         % 144
/ae             % 145
/AE             % 146
/ocircumflex    % 147
/odieresis      % 148
/ograve         % 149
/ucircumflex    % 150
/ugrave         % 151
/ydieresis      % 152
/Odieresis      % 153
/Udieresis      % 154
/cent           % 155
/sterling       % 156
/yen            % 157
/currency       % 158
/florin         % 159
/aacute         % 160
/iacute         % 161
/oacute         % 162
/uacute         % 163
/ntilde         % 164
/Ntilde         % 165
/ordfeminine    % 166
/ordmasculine   % 167
/questiondown   % 168
/quotedblleft   % 169
/quotedblright  % 170
/Aacute         % 171
/Acircumflex    % 172
/exclamdown     % 173
/Egrave         % 174
/Ecircumflex    % 175
/atilde         % 176
/otilde         % 177
/Edieresis      % 178
/Igrave         % 179
/oe             % 180
/OE             % 181
/Agrave         % 182
/Atilde         % 183
/Otilde         % 184
/section        % 185
/Iacute         % 186
/Icircumflex    % 187
/Idieresis      % 188
/Ograve         % 189
/Oacute         % 190
/Ocircumflex    % 191
/Ugrave         % 192
/Uacute         % 193
/Ucircumflex    % 194
/Ydieresis      % 195
/germandbls     % 196
/guillemotleft  % 197
/guillemotright % 198
/bullet         % 199
/.notdef        % 200
/.notdef        % 201
/.notdef        % 202
/.notdef        % 203
/.notdef        % 204
/.notdef        % 205
/.notdef        % 206
/.notdef        % 207
/.notdef        % 208
/.notdef        % 209
/.notdef        % 210
/.notdef        % 211
/.notdef        % 212
/.notdef        % 213
/.notdef        % 214
/.notdef        % 215
/.notdef        % 216
/.notdef        % 217
/.notdef        % 218
/.notdef        % 219
/.notdef        % 220
/.notdef        % 221
/.notdef        % 222
/.notdef        % 223
/.notdef        % 224
/.notdef        % 225
/.notdef        % 226
/.notdef        % 227
/.notdef        % 228
/.notdef        % 229
/.notdef        % 230
/.notdef        % 231
/.notdef        % 232
/.notdef        % 233
/.notdef        % 234
/.notdef        % 235
/.notdef        % 236
/.notdef        % 237
/.notdef        % 238
/.notdef        % 239
/.notdef        % 240
/.notdef        % 241
/.notdef        % 242
/.notdef        % 243
/.notdef        % 244
/.notdef        % 245
/.notdef        % 246
/.notdef        % 247
/.notdef        % 248
/.notdef        % 249
/.notdef        % 250
/.notdef        % 251
/.notdef        % 252
/.notdef        % 253
/.notdef        % 254
/.notdef        % 255
] 
def

/axumfindfont
{
   /axumfont axumencoding reencode
   /axumfont findfont
}
def


/MainFont /Helvetica axumfindfont 98 scalefont def
MainFont setfont
1 setlinejoin 0 setlinecap 0 setgray
 gsave 72 630 div dup scale
 0.0 setgray [] 0 setdash

1 setlinewidth
 750 476 3654 476 1 rps
 750 476 3654 476 1 rps
 746 2750 3658 2750 1 rps
 749 475 3655 475 1 rps
 749 475 3654 475 1 rps
 746 2751 3658 2751 1 rps
 748 474 3656 474 1 rps
 748 474 3654 474 1 rps
 746 2752 3658 2752 1 rps
 747 473 3657 473 1 rps
 747 473 3654 473 1 rps
 746 2753 3658 2753 1 rps
 746 472 3658 472 1 rps
 746 472 3654 472 1 rps
 746 2754 3658 2754 1 rps
 750 476 750 512 1 rps
 750 2750 750 2714 1 rps
 1113 476 1113 494 1 rps
 1113 2750 1113 2732 1 rps
 1476 476 1476 512 1 rps
 1476 2750 1476 2714 1 rps
 1839 476 1839 494 1 rps
 1839 2750 1839 2732 1 rps
 2202 476 2202 512 1 rps
 2202 2750 2202 2714 1 rps
 2565 476 2565 494 1 rps
 2565 2750 2565 2732 1 rps
 2928 476 2928 512 1 rps
 2928 2750 2928 2714 1 rps
 3291 476 3291 494 1 rps
 3291 2750 3291 2732 1 rps
 3654 476 3654 512 1 rps
 3654 2750 3654 2714 1 rps

/Times-Roman axumfindfont 124 scalefont setfont
 625 341 moveto  (5000) show 
 1303 341 moveto  (10,000) show 
 2029 341 moveto  (15,000) show 
 2755 341 moveto  (20,000) show 
 3481 341 moveto  (25,000) show 
 750 476 750 2750 1 rps
 749 475 749 2751 1 rps
 748 474 748 2752 1 rps
 747 473 747 2753 1 rps
 746 472 746 2754 1 rps
 3654 476 3654 2750 1 rps
 3655 475 3655 2751 1 rps
 3656 474 3656 2752 1 rps
 3657 473 3657 2753 1 rps
 3658 472 3658 2754 1 rps
 750 476 786 476 1 rps
 3654 476 3618 476 1 rps
 750 760 768 760 1 rps
 3654 760 3636 760 1 rps
 750 1044 786 1044 1 rps
 3654 1044 3618 1044 1 rps
 750 1328 768 1328 1 rps
 3654 1328 3636 1328 1 rps
 750 1613 786 1613 1 rps
 3654 1613 3618 1613 1 rps
 750 1897 768 1897 1 rps
 3654 1897 3636 1897 1 rps
 750 2181 786 2181 1 rps
 3654 2181 3618 2181 1 rps
 750 2465 768 2465 1 rps
 3654 2465 3636 2465 1 rps
 750 2750 786 2750 1 rps
 3654 2750 3618 2750 1 rps
 476 436 moveto  (0.00) show 
 476 1004 moveto  (0.01) show 
 476 1573 moveto  (0.02) show 
 476 2141 moveto  (0.03) show 
 476 2710 moveto  (0.04) show 
 750 476 765 476 779 476 794 476 808 476 823 476 837 476 852 476 866 476
 881 476 895 476 910 476 924 476 939 476 953 476 968 476 982 476
 997 476 1011 476 1026 476 1040 476 1055 476 1069 476 1084 476 1098 476
 1113 476 1128 476 1142 476 1157 476 1171 476 1186 476 1200 476 1215 476
 1229 476 1244 476 1258 476 1273 476 1287 476 1302 476 1316 476 1331 476
 1345 477 1360 477 1374 477 1389 477 1403 477 1418 477 1432 477 1447 477
 1461 477 1476 478 1491 478 1505 478 1520 478 1534 479 1549 479 1563 479
 1578 480 1592 480 1607 480 1621 481 1636 481 1650 482 1665 482 1679 483
 1694 484 1708 484 1723 485 1737 486 1752 487 1766 488 1781 489 1795 490
 1810 491 1824 492 1839 493 1854 495 1868 496 1883 498 1897 499 1912 501
 1926 503 1941 505 1955 507 1970 509 1984 511 1999 514 2013 516 2028 519
 2042 521 2057 524 2071 527 2086 530 2100 534 2115 537 2129 541 2144 544
 2158 548 2173 552 2187 556 2202 561 2217 565 101 rps
 2217 565 2231 570 2246 575 2260 580 2275 585 2289 591 2304 596 2318 602 2333 608
 2347 615 2362 621 2376 628 2391 635 2405 642 2420 649 2434 657 2449 665
 2463 673 2478 681 2492 690 2507 699 2521 708 2536 717 2550 727 2565 737
 2580 747 2594 757 2609 768 2623 779 2638 790 2652 802 2667 814 2681 826
 2696 838 2710 851 2725 864 2739 878 2754 891 2768 905 2783 919 2797 934
 2812 949 2826 964 2841 980 2855 996 2870 1012 2884 1028 2899 1045 2913 1062
 2928 1080 2943 1098 2957 1116 2972 1134 2986 1153 3001 1173 3015 1192 3030 1212
 3044 1232 3059 1253 3073 1274 3088 1295 3102 1317 3117 1339 3131 1361 3146 1384
 3160 1407 3175 1430 3189 1454 3204 1478 3218 1503 3233 1527 3247 1553 3262 1578
 3276 1604 3291 1630 3306 1657 3320 1684 3335 1711 3349 1739 3364 1767 3378 1796
 3393 1824 3407 1853 3422 1883 3436 1913 3451 1943 3465 1974 3480 2005 3494 2036
 3509 2067 3523 2099 3538 2132 3552 2164 3567 2197 3581 2231 3596 2265 3610 2299
 3625 2333 3639 2368 3654 2403 99 rps
 1776 159 moveto  (Temperature \(K\)) show 

/Times-Italic axumfindfont 128 scalefont setfont
 368 1316 moveto  90 rotate (N) show  -90 rotate

/Times-Roman axumfindfont 95 scalefont setfont
 396 1401 moveto  90 rotate (2) show  -90 rotate

/Times-Roman axumfindfont 124 scalefont setfont
 367 1448 moveto  90 rotate (/\() show  -90 rotate

/Times-Italic axumfindfont 128 scalefont setfont
 367 1525 moveto  90 rotate (N) show  -90 rotate

/Times-Roman axumfindfont 95 scalefont setfont
 395 1611 moveto  90 rotate (1) show  -90 rotate

/Times-Roman axumfindfont 124 scalefont setfont
 367 1658 moveto  90 rotate (+) show  -90 rotate

/Times-Italic axumfindfont 128 scalefont setfont
 367 1729 moveto  90 rotate (N) show  -90 rotate

/Times-Roman axumfindfont 95 scalefont setfont
 395 1815 moveto  90 rotate (2) show  -90 rotate

/Times-Roman axumfindfont 124 scalefont setfont
 366 1862 moveto  90 rotate (\)) show  -90 rotate
 grestore showpage
%Trailer
%EOF
