%!PS-Adobe-2.0 EPSF-1.2
%%BoundingBox: 0 0 468 360
%%%%DocumentFonts: /Helvetica
%%Title: Axum PostScript file
%%Creator: TriMetrix, Inc.
%%Pages: 1
%%EndComments
% Copyright 1988-1991 by TriMetrix, Inc. All rights reserved.
/downdict 4 dict def
/sdown
 {downdict begin
  /thestring exch def
  /lineskip exch def
  thestring
   {
    /charcode exch def
    /thechar ( ) dup 0 charcode put def
    0 lineskip neg rmoveto
    gsave
     thechar stringwidth pop 2 div neg 0 rmoveto
     thechar show
    grestore
   } forall
   end
  } def

/updict 4 dict def
/sup
 {updict begin
  /thestring exch def
  /lineskip exch def
  thestring 
   {
    /charcode exch def
    /thechar ( ) dup 0 charcode put def
    0 lineskip rmoveto
    gsave
     thechar stringwidth pop 2 div neg 0 rmoveto
     thechar show
    grestore
   } forall
   end
  } def

/leftdict 4 dict def
/sleft
 {leftdict begin
  /thestring exch def
  thestring
   {
    /charcode exch def
    /thechar ( ) dup 0 charcode put def
    gsave
     thechar stringwidth pop neg 0 rmoveto
     thechar show
    grestore
   } forall

   thechar stringwidth pop neg 0 rmoveto
   end
  } def

/path{newpath moveto{lineto}repeat} bind def 
/cnp{newpath moveto{lineto}repeat closepath} bind def
/clp{moveto{lineto}repeat closepath} bind def
/rps{ 3 1 roll path stroke} bind def
/rcs{ 3 1 roll clp stroke} bind def
/setF { currentscreen 4 -2 roll pop 3 1 roll setscreen} bind def
% required due to WinWord 2.0 bug:
/II { } def

/reencodedict 5 dict def
/reencode
{
   reencodedict begin
   /newencoding exch def
   /newfontname exch def
   /basefontname exch def

   /basefontdict basefontname findfont def
   /newfont basefontdict maxlength dict def

   basefontdict
   {
      exch dup dup /FID ne exch /Encoding ne and
      { exch newfont 3 1 roll put }
      { pop pop }
      ifelse
   }
   forall

   newfont /FontName newfontname put
   newfont /Encoding newencoding put
   newfontname newfont definefont pop
   end
}
def

/axumencoding
[
/.notdef        %   0
/.notdef        %   1
/.notdef        %   2
/.notdef        %   3
/.notdef        %   4
/.notdef        %   5
/.notdef        %   6
/.notdef        %   7
/.notdef        %   8
/.notdef        %   9
/.notdef        %  10
/.notdef        %  11
/.notdef        %  12
/.notdef        %  13
/.notdef        %  14
/.notdef        %  15
/.notdef        %  16
/.notdef        %  17
/.notdef        %  18
/.notdef        %  19
/.notdef        %  20
/.notdef        %  21
/.notdef        %  22
/.notdef        %  23
/.notdef        %  24
/.notdef        %  25
/.notdef        %  26
/.notdef        %  27
/.notdef        %  28
/.notdef        %  29
/.notdef        %  30
/.notdef        %  31
/space          %  32
/exclam         %  33
/quotedbl       %  34
/numbersign     %  35
/dollar         %  36
/percent        %  37
/ampersand      %  38
/quoteright     %  39
/parenleft      %  40
/parenright     %  41
/asterisk       %  42
/plus           %  43
/comma          %  44
/hyphen         %  45
/period         %  46
/slash          %  47
/zero           %  48
/one            %  49
/two            %  50
/three          %  51
/four           %  52
/five           %  53
/six            %  54
/seven          %  55
/eight          %  56
/nine           %  57
/colon          %  58
/semicolon      %  59
/less           %  60
/equal          %  61
/greater        %  62
/question       %  63
/at             %  64
/A              %  65
/B              %  66
/C              %  67
/D              %  68
/E              %  69
/F              %  70
/G              %  71
/H              %  72
/I              %  73
/J              %  74
/K              %  75
/L              %  76
/M              %  77
/N              %  78
/O              %  79
/P              %  80
/Q              %  81
/R              %  82
/S              %  83
/T              %  84
/U              %  85
/V              %  86
/W              %  87
/X              %  88
/Y              %  89
/Z              %  90
/bracketleft    %  91
/backslash      %  92
/bracketright   %  93
/asciicircum    %  94
/underscore     %  95
/quoteleft      %  96
/a              %  97
/b              %  98
/c              %  99
/d              % 100
/e              % 101
/f              % 102
/g              % 103
/h              % 104
/i              % 105
/j              % 106
/k              % 107
/l              % 108
/m              % 109
/n              % 110
/o              % 111
/p              % 112
/q              % 113
/r              % 114
/s              % 115
/t              % 116
/u              % 117
/v              % 118
/w              % 119
/x              % 120
/y              % 121
/z              % 122
/braceleft      % 123
/bar            % 124
/braceright     % 125
/asciitilde     % 126
/.notdef        % 127
/Ccedilla       % 128
/udieresis      % 129
/eacute         % 130
/acircumflex    % 131
/adieresis      % 132
/agrave         % 133
/aring          % 134
/ccedilla       % 135
/ecircumflex    % 136
/edieresis      % 137
/egrave         % 138
/idieresis      % 139
/icircumflex    % 140
/igrave         % 141
/Adieresis      % 142
/Aring          % 143
/Eacute         % 144
/ae             % 145
/AE             % 146
/ocircumflex    % 147
/odieresis      % 148
/ograve         % 149
/ucircumflex    % 150
/ugrave         % 151
/ydieresis      % 152
/Odieresis      % 153
/Udieresis      % 154
/cent           % 155
/sterling       % 156
/yen            % 157
/currency       % 158
/florin         % 159
/aacute         % 160
/iacute         % 161
/oacute         % 162
/uacute         % 163
/ntilde         % 164
/Ntilde         % 165
/ordfeminine    % 166
/ordmasculine   % 167
/questiondown   % 168
/quotedblleft   % 169
/quotedblright  % 170
/Aacute         % 171
/Acircumflex    % 172
/exclamdown     % 173
/Egrave         % 174
/Ecircumflex    % 175
/atilde         % 176
/otilde         % 177
/Edieresis      % 178
/Igrave         % 179
/oe             % 180
/OE             % 181
/Agrave         % 182
/Atilde         % 183
/Otilde         % 184
/section        % 185
/Iacute         % 186
/Icircumflex    % 187
/Idieresis      % 188
/Ograve         % 189
/Oacute         % 190
/Ocircumflex    % 191
/Ugrave         % 192
/Uacute         % 193
/Ucircumflex    % 194
/Ydieresis      % 195
/germandbls     % 196
/guillemotleft  % 197
/guillemotright % 198
/bullet         % 199
/.notdef        % 200
/.notdef        % 201
/.notdef        % 202
/.notdef        % 203
/.notdef        % 204
/.notdef        % 205
/.notdef        % 206
/.notdef        % 207
/.notdef        % 208
/.notdef        % 209
/.notdef        % 210
/.notdef        % 211
/.notdef        % 212
/.notdef        % 213
/.notdef        % 214
/.notdef        % 215
/.notdef        % 216
/.notdef        % 217
/.notdef        % 218
/.notdef        % 219
/.notdef        % 220
/.notdef        % 221
/.notdef        % 222
/.notdef        % 223
/.notdef        % 224
/.notdef        % 225
/.notdef        % 226
/.notdef        % 227
/.notdef        % 228
/.notdef        % 229
/.notdef        % 230
/.notdef        % 231
/.notdef        % 232
/.notdef        % 233
/.notdef        % 234
/.notdef        % 235
/.notdef        % 236
/.notdef        % 237
/.notdef        % 238
/.notdef        % 239
/.notdef        % 240
/.notdef        % 241
/.notdef        % 242
/.notdef        % 243
/.notdef        % 244
/.notdef        % 245
/.notdef        % 246
/.notdef        % 247
/.notdef        % 248
/.notdef        % 249
/.notdef        % 250
/.notdef        % 251
/.notdef        % 252
/.notdef        % 253
/.notdef        % 254
/.notdef        % 255
] 
def

/axumfindfont
{
   /axumfont axumencoding reencode
   /axumfont findfont
}
def


/MainFont /Helvetica axumfindfont 98 scalefont def
MainFont setfont
1 setlinejoin 0 setlinecap 0 setgray
 gsave 72 630 div dup scale
 0.0 setgray [] 0 setdash

1 setlinewidth
 696 464 3826 464 1 rps
 696 464 3826 464 1 rps
 692 2729 3830 2729 1 rps
 695 463 3827 463 1 rps
 695 463 3826 463 1 rps
 692 2730 3830 2730 1 rps
 694 462 3828 462 1 rps
 694 462 3826 462 1 rps
 692 2731 3830 2731 1 rps
 693 461 3829 461 1 rps
 693 461 3826 461 1 rps
 692 2732 3830 2732 1 rps
 692 460 3830 460 1 rps
 692 460 3826 460 1 rps
 692 2733 3830 2733 1 rps
 696 464 696 500 1 rps
 696 2729 696 2693 1 rps
 997 464 997 482 1 rps
 997 2729 997 2711 1 rps
 1298 464 1298 500 1 rps
 1298 2729 1298 2693 1 rps
 1599 464 1599 482 1 rps
 1599 2729 1599 2711 1 rps
 1900 464 1900 500 1 rps
 1900 2729 1900 2693 1 rps
 2201 464 2201 482 1 rps
 2201 2729 2201 2711 1 rps
 2502 464 2502 500 1 rps
 2502 2729 2502 2693 1 rps
 2803 464 2803 482 1 rps
 2803 2729 2803 2711 1 rps
 3104 464 3104 500 1 rps
 3104 2729 3104 2693 1 rps
 3405 464 3405 482 1 rps
 3405 2729 3405 2711 1 rps
 3706 464 3706 500 1 rps
 3706 2729 3706 2693 1 rps

/Symbol findfont 124 scalefont setfont
 584 329 moveto  (-) show 

/Times-Roman axumfindfont 124 scalefont setfont
 652 329 moveto  (0.5) show 
 1267 329 moveto  (0) show 
 1822 329 moveto  (0.5) show 
 2424 329 moveto  (1.0) show 
 3026 329 moveto  (1.5) show 
 3628 329 moveto  (2.0) show 
 696 464 696 2729 1 rps
 695 463 695 2730 1 rps
 694 462 694 2731 1 rps
 693 461 693 2732 1 rps
 692 460 692 2733 1 rps
 3826 464 3826 2729 1 rps
 3827 463 3827 2730 1 rps
 3828 462 3828 2731 1 rps
 3829 461 3829 2732 1 rps
 3830 460 3830 2733 1 rps
 696 536 732 536 1 rps
 3826 536 3790 536 1 rps
 696 740 714 740 1 rps
 3826 740 3808 740 1 rps
 696 944 732 944 1 rps
 3826 944 3790 944 1 rps
 696 1148 714 1148 1 rps
 3826 1148 3808 1148 1 rps
 696 1351 732 1351 1 rps
 3826 1351 3790 1351 1 rps
 696 1555 714 1555 1 rps
 3826 1555 3808 1555 1 rps
 696 1759 732 1759 1 rps
 3826 1759 3790 1759 1 rps
 696 1963 714 1963 1 rps
 3826 1963 3808 1963 1 rps
 696 2167 732 2167 1 rps
 3826 2167 3790 2167 1 rps
 696 2371 714 2371 1 rps
 3826 2371 3808 2371 1 rps
 696 2574 732 2574 1 rps
 3826 2574 3790 2574 1 rps
 486 496 moveto  (1.5) show 
 486 904 moveto  (1.0) show 
 486 1311 moveto  (0.5) show 
 580 1719 moveto  (0) show 

/Symbol findfont 124 scalefont setfont
 418 2127 moveto  (-) show 

/Times-Roman axumfindfont 124 scalefont setfont
 486 2127 moveto  (0.5) show 

/Symbol findfont 124 scalefont setfont
 418 2534 moveto  (-) show 

/Times-Roman axumfindfont 124 scalefont setfont
 486 2534 moveto  (1.0) show 
 901 2711 928 2669 956 2611 983 2542 1011 2466 1038 2386 1066 2304 1093 2223 1121 2145
 1148 2071 1175 2003 1203 1940 1230 1884 1258 1834 1285 1792 1313 1757 1340 1728
 1368 1706 1395 1690 1423 1679 1450 1673 1478 1672 1505 1674 1533 1679 1560 1687
 1588 1696 1615 1706 1643 1717 1670 1728 1698 1738 1725 1747 1753 1755 1780 1761
 1808 1764 1835 1765 1863 1763 1890 1758 1917 1751 1945 1740 1972 1725 2000 1708
 2027 1688 2055 1665 2082 1638 2110 1610 2137 1579 2165 1545 2192 1510 2220 1474
 2247 1436 2275 1397 2302 1357 2330 1317 2357 1277 2385 1238 2412 1199 2440 1161
 2467 1124 2495 1088 2522 1054 2550 1022 2577 992 2605 964 2632 938 2659 915
 2687 894 2714 875 2742 859 2769 845 2797 833 2824 824 2852 816 2879 810
 2907 805 2934 802 2962 799 2989 797 3017 796 3044 795 3072 794 3099 792
 3127 789 3154 785 3182 780 3209 774 3237 765 3264 755 3292 743 3319 728
 3347 712 3374 693 3401 673 3429 652 3456 629 3484 606 3511 583 3539 561
 3566 541 3594 523 3621 510 99 rps
 933 2617
 941 2617 950 2621 955 2626 959 2635
 959 2643 955 2652 950 2657 941 2661
 933 2661 924 2657 919 2652 915 2643
 915 2635 919 2626 924 2621 933 2617
 16 3 1 roll cnp
 0.20 setgray
gsave eofill grestore  0.0 setgray
 stroke 0.0 setgray 1270 1753
 1278 1753 1287 1757 1292 1762 1296 1771
 1296 1779 1292 1788 1287 1793 1278 1797
 1270 1797 1261 1793 1256 1788 1252 1779
 1252 1771 1256 1762 1261 1757 1270 1753
 16 3 1 roll cnp
 0.20 setgray
gsave eofill grestore  0.0 setgray
 stroke 0.0 setgray 1655 1712
 1663 1712 1672 1716 1677 1721 1681 1730
 1681 1738 1677 1747 1672 1752 1663 1756
 1655 1756 1646 1752 1641 1747 1637 1738
 1637 1730 1641 1721 1646 1716 1655 1712
 16 3 1 roll cnp
 0.20 setgray
gsave eofill grestore  0.0 setgray
 stroke 0.0 setgray 1992 1688
 2000 1688 2009 1692 2014 1697 2018 1706
 2018 1714 2014 1723 2009 1728 2000 1732
 1992 1732 1983 1728 1978 1723 1974 1714
 1974 1706 1978 1697 1983 1692 1992 1688
 16 3 1 roll cnp
 0.20 setgray
gsave eofill grestore  0.0 setgray
 stroke 0.0 setgray 2269 1370
 2277 1370 2286 1374 2291 1379 2295 1388
 2295 1396 2291 1405 2286 1410 2277 1414
 2269 1414 2260 1410 2255 1405 2251 1396
 2251 1388 2255 1379 2260 1374 2269 1370
 16 3 1 roll cnp
 0.20 setgray
gsave eofill grestore  0.0 setgray
 stroke 0.0 setgray 2979 742
 2987 742 2996 746 3001 751 3005 760
 3005 768 3001 777 2996 782 2987 786
 2979 786 2970 782 2965 777 2961 768
 2961 760 2965 751 2970 746 2979 742
 16 3 1 roll cnp
 0.20 setgray
gsave eofill grestore  0.0 setgray
 stroke 0.0 setgray 0.0 setgray [20 20] 0 setdash
 1021 2721 1049 2698 1078 2675 1106 2653 1134 2630 1163 2607 1191 2584 1219 2561 1248 2539
 1276 2516 1304 2493 1333 2470 1361 2447 1389 2425 1418 2402 1446 2379 1474 2356
 1503 2333 1531 2311 1559 2288 1588 2265 1616 2242 1644 2219 1673 2197 1701 2174
 1729 2151 1758 2128 1786 2105 1814 2083 1843 2060 1871 2037 1899 2014 1928 1991
 1956 1969 1984 1946 2013 1923 2041 1900 2069 1878 2098 1855 2126 1832 2154 1809
 2183 1786 2211 1764 2239 1741 2268 1718 2296 1695 2324 1672 2353 1650 2381 1627
 2409 1604 2438 1581 2466 1558 2494 1536 2523 1513 2551 1490 2579 1467 2608 1444
 2636 1422 2664 1399 2693 1376 2721 1353 2749 1330 2778 1308 2806 1285 2834 1262
 2863 1239 2891 1216 2919 1194 2948 1171 2976 1148 3004 1125 3033 1102 3061 1080
 3089 1057 3118 1034 3146 1011 3174 988 3203 966 3231 943 3259 920 3288 897
 3316 874 3344 852 3373 829 3401 806 3429 783 3458 760 3486 738 3514 715
 3543 692 3571 669 3599 646 3628 624 3656 601 3684 578 3713 555 3741 532
 3769 510 3798 487 3826 464 99 rps

/Times-Italic axumfindfont 128 scalefont setfont
 2148 147 moveto  (B) show 

/Symbol findfont 124 scalefont setfont
 2226 147 moveto  (-) show 

/Times-Italic axumfindfont 128 scalefont setfont
 2294 147 moveto  (V) show 
 308 1444 moveto  90 rotate (U) show  -90 rotate

/Symbol findfont 124 scalefont setfont
 308 1536 moveto  90 rotate (-) show  -90 rotate

/Times-Italic axumfindfont 128 scalefont setfont
 308 1604 moveto  90 rotate (B) show  -90 rotate

/Times-Roman axumfindfont 137 scalefont setfont
 2243 1833 moveto  320 rotate (Blackbody) show  -320 rotate

/Times-Roman axumfindfont 124 scalefont setfont
 737 2602 moveto  (B0) show 
 1119 1651 moveto  (A0) show 
 1542 1569 moveto  (F0) show 
 1847 1578 moveto  (G0) show 
 2111 1260 moveto  (K0) show 
 2907 632 moveto  (M0) show 
 grestore showpage
%Trailer
%EOF
