%!PS-Adobe-2.0 EPSF-1.2
%%BoundingBox: 0 0 468 360
%%%%DocumentFonts: /Helvetica
%%Title: Axum PostScript file
%%Creator: TriMetrix, Inc.
%%Pages: 1
%%EndComments
% Copyright 1988-1991 by TriMetrix, Inc. All rights reserved.
/downdict 4 dict def
/sdown
 {downdict begin
  /thestring exch def
  /lineskip exch def
  thestring
   {
    /charcode exch def
    /thechar ( ) dup 0 charcode put def
    0 lineskip neg rmoveto
    gsave
     thechar stringwidth pop 2 div neg 0 rmoveto
     thechar show
    grestore
   } forall
   end
  } def

/updict 4 dict def
/sup
 {updict begin
  /thestring exch def
  /lineskip exch def
  thestring 
   {
    /charcode exch def
    /thechar ( ) dup 0 charcode put def
    0 lineskip rmoveto
    gsave
     thechar stringwidth pop 2 div neg 0 rmoveto
     thechar show
    grestore
   } forall
   end
  } def

/leftdict 4 dict def
/sleft
 {leftdict begin
  /thestring exch def
  thestring
   {
    /charcode exch def
    /thechar ( ) dup 0 charcode put def
    gsave
     thechar stringwidth pop neg 0 rmoveto
     thechar show
    grestore
   } forall

   thechar stringwidth pop neg 0 rmoveto
   end
  } def

/path{newpath moveto{lineto}repeat} bind def 
/cnp{newpath moveto{lineto}repeat closepath} bind def
/clp{moveto{lineto}repeat closepath} bind def
/rps{ 3 1 roll path stroke} bind def
/rcs{ 3 1 roll clp stroke} bind def
/setF { currentscreen 4 -2 roll pop 3 1 roll setscreen} bind def
% required due to WinWord 2.0 bug:
/II { } def

/reencodedict 5 dict def
/reencode
{
   reencodedict begin
   /newencoding exch def
   /newfontname exch def
   /basefontname exch def

   /basefontdict basefontname findfont def
   /newfont basefontdict maxlength dict def

   basefontdict
   {
      exch dup dup /FID ne exch /Encoding ne and
      { exch newfont 3 1 roll put }
      { pop pop }
      ifelse
   }
   forall

   newfont /FontName newfontname put
   newfont /Encoding newencoding put
   newfontname newfont definefont pop
   end
}
def

/axumencoding
[
/.notdef        %   0
/.notdef        %   1
/.notdef        %   2
/.notdef        %   3
/.notdef        %   4
/.notdef        %   5
/.notdef        %   6
/.notdef        %   7
/.notdef        %   8
/.notdef        %   9
/.notdef        %  10
/.notdef        %  11
/.notdef        %  12
/.notdef        %  13
/.notdef        %  14
/.notdef        %  15
/.notdef        %  16
/.notdef        %  17
/.notdef        %  18
/.notdef        %  19
/.notdef        %  20
/.notdef        %  21
/.notdef        %  22
/.notdef        %  23
/.notdef        %  24
/.notdef        %  25
/.notdef        %  26
/.notdef        %  27
/.notdef        %  28
/.notdef        %  29
/.notdef        %  30
/.notdef        %  31
/space          %  32
/exclam         %  33
/quotedbl       %  34
/numbersign     %  35
/dollar         %  36
/percent        %  37
/ampersand      %  38
/quoteright     %  39
/parenleft      %  40
/parenright     %  41
/asterisk       %  42
/plus           %  43
/comma          %  44
/hyphen         %  45
/period         %  46
/slash          %  47
/zero           %  48
/one            %  49
/two            %  50
/three          %  51
/four           %  52
/five           %  53
/six            %  54
/seven          %  55
/eight          %  56
/nine           %  57
/colon          %  58
/semicolon      %  59
/less           %  60
/equal          %  61
/greater        %  62
/question       %  63
/at             %  64
/A              %  65
/B              %  66
/C              %  67
/D              %  68
/E              %  69
/F              %  70
/G              %  71
/H              %  72
/I              %  73
/J              %  74
/K              %  75
/L              %  76
/M              %  77
/N              %  78
/O              %  79
/P              %  80
/Q              %  81
/R              %  82
/S              %  83
/T              %  84
/U              %  85
/V              %  86
/W              %  87
/X              %  88
/Y              %  89
/Z              %  90
/bracketleft    %  91
/backslash      %  92
/bracketright   %  93
/asciicircum    %  94
/underscore     %  95
/quoteleft      %  96
/a              %  97
/b              %  98
/c              %  99
/d              % 100
/e              % 101
/f              % 102
/g              % 103
/h              % 104
/i              % 105
/j              % 106
/k              % 107
/l              % 108
/m              % 109
/n              % 110
/o              % 111
/p              % 112
/q              % 113
/r              % 114
/s              % 115
/t              % 116
/u              % 117
/v              % 118
/w              % 119
/x              % 120
/y              % 121
/z              % 122
/braceleft      % 123
/bar            % 124
/braceright     % 125
/asciitilde     % 126
/.notdef        % 127
/Ccedilla       % 128
/udieresis      % 129
/eacute         % 130
/acircumflex    % 131
/adieresis      % 132
/agrave         % 133
/aring          % 134
/ccedilla       % 135
/ecircumflex    % 136
/edieresis      % 137
/egrave         % 138
/idieresis      % 139
/icircumflex    % 140
/igrave         % 141
/Adieresis      % 142
/Aring          % 143
/Eacute         % 144
/ae             % 145
/AE             % 146
/ocircumflex    % 147
/odieresis      % 148
/ograve         % 149
/ucircumflex    % 150
/ugrave         % 151
/ydieresis      % 152
/Odieresis      % 153
/Udieresis      % 154
/cent           % 155
/sterling       % 156
/yen            % 157
/currency       % 158
/florin         % 159
/aacute         % 160
/iacute         % 161
/oacute         % 162
/uacute         % 163
/ntilde         % 164
/Ntilde         % 165
/ordfeminine    % 166
/ordmasculine   % 167
/questiondown   % 168
/quotedblleft   % 169
/quotedblright  % 170
/Aacute         % 171
/Acircumflex    % 172
/exclamdown     % 173
/Egrave         % 174
/Ecircumflex    % 175
/atilde         % 176
/otilde         % 177
/Edieresis      % 178
/Igrave         % 179
/oe             % 180
/OE             % 181
/Agrave         % 182
/Atilde         % 183
/Otilde         % 184
/section        % 185
/Iacute         % 186
/Icircumflex    % 187
/Idieresis      % 188
/Ograve         % 189
/Oacute         % 190
/Ocircumflex    % 191
/Ugrave         % 192
/Uacute         % 193
/Ucircumflex    % 194
/Ydieresis      % 195
/germandbls     % 196
/guillemotleft  % 197
/guillemotright % 198
/bullet         % 199
/.notdef        % 200
/.notdef        % 201
/.notdef        % 202
/.notdef        % 203
/.notdef        % 204
/.notdef        % 205
/.notdef        % 206
/.notdef        % 207
/.notdef        % 208
/.notdef        % 209
/.notdef        % 210
/.notdef        % 211
/.notdef        % 212
/.notdef        % 213
/.notdef        % 214
/.notdef        % 215
/.notdef        % 216
/.notdef        % 217
/.notdef        % 218
/.notdef        % 219
/.notdef        % 220
/.notdef        % 221
/.notdef        % 222
/.notdef        % 223
/.notdef        % 224
/.notdef        % 225
/.notdef        % 226
/.notdef        % 227
/.notdef        % 228
/.notdef        % 229
/.notdef        % 230
/.notdef        % 231
/.notdef        % 232
/.notdef        % 233
/.notdef        % 234
/.notdef        % 235
/.notdef        % 236
/.notdef        % 237
/.notdef        % 238
/.notdef        % 239
/.notdef        % 240
/.notdef        % 241
/.notdef        % 242
/.notdef        % 243
/.notdef        % 244
/.notdef        % 245
/.notdef        % 246
/.notdef        % 247
/.notdef        % 248
/.notdef        % 249
/.notdef        % 250
/.notdef        % 251
/.notdef        % 252
/.notdef        % 253
/.notdef        % 254
/.notdef        % 255
] 
def

/axumfindfont
{
   /axumfont axumencoding reencode
   /axumfont findfont
}
def


/MainFont /Helvetica axumfindfont 98 scalefont def
MainFont setfont
1 setlinejoin 0 setlinecap 0 setgray
 gsave 72 630 div dup scale
 0.0 setgray [] 0 setdash

1 setlinewidth
 545 1485 560 1442 575 1400 589 1359 604 1323 619 1292 634 1269 648 1254 663 1249
 678 1253 693 1266 708 1288 722 1318 737 1354 752 1394 767 1436 782 1479
 796 1520 811 1557 826 1588 841 1612 855 1628 870 1635 885 1632 900 1620
 915 1599 929 1571 944 1536 959 1496 974 1454 989 1412 1003 1370 1018 1333
 1033 1300 1048 1275 1062 1258 1077 1250 1092 1251 1107 1262 1122 1281 1136 1309
 1151 1343 1166 1382 1181 1424 1196 1467 1210 1508 1225 1547 1240 1580 1255 1606
 1269 1625 1284 1634 1299 1634 1314 1625 1329 1606 1343 1580 1358 1547 1373 1508
 1388 1467 1403 1424 1417 1382 1432 1343 1447 1309 1462 1281 1476 1262 1491 1251
 1506 1250 1521 1258 1536 1275 1550 1300 1565 1333 1580 1370 1595 1412 1610 1454
 1624 1496 1639 1536 1654 1571 1669 1599 1683 1620 1698 1632 1713 1635 1728 1628
 1743 1612 1757 1588 1772 1557 1787 1520 1802 1479 1817 1436 1831 1394 1846 1354
 1861 1318 1876 1288 1890 1266 1905 1253 1920 1249 1935 1254 1950 1269 1964 1292
 1979 1323 1994 1359 2009 1400 2023 1442 2023 1465 101 rps
 2023 1465 2022 1489 2022 1512 2022 1534 2022 1556 2023 1578 2024 1599 2027 1619 2030 1638
 2034 1656 2038 1673 2044 1688 2051 1703 2059 1716 2068 1728 2078 1739 2089 1748
 2102 1756 2116 1763 2130 1768 2146 1772 2163 1775 2181 1777 2200 1777 2219 1777
 2240 1776 2261 1773 2283 1771 2305 1767 2328 1763 2351 1759 2374 1754 2397 1749
 2421 1745 2444 1740 2467 1736 2490 1732 2512 1728 2534 1725 2555 1723 2575 1722
 2595 1721 2614 1722 2632 1724 2648 1726 2664 1731 2679 1736 2693 1743 2705 1751
 2716 1760 2727 1770 2736 1782 2744 1796 2750 1810 2756 1826 2761 1843 2765 1861
 2768 1880 2770 1900 2772 1921 2772 1942 2773 1964 2773 1987 2772 2010 2772 2033
 2771 2057 2770 2080 2770 2103 2769 2126 2769 2149 2770 2171 2770 2192 2772 2213
 2774 2233 2777 2252 2781 2270 2786 2287 2792 2303 2799 2317 2806 2331 2815 2343
 2826 2353 2837 2363 2849 2371 2863 2377 2878 2383 2894 2387 2910 2390 2928 2391
 2947 2392 2967 2391 2987 2390 3008 2388 3030 2385 3052 2382 3075 2378 3098 2373
 3121 2369 3145 2364 98 rps
 [20 20] 0 setdash
 545 1442 1961 1442 1 rps
 [] 0 setdash
 1961 1442
 1871 1419 1871 1464 1961 1442 3 3 1 roll cnp
 0.00 setgray
gsave eofill grestore  0.0 setgray
 stroke 0.0 setgray 0.0 setgray [20 20] 0 setdash
 2024 1442 3344 2525 1 rps
 [] 0 setdash
 3344 2525
 3288 2450 3260 2485 3344 2525 3 3 1 roll cnp
 0.00 setgray
gsave eofill grestore  0.0 setgray
 stroke 0.0 setgray 0.0 setgray 2024 1442 3198 982 1 rps
 3198 982
 3105 993 3122 1035 3198 982 3 3 1 roll cnp
 0.00 setgray
gsave eofill grestore  0.0 setgray
 stroke 0.0 setgray 2013 1386
 2035 1386 2058 1397 2069 1408 2080 1431
 2080 1453 2069 1476 2058 1487 2035 1498
 2013 1498 1990 1487 1979 1476 1968 1453
 1968 1431 1979 1408 1990 1397 2013 1386
 16 3 1 roll cnp
 0.00 setgray
gsave eofill grestore  0.0 setgray
 stroke 0.0 setgray 3242 904
 3264 904 3287 915 3298 926 3309 949
 3309 971 3298 994 3287 1005 3264 1016
 3242 1016 3219 1005 3208 994 3197 971
 3197 949 3208 926 3219 915 3242 904
 16 3 1 roll cnp
 0.00 setgray
gsave eofill grestore  0.0 setgray
 stroke 0.0 setgray 0.0 setgray [80 20] 0 setdash
 2024 1442 3498 1442 1 rps
 [] 0 setdash
 2369 1454 2369 1456 2369 1458 2369 1461 2368 1463 2368 1465 2368 1467 2368 1469 2368 1471
 2368 1474 2367 1476 2367 1478 2367 1480 2367 1482 2366 1484 2366 1486 2366 1489
 2366 1491 2365 1493 2365 1495 2365 1497 2364 1499 2364 1501 2363 1504 2363 1506
 2363 1508 2362 1510 2362 1512 2361 1514 2361 1516 2360 1518 2360 1521 2359 1523
 2359 1525 2358 1527 2358 1529 2357 1531 2357 1533 2356 1535 2356 1537 2355 1539
 2354 1541 2354 1544 2353 1546 2352 1548 2352 1550 2351 1552 2350 1554 2350 1556
 2349 1558 2348 1560 2347 1562 2347 1564 2346 1566 2345 1568 2344 1570 2344 1572
 2343 1574 2342 1576 2341 1578 2340 1580 2339 1582 2338 1584 2337 1586 2337 1588
 2336 1590 2335 1592 2334 1594 2333 1596 2332 1598 2331 1600 2330 1602 2329 1604
 2328 1605 2327 1607 2326 1609 2325 1611 2324 1613 2323 1615 2321 1617 2320 1619
 2319 1620 2318 1622 2317 1624 2316 1626 2315 1628 2313 1630 2312 1631 2311 1633
 2310 1635 2309 1637 2307 1639 2306 1640 2305 1642 2304 1644 2302 1646 2301 1647
 2300 1649 2299 1651 2297 1653 2296 1654 100 rps
 2395 1309 2396 1310 2396 1311 2397 1312 2397 1313 2398 1315 2398 1316 2398 1317 2399 1318
 2399 1319 2399 1320 2400 1322 2400 1323 2401 1324 2401 1325 2401 1326 2402 1327
 2402 1329 2402 1330 2403 1331 2403 1332 2403 1333 2404 1334 2404 1336 2404 1337
 2405 1338 2405 1339 2405 1340 2406 1342 2406 1343 2406 1344 2407 1345 2407 1346
 2407 1347 2408 1349 2408 1350 2408 1351 2408 1352 2409 1353 2409 1355 2409 1356
 2410 1357 2410 1358 2410 1359 2410 1361 2411 1362 2411 1363 2411 1364 2411 1365
 2412 1367 2412 1368 2412 1369 2412 1370 2412 1371 2413 1373 2413 1374 2413 1375
 2413 1376 2414 1378 2414 1379 2414 1380 2414 1381 2414 1382 2415 1384 2415 1385
 2415 1386 2415 1387 2415 1388 2415 1390 2416 1391 2416 1392 2416 1393 2416 1395
 2416 1396 2416 1397 2416 1398 2417 1399 2417 1401 2417 1402 2417 1403 2417 1404
 2417 1405 2417 1407 2417 1408 2418 1409 2418 1410 2418 1412 2418 1413 2418 1414
 2418 1415 2418 1416 2418 1418 2418 1419 2418 1420 2418 1421 2418 1423 2419 1424
 2419 1425 2419 1426 2419 1428 2419 1429 100 rps
 2417 1301 2418 1302 2418 1303 2418 1305 2419 1306 2419 1307 2420 1308 2420 1310 2421 1311
 2421 1312 2421 1313 2422 1314 2422 1316 2423 1317 2423 1318 2423 1319 2424 1321
 2424 1322 2424 1323 2425 1324 2425 1326 2426 1327 2426 1328 2426 1329 2427 1331
 2427 1332 2427 1333 2428 1334 2428 1336 2428 1337 2429 1338 2429 1339 2429 1341
 2430 1342 2430 1343 2430 1344 2431 1346 2431 1347 2431 1348 2431 1350 2432 1351
 2432 1352 2432 1353 2433 1355 2433 1356 2433 1357 2433 1358 2434 1360 2434 1361
 2434 1362 2434 1363 2435 1365 2435 1366 2435 1367 2435 1369 2436 1370 2436 1371
 2436 1372 2436 1374 2436 1375 2437 1376 2437 1378 2437 1379 2437 1380 2437 1381
 2438 1383 2438 1384 2438 1385 2438 1387 2438 1388 2439 1389 2439 1390 2439 1392
 2439 1393 2439 1394 2439 1396 2439 1397 2440 1398 2440 1399 2440 1401 2440 1402
 2440 1403 2440 1405 2440 1406 2440 1407 2441 1408 2441 1410 2441 1411 2441 1412
 2441 1414 2441 1415 2441 1416 2441 1418 2441 1419 2441 1420 2441 1421 2442 1423
 2442 1424 2442 1425 2442 1427 2442 1428 100 rps

/Times-Roman axumfindfont 124 scalefont setfont
 3066 750 moveto  (Electron) show 
 887 1838 moveto  (Incident photon) show 
 2893 2593 moveto  (Scattered photon) show 

/Symbol findfont 124 scalefont setfont
 2420 1546 moveto  (q) show 
 2502 1310 moveto  (f) show 

/Times-Italic axumfindfont 128 scalefont setfont
 2015 1246 moveto  (m) show 

/Times-Italic axumfindfont 95 scalefont setfont
 2107 1218 moveto  (e) show 

/Symbol findfont 124 scalefont setfont
 1433 1615 moveto  (l) show 

/Times-Italic axumfindfont 95 scalefont setfont
 1501 1587 moveto  (i) show 

/Symbol findfont 124 scalefont setfont
 2434 2015 moveto  40 rotate (l) show  -40 rotate

/Times-Italic axumfindfont 95 scalefont setfont
 2504 2037 moveto  40 rotate (f) show  -40 rotate
 grestore showpage
%Trailer
%EOF
