%!PS-Adobe-2.0 EPSF-1.2
%%BoundingBox: 0 0 468 360
%%%%DocumentFonts: /Helvetica
%%Title: Axum PostScript file
%%Creator: TriMetrix, Inc.
%%Pages: 1
%%EndComments
% Copyright 1988-1991 by TriMetrix, Inc. All rights reserved.
/downdict 4 dict def
/sdown
 {downdict begin
  /thestring exch def
  /lineskip exch def
  thestring
   {
    /charcode exch def
    /thechar ( ) dup 0 charcode put def
    0 lineskip neg rmoveto
    gsave
     thechar stringwidth pop 2 div neg 0 rmoveto
     thechar show
    grestore
   } forall
   end
  } def

/updict 4 dict def
/sup
 {updict begin
  /thestring exch def
  /lineskip exch def
  thestring 
   {
    /charcode exch def
    /thechar ( ) dup 0 charcode put def
    0 lineskip rmoveto
    gsave
     thechar stringwidth pop 2 div neg 0 rmoveto
     thechar show
    grestore
   } forall
   end
  } def

/leftdict 4 dict def
/sleft
 {leftdict begin
  /thestring exch def
  thestring
   {
    /charcode exch def
    /thechar ( ) dup 0 charcode put def
    gsave
     thechar stringwidth pop neg 0 rmoveto
     thechar show
    grestore
   } forall

   thechar stringwidth pop neg 0 rmoveto
   end
  } def

/path{newpath moveto{lineto}repeat} bind def 
/cnp{newpath moveto{lineto}repeat closepath} bind def
/clp{moveto{lineto}repeat closepath} bind def
/rps{ 3 1 roll path stroke} bind def
/rcs{ 3 1 roll clp stroke} bind def
/setF { currentscreen 4 -2 roll pop 3 1 roll setscreen} bind def
% required due to WinWord 2.0 bug:
/II { } def

/reencodedict 5 dict def
/reencode
{
   reencodedict begin
   /newencoding exch def
   /newfontname exch def
   /basefontname exch def

   /basefontdict basefontname findfont def
   /newfont basefontdict maxlength dict def

   basefontdict
   {
      exch dup dup /FID ne exch /Encoding ne and
      { exch newfont 3 1 roll put }
      { pop pop }
      ifelse
   }
   forall

   newfont /FontName newfontname put
   newfont /Encoding newencoding put
   newfontname newfont definefont pop
   end
}
def

/axumencoding
[
/.notdef        %   0
/.notdef        %   1
/.notdef        %   2
/.notdef        %   3
/.notdef        %   4
/.notdef        %   5
/.notdef        %   6
/.notdef        %   7
/.notdef        %   8
/.notdef        %   9
/.notdef        %  10
/.notdef        %  11
/.notdef        %  12
/.notdef        %  13
/.notdef        %  14
/.notdef        %  15
/.notdef        %  16
/.notdef        %  17
/.notdef        %  18
/.notdef        %  19
/.notdef        %  20
/.notdef        %  21
/.notdef        %  22
/.notdef        %  23
/.notdef        %  24
/.notdef        %  25
/.notdef        %  26
/.notdef        %  27
/.notdef        %  28
/.notdef        %  29
/.notdef        %  30
/.notdef        %  31
/space          %  32
/exclam         %  33
/quotedbl       %  34
/numbersign     %  35
/dollar         %  36
/percent        %  37
/ampersand      %  38
/quoteright     %  39
/parenleft      %  40
/parenright     %  41
/asterisk       %  42
/plus           %  43
/comma          %  44
/hyphen         %  45
/period         %  46
/slash          %  47
/zero           %  48
/one            %  49
/two            %  50
/three          %  51
/four           %  52
/five           %  53
/six            %  54
/seven          %  55
/eight          %  56
/nine           %  57
/colon          %  58
/semicolon      %  59
/less           %  60
/equal          %  61
/greater        %  62
/question       %  63
/at             %  64
/A              %  65
/B              %  66
/C              %  67
/D              %  68
/E              %  69
/F              %  70
/G              %  71
/H              %  72
/I              %  73
/J              %  74
/K              %  75
/L              %  76
/M              %  77
/N              %  78
/O              %  79
/P              %  80
/Q              %  81
/R              %  82
/S              %  83
/T              %  84
/U              %  85
/V              %  86
/W              %  87
/X              %  88
/Y              %  89
/Z              %  90
/bracketleft    %  91
/backslash      %  92
/bracketright   %  93
/asciicircum    %  94
/underscore     %  95
/quoteleft      %  96
/a              %  97
/b              %  98
/c              %  99
/d              % 100
/e              % 101
/f              % 102
/g              % 103
/h              % 104
/i              % 105
/j              % 106
/k              % 107
/l              % 108
/m              % 109
/n              % 110
/o              % 111
/p              % 112
/q              % 113
/r              % 114
/s              % 115
/t              % 116
/u              % 117
/v              % 118
/w              % 119
/x              % 120
/y              % 121
/z              % 122
/braceleft      % 123
/bar            % 124
/braceright     % 125
/asciitilde     % 126
/.notdef        % 127
/Ccedilla       % 128
/udieresis      % 129
/eacute         % 130
/acircumflex    % 131
/adieresis      % 132
/agrave         % 133
/aring          % 134
/ccedilla       % 135
/ecircumflex    % 136
/edieresis      % 137
/egrave         % 138
/idieresis      % 139
/icircumflex    % 140
/igrave         % 141
/Adieresis      % 142
/Aring          % 143
/Eacute         % 144
/ae             % 145
/AE             % 146
/ocircumflex    % 147
/odieresis      % 148
/ograve         % 149
/ucircumflex    % 150
/ugrave         % 151
/ydieresis      % 152
/Odieresis      % 153
/Udieresis      % 154
/cent           % 155
/sterling       % 156
/yen            % 157
/currency       % 158
/florin         % 159
/aacute         % 160
/iacute         % 161
/oacute         % 162
/uacute         % 163
/ntilde         % 164
/Ntilde         % 165
/ordfeminine    % 166
/ordmasculine   % 167
/questiondown   % 168
/quotedblleft   % 169
/quotedblright  % 170
/Aacute         % 171
/Acircumflex    % 172
/exclamdown     % 173
/Egrave         % 174
/Ecircumflex    % 175
/atilde         % 176
/otilde         % 177
/Edieresis      % 178
/Igrave         % 179
/oe             % 180
/OE             % 181
/Agrave         % 182
/Atilde         % 183
/Otilde         % 184
/section        % 185
/Iacute         % 186
/Icircumflex    % 187
/Idieresis      % 188
/Ograve         % 189
/Oacute         % 190
/Ocircumflex    % 191
/Ugrave         % 192
/Uacute         % 193
/Ucircumflex    % 194
/Ydieresis      % 195
/germandbls     % 196
/guillemotleft  % 197
/guillemotright % 198
/bullet         % 199
/.notdef        % 200
/.notdef        % 201
/.notdef        % 202
/.notdef        % 203
/.notdef        % 204
/.notdef        % 205
/.notdef        % 206
/.notdef        % 207
/.notdef        % 208
/.notdef        % 209
/.notdef        % 210
/.notdef        % 211
/.notdef        % 212
/.notdef        % 213
/.notdef        % 214
/.notdef        % 215
/.notdef        % 216
/.notdef        % 217
/.notdef        % 218
/.notdef        % 219
/.notdef        % 220
/.notdef        % 221
/.notdef        % 222
/.notdef        % 223
/.notdef        % 224
/.notdef        % 225
/.notdef        % 226
/.notdef        % 227
/.notdef        % 228
/.notdef        % 229
/.notdef        % 230
/.notdef        % 231
/.notdef        % 232
/.notdef        % 233
/.notdef        % 234
/.notdef        % 235
/.notdef        % 236
/.notdef        % 237
/.notdef        % 238
/.notdef        % 239
/.notdef        % 240
/.notdef        % 241
/.notdef        % 242
/.notdef        % 243
/.notdef        % 244
/.notdef        % 245
/.notdef        % 246
/.notdef        % 247
/.notdef        % 248
/.notdef        % 249
/.notdef        % 250
/.notdef        % 251
/.notdef        % 252
/.notdef        % 253
/.notdef        % 254
/.notdef        % 255
] 
def

/axumfindfont
{
   /axumfont axumencoding reencode
   /axumfont findfont
}
def


/MainFont /Helvetica axumfindfont 98 scalefont def
MainFont setfont
1 setlinejoin 0 setlinecap 0 setgray
 gsave 72 630 div dup scale
 [] 0 setdash

1 setlinewidth
 2850 1540
 2854 1540 2858 1542 2861 1545 2863 1549
 2863 1553 2861 1557 2858 1560 2854 1562
 2850 1562 2846 1560 2843 1557 2841 1553
 2841 1549 2843 1545 2846 1542 2850 1540
 16 3 1 roll cnp
 0.00 setgray
gsave eofill grestore  0.0 setgray
 stroke 0.0 setgray 0.0 setgray 3163 1551 3163 1557 3163 1562 3162 1568 3162 1573 3162 1579 3161 1584 3160 1589 3160 1595
 3159 1600 3158 1605 3157 1611 3156 1616 3155 1621 3153 1627 3152 1632 3151 1637
 3149 1642 3148 1647 3146 1653 3144 1658 3142 1663 3140 1668 3138 1673 3136 1678
 3134 1683 3131 1688 3129 1692 3126 1697 3124 1702 3121 1707 3118 1711 3116 1716
 3113 1721 3110 1725 3107 1729 3103 1734 3100 1738 3097 1743 3094 1747 3090 1751
 3087 1755 3083 1759 3079 1763 3076 1767 3072 1771 3068 1775 3064 1778 3060 1782
 3056 1786 3052 1789 3048 1793 3043 1796 3039 1799 3035 1803 3030 1806 3026 1809
 3021 1812 3017 1815 3012 1817 3008 1820 3003 1823 2998 1825 2993 1828 2988 1830
 2984 1833 2979 1835 2974 1837 2969 1839 2964 1841 2959 1843 2953 1845 2948 1847
 2943 1848 2938 1850 2933 1851 2927 1853 2922 1854 2917 1855 2912 1856 2906 1857
 2901 1858 2896 1859 2890 1859 2885 1860 2879 1861 2874 1861 2869 1861 2863 1862
 2858 1862 2852 1862 2847 1862 2842 1862 2836 1861 2831 1861 2825 1861 2820 1860
 2815 1859 2809 1859 2804 1858 2799 1857 2793 1856 101 rps
 2793 1856 2788 1855 2783 1854 2777 1853 2772 1851 2767 1850 2762 1848 2757 1847 2751 1845
 2746 1843 2741 1841 2736 1839 2731 1837 2726 1835 2721 1833 2716 1830 2712 1828
 2707 1825 2702 1823 2697 1820 2693 1817 2688 1815 2683 1812 2679 1809 2674 1806
 2670 1803 2666 1799 2661 1796 2657 1793 2653 1789 2649 1786 2645 1782 2641 1778
 2637 1775 2633 1771 2629 1767 2625 1763 2622 1759 2618 1755 2615 1751 2611 1747
 2608 1743 2605 1738 2601 1734 2598 1729 2595 1725 2592 1721 2589 1716 2586 1711
 2584 1707 2581 1702 2578 1697 2576 1692 2574 1688 2571 1683 2569 1678 2567 1673
 2565 1668 2563 1663 2561 1658 2559 1653 2557 1647 2556 1642 2554 1637 2553 1632
 2551 1627 2550 1621 2549 1616 2548 1611 2547 1605 2546 1600 2545 1595 2544 1589
 2544 1584 2543 1579 2543 1573 2543 1568 2542 1562 2542 1557 2542 1552 2542 1546
 2542 1541 2543 1535 2543 1530 2543 1524 2544 1519 2544 1514 2545 1508 2546 1503
 2547 1498 2548 1492 2549 1487 2550 1482 2551 1476 2553 1471 2554 1466 2556 1461
 2557 1456 2559 1450 2561 1445 2563 1440 2565 1435 101 rps
 2565 1435 2567 1430 2569 1425 2571 1420 2574 1415 2576 1411 2578 1406 2581 1401 2584 1396
 2586 1392 2589 1387 2592 1382 2595 1378 2598 1374 2601 1369 2605 1365 2608 1360
 2611 1356 2615 1352 2618 1348 2622 1344 2625 1340 2629 1336 2633 1332 2637 1328
 2641 1325 2645 1321 2649 1317 2653 1314 2657 1310 2661 1307 2666 1304 2670 1300
 2674 1297 2679 1294 2683 1291 2688 1288 2693 1286 2697 1283 2702 1280 2707 1278
 2712 1275 2716 1273 2721 1270 2726 1268 2731 1266 2736 1264 2741 1262 2746 1260
 2751 1258 2757 1256 2762 1255 2767 1253 2772 1252 2777 1250 2783 1249 2788 1248
 2793 1247 2799 1246 2804 1245 2809 1244 2815 1244 2820 1243 2825 1242 2831 1242
 2836 1242 2842 1241 2847 1241 2852 1241 2858 1241 2863 1241 2869 1242 2874 1242
 2879 1242 2885 1243 2890 1244 2896 1244 2901 1245 2906 1246 2912 1247 2917 1248
 2922 1249 2927 1250 2933 1252 2938 1253 2943 1255 2948 1256 2953 1258 2959 1260
 2964 1262 2969 1264 2974 1266 2979 1268 2984 1270 2988 1273 2993 1275 2998 1278
 3003 1280 3008 1283 3012 1286 3017 1288 3021 1291 101 rps
 3021 1291 3026 1294 3030 1297 3035 1300 3039 1304 3043 1307 3048 1310 3052 1314 3056 1317
 3060 1321 3064 1325 3068 1328 3072 1332 3076 1336 3079 1340 3083 1344 3087 1348
 3090 1352 3094 1356 3097 1360 3100 1365 3103 1369 3107 1374 3110 1378 3113 1382
 3116 1387 3118 1392 3121 1396 3124 1401 3126 1406 3129 1411 3131 1415 3134 1420
 3136 1425 3138 1430 3140 1435 3142 1440 3144 1445 3146 1450 3148 1456 3149 1461
 3151 1466 3152 1471 3153 1476 3155 1482 3156 1487 3157 1492 3158 1498 3159 1503
 3160 1508 3160 1514 3161 1519 3162 1524 3162 1530 3162 1535 3163 1541 3163 1546
 3163 1551 57 rps
 3163 1551 3163 1553 3163 1554 3163 1556 3163 1557 3163 1558 3163 1560 3163 1561 3163 1562
 3163 1564 3163 1565 3162 1566 3162 1568 3162 1569 3162 1570 3162 1572 3162 1573
 3162 1575 3162 1576 3162 1577 3162 1579 3162 1580 3162 1581 3162 1583 3162 1584
 3162 1585 3161 1587 3161 1588 3161 1589 3161 1591 3161 1592 3161 1593 3161 1595
 3161 1596 3161 1598 3160 1599 3160 1600 3160 1602 3160 1603 3160 1604 3160 1606
 3160 1607 3159 1608 3159 1610 3159 1611 3159 1612 3159 1614 3159 1615 3158 1617
 3158 1618 3158 1619 3158 1621 3158 1622 3157 1623 3157 1625 3157 1626 3157 1627
 3157 1629 3156 1630 3156 1631 3156 1633 3156 1634 3156 1636 3155 1637 3155 1638
 3155 1640 3155 1641 3154 1642 3154 1644 3154 1645 3154 1646 3153 1648 3153 1649
 3153 1651 3152 1652 3152 1653 3152 1655 3152 1656 3151 1657 3151 1659 3151 1660
 3150 1661 3150 1663 3150 1664 3149 1666 3149 1667 3149 1668 3149 1670 3148 1671
 3148 1672 3148 1674 3147 1675 3147 1676 3146 1678 3146 1679 3146 1681 3145 1682
 3145 1683 3145 1685 3144 1686 3144 1687 3143 1689 101 rps
 3143 1689 3143 1690 3143 1692 3142 1693 3142 1694 3141 1696 3141 1697 3141 1698 3140 1700
 3140 1701 3139 1702 3139 1704 3139 1705 3138 1707 3138 1708 3137 1709 3137 1711
 3136 1712 3136 1713 3135 1715 3135 1716 3134 1718 3134 1719 3133 1720 3133 1722
 3132 1723 3132 1724 3131 1726 3131 1727 3130 1729 3130 1730 3129 1731 3129 1733
 3128 1734 3128 1736 3127 1737 3127 1738 3126 1740 3126 1741 3125 1742 3125 1744
 3124 1745 3123 1747 3123 1748 3122 1749 3122 1751 3121 1752 3120 1753 3120 1755
 3119 1756 3119 1758 3118 1759 3117 1760 3117 1762 3116 1763 3116 1765 3115 1766
 3114 1767 3114 1769 3113 1770 3112 1772 3112 1773 3111 1774 3110 1776 3110 1777
 3109 1778 3108 1780 3108 1781 3107 1783 3106 1784 3105 1785 3105 1787 3104 1788
 3103 1790 3103 1791 3102 1792 3101 1794 3100 1795 3100 1797 3099 1798 3098 1799
 3097 1801 3097 1802 3096 1804 3095 1805 3094 1806 3093 1808 3093 1809 3092 1811
 3091 1812 3090 1813 3089 1815 3089 1816 3088 1818 3087 1819 3086 1820 3085 1822
 3084 1823 3084 1825 3083 1826 3082 1827 3081 1829 101 rps
 3081 1829 3080 1830 3079 1832 3078 1833 3077 1834 3077 1836 3076 1837 3075 1839 3074 1840
 3073 1841 3072 1843 3071 1844 3070 1846 3069 1847 3068 1848 3067 1850 3066 1851
 3065 1853 3064 1854 3063 1855 3062 1857 3061 1858 3060 1860 3059 1861 3058 1863
 3057 1864 3056 1865 3055 1867 3054 1868 3053 1870 3052 1871 3051 1872 3050 1874
 3049 1875 3048 1877 3047 1878 3046 1879 3044 1881 3043 1882 3042 1884 3041 1885
 3040 1886 3039 1888 3038 1889 3037 1891 3035 1892 3034 1894 3033 1895 3032 1896
 3031 1898 3030 1899 3028 1901 3027 1902 3026 1903 3025 1905 3023 1906 3022 1908
 3021 1909 3020 1910 3019 1912 3017 1913 3016 1915 3015 1916 3013 1917 3012 1919
 3011 1920 3010 1922 3008 1923 3007 1925 3006 1926 3004 1927 3003 1929 3002 1930
 3000 1932 2999 1933 2997 1934 2996 1936 2995 1937 2993 1939 2992 1940 2990 1941
 2989 1943 2988 1944 2986 1946 2985 1947 2983 1948 2982 1950 2980 1951 2979 1953
 2977 1954 2976 1955 2974 1957 2973 1958 2971 1960 2970 1961 2968 1962 2967 1964
 2965 1965 2964 1967 2962 1968 2960 1969 2959 1971 101 rps
 2959 1971 2957 1972 2956 1974 2954 1975 2952 1976 2951 1978 2949 1979 2948 1980 2946 1982
 2944 1983 2942 1985 2941 1986 2939 1987 2937 1989 2936 1990 2934 1992 2932 1993
 2930 1994 2929 1996 2927 1997 2925 1998 2923 2000 2922 2001 2920 2003 2918 2004
 2916 2005 2914 2007 2912 2008 2911 2009 2909 2011 2907 2012 2905 2013 2903 2015
 2901 2016 2899 2017 2897 2019 2895 2020 2894 2022 2892 2023 2890 2024 2888 2026
 2886 2027 2884 2028 2882 2030 2880 2031 2878 2032 2876 2034 2874 2035 2871 2036
 2869 2038 2867 2039 2865 2040 2863 2041 2861 2043 2859 2044 2857 2045 2855 2047
 2852 2048 2850 2049 2848 2051 2846 2052 2844 2053 2841 2054 2839 2056 2837 2057
 2835 2058 2832 2060 2830 2061 2828 2062 2826 2063 2823 2065 2821 2066 2819 2067
 2816 2068 2814 2070 2812 2071 2809 2072 2807 2073 2804 2075 2802 2076 2799 2077
 2797 2078 81 rps
 2797 2078 2795 2080 2792 2081 2790 2082 2787 2083 2785 2084 2782 2086 2780 2087 2777 2088
 2774 2089 2772 2090 2769 2091 2767 2093 2764 2094 2761 2095 2759 2096 2756 2097
 2753 2098 2751 2100 2748 2101 2745 2102 2743 2103 2740 2104 2737 2105 2734 2106
 2732 2107 2729 2109 2726 2110 2723 2111 2720 2112 2718 2113 2715 2114 2712 2115
 2709 2116 2706 2117 2703 2118 2700 2119 2697 2120 2694 2121 2691 2122 2688 2123
 2685 2124 2682 2125 2679 2126 2676 2127 2673 2128 2670 2129 2667 2130 2664 2131
 2661 2132 2658 2133 2655 2134 2652 2135 2648 2136 2645 2137 2642 2138 2639 2138
 2636 2139 2632 2140 2629 2141 2626 2142 2622 2143 2619 2144 2616 2144 2612 2145
 2609 2146 2606 2147 2602 2148 2599 2148 2596 2149 2592 2150 2589 2151 2585 2151
 2582 2152 2578 2153 2575 2154 2571 2154 2568 2155 2564 2156 2561 2156 2557 2157
 2553 2158 2550 2158 2546 2159 2543 2159 2539 2160 2535 2161 2532 2161 2528 2162
 2524 2162 2520 2163 2517 2163 2513 2164 2509 2164 2505 2165 2502 2165 2498 2166
 2494 2166 2490 2167 2486 2167 2482 2167 2478 2168 101 rps
 2478 2168 2475 2168 2471 2168 2467 2169 2463 2169 2459 2169 2455 2170 2451 2170 2447 2170
 2443 2170 2439 2171 2435 2171 2431 2171 2426 2171 2422 2171 2418 2172 2414 2172
 2410 2172 2406 2172 2402 2172 2397 2172 2393 2172 2389 2172 2385 2172 2381 2172
 2376 2172 2372 2172 2368 2172 2363 2172 2359 2172 2355 2172 2350 2171 2346 2171
 2342 2171 2337 2171 2333 2171 2329 2170 2324 2170 2320 2170 2315 2169 2311 2169
 2306 2169 2302 2168 2297 2168 2293 2168 2288 2167 2284 2167 2279 2166 2275 2166
 2270 2165 2266 2164 2261 2164 2256 2163 2252 2163 2247 2162 2243 2161 2238 2161
 2233 2160 2229 2159 2224 2158 2219 2157 2215 2157 2210 2156 2205 2155 2201 2154
 2196 2153 2191 2152 2187 2151 2182 2150 2177 2149 2172 2148 2168 2147 2163 2146
 2158 2144 2153 2143 2149 2142 2144 2141 2139 2140 2134 2138 2129 2137 2125 2136
 2120 2134 2115 2133 2110 2131 2105 2130 2101 2128 2096 2127 2091 2125 2086 2124
 2081 2122 2077 2120 2072 2119 2067 2117 2062 2115 2057 2113 2053 2112 2048 2110
 2043 2108 2038 2106 2033 2104 2029 2102 2024 2100 101 rps
 2024 2100 2019 2098 2014 2096 2009 2094 2005 2092 2000 2089 1995 2087 1990 2085 1986 2083
 1981 2080 1976 2078 1971 2076 1967 2073 1962 2071 1957 2068 1953 2066 1948 2063
 1943 2061 1939 2058 1934 2055 1929 2053 1925 2050 1920 2047 1916 2044 1911 2042
 1906 2039 1902 2036 1897 2033 1893 2030 1888 2027 1884 2024 1879 2021 1875 2018
 1871 2015 1866 2011 1862 2008 1857 2005 1853 2002 1849 1998 1844 1995 1840 1992
 1836 1988 1832 1985 1827 1981 1823 1978 1819 1974 1815 1971 1811 1967 1807 1963
 1803 1960 1799 1956 1795 1952 1791 1948 1787 1945 1783 1941 1779 1937 1775 1933
 1771 1929 1767 1925 1764 1921 1760 1917 1756 1913 1753 1909 1749 1905 1745 1901
 1742 1896 1738 1892 1735 1888 1732 1884 1728 1879 1725 1875 1721 1870 1718 1866
 1715 1862 1712 1857 1709 1853 1706 1848 1702 1844 1699 1839 1696 1834 1694 1830
 1691 1825 1688 1820 1685 1816 1682 1811 1680 1806 1677 1801 1674 1797 1672 1792
 1669 1787 1667 1782 1664 1777 1662 1772 1660 1767 1657 1762 1655 1757 1653 1752
 1651 1747 1649 1742 1647 1737 1645 1732 1643 1727 101 rps
 1643 1727 1641 1722 1639 1717 1637 1711 1636 1706 1634 1701 1632 1696 1631 1691 1629 1685
 1628 1680 1627 1675 1625 1670 1624 1664 1623 1659 1622 1654 1621 1648 1620 1643
 1619 1638 1618 1632 1617 1627 1616 1622 1615 1616 1615 1611 1614 1606 1614 1600
 1613 1595 1613 1589 1612 1584 1612 1579 1612 1573 1611 1568 1611 1562 1611 1557
 1611 1552 1611 1546 1611 1541 1611 1535 1612 1530 1612 1524 1612 1519 1613 1514
 1613 1508 1614 1503 1614 1497 1615 1492 1615 1487 1616 1481 1617 1476 1618 1471
 1619 1465 1620 1460 1621 1455 1622 1449 1623 1444 1624 1439 1625 1433 1627 1428
 1628 1423 1629 1418 1631 1412 1632 1407 1634 1402 1636 1397 1637 1392 1639 1386
 1641 1381 1643 1376 1645 1371 1647 1366 1649 1361 1651 1356 1653 1351 1655 1346
 1657 1341 1660 1336 1662 1331 1664 1326 1667 1321 1669 1316 1672 1311 1674 1306
 1677 1302 81 rps
 1677 1302 1680 1297 1682 1292 1685 1287 1688 1283 1691 1278 1694 1273 1696 1269 1699 1264
 1702 1259 1706 1255 1709 1250 1712 1246 1715 1241 1718 1237 1721 1233 1725 1228
 1728 1224 1732 1219 1735 1215 1738 1211 1742 1207 1745 1202 1749 1198 1753 1194
 1756 1190 1760 1186 1764 1182 1767 1178 1771 1174 1775 1170 1779 1166 1783 1162
 1787 1158 1791 1155 1795 1151 1799 1147 1803 1143 1807 1140 1811 1136 1815 1132
 1819 1129 1823 1125 1827 1122 1832 1118 1836 1115 1840 1111 1844 1108 1849 1105
 1853 1101 1857 1098 1862 1095 1866 1092 1871 1088 1875 1085 1879 1082 1884 1079
 1888 1076 1893 1073 1897 1070 1902 1067 1906 1064 1911 1061 1916 1059 1920 1056
 1925 1053 1929 1050 1934 1048 1939 1045 1943 1042 1948 1040 1953 1037 1957 1035
 1962 1032 1967 1030 1971 1027 1976 1025 1981 1023 1986 1020 1990 1018 1995 1016
 2000 1014 2005 1011 2009 1009 2014 1007 2019 1005 2024 1003 2029 1001 2033 999
 2038 997 2043 995 2048 993 2053 991 2057 990 2062 988 2067 986 2072 984
 2077 983 2081 981 2086 979 2091 978 2096 976 101 rps
 2096 976 2101 975 2105 973 2110 972 2115 970 2120 969 2125 967 2129 966 2134 965
 2139 963 2144 962 2149 961 2153 960 2158 959 2163 957 2168 956 2172 955
 2177 954 2182 953 2187 952 2191 951 2196 950 2201 949 2205 948 2210 947
 2215 946 2219 946 2224 945 2229 944 2233 943 2238 942 2243 942 2247 941
 2252 940 2256 940 2261 939 2266 939 2270 938 2275 937 2279 937 2284 936
 2288 936 2293 935 2297 935 2302 935 2306 934 2311 934 2315 934 2320 933
 2324 933 2329 933 2333 932 2337 932 2342 932 2346 932 2350 932 2355 931
 2359 931 2363 931 2368 931 2372 931 2376 931 2381 931 2385 931 2389 931
 2393 931 2397 931 2402 931 2406 931 2410 931 2414 931 2418 931 2422 932
 2426 932 2431 932 2435 932 2439 932 2443 933 2447 933 2451 933 2455 933
 2459 934 2463 934 2467 934 2471 935 2475 935 2478 935 2482 936 2486 936
 2490 936 2494 937 2498 937 2502 938 2505 938 2509 939 2513 939 2517 940
 2520 940 2524 941 2528 941 2532 942 2535 942 101 rps
 2535 942 2539 943 2543 944 2546 944 2550 945 2553 945 2557 946 2561 947 2564 947
 2568 948 2571 949 2575 949 2578 950 2582 951 2585 952 2589 952 2592 953
 2596 954 2599 955 2602 955 2606 956 2609 957 2612 958 2616 959 2619 959
 2622 960 2626 961 2629 962 2632 963 2636 964 2639 965 2642 965 2645 966
 2648 967 2652 968 2655 969 2658 970 2661 971 2664 972 2667 973 2670 974
 2673 975 2676 976 2679 977 2682 978 2685 979 2688 980 2691 981 2694 982
 2697 983 2700 984 2703 985 2706 986 2709 987 2712 988 2715 989 2718 990
 2720 991 2723 992 2726 993 2729 994 2732 996 2734 997 2737 998 2740 999
 2743 1000 2745 1001 2748 1002 2751 1003 2753 1005 2756 1006 2759 1007 2761 1008
 2764 1009 2767 1010 2769 1012 2772 1013 2774 1014 2777 1015 2780 1016 2782 1017
 2785 1019 2787 1020 2790 1021 2792 1022 2795 1023 2797 1025 2799 1026 2802 1027
 2804 1028 2807 1030 2809 1031 2812 1032 2814 1033 2816 1035 2819 1036 2821 1037
 2823 1038 2826 1040 2828 1041 2830 1042 2832 1043 101 rps
 2832 1043 2835 1045 2837 1046 2839 1047 2841 1049 2844 1050 2846 1051 2848 1052 2850 1054
 2852 1055 2855 1056 2857 1058 2859 1059 2861 1060 2863 1062 2865 1063 2867 1064
 2869 1065 2871 1067 2874 1068 2876 1069 2878 1071 2880 1072 2882 1073 2884 1075
 2886 1076 2888 1077 2890 1079 2892 1080 2894 1081 2895 1083 2897 1084 2899 1086
 2901 1087 2903 1088 2905 1090 2907 1091 2909 1092 2911 1094 2912 1095 2914 1096
 2916 1098 2918 1099 2920 1100 2922 1102 2923 1103 2925 1105 2927 1106 2929 1107
 2930 1109 2932 1110 2934 1111 2936 1113 2937 1114 2939 1116 2941 1117 2942 1118
 2944 1120 2946 1121 2948 1122 2949 1124 2951 1125 2952 1127 2954 1128 2956 1129
 2957 1131 2959 1132 2960 1134 2962 1135 2964 1136 2965 1138 2967 1139 2968 1141
 2970 1142 2971 1143 2973 1145 2974 1146 2976 1148 2977 1149 2979 1150 2980 1152
 2982 1153 81 rps
 2982 1153 2983 1155 2985 1156 2986 1157 2988 1159 2989 1160 2990 1162 2992 1163 2993 1164
 2995 1166 2996 1167 2997 1169 2999 1170 3000 1171 3002 1173 3003 1174 3004 1176
 3006 1177 3007 1178 3008 1180 3010 1181 3011 1183 3012 1184 3013 1186 3015 1187
 3016 1188 3017 1190 3019 1191 3020 1193 3021 1194 3022 1195 3023 1197 3025 1198
 3026 1200 3027 1201 3028 1202 3030 1204 3031 1205 3032 1207 3033 1208 3034 1209
 3035 1211 3037 1212 3038 1214 3039 1215 3040 1217 3041 1218 3042 1219 3043 1221
 3044 1222 3046 1224 3047 1225 3048 1226 3049 1228 3050 1229 3051 1231 3052 1232
 3053 1233 3054 1235 3055 1236 3056 1238 3057 1239 3058 1240 3059 1242 3060 1243
 3061 1245 3062 1246 3063 1248 3064 1249 3065 1250 3066 1252 3067 1253 3068 1255
 3069 1256 3070 1257 3071 1259 3072 1260 3073 1262 3074 1263 3075 1264 3076 1266
 3077 1267 3077 1269 3078 1270 3079 1271 3080 1273 3081 1274 3082 1276 3083 1277
 3084 1278 3084 1280 3085 1281 3086 1283 3087 1284 3088 1285 3089 1287 3089 1288
 3090 1290 3091 1291 3092 1292 3093 1294 3093 1295 101 rps
 3093 1295 3094 1297 3095 1298 3096 1299 3097 1301 3097 1302 3098 1304 3099 1305 3100 1306
 3100 1308 3101 1309 3102 1311 3103 1312 3103 1313 3104 1315 3105 1316 3105 1318
 3106 1319 3107 1320 3108 1322 3108 1323 3109 1325 3110 1326 3110 1327 3111 1329
 3112 1330 3112 1331 3113 1333 3114 1334 3114 1336 3115 1337 3116 1338 3116 1340
 3117 1341 3117 1343 3118 1344 3119 1345 3119 1347 3120 1348 3120 1350 3121 1351
 3122 1352 3122 1354 3123 1355 3123 1356 3124 1358 3125 1359 3125 1361 3126 1362
 3126 1363 3127 1365 3127 1366 3128 1367 3128 1369 3129 1370 3129 1372 3130 1373
 3130 1374 3131 1376 3131 1377 3132 1379 3132 1380 3133 1381 3133 1383 3134 1384
 3134 1385 3135 1387 3135 1388 3136 1390 3136 1391 3137 1392 3137 1394 3138 1395
 3138 1396 3139 1398 3139 1399 3139 1401 3140 1402 3140 1403 3141 1405 3141 1406
 3141 1407 3142 1409 3142 1410 3143 1411 3143 1413 3143 1414 3144 1416 3144 1417
 3145 1418 3145 1420 3145 1421 3146 1422 3146 1424 3146 1425 3147 1427 3147 1428
 3148 1429 3148 1431 3148 1432 3149 1433 3149 1435 101 rps
 3149 1435 3149 1436 3149 1437 3150 1439 3150 1440 3150 1442 3151 1443 3151 1444 3151 1446
 3152 1447 3152 1448 3152 1450 3152 1451 3153 1452 3153 1454 3153 1455 3154 1457
 3154 1458 3154 1459 3154 1461 3155 1462 3155 1463 3155 1465 3155 1466 3156 1467
 3156 1469 3156 1470 3156 1472 3156 1473 3157 1474 3157 1476 3157 1477 3157 1478
 3157 1480 3158 1481 3158 1482 3158 1484 3158 1485 3158 1486 3159 1488 3159 1489
 3159 1491 3159 1492 3159 1493 3159 1495 3160 1496 3160 1497 3160 1499 3160 1500
 3160 1501 3160 1503 3160 1504 3161 1505 3161 1507 3161 1508 3161 1510 3161 1511
 3161 1512 3161 1514 3161 1515 3161 1516 3162 1518 3162 1519 3162 1520 3162 1522
 3162 1523 3162 1524 3162 1526 3162 1527 3162 1528 3162 1530 3162 1531 3162 1533
 3162 1534 3162 1535 3162 1537 3163 1538 3163 1539 3163 1541 3163 1542 3163 1543
 3163 1545 3163 1546 3163 1547 3163 1549 3163 1550 3163 1551 86 rps
 1238 6 1262 15 1285 25 1309 35 1332 44 1354 53 1376 62 1398 72 1419 81
 1441 89 1461 98 1482 107 1502 116 1521 124 1541 133 1560 141 1579 149
 1597 158 1616 166 1634 174 1651 182 1669 190 1686 198 1703 205 1719 213
 1736 221 1752 228 1768 236 1783 243 1799 250 1814 258 1829 265 1844 272
 1858 279 1873 286 1887 293 1901 300 1914 307 1928 314 1941 320 1954 327
 1967 334 1980 340 1993 347 2005 353 2018 359 2030 366 2042 372 2053 378
 2065 384 2077 390 2088 397 2099 403 2110 408 2121 414 2132 420 2142 426
 2153 432 2163 438 2173 443 2183 449 2193 455 2203 460 2213 466 2222 471
 2232 477 2241 482 2250 487 2259 493 2268 498 2277 503 2286 508 2295 514
 2303 519 2312 524 2320 529 2328 534 2336 539 2344 544 2352 549 2360 553
 2368 558 2376 563 2383 568 2391 573 2398 577 2405 582 2413 587 2420 591
 2427 596 2434 600 2441 605 2448 609 2454 614 2461 618 2468 623 2474 627
 2481 631 2487 636 2493 640 2500 644 2506 649 101 rps
 2506 649 2512 653 2518 657 2524 661 2530 665 2536 669 2541 673 2547 677 2553 681
 2558 685 2564 689 2569 693 2575 697 2580 701 2586 705 2591 709 2596 713
 2601 717 2606 720 2611 724 2616 728 2621 732 2626 735 2631 739 2636 743
 2640 746 2645 750 2650 754 2654 757 2659 761 2663 764 2668 768 2672 771
 2677 775 2681 778 2685 782 2690 785 2694 789 2698 792 2702 795 2706 799
 2710 802 2714 805 2718 809 2722 812 2726 815 2730 818 2734 822 2737 825
 2741 828 2745 831 2748 834 2752 838 2756 841 2759 844 2763 847 2766 850
 2770 853 2773 856 2777 859 2780 862 2783 865 2787 868 2790 871 2793 874
 2796 877 2800 880 2803 883 2806 886 2809 889 2812 892 2815 895 2818 898
 2821 900 2824 903 2827 906 2830 909 2833 912 2836 914 2839 917 2841 920
 2844 923 2847 925 2850 928 2852 931 2855 934 2858 936 2860 939 2863 942
 2866 944 2868 947 2871 950 2873 952 2876 955 2878 957 2881 960 2883 963
 2886 965 2888 968 2890 970 2893 973 2895 975 101 rps
 2895 975 2898 978 2900 980 2902 983 2904 985 2907 988 2909 990 2911 993 2913 995
 2916 998 2918 1000 2920 1002 2922 1005 2924 1007 2926 1010 2928 1012 2930 1014
 2932 1017 2934 1019 2936 1021 2938 1024 2940 1026 2942 1028 2944 1031 2946 1033
 2948 1035 2950 1038 2952 1040 2954 1042 2956 1044 2957 1047 2959 1049 2961 1051
 2963 1053 2965 1056 2966 1058 2968 1060 2970 1062 2972 1064 2973 1067 2975 1069
 2977 1071 2978 1073 2980 1075 2982 1077 2983 1080 2985 1082 2986 1084 2988 1086
 2990 1088 2991 1090 2993 1092 2994 1094 2996 1096 2997 1099 2999 1101 3000 1103
 3002 1105 3003 1107 3005 1109 3006 1111 3008 1113 3009 1115 3011 1117 3012 1119
 3013 1121 3015 1123 3016 1125 3017 1127 3019 1129 3020 1131 3022 1133 3023 1135
 3024 1137 3025 1139 3027 1141 3028 1143 3029 1145 3031 1147 3032 1148 3033 1150
 3034 1152 3036 1154 3037 1156 3038 1158 3039 1160 3040 1162 3042 1164 3043 1166
 3044 1167 3045 1169 3046 1171 3047 1173 3048 1175 3050 1177 3051 1179 3052 1180
 3053 1182 3054 1184 3055 1186 3056 1188 3057 1190 101 rps
 3057 1190 3058 1191 3059 1193 3060 1195 3061 1197 3062 1199 3063 1200 3064 1202 3065 1204
 3066 1206 3067 1207 3068 1209 3069 1211 3070 1213 3071 1215 3072 1216 3073 1218
 3074 1220 3075 1222 3076 1223 3077 1225 3078 1227 3079 1228 3080 1230 3080 1232
 3081 1234 3082 1235 3083 1237 3084 1239 3085 1240 3086 1242 3086 1244 3087 1245
 3088 1247 3089 1249 3090 1250 3091 1252 3091 1254 3092 1255 3093 1257 3094 1259
 3094 1260 3095 1262 3096 1264 3097 1265 3098 1267 3098 1269 3099 1270 3100 1272
 3100 1274 3101 1275 3102 1277 3103 1278 3103 1280 3104 1282 3105 1283 3105 1285
 3106 1286 3107 1288 3107 1290 3108 1291 3109 1293 3109 1294 3110 1296 3111 1298
 3111 1299 3112 1301 3113 1302 3113 1304 3114 1305 3115 1307 3115 1309 3116 1310
 3116 1312 3117 1313 3118 1315 3118 1316 3119 1318 3119 1319 3120 1321 3120 1323
 3121 1324 81 rps
 3121 1324 3122 1326 3122 1327 3123 1329 3123 1330 3124 1332 3124 1333 3125 1335 3125 1336
 3126 1338 3126 1339 3127 1341 3127 1342 3128 1344 3128 1345 3129 1347 3129 1348
 3130 1350 3130 1351 3131 1353 3131 1354 3132 1356 3132 1357 3133 1359 3133 1360
 3134 1362 3134 1363 3135 1365 3135 1366 3135 1368 3136 1369 3136 1371 3137 1372
 3137 1374 3138 1375 3138 1376 3138 1378 3139 1379 3139 1381 3140 1382 3140 1384
 3140 1385 3141 1387 3141 1388 3142 1390 3142 1391 3142 1392 3143 1394 3143 1395
 3143 1397 3144 1398 3144 1400 3144 1401 3145 1403 3145 1404 3145 1405 3146 1407
 3146 1408 3146 1410 3147 1411 3147 1412 3147 1414 3148 1415 3148 1417 3148 1418
 3149 1420 3149 1421 3149 1422 3150 1424 3150 1425 3150 1427 3150 1428 3151 1429
 3151 1431 3151 1432 3152 1434 3152 1435 3152 1436 3152 1438 3153 1439 3153 1441
 3153 1442 3153 1443 3154 1445 3154 1446 3154 1448 3154 1449 3154 1450 3155 1452
 3155 1453 3155 1455 3155 1456 3156 1457 3156 1459 3156 1460 3156 1462 3156 1463
 3157 1464 3157 1466 3157 1467 3157 1468 3157 1470 101 rps
 3157 1470 3158 1471 3158 1473 3158 1474 3158 1475 3158 1477 3158 1478 3159 1479 3159 1481
 3159 1482 3159 1484 3159 1485 3159 1486 3159 1488 3160 1489 3160 1490 3160 1492
 3160 1493 3160 1494 3160 1496 3160 1497 3160 1499 3161 1500 3161 1501 3161 1503
 3161 1504 3161 1505 3161 1507 3161 1508 3161 1509 3161 1511 3161 1512 3162 1514
 3162 1515 3162 1516 3162 1518 3162 1519 3162 1520 3162 1522 3162 1523 3162 1524
 3162 1526 3162 1527 3162 1528 3162 1530 3162 1531 3162 1533 3162 1534 3162 1535
 3163 1537 3163 1538 3163 1539 3163 1541 3163 1542 3163 1543 3163 1545 3163 1546
 3163 1547 3163 1549 3163 1550 3163 1552 3163 1553 3163 1554 3163 1556 3163 1557
 3163 1558 3163 1560 3163 1561 3163 1562 3163 1564 3163 1565 3163 1566 3162 1568
 3162 1569 3162 1570 3162 1572 3162 1573 3162 1575 3162 1576 3162 1577 3162 1579
 3162 1580 3162 1581 3162 1583 3162 1584 3162 1585 3162 1587 3162 1588 3162 1589
 3161 1591 3161 1592 3161 1594 3161 1595 3161 1596 3161 1598 3161 1599 3161 1600
 3161 1602 3161 1603 3160 1604 3160 1606 3160 1607 101 rps
 3160 1607 3160 1609 3160 1610 3160 1611 3160 1613 3160 1614 3159 1615 3159 1617 3159 1618
 3159 1619 3159 1621 3159 1622 3159 1624 3158 1625 3158 1626 3158 1628 3158 1629
 3158 1630 3158 1632 3157 1633 3157 1635 3157 1636 3157 1637 3157 1639 3156 1640
 3156 1641 3156 1643 3156 1644 3156 1646 3155 1647 3155 1648 3155 1650 3155 1651
 3154 1653 3154 1654 3154 1655 3154 1657 3154 1658 3153 1660 3153 1661 3153 1662
 3153 1664 3152 1665 3152 1667 3152 1668 3152 1669 3151 1671 3151 1672 3151 1674
 3150 1675 3150 1676 3150 1678 3150 1679 3149 1681 3149 1682 3149 1683 3148 1685
 3148 1686 3148 1688 3147 1689 3147 1691 3147 1692 3146 1693 3146 1695 3146 1696
 3145 1698 3145 1699 3145 1700 3144 1702 3144 1703 3144 1705 3143 1706 3143 1708
 3143 1709 3142 1711 3142 1712 3142 1713 3141 1715 3141 1716 3140 1718 3140 1719
 3140 1721 3139 1722 3139 1724 3138 1725 3138 1727 3138 1728 3137 1729 3137 1731
 3136 1732 3136 1734 3135 1735 3135 1737 3135 1738 3134 1740 3134 1741 3133 1743
 3133 1744 3132 1746 3132 1747 3131 1749 3131 1750 101 rps
 3131 1750 3130 1752 3130 1753 3129 1755 3129 1756 3128 1758 3128 1759 3127 1761 3127 1762
 3126 1764 3126 1765 3125 1767 3125 1768 3124 1770 3124 1771 3123 1773 3123 1774
 3122 1776 3122 1777 3121 1779 3120 1780 3120 1782 3119 1784 3119 1785 3118 1787
 3118 1788 3117 1790 3116 1791 3116 1793 3115 1794 3115 1796 3114 1798 3113 1799
 3113 1801 3112 1802 3111 1804 3111 1805 3110 1807 3109 1809 3109 1810 3108 1812
 3107 1813 3107 1815 3106 1817 3105 1818 3105 1820 3104 1821 3103 1823 3103 1825
 3102 1826 3101 1828 3100 1829 3100 1831 3099 1833 3098 1834 3098 1836 3097 1838
 3096 1839 3095 1841 3094 1843 3094 1844 3093 1846 3092 1848 3091 1849 3091 1851
 3090 1853 3089 1854 3088 1856 3087 1858 3086 1859 3086 1861 3085 1863 3084 1864
 3083 1866 3082 1868 3081 1869 3080 1871 3080 1873 3079 1875 3078 1876 3077 1878
 3076 1880 81 rps
 3076 1880 3075 1881 3074 1883 3073 1885 3072 1887 3071 1888 3070 1890 3069 1892 3068 1894
 3067 1896 3066 1897 3065 1899 3064 1901 3063 1903 3062 1904 3061 1906 3060 1908
 3059 1910 3058 1912 3057 1913 3056 1915 3055 1917 3054 1919 3053 1921 3052 1923
 3051 1924 3050 1926 3048 1928 3047 1930 3046 1932 3045 1934 3044 1936 3043 1937
 3042 1939 3040 1941 3039 1943 3038 1945 3037 1947 3036 1949 3034 1951 3033 1953
 3032 1955 3031 1956 3029 1958 3028 1960 3027 1962 3025 1964 3024 1966 3023 1968
 3022 1970 3020 1972 3019 1974 3017 1976 3016 1978 3015 1980 3013 1982 3012 1984
 3011 1986 3009 1988 3008 1990 3006 1992 3005 1994 3003 1996 3002 1998 3000 2000
 2999 2002 2997 2004 2996 2007 2994 2009 2993 2011 2991 2013 2990 2015 2988 2017
 2986 2019 2985 2021 2983 2023 2982 2026 2980 2028 2978 2030 2977 2032 2975 2034
 2973 2036 2972 2039 2970 2041 2968 2043 2966 2045 2965 2047 2963 2050 2961 2052
 2959 2054 2957 2056 2956 2059 2954 2061 2952 2063 2950 2065 2948 2068 2946 2070
 2944 2072 2942 2075 2940 2077 2938 2079 2936 2082 101 rps
 2936 2082 2934 2084 2932 2086 2930 2089 2928 2091 2926 2093 2924 2096 2922 2098 2920 2101
 2918 2103 2916 2105 2913 2108 2911 2110 2909 2113 2907 2115 2904 2118 2902 2120
 2900 2123 2898 2125 2895 2128 2893 2130 2890 2133 2888 2135 2886 2138 2883 2140
 2881 2143 2878 2146 2876 2148 2873 2151 2871 2153 2868 2156 2866 2159 2863 2161
 2860 2164 2858 2167 2855 2169 2852 2172 2850 2175 2847 2178 2844 2180 2841 2183
 2839 2186 2836 2189 2833 2191 2830 2194 2827 2197 2824 2200 2821 2203 2818 2205
 2815 2208 2812 2211 2809 2214 2806 2217 2803 2220 2800 2223 2796 2226 2793 2229
 2790 2232 2787 2235 2783 2238 2780 2241 2777 2244 2773 2247 2770 2250 2766 2253
 2763 2256 2759 2259 2756 2262 2752 2265 2748 2269 2745 2272 2741 2275 2737 2278
 2734 2281 2730 2285 2726 2288 2722 2291 2718 2294 2714 2298 2710 2301 2706 2304
 2702 2308 2698 2311 2694 2314 2690 2318 2685 2321 2681 2325 2677 2328 2672 2332
 2668 2335 2663 2339 2659 2342 2654 2346 2650 2349 2645 2353 2640 2357 2636 2360
 2631 2364 2626 2368 2621 2371 2616 2375 2611 2379 101 rps
 2611 2379 2606 2383 2601 2386 2596 2390 2591 2394 2586 2398 2580 2402 2575 2406 2569 2410
 2564 2414 2558 2418 2553 2422 2547 2426 2541 2430 2536 2434 2530 2438 2524 2442
 2518 2446 2512 2450 2506 2454 2500 2459 2493 2463 2487 2467 2481 2472 2474 2476
 2468 2480 2461 2485 2454 2489 2448 2494 2441 2498 2434 2503 2427 2507 2420 2512
 2413 2516 2405 2521 2398 2526 2391 2530 2383 2535 2376 2540 2368 2545 2360 2550
 2352 2554 2344 2559 2336 2564 2328 2569 2320 2574 2312 2579 2303 2584 2295 2589
 2286 2595 2277 2600 2268 2605 2259 2610 2250 2616 2241 2621 2232 2626 2222 2632
 2213 2637 2203 2643 2193 2648 2183 2654 2173 2660 2163 2665 2153 2671 2142 2677
 2132 2683 2121 2689 2110 2695 2099 2700 2088 2706 2077 2713 2065 2719 2053 2725
 2042 2731 2030 2737 2018 2744 2005 2750 1993 2756 1980 2763 1967 2769 1954 2776
 1941 2783 1928 2789 1914 2796 1901 2803 1887 2810 1873 2817 1858 2824 1844 2831
 1829 2838 1814 2845 1799 2853 1783 2860 1768 2867 1752 2875 1736 2882 1719 2890
 1703 2898 1686 2905 1669 2913 1651 2921 1634 2929 101 rps
 1634 2929 1616 2937 1597 2945 1579 2954 1560 2962 1541 2970 1521 2979 1502 2987 1482 2996
 1461 3005 1441 3014 1419 3022 1398 3031 1376 3041 1354 3050 1332 3059 1309 3068
 1285 3078 1262 3088 1238 3097 19 rps
 2180 5 2195 22 2210 38 2224 54 2239 69 2252 85 2266 100 2279 114 2292 128
 2304 142 2317 156 2329 170 2341 183 2352 196 2364 209 2375 221 2386 234
 2396 246 2407 258 2417 269 2427 281 2437 292 2447 303 2456 314 2466 325
 2475 335 2484 346 2493 356 2501 366 2510 376 2518 386 2526 395 2534 405
 2542 414 2550 423 2558 432 2565 441 2573 450 2580 459 2587 467 2594 476
 2601 484 2608 492 2615 500 2621 508 2628 516 2634 524 2640 532 2646 539
 2653 547 2659 554 2664 561 2670 568 2676 576 2682 583 2687 589 2693 596
 2698 603 2703 610 2708 616 2714 623 2719 629 2724 636 2729 642 2733 648
 2738 654 2743 660 2748 666 2752 672 2757 678 2761 684 2766 690 2770 695
 2774 701 2778 707 2783 712 2787 717 2791 723 2795 728 2799 733 2803 739
 2807 744 2810 749 2814 754 2818 759 2821 764 2825 769 2829 774 2832 779
 2836 784 2839 788 2842 793 2846 798 2849 802 2852 807 2856 811 2859 816
 2862 820 2865 825 2868 829 2871 833 2874 838 101 rps
 2874 838 2877 842 2880 846 2883 850 2886 854 2889 859 2892 863 2894 867 2897 871
 2900 875 2902 879 2905 883 2908 886 2910 890 2913 894 2915 898 2918 902
 2920 905 2923 909 2925 913 2928 916 2930 920 2932 924 2935 927 2937 931
 2939 934 2941 938 2944 941 2946 945 2948 948 2950 951 2952 955 2954 958
 2956 962 2958 965 2961 968 2963 971 2965 975 2967 978 2968 981 2970 984
 2972 987 2974 990 2976 994 2978 997 2980 1000 2982 1003 2983 1006 2985 1009
 2987 1012 2989 1015 2990 1018 2992 1021 2994 1023 2996 1026 2997 1029 2999 1032
 3001 1035 3002 1038 3004 1041 3005 1043 3007 1046 3008 1049 3010 1052 3012 1054
 3013 1057 3015 1060 3016 1062 3017 1065 3019 1068 3020 1070 3022 1073 3023 1076
 3025 1078 3026 1081 3027 1083 3029 1086 3030 1089 3031 1091 3033 1094 3034 1096
 3035 1099 3037 1101 3038 1103 3039 1106 3040 1108 3042 1111 3043 1113 3044 1116
 3045 1118 3047 1120 3048 1123 3049 1125 3050 1127 3051 1130 3052 1132 3054 1134
 3055 1137 3056 1139 3057 1141 3058 1144 3059 1146 101 rps
 3059 1146 3060 1148 3061 1150 3062 1153 3063 1155 3064 1157 3065 1159 3066 1161 3067 1164
 3068 1166 3069 1168 3070 1170 3071 1172 3072 1174 3073 1176 3074 1178 3075 1181
 3076 1183 3077 1185 3078 1187 3079 1189 3080 1191 3081 1193 3082 1195 3083 1197
 3083 1199 3084 1201 3085 1203 3086 1205 3087 1207 3088 1209 3088 1211 3089 1213
 3090 1215 3091 1217 3092 1219 3093 1221 3093 1223 3094 1225 3095 1227 3096 1229
 3096 1231 3097 1233 3098 1234 3099 1236 3099 1238 3100 1240 3101 1242 3102 1244
 3102 1246 3103 1248 3104 1249 3104 1251 3105 1253 3106 1255 3106 1257 3107 1259
 3108 1260 3108 1262 3109 1264 3110 1266 3110 1268 3111 1269 3112 1271 3112 1273
 3113 1275 3113 1276 3114 1278 3115 1280 3115 1282 3116 1283 3116 1285 3117 1287
 3118 1289 3118 1290 3119 1292 3119 1294 3120 1295 3120 1297 3121 1299 3122 1301
 3122 1302 3123 1304 3123 1306 3124 1307 3124 1309 3125 1311 3125 1312 3126 1314
 3126 1316 3127 1317 3127 1319 3128 1321 3128 1322 3129 1324 3129 1325 3130 1327
 3130 1329 3131 1330 3131 1332 3131 1334 3132 1335 101 rps
 3132 1335 3132 1337 3133 1338 3133 1340 3134 1341 3134 1343 3134 1345 3135 1346 3135 1348
 3136 1349 3136 1351 3137 1353 3137 1354 3137 1356 3138 1357 3138 1359 3139 1360
 3139 1362 3139 1363 3140 1365 3140 1366 3140 1368 3141 1370 3141 1371 3142 1373
 3142 1374 3142 1376 3143 1377 3143 1379 3143 1380 3144 1382 3144 1383 3144 1385
 3145 1386 3145 1388 3145 1389 3146 1391 3146 1392 3146 1394 3146 1395 3147 1397
 3147 1398 3147 1400 3148 1401 3148 1403 3148 1404 3149 1405 3149 1407 3149 1408
 3149 1410 3150 1411 3150 1413 3150 1414 3150 1416 3151 1417 3151 1419 3151 1420
 3151 1421 3152 1423 3152 1424 3152 1426 3152 1427 3153 1429 3153 1430 3153 1432
 3153 1433 3154 1434 3154 1436 3154 1437 3154 1439 3154 1440 3155 1442 3155 1443
 3155 1444 3155 1446 3155 1447 3156 1449 3156 1450 3156 1451 3156 1453 3156 1454
 3157 1456 81 rps
 3157 1456 3157 1457 3157 1458 3157 1460 3157 1461 3157 1463 3158 1464 3158 1465 3158 1467
 3158 1468 3158 1470 3158 1471 3159 1472 3159 1474 3159 1475 3159 1476 3159 1478
 3159 1479 3159 1481 3159 1482 3160 1483 3160 1485 3160 1486 3160 1488 3160 1489
 3160 1490 3160 1492 3160 1493 3161 1494 3161 1496 3161 1497 3161 1499 3161 1500
 3161 1501 3161 1503 3161 1504 3161 1505 3161 1507 3161 1508 3162 1509 3162 1511
 3162 1512 3162 1514 3162 1515 3162 1516 3162 1518 3162 1519 3162 1520 3162 1522
 3162 1523 3162 1524 3162 1526 3162 1527 3162 1528 3162 1530 3162 1531 3162 1533
 3162 1534 3163 1535 3163 1537 3163 1538 3163 1539 3163 1541 3163 1542 3163 1543
 3163 1545 3163 1546 3163 1547 3163 1549 3163 1550 3163 1551 3163 1553 3163 1554
 3163 1556 3163 1557 3163 1558 3163 1560 3163 1561 3163 1562 3163 1564 3163 1565
 3163 1566 3163 1568 3162 1569 3162 1570 3162 1572 3162 1573 3162 1575 3162 1576
 3162 1577 3162 1579 3162 1580 3162 1581 3162 1583 3162 1584 3162 1585 3162 1587
 3162 1588 3162 1589 3162 1591 3162 1592 3162 1594 101 rps
 3162 1594 3161 1595 3161 1596 3161 1598 3161 1599 3161 1600 3161 1602 3161 1603 3161 1604
 3161 1606 3161 1607 3161 1609 3160 1610 3160 1611 3160 1613 3160 1614 3160 1615
 3160 1617 3160 1618 3160 1620 3159 1621 3159 1622 3159 1624 3159 1625 3159 1627
 3159 1628 3159 1629 3159 1631 3158 1632 3158 1633 3158 1635 3158 1636 3158 1638
 3158 1639 3157 1640 3157 1642 3157 1643 3157 1645 3157 1646 3157 1647 3156 1649
 3156 1650 3156 1652 3156 1653 3156 1654 3155 1656 3155 1657 3155 1659 3155 1660
 3155 1661 3154 1663 3154 1664 3154 1666 3154 1667 3154 1669 3153 1670 3153 1671
 3153 1673 3153 1674 3152 1676 3152 1677 3152 1679 3152 1680 3151 1682 3151 1683
 3151 1684 3151 1686 3150 1687 3150 1689 3150 1690 3150 1692 3149 1693 3149 1695
 3149 1696 3149 1698 3148 1699 3148 1700 3148 1702 3147 1703 3147 1705 3147 1706
 3146 1708 3146 1709 3146 1711 3146 1712 3145 1714 3145 1715 3145 1717 3144 1718
 3144 1720 3144 1721 3143 1723 3143 1724 3143 1726 3142 1727 3142 1729 3142 1730
 3141 1732 3141 1733 3140 1735 3140 1737 3140 1738 101 rps
 3140 1738 3139 1740 3139 1741 3139 1743 3138 1744 3138 1746 3137 1747 3137 1749 3137 1750
 3136 1752 3136 1754 3135 1755 3135 1757 3134 1758 3134 1760 3134 1762 3133 1763
 3133 1765 3132 1766 3132 1768 3131 1769 3131 1771 3131 1773 3130 1774 3130 1776
 3129 1778 3129 1779 3128 1781 3128 1782 3127 1784 3127 1786 3126 1787 3126 1789
 3125 1791 3125 1792 3124 1794 3124 1796 3123 1797 3123 1799 3122 1801 3122 1802
 3121 1804 3120 1806 3120 1808 3119 1809 3119 1811 3118 1813 3118 1814 3117 1816
 3116 1818 3116 1820 3115 1821 3115 1823 3114 1825 3113 1827 3113 1828 3112 1830
 3112 1832 3111 1834 3110 1835 3110 1837 3109 1839 3108 1841 3108 1843 3107 1844
 3106 1846 3106 1848 3105 1850 3104 1852 3104 1854 3103 1855 3102 1857 3102 1859
 3101 1861 3100 1863 3099 1865 3099 1867 3098 1869 3097 1870 3096 1872 3096 1874
 3095 1876 3094 1878 3093 1880 3093 1882 3092 1884 3091 1886 3090 1888 3089 1890
 3088 1892 3088 1894 3087 1896 3086 1898 3085 1900 3084 1902 3083 1904 3083 1906
 3082 1908 3081 1910 3080 1912 3079 1914 3078 1916 101 rps
 3078 1916 3077 1918 3076 1920 3075 1922 3074 1925 3073 1927 3072 1929 3071 1931 3070 1933
 3069 1935 3068 1937 3067 1939 3066 1942 3065 1944 3064 1946 3063 1948 3062 1950
 3061 1953 3060 1955 3059 1957 3058 1959 3057 1962 3056 1964 3055 1966 3054 1969
 3052 1971 3051 1973 3050 1976 3049 1978 3048 1980 3047 1983 3045 1985 3044 1987
 3043 1990 3042 1992 3040 1995 3039 1997 3038 2000 3037 2002 3035 2004 3034 2007
 3033 2009 3031 2012 3030 2014 3029 2017 3027 2020 3026 2022 3025 2025 3023 2027
 3022 2030 3020 2033 3019 2035 3017 2038 3016 2041 3015 2043 3013 2046 3012 2049
 3010 2051 3008 2054 3007 2057 3005 2060 3004 2062 3002 2065 3001 2068 2999 2071
 2997 2074 2996 2077 2994 2080 2992 2082 2990 2085 2989 2088 2987 2091 2985 2094
 2983 2097 2982 2100 2980 2103 2978 2106 2976 2109 2974 2113 2972 2116 2970 2119
 2968 2122 81 rps
 2968 2122 2967 2125 2965 2128 2963 2132 2961 2135 2958 2138 2956 2141 2954 2145 2952 2148
 2950 2152 2948 2155 2946 2158 2944 2162 2941 2165 2939 2169 2937 2172 2935 2176
 2932 2179 2930 2183 2928 2187 2925 2190 2923 2194 2920 2198 2918 2201 2915 2205
 2913 2209 2910 2213 2908 2217 2905 2220 2902 2224 2900 2228 2897 2232 2894 2236
 2892 2240 2889 2244 2886 2249 2883 2253 2880 2257 2877 2261 2874 2265 2871 2270
 2868 2274 2865 2278 2862 2283 2859 2287 2856 2292 2852 2296 2849 2301 2846 2305
 2842 2310 2839 2315 2836 2319 2832 2324 2829 2329 2825 2334 2821 2339 2818 2344
 2814 2349 2810 2354 2807 2359 2803 2364 2799 2370 2795 2375 2791 2380 2787 2386
 2783 2391 2778 2396 2774 2402 2770 2408 2766 2413 2761 2419 2757 2425 2752 2431
 2748 2437 2743 2443 2738 2449 2733 2455 2729 2461 2724 2467 2719 2474 2714 2480
 2708 2487 2703 2493 2698 2500 2693 2507 2687 2514 2682 2520 2676 2527 2670 2535
 2664 2542 2659 2549 2653 2556 2646 2564 2640 2571 2634 2579 2628 2587 2621 2595
 2615 2603 2608 2611 2601 2619 2594 2627 2587 2636 101 rps
 2587 2636 2580 2644 2573 2653 2565 2662 2558 2671 2550 2680 2542 2689 2534 2698 2526 2708
 2518 2717 2510 2727 2501 2737 2493 2747 2484 2757 2475 2768 2466 2778 2456 2789
 2447 2800 2437 2811 2427 2822 2417 2834 2407 2845 2396 2857 2386 2869 2375 2882
 2364 2894 2352 2907 2341 2920 2329 2933 2317 2947 2304 2961 2292 2975 2279 2989
 2266 3003 2252 3018 2239 3034 2224 3049 2210 3065 2195 3081 2180 3098 39 rps

/Times-Roman axumfindfont 124 scalefont setfont
 2720 2789 moveto  (Hyperbola) show 

/Times-Italic axumfindfont 128 scalefont setfont
 2720 2652 moveto  (e) show 

/Times-Roman axumfindfont 124 scalefont setfont
 2776 2652 moveto  ( = 1.4) show 

/Times-Italic axumfindfont 128 scalefont setfont
 2720 2516 moveto  (a) show 

/Times-Roman axumfindfont 124 scalefont setfont
 2783 2516 moveto  ( = 2.5) show 
 1255 2789 moveto  (Parabola) show 

/Times-Italic axumfindfont 128 scalefont setfont
 1255 2652 moveto  (e) show 

/Times-Roman axumfindfont 124 scalefont setfont
 1311 2652 moveto  ( = 1.0) show 

/Times-Italic axumfindfont 128 scalefont setfont
 1255 2516 moveto  (p) show 

/Times-Roman axumfindfont 124 scalefont setfont
 1318 2516 moveto  ( = 1.0) show 
 1210 1647 moveto  (Ellipse) show 

/Times-Italic axumfindfont 128 scalefont setfont
 1210 1510 moveto  (e) show 

/Times-Roman axumfindfont 124 scalefont setfont
 1266 1510 moveto  ( = 0.6) show 

/Times-Italic axumfindfont 128 scalefont setfont
 1210 1374 moveto  (a) show 

/Times-Roman axumfindfont 124 scalefont setfont
 1273 1374 moveto  ( = 2.5) show 
 2147 1647 moveto  (Circle) show 

/Times-Italic axumfindfont 128 scalefont setfont
 2147 1510 moveto  (e) show 

/Times-Roman axumfindfont 124 scalefont setfont
 2203 1510 moveto  ( = 0.0) show 

/Times-Italic axumfindfont 128 scalefont setfont
 2147 1374 moveto  (a) show 

/Times-Roman axumfindfont 124 scalefont setfont
 2210 1374 moveto  ( = 1.0) show 
 2707 1437 moveto  (Focus) show 
 grestore showpage
%Trailer
%EOF
