%!PS-Adobe-2.0 EPSF-1.2
%%BoundingBox: 0 0 468 360
%%%%DocumentFonts: /Helvetica
%%Title: Axum PostScript file
%%Creator: TriMetrix, Inc.
%%Pages: 1
%%EndComments
% Copyright 1988-1991 by TriMetrix, Inc. All rights reserved.
/downdict 4 dict def
/sdown
 {downdict begin
  /thestring exch def
  /lineskip exch def
  thestring
   {
    /charcode exch def
    /thechar ( ) dup 0 charcode put def
    0 lineskip neg rmoveto
    gsave
     thechar stringwidth pop 2 div neg 0 rmoveto
     thechar show
    grestore
   } forall
   end
  } def

/updict 4 dict def
/sup
 {updict begin
  /thestring exch def
  /lineskip exch def
  thestring 
   {
    /charcode exch def
    /thechar ( ) dup 0 charcode put def
    0 lineskip rmoveto
    gsave
     thechar stringwidth pop 2 div neg 0 rmoveto
     thechar show
    grestore
   } forall
   end
  } def

/leftdict 4 dict def
/sleft
 {leftdict begin
  /thestring exch def
  thestring
   {
    /charcode exch def
    /thechar ( ) dup 0 charcode put def
    gsave
     thechar stringwidth pop neg 0 rmoveto
     thechar show
    grestore
   } forall

   thechar stringwidth pop neg 0 rmoveto
   end
  } def

/path{newpath moveto{lineto}repeat} bind def 
/cnp{newpath moveto{lineto}repeat closepath} bind def
/clp{moveto{lineto}repeat closepath} bind def
/rps{ 3 1 roll path stroke} bind def
/rcs{ 3 1 roll clp stroke} bind def
/setF { currentscreen 4 -2 roll pop 3 1 roll setscreen} bind def
% required due to WinWord 2.0 bug:
/II { } def

/reencodedict 5 dict def
/reencode
{
   reencodedict begin
   /newencoding exch def
   /newfontname exch def
   /basefontname exch def

   /basefontdict basefontname findfont def
   /newfont basefontdict maxlength dict def

   basefontdict
   {
      exch dup dup /FID ne exch /Encoding ne and
      { exch newfont 3 1 roll put }
      { pop pop }
      ifelse
   }
   forall

   newfont /FontName newfontname put
   newfont /Encoding newencoding put
   newfontname newfont definefont pop
   end
}
def

/axumencoding
[
/.notdef        %   0
/.notdef        %   1
/.notdef        %   2
/.notdef        %   3
/.notdef        %   4
/.notdef        %   5
/.notdef        %   6
/.notdef        %   7
/.notdef        %   8
/.notdef        %   9
/.notdef        %  10
/.notdef        %  11
/.notdef        %  12
/.notdef        %  13
/.notdef        %  14
/.notdef        %  15
/.notdef        %  16
/.notdef        %  17
/.notdef        %  18
/.notdef        %  19
/.notdef        %  20
/.notdef        %  21
/.notdef        %  22
/.notdef        %  23
/.notdef        %  24
/.notdef        %  25
/.notdef        %  26
/.notdef        %  27
/.notdef        %  28
/.notdef        %  29
/.notdef        %  30
/.notdef        %  31
/space          %  32
/exclam         %  33
/quotedbl       %  34
/numbersign     %  35
/dollar         %  36
/percent        %  37
/ampersand      %  38
/quoteright     %  39
/parenleft      %  40
/parenright     %  41
/asterisk       %  42
/plus           %  43
/comma          %  44
/hyphen         %  45
/period         %  46
/slash          %  47
/zero           %  48
/one            %  49
/two            %  50
/three          %  51
/four           %  52
/five           %  53
/six            %  54
/seven          %  55
/eight          %  56
/nine           %  57
/colon          %  58
/semicolon      %  59
/less           %  60
/equal          %  61
/greater        %  62
/question       %  63
/at             %  64
/A              %  65
/B              %  66
/C              %  67
/D              %  68
/E              %  69
/F              %  70
/G              %  71
/H              %  72
/I              %  73
/J              %  74
/K              %  75
/L              %  76
/M              %  77
/N              %  78
/O              %  79
/P              %  80
/Q              %  81
/R              %  82
/S              %  83
/T              %  84
/U              %  85
/V              %  86
/W              %  87
/X              %  88
/Y              %  89
/Z              %  90
/bracketleft    %  91
/backslash      %  92
/bracketright   %  93
/asciicircum    %  94
/underscore     %  95
/quoteleft      %  96
/a              %  97
/b              %  98
/c              %  99
/d              % 100
/e              % 101
/f              % 102
/g              % 103
/h              % 104
/i              % 105
/j              % 106
/k              % 107
/l              % 108
/m              % 109
/n              % 110
/o              % 111
/p              % 112
/q              % 113
/r              % 114
/s              % 115
/t              % 116
/u              % 117
/v              % 118
/w              % 119
/x              % 120
/y              % 121
/z              % 122
/braceleft      % 123
/bar            % 124
/braceright     % 125
/asciitilde     % 126
/.notdef        % 127
/Ccedilla       % 128
/udieresis      % 129
/eacute         % 130
/acircumflex    % 131
/adieresis      % 132
/agrave         % 133
/aring          % 134
/ccedilla       % 135
/ecircumflex    % 136
/edieresis      % 137
/egrave         % 138
/idieresis      % 139
/icircumflex    % 140
/igrave         % 141
/Adieresis      % 142
/Aring          % 143
/Eacute         % 144
/ae             % 145
/AE             % 146
/ocircumflex    % 147
/odieresis      % 148
/ograve         % 149
/ucircumflex    % 150
/ugrave         % 151
/ydieresis      % 152
/Odieresis      % 153
/Udieresis      % 154
/cent           % 155
/sterling       % 156
/yen            % 157
/currency       % 158
/florin         % 159
/aacute         % 160
/iacute         % 161
/oacute         % 162
/uacute         % 163
/ntilde         % 164
/Ntilde         % 165
/ordfeminine    % 166
/ordmasculine   % 167
/questiondown   % 168
/quotedblleft   % 169
/quotedblright  % 170
/Aacute         % 171
/Acircumflex    % 172
/exclamdown     % 173
/Egrave         % 174
/Ecircumflex    % 175
/atilde         % 176
/otilde         % 177
/Edieresis      % 178
/Igrave         % 179
/oe             % 180
/OE             % 181
/Agrave         % 182
/Atilde         % 183
/Otilde         % 184
/section        % 185
/Iacute         % 186
/Icircumflex    % 187
/Idieresis      % 188
/Ograve         % 189
/Oacute         % 190
/Ocircumflex    % 191
/Ugrave         % 192
/Uacute         % 193
/Ucircumflex    % 194
/Ydieresis      % 195
/germandbls     % 196
/guillemotleft  % 197
/guillemotright % 198
/bullet         % 199
/.notdef        % 200
/.notdef        % 201
/.notdef        % 202
/.notdef        % 203
/.notdef        % 204
/.notdef        % 205
/.notdef        % 206
/.notdef        % 207
/.notdef        % 208
/.notdef        % 209
/.notdef        % 210
/.notdef        % 211
/.notdef        % 212
/.notdef        % 213
/.notdef        % 214
/.notdef        % 215
/.notdef        % 216
/.notdef        % 217
/.notdef        % 218
/.notdef        % 219
/.notdef        % 220
/.notdef        % 221
/.notdef        % 222
/.notdef        % 223
/.notdef        % 224
/.notdef        % 225
/.notdef        % 226
/.notdef        % 227
/.notdef        % 228
/.notdef        % 229
/.notdef        % 230
/.notdef        % 231
/.notdef        % 232
/.notdef        % 233
/.notdef        % 234
/.notdef        % 235
/.notdef        % 236
/.notdef        % 237
/.notdef        % 238
/.notdef        % 239
/.notdef        % 240
/.notdef        % 241
/.notdef        % 242
/.notdef        % 243
/.notdef        % 244
/.notdef        % 245
/.notdef        % 246
/.notdef        % 247
/.notdef        % 248
/.notdef        % 249
/.notdef        % 250
/.notdef        % 251
/.notdef        % 252
/.notdef        % 253
/.notdef        % 254
/.notdef        % 255
] 
def

/axumfindfont
{
   /axumfont axumencoding reencode
   /axumfont findfont
}
def


/MainFont /Helvetica axumfindfont 98 scalefont def
MainFont setfont
1 setlinejoin 0 setlinecap 0 setgray
 gsave 72 630 div dup scale
 [] 0 setdash

1 setlinewidth
 181 37
 1698 37 1698 2159 181 2159 181 37
 4 3 1 roll cnp
 0.93 setgray eofill 0.0 setgray 0.0 setgray 181 37 1698 37 1698 2159 181 2159 3 rcs


/Times-Italic axumfindfont 128 scalefont setfont
 555 1528 moveto  33 rotate (d) show  -33 rotate

/Symbol findfont 124 scalefont setfont
 608 1562 moveto  33 rotate (f) show  -33 rotate

/Times-Italic axumfindfont 128 scalefont setfont
 295 86 moveto  (x) show 
 1592 1979 moveto  (y) show 
 764 1101 moveto  33 rotate (r d) show  -33 rotate

/Symbol findfont 124 scalefont setfont
 886 1180 moveto  33 rotate (f) show  -33 rotate

/Times-Italic axumfindfont 128 scalefont setfont
 1242 1169 moveto  316 rotate (dr) show  -316 rotate
 818 1592 moveto  316 rotate (r) show  -316 rotate
 982 850 moveto  352 rotate (d) show  -352 rotate
 541 964 moveto  (P) show 

/Times-Roman axumfindfont 95 scalefont setfont
 619 936 moveto  (1) show 

/Times-Italic axumfindfont 128 scalefont setfont
 1451 905 moveto  (P) show 

/Times-Roman axumfindfont 95 scalefont setfont
 1529 877 moveto  (2) show 
 332 2006 1546 2006 1 rps
 1456 1983 1546 2006 1 rps
 1456 2028 1546 2006 1 rps
 332 2006 332 186 1 rps
 309 276 332 186 1 rps
 354 276 332 186 1 rps
 694 999
 698 999 702 1001 705 1004 707 1008
 707 1012 705 1016 702 1019 698 1021
 694 1021 690 1019 687 1016 685 1012
 685 1008 687 1004 690 1001 694 999
 16 3 1 roll cnp
 0.00 setgray
gsave eofill grestore  0.0 setgray
 stroke 0.0 setgray 1403 926
 1407 926 1411 928 1414 931 1416 935
 1416 939 1414 943 1411 946 1407 948
 1403 948 1399 946 1396 943 1394 939
 1394 935 1396 931 1399 928 1403 926
 16 3 1 roll cnp
 0.00 setgray
gsave eofill grestore  0.0 setgray
 stroke 0.0 setgray 0.0 setgray
5 setlinewidth
 696 1010 1405 937 1 rps

1 setlinewidth
 849 583 855 585 861 587 867 590 874 592 880 594 886 597 892 599 898 602
 904 604 910 607 917 609 923 612 929 614 935 617 941 620 947 622
 953 625 959 628 965 631 971 633 977 636 983 639 989 642 995 645
 1001 648 1007 651 1013 653 1018 656 1024 659 1030 662 1036 666 1042 669
 1048 672 1054 675 1059 678 1065 681 1071 684 1077 688 1082 691 1088 694
 1094 698 1100 701 1105 704 1111 708 1117 711 1122 714 1128 718 1134 721
 1139 725 1145 728 1150 732 1156 736 1161 739 1167 743 1172 746 1178 750
 1183 754 1189 758 1194 761 1200 765 1205 769 1211 773 1216 777 1221 780
 1227 784 1232 788 1237 792 1243 796 1248 800 1253 804 1258 808 1264 812
 1269 816 1274 820 1279 825 1284 829 1289 833 1294 837 1300 841 1305 845
 1310 850 1315 854 1320 858 1325 863 1330 867 1335 871 1340 876 1345 880
 1349 885 1354 889 1359 893 1364 898 1369 902 1374 907 1379 912 1383 916
 1388 921 1393 925 1397 930 1402 935 100 rps
 694 1011 698 1012 702 1014 707 1015 711 1017 715 1019 720 1020 724 1022 728 1024
 732 1026 737 1027 741 1029 745 1031 749 1033 754 1035 758 1036 762 1038
 766 1040 771 1042 775 1044 779 1046 783 1048 787 1050 792 1052 796 1054
 800 1056 804 1058 808 1060 812 1062 816 1064 821 1066 825 1068 829 1071
 833 1073 837 1075 841 1077 845 1079 849 1082 853 1084 857 1086 861 1088
 865 1091 869 1093 873 1095 877 1098 881 1100 885 1103 889 1105 893 1108
 897 1110 901 1112 905 1115 908 1117 912 1120 916 1122 920 1125 924 1128
 928 1130 932 1133 935 1135 939 1138 943 1141 947 1143 950 1146 954 1149
 958 1152 962 1154 965 1157 969 1160 973 1163 976 1165 980 1168 984 1171
 987 1174 991 1177 995 1180 998 1183 1002 1185 1005 1188 1009 1191 1013 1194
 1016 1197 1020 1200 1023 1203 1027 1206 1030 1209 1034 1212 1037 1215 1040 1219
 1044 1222 1047 1225 1051 1228 1054 1231 1057 1234 1061 1237 1064 1241 1068 1244
 1071 1247 1074 1250 1077 1253 1081 1257 100 rps
 476 1609 478 1610 480 1611 481 1611 483 1612 485 1613 487 1613 488 1614 490 1615
 492 1615 493 1616 495 1617 497 1617 499 1618 500 1619 502 1620 504 1620
 505 1621 507 1622 509 1623 510 1623 512 1624 514 1625 515 1626 517 1627
 519 1627 520 1628 522 1629 524 1630 525 1631 527 1632 529 1632 530 1633
 532 1634 533 1635 535 1636 537 1637 538 1638 540 1639 542 1640 543 1640
 545 1641 546 1642 548 1643 550 1644 551 1645 553 1646 554 1647 556 1648
 557 1649 559 1650 560 1651 562 1652 564 1653 565 1654 567 1655 568 1656
 570 1657 571 1658 573 1659 574 1660 576 1661 577 1662 579 1663 580 1665
 582 1666 583 1667 585 1668 586 1669 588 1670 589 1671 591 1672 592 1673
 594 1675 595 1676 596 1677 598 1678 599 1679 601 1680 602 1682 604 1683
 605 1684 606 1685 608 1686 609 1687 611 1689 612 1690 613 1691 615 1692
 616 1694 617 1695 619 1696 620 1697 622 1699 623 1700 624 1701 626 1702
 627 1704 628 1705 629 1706 631 1708 100 rps
 332 2006 849 583 1 rps
 332 2006 1402 935 1 rps
 3821 0
 3821 547 3821 556 3820 565 3819 574
 3817 583 3815 592 3813 601 3810 610
 3806 619 3802 628 3798 637 3793 646
 3788 654 3782 663 3776 672 3769 681
 3762 690 3755 698 3747 707 3738 715
 3730 724 3720 732 3711 741 3700 749
 3690 758 3679 766 3668 774 3656 782
 3643 790 3631 798 3618 806 3604 814
 3591 821 3576 829 3562 837 3547 844
 3531 851 3516 859 3499 866 3483 873
 3466 880 3449 887 3431 894 3414 900
 3395 907 3377 913 3358 920 3339 926
 3319 932 3299 938 3279 944 3259 950
 3238 955 3217 961 3196 966 3174 971
 3152 977 3130 982 3108 986 3085 991
 3063 996 3040 1000 3016 1005 2993 1009
 2969 1013 2945 1017 2921 1020 2897 1024
 2872 1027 2848 1031 2823 1034 2798 1037
 2773 1040 2748 1043 2722 1045 2697 1048
 2671 1050 2646 1052 2620 1054 2594 1056
 2568 1057 2542 1059 2515 1060 2489 1061
 2463 1062 2437 1063 2410 1064 2384 1064
 2357 1065 2331 1065 2304 1065 2278 1065
 2251 1065 2225 1064 2199 1064 2172 1063
 2146 1062 2119 1061 2093 1060 2067 1059
 2041 1057 2015 1056 1989 1054 1963 1052
 1937 1050 1912 1048 1886 1045 1865 1044
 1865 0 3821 0 110 3 1 roll cnp
 0.93 setgray eofill 0.0 setgray 1865 51
 1886 48 1912 46 1937 44 1963 41
 1989 39 2015 38 2041 36 2067 35
 2093 33 2119 32 2146 31 2172 30
 2199 29 2225 29 2251 28 2278 28
 2304 28 2331 28 2357 28 2384 29
 2410 29 2437 30 2463 31 2489 32
 2515 33 2542 35 2568 36 2594 38
 2620 39 2646 41 2671 44 2697 46
 2722 48 2748 51 2773 54 2798 56
 2823 59 2848 63 2872 66 2897 69
 2921 73 2945 77 2969 81 2993 85
 3016 89 3040 93 3063 98 3085 102
 3108 107 3130 112 3152 117 3174 122
 3196 127 3217 133 3238 138 3259 144
 3279 149 3299 155 3319 161 3339 167
 3358 174 3377 180 3395 186 3414 193
 3431 200 3449 206 3466 213 3483 220
 3499 227 3516 235 3531 242 3547 249
 3562 257 3576 264 3591 272 3604 280
 3618 287 3631 295 3643 303 3656 311
 3668 319 3679 328 3690 336 3700 344
 3711 352 3720 361 3730 369 3738 378
 3747 386 3755 395 3762 404 3769 412
 3776 421 3782 430 3788 439 3793 448
 3798 457 3802 466 3806 474 3810 483
 3813 492 3815 501 3817 510 3819 520
 3820 529 3821 538 3821 547 3821 0
 1865 0 1865 51 110 3 1 roll cnp
 1.00 setgray eofill 0.0 setgray 2304 547
 2919 1254 3256 1091 2304 547 3 3 1 roll cnp
 1.00 setgray eofill 0.0 setgray 3821 1318
 3126 1318 3124 1318 3122 1317 3120 1316
 3119 1315 3117 1315 3115 1314 3113 1313
 3111 1312 3109 1312 3107 1311 3105 1310
 3104 1310 3102 1309 3100 1308 3098 1307
 3096 1307 3094 1306 3092 1305 3090 1305
 3088 1304 3086 1303 3084 1302 3082 1302
 3080 1301 3079 1300 3077 1300 3075 1299
 3073 1298 3071 1298 3069 1297 3067 1296
 3065 1295 3063 1295 3061 1294 3059 1293
 3057 1293 3055 1292 3053 1291 3051 1291
 3048 1290 3046 1289 3044 1289 3042 1288
 3040 1287 3038 1287 3036 1286 3034 1285
 3032 1285 3030 1284 3028 1283 3026 1283
 3024 1282 3022 1281 3019 1281 3017 1280
 3015 1280 3013 1279 3011 1278 3009 1278
 3007 1277 3004 1276 3002 1276 3000 1275
 2998 1274 2996 1274 2994 1273 2992 1273
 2989 1272 2987 1271 2985 1271 2983 1270
 2981 1269 2978 1269 2976 1268 2974 1268
 2972 1267 2970 1266 2967 1266 2965 1265
 2963 1265 2961 1264 2958 1263 2956 1263
 2954 1262 2952 1262 2949 1261 2947 1261
 2945 1260 2942 1259 2940 1259 2938 1258
 2936 1258 2933 1257 2931 1257 2929 1256
 2926 1255 2924 1255 2922 1254 2919 1254
 2921 1251 2922 1249 2923 1247 2924 1244
 2925 1242 2926 1240 2927 1238 2928 1235
 2929 1233 2930 1231 2931 1228 2932 1226
 2933 1224 2934 1221 2936 1219 2937 1217
 2938 1214 2939 1212 2940 1210 2941 1207
 2942 1205 2943 1202 2944 1200 2945 1198
 2946 1195 2947 1193 2948 1191 2949 1188
 2950 1186 2951 1184 2952 1181 2953 1179
 2954 1176 2955 1174 2956 1172 2957 1169
 2958 1167 2959 1165 2960 1162 2961 1160
 2962 1157 2963 1155 2964 1153 2965 1150
 2966 1148 2967 1145 2968 1143 2969 1141
 2970 1138 2971 1136 2972 1133 2973 1131
 2974 1129 2975 1126 2976 1124 2977 1121
 2978 1119 2979 1117 2980 1114 2981 1112
 2982 1109 2983 1107 2984 1104 2985 1102
 2986 1100 2987 1097 2988 1095 2989 1092
 2990 1090 2991 1087 2991 1085 2992 1082
 2993 1080 2994 1078 2995 1075 2996 1073
 2997 1070 2998 1068 2999 1065 3000 1063
 3001 1060 3002 1058 3003 1055 3003 1053
 3004 1051 3005 1048 3006 1046 3007 1043
 3008 1041 3009 1038 3010 1036 3011 1033
 3012 1031 3013 1028 3013 1026 3014 1023
 3015 1021 3016 1018 3017 1016 3821 1016
 3821 1318 201 3 1 roll cnp
 0.93 setgray eofill 0.0 setgray 3821 1016
 3017 1016 3020 1017 3022 1017 3025 1018
 3028 1018 3030 1019 3033 1020 3036 1020
 3038 1021 3041 1022 3044 1022 3046 1023
 3049 1024 3051 1024 3054 1025 3057 1026
 3059 1026 3062 1027 3065 1028 3067 1029
 3070 1029 3072 1030 3075 1031 3077 1031
 3080 1032 3083 1033 3085 1033 3088 1034
 3090 1035 3093 1036 3095 1036 3098 1037
 3100 1038 3103 1038 3105 1039 3108 1040
 3110 1041 3113 1041 3115 1042 3118 1043
 3120 1044 3123 1044 3125 1045 3128 1046
 3130 1047 3133 1047 3135 1048 3138 1049
 3140 1050 3142 1050 3145 1051 3147 1052
 3150 1053 3152 1053 3155 1054 3157 1055
 3159 1056 3162 1056 3164 1057 3166 1058
 3169 1059 3171 1060 3173 1060 3176 1061
 3178 1062 3181 1063 3183 1063 3185 1064
 3187 1065 3190 1066 3192 1067 3194 1067
 3197 1068 3199 1069 3201 1070 3203 1071
 3206 1072 3208 1072 3210 1073 3213 1074
 3215 1075 3217 1076 3219 1076 3221 1077
 3224 1078 3226 1079 3228 1080 3230 1081
 3232 1081 3235 1082 3237 1083 3239 1084
 3241 1085 3243 1086 3245 1087 3248 1087
 3250 1088 3252 1089 3254 1090 3256 1091
 3255 1093 3254 1096 3253 1098 3251 1100
 3250 1103 3249 1105 3248 1108 3247 1110
 3245 1112 3244 1115 3243 1117 3242 1119
 3241 1122 3239 1124 3238 1127 3237 1129
 3236 1131 3234 1134 3233 1136 3232 1138
 3231 1141 3229 1143 3228 1145 3227 1148
 3226 1150 3225 1152 3223 1155 3222 1157
 3221 1159 3219 1162 3218 1164 3217 1167
 3216 1169 3214 1171 3213 1174 3212 1176
 3211 1178 3209 1180 3208 1183 3207 1185
 3205 1187 3204 1190 3203 1192 3202 1194
 3200 1197 3199 1199 3198 1201 3196 1204
 3195 1206 3194 1208 3192 1211 3191 1213
 3190 1215 3188 1217 3187 1220 3186 1222
 3184 1224 3183 1227 3182 1229 3180 1231
 3179 1233 3178 1236 3176 1238 3175 1240
 3174 1243 3172 1245 3171 1247 3170 1249
 3168 1252 3167 1254 3165 1256 3164 1258
 3163 1261 3161 1263 3160 1265 3159 1267
 3157 1270 3156 1272 3154 1274 3153 1276
 3152 1279 3150 1281 3149 1283 3147 1285
 3146 1287 3144 1290 3143 1292 3142 1294
 3140 1296 3139 1299 3137 1301 3136 1303
 3135 1305 3133 1307 3132 1310 3130 1312
 3129 1314 3127 1316 3126 1318 3821 1318
 3821 1016 201 3 1 roll cnp
 1.00 setgray eofill 0.0 setgray 0.0 setgray 3126 1318 3124 1318 3122 1317 3120 1316 3119 1315 3117 1315 3115 1314 3113 1313 3111 1312
 3109 1312 3107 1311 3105 1310 3104 1310 3102 1309 3100 1308 3098 1307 3096 1307
 3094 1306 3092 1305 3090 1305 3088 1304 3086 1303 3084 1302 3082 1302 3080 1301
 3079 1300 3077 1300 3075 1299 3073 1298 3071 1298 3069 1297 3067 1296 3065 1295
 3063 1295 3061 1294 3059 1293 3057 1293 3055 1292 3053 1291 3051 1291 3048 1290
 3046 1289 3044 1289 3042 1288 3040 1287 3038 1287 3036 1286 3034 1285 3032 1285
 3030 1284 3028 1283 3026 1283 3024 1282 3022 1281 3019 1281 3017 1280 3015 1280
 3013 1279 3011 1278 3009 1278 3007 1277 3004 1276 3002 1276 3000 1275 2998 1274
 2996 1274 2994 1273 2992 1273 2989 1272 2987 1271 2985 1271 2983 1270 2981 1269
 2978 1269 2976 1268 2974 1268 2972 1267 2970 1266 2967 1266 2965 1265 2963 1265
 2961 1264 2958 1263 2956 1263 2954 1262 2952 1262 2949 1261 2947 1261 2945 1260
 2942 1259 2940 1259 2938 1258 2936 1258 2933 1257 2931 1257 2929 1256 2926 1255
 2924 1255 2922 1254 2919 1254 2919 1254 2921 1251 101 rps
 2921 1251 2922 1249 2923 1247 2924 1244 2925 1242 2926 1240 2927 1238 2928 1235 2929 1233
 2930 1231 2931 1228 2932 1226 2933 1224 2934 1221 2936 1219 2937 1217 2938 1214
 2939 1212 2940 1210 2941 1207 2942 1205 2943 1202 2944 1200 2945 1198 2946 1195
 2947 1193 2948 1191 2949 1188 2950 1186 2951 1184 2952 1181 2953 1179 2954 1176
 2955 1174 2956 1172 2957 1169 2958 1167 2959 1165 2960 1162 2961 1160 2962 1157
 2963 1155 2964 1153 2965 1150 2966 1148 2967 1145 2968 1143 2969 1141 2970 1138
 2971 1136 2972 1133 2973 1131 2974 1129 2975 1126 2976 1124 2977 1121 2978 1119
 2979 1117 2980 1114 2981 1112 2982 1109 2983 1107 2984 1104 2985 1102 2986 1100
 2987 1097 2988 1095 2989 1092 2990 1090 2991 1087 2991 1085 2992 1082 2993 1080
 2994 1078 2995 1075 2996 1073 2997 1070 2998 1068 2999 1065 3000 1063 3001 1060
 3002 1058 3003 1055 3003 1053 3004 1051 3005 1048 3006 1046 3007 1043 3008 1041
 3009 1038 3010 1036 3011 1033 3012 1031 3013 1028 3013 1026 3014 1023 3015 1021
 3016 1018 3017 1016 98 rps
 3017 1016 3020 1017 3022 1017 3025 1018 3028 1018 3030 1019 3033 1020 3036 1020 3038 1021
 3041 1022 3044 1022 3046 1023 3049 1024 3051 1024 3054 1025 3057 1026 3059 1026
 3062 1027 3065 1028 3067 1029 3070 1029 3072 1030 3075 1031 3077 1031 3080 1032
 3083 1033 3085 1033 3088 1034 3090 1035 3093 1036 3095 1036 3098 1037 3100 1038
 3103 1038 3105 1039 3108 1040 3110 1041 3113 1041 3115 1042 3118 1043 3120 1044
 3123 1044 3125 1045 3128 1046 3130 1047 3133 1047 3135 1048 3138 1049 3140 1050
 3142 1050 3145 1051 3147 1052 3150 1053 3152 1053 3155 1054 3157 1055 3159 1056
 3162 1056 3164 1057 3166 1058 3169 1059 3171 1060 3173 1060 3176 1061 3178 1062
 3181 1063 3183 1063 3185 1064 3187 1065 3190 1066 3192 1067 3194 1067 3197 1068
 3199 1069 3201 1070 3203 1071 3206 1072 3208 1072 3210 1073 3213 1074 3215 1075
 3217 1076 3219 1076 3221 1077 3224 1078 3226 1079 3228 1080 3230 1081 3232 1081
 3235 1082 3237 1083 3239 1084 3241 1085 3243 1086 3245 1087 3248 1087 3250 1088
 3252 1089 3254 1090 3256 1091 3256 1091 3255 1093 101 rps
 3255 1093 3254 1096 3253 1098 3251 1100 3250 1103 3249 1105 3248 1108 3247 1110 3245 1112
 3244 1115 3243 1117 3242 1119 3241 1122 3239 1124 3238 1127 3237 1129 3236 1131
 3234 1134 3233 1136 3232 1138 3231 1141 3229 1143 3228 1145 3227 1148 3226 1150
 3225 1152 3223 1155 3222 1157 3221 1159 3219 1162 3218 1164 3217 1167 3216 1169
 3214 1171 3213 1174 3212 1176 3211 1178 3209 1180 3208 1183 3207 1185 3205 1187
 3204 1190 3203 1192 3202 1194 3200 1197 3199 1199 3198 1201 3196 1204 3195 1206
 3194 1208 3192 1211 3191 1213 3190 1215 3188 1217 3187 1220 3186 1222 3184 1224
 3183 1227 3182 1229 3180 1231 3179 1233 3178 1236 3176 1238 3175 1240 3174 1243
 3172 1245 3171 1247 3170 1249 3168 1252 3167 1254 3165 1256 3164 1258 3163 1261
 3161 1263 3160 1265 3159 1267 3157 1270 3156 1272 3154 1274 3153 1276 3152 1279
 3150 1281 3149 1283 3147 1285 3146 1287 3144 1290 3143 1292 3142 1294 3140 1296
 3139 1299 3137 1301 3136 1303 3135 1305 3133 1307 3132 1310 3130 1312 3129 1314
 3127 1316 3126 1318 98 rps
 2919 1254 2304 547 3017 199 2304 547 3017 1016 2304 547 3256 274 2304 547 3256 1091
 8 rps
 3017 1016 3017 199 1 rps
 3256 1091 3256 274 1 rps
 2153 457 2156 456 2159 456 2162 455 2165 455 2168 454 2171 454 2174 453 2177 452
 2181 452 2184 452 2187 451 2190 451 2193 450 2197 450 2200 449 2203 449
 2206 449 2210 448 2213 448 2216 447 2220 447 2223 447 2226 446 2230 446
 2233 446 2236 446 2240 445 2243 445 2247 445 2250 445 2254 444 2257 444
 2260 444 2264 444 2267 444 2271 444 2274 443 2278 443 2281 443 2285 443
 2288 443 2292 443 2295 443 2298 443 2302 443 2305 443 2309 443 2312 443
 2316 443 2319 443 2323 443 2326 443 2330 443 2333 443 2337 444 2340 444
 2344 444 2347 444 2350 444 2354 444 2357 445 2361 445 2364 445 2368 445
 2371 445 2374 446 2378 446 2381 446 2384 447 2388 447 2391 447 2394 448
 2398 448 2401 448 2404 449 2408 449 2411 450 2414 450 2417 450 2421 451
 2424 451 2427 452 2430 452 2433 453 2436 453 2440 454 2443 454 2446 455
 2449 455 2452 456 2455 457 2458 457 2461 458 2464 458 2467 459 2470 460
 2473 460 2475 461 2478 462 99 rps
 2565 419 2566 419 2567 420 2568 420 2569 420 2570 420 2571 421 2572 421 2573 421
 2574 421 2575 422 2576 422 2577 422 2578 422 2579 423 2580 423 2581 423
 2582 423 2583 424 2584 424 2585 424 2586 424 2587 425 2587 425 2588 425
 2589 425 2590 426 2591 426 2592 426 2593 426 2594 427 2595 427 2596 427
 2597 427 2598 428 2599 428 2600 428 2600 429 2601 429 2602 429 2603 429
 2604 430 2605 430 2606 430 2607 430 2608 431 2609 431 2610 431 2610 432
 2611 432 2612 432 2613 432 2614 433 2615 433 2616 433 2617 434 2617 434
 2618 434 2619 434 2620 435 2621 435 2622 435 2623 436 2624 436 2624 436
 2625 436 2626 437 2627 437 2628 437 2629 438 2629 438 2630 438 2631 438
 2632 439 2633 439 2634 439 2634 440 2635 440 2636 440 2637 441 2638 441
 2639 441 2639 441 2640 442 2641 442 2642 442 2643 443 2643 443 2644 443
 2645 444 2646 444 2647 444 2647 444 2648 445 2649 445 2650 445 2651 446
 2651 446 2652 446 2653 447 99 rps
 2304 832 2306 831 2307 830 2308 830 2310 829 2311 828 2313 827 2314 826 2315 826
 2317 825 2318 824 2319 823 2321 822 2322 821 2324 820 2325 820 2326 819
 2328 818 2329 817 2330 816 2332 815 2333 814 2335 813 2336 811 2337 810
 2339 809 2340 808 2341 807 2343 806 2344 805 2345 804 2347 802 2348 801
 2349 800 2351 799 2352 797 2353 796 2355 795 2356 794 2357 792 2359 791
 2360 790 2361 788 2363 787 2364 785 2365 784 2366 783 2368 781 2369 780
 2370 778 2372 777 2373 775 2374 774 2375 772 2377 771 2378 769 2379 767
 2380 766 2382 764 2383 763 2384 761 2385 759 2387 758 2388 756 2389 754
 2390 753 2391 751 2393 749 2394 747 2395 746 2396 744 2397 742 2398 740
 2400 739 2401 737 2402 735 2403 733 2404 731 2405 729 2406 728 2407 726
 2409 724 2410 722 2411 720 2412 718 2413 716 2414 714 2415 712 2416 710
 2417 708 2418 706 2419 704 2420 702 2421 700 2422 698 2423 696 2424 694
 2425 692 2426 690 2427 688 99 rps
 2489 759 2489 758 2490 757 2490 757 2490 756 2490 755 2491 755 2491 754 2491 753
 2492 753 2492 752 2492 751 2493 750 2493 750 2493 749 2494 748 2494 748
 2494 747 2495 746 2495 746 2495 745 2496 744 2496 743 2496 743 2497 742
 2497 741 2497 741 2497 740 2498 739 2498 738 2498 738 2499 737 2499 736
 2499 736 2500 735 2500 734 2500 733 2501 733 2501 732 2501 731 2501 731
 2502 730 2502 729 2502 728 2503 728 2503 727 2503 726 2504 726 2504 725
 2504 724 2504 723 2505 723 2505 722 2505 721 2506 721 2506 720 2506 719
 2506 718 2507 718 2507 717 2507 716 2508 715 2508 715 2508 714 2508 713
 2509 713 2509 712 2509 711 2510 710 2510 710 2510 709 2510 708 2511 707
 2511 707 2511 706 2512 705 2512 704 2512 704 2512 703 2513 702 2513 702
 2513 701 2514 700 2514 699 2514 699 2514 698 2515 697 2515 696 2515 696
 2515 695 2516 694 2516 693 2516 693 2517 692 2517 691 2517 690 2517 690
 2518 689 2518 688 2518 687 99 rps
 3821 547 3821 573 3820 600 3819 626 3817 652 3815 679 3813 705 3810 731 3806 758
 3802 784 3798 810 3793 836 3788 862 3782 888 3776 913 3769 939 3762 965
 3755 990 3747 1015 3738 1040 3730 1065 3720 1090 3711 1115 3700 1139 3690 1163
 3679 1187 3668 1211 3656 1235 3643 1258 3631 1282 3618 1305 3604 1328 3591 1350
 3576 1372 3562 1394 3547 1416 3531 1438 3516 1459 3499 1480 3483 1501 3466 1521
 3449 1541 3431 1561 3414 1581 3395 1600 3377 1619 3358 1637 3339 1655 3319 1673
 3299 1691 3279 1708 3259 1725 3238 1741 3217 1757 3196 1773 3174 1789 3152 1804
 3130 1818 3108 1832 3085 1846 3063 1860 3040 1873 3016 1885 2993 1898 2969 1909
 2945 1921 2921 1932 2897 1942 2872 1952 2848 1962 2823 1971 2798 1980 2773 1989
 2748 1997 2722 2004 2697 2011 2671 2018 2646 2024 2620 2030 2594 2035 2568 2040
 2542 2044 2515 2048 2489 2051 2463 2054 2437 2057 2410 2059 2384 2061 2357 2062
 2331 2063 2304 2063 2278 2063 2251 2062 2225 2061 2199 2059 2172 2057 2146 2054
 2119 2051 2093 2048 2067 2044 2041 2040 2015 2035 101 rps
 2015 2035 1989 2030 1963 2024 1937 2018 1912 2011 1886 2004 1865 1999 6 rps
 [20 20] 0 setdash
 3821 547 3821 556 3820 565 3819 574 3817 583 3815 592 3813 601 3810 610 3806 619
 3802 628 3798 637 3793 646 3788 654 3782 663 3776 672 3769 681 3762 690
 3755 698 3747 707 3738 715 3730 724 3720 732 3711 741 3700 749 3690 758
 3679 766 3668 774 3656 782 3643 790 3631 798 3618 806 3604 814 3591 821
 3576 829 3562 837 3547 844 3531 851 3516 859 3499 866 3483 873 3466 880
 3449 887 3431 894 3414 900 3395 907 3377 913 3358 920 3339 926 3319 932
 3299 938 49 rps
 2278 1065 2251 1065 2225 1064 2199 1064 2172 1063 2146 1062 2119 1061 2093 1060 2067 1059
 2041 1057 2015 1056 1989 1054 1963 1052 1937 1050 1912 1048 1886 1045 1865 1044
 16 rps
 [] 0 setdash
 1865 51 1886 48 1912 46 1937 44 1963 41 1989 39 2015 38 2041 36 2067 35
 2093 33 2119 32 2146 31 2172 30 2199 29 2225 29 2251 28 2278 28
 2304 28 2331 28 2357 28 2384 29 2410 29 2437 30 2463 31 2489 32
 2515 33 2542 35 2568 36 2594 38 2620 39 2646 41 2671 44 2697 46
 2722 48 2748 51 2773 54 2798 56 2823 59 2848 63 2872 66 2897 69
 2921 73 2945 77 2969 81 2993 85 3016 89 3040 93 3063 98 3085 102
 3108 107 3130 112 3152 117 3174 122 3196 127 3217 133 3238 138 3259 144
 3279 149 3299 155 3319 161 3339 167 3358 174 3377 180 3395 186 3414 193
 3431 200 3449 206 3466 213 3483 220 3499 227 3516 235 3531 242 3547 249
 3562 257 3576 264 3591 272 3604 280 3618 287 3631 295 3643 303 3656 311
 3668 319 3679 328 3690 336 3700 344 3711 352 3720 361 3730 369 3738 378
 3747 386 3755 395 3762 404 3769 412 3776 421 3782 430 3788 439 3793 448
 3798 457 3802 466 3806 474 3810 483 3813 492 101 rps
 3813 492 3815 501 3817 510 3819 520 3820 529 3821 538 3821 547 6 rps
 2919 1254 2915 1264 2910 1274 2905 1285 2900 1295 2895 1305 2889 1315 2884 1325 2879 1335
 2874 1345 2869 1355 2864 1365 2858 1375 2853 1385 2847 1394 2842 1404 2837 1414
 2831 1423 2826 1433 2820 1442 2815 1451 2809 1461 2803 1470 2798 1479 2792 1488
 2786 1498 2780 1507 2775 1516 2769 1524 2763 1533 2757 1542 2751 1551 2745 1559
 2739 1568 2733 1577 2727 1585 2721 1594 2715 1602 2709 1610 2703 1618 2697 1626
 2691 1635 2684 1643 2678 1650 2672 1658 2666 1666 2659 1674 2653 1682 2647 1689
 2640 1697 2634 1704 2628 1711 2621 1719 2615 1726 2608 1733 2602 1740 2595 1747
 2589 1754 2582 1761 2576 1768 2569 1774 2563 1781 2556 1788 2549 1794 2543 1800
 2536 1807 2529 1813 2523 1819 2516 1825 2509 1831 2503 1837 2496 1843 2489 1848
 2482 1854 2476 1860 2469 1865 2462 1871 2455 1876 2449 1881 2442 1886 2435 1891
 2428 1896 2421 1901 2414 1906 2408 1911 2401 1915 2394 1920 2387 1925 2380 1929
 2373 1933 2366 1937 2360 1942 2353 1946 2346 1950 2339 1953 2332 1957 2325 1961
 2318 1964 2311 1968 2304 1971 99 rps
 2304 1971 2314 1969 2323 1966 2332 1963 2341 1960 2350 1957 2360 1954 2369 1951 2378 1947
 2387 1944 2396 1940 2406 1937 2415 1933 2424 1929 2433 1926 2442 1922 2451 1918
 2461 1914 2470 1909 2479 1905 2488 1901 2497 1896 2506 1892 2515 1887 2524 1883
 2533 1878 2542 1873 2551 1868 2560 1863 2569 1858 2578 1853 2587 1847 2596 1842
 2605 1837 2614 1831 2623 1825 2632 1820 2640 1814 2649 1808 2658 1802 2667 1796
 2676 1790 2684 1784 2693 1778 2702 1771 2710 1765 2719 1759 2728 1752 2736 1745
 2745 1739 2753 1732 2762 1725 2770 1718 2779 1711 2787 1704 2795 1697 2804 1690
 2812 1683 2820 1675 2829 1668 2837 1660 2845 1653 2853 1645 2861 1637 2869 1630
 2877 1622 2885 1614 2893 1606 2901 1598 2909 1590 2917 1582 2925 1573 2932 1565
 2940 1557 2948 1548 2956 1540 2963 1531 2971 1523 2978 1514 2986 1505 2993 1496
 3001 1487 3008 1479 3015 1470 3023 1460 3030 1451 3037 1442 3044 1433 3051 1424
 3058 1414 3065 1405 3072 1396 3079 1386 3086 1377 3093 1367 3099 1357 3106 1348
 3113 1338 3119 1328 3126 1318 99 rps

5 setlinewidth
 2919 1254 3256 1091 1 rps

1 setlinewidth
 2289 2093
 2289 2032 2319 2032 2319 2093 2289 2093
 4 3 1 roll cnp
 1.00 setgray eofill 0.0 setgray 0.0 setgray
/Symbol findfont 124 scalefont setfont
 2288 350 moveto  (f) show 
 2379 850 moveto  (q) show 

/Times-Italic axumfindfont 128 scalefont setfont
 2866 272 moveto  (d) show 

/Symbol findfont 124 scalefont setfont
 2929 272 moveto  (f) show 

/Times-Italic axumfindfont 128 scalefont setfont
 2757 864 moveto  40 rotate (d) show  -40 rotate

/Symbol findfont 124 scalefont setfont
 2805 905 moveto  40 rotate (q) show  -40 rotate

/Times-Italic axumfindfont 128 scalefont setfont
 1892 309 moveto  (x) show 
 3562 518 moveto  (y) show 
 2352 2161 moveto  (z) show 
 3489 991 moveto  (r d) show 

/Symbol findfont 124 scalefont setfont
 3634 991 moveto  (f) show 

/Times-Italic axumfindfont 128 scalefont setfont
 3448 1624 moveto  (R d) show 

/Symbol findfont 124 scalefont setfont
 3621 1624 moveto  (q ) show 

/Times-Roman axumfindfont 124 scalefont setfont
 3717 1624 moveto  (= ) show 

/Times-Italic axumfindfont 128 scalefont setfont
 3819 1624 moveto  (dD) show 
 2666 232 moveto  (r) show 
 2579 923 moveto  45 rotate (R) show  -45 rotate
 2475 1692 moveto  310 rotate (R) show  -310 rotate

/Symbol findfont 124 scalefont setfont
 2525 1632 moveto  310 rotate (q) show  -310 rotate

/Times-Roman axumfindfont 124 scalefont setfont
 2566 1582 moveto  310 rotate ( = ) show  -310 rotate

/Times-Italic axumfindfont 128 scalefont setfont
 2652 1480 moveto  310 rotate (D) show  -310 rotate
 2993 1101 moveto  338 rotate (d) show  -338 rotate
 2748 1246 moveto  (P) show 

/Times-Roman axumfindfont 95 scalefont setfont
 2826 1218 moveto  (1) show 

/Times-Italic axumfindfont 128 scalefont setfont
 3294 1064 moveto  (P) show 

/Times-Roman axumfindfont 95 scalefont setfont
 3372 1036 moveto  (2) show 
 2302 545 2302 2211 1 rps
 2324 2121 2302 2211 1 rps
 2279 2121 2302 2211 1 rps
 3271 545 3517 545 1 rps
 3427 522 3517 545 1 rps
 3427 567 3517 545 1 rps
 2302 545 2001 368 1 rps
 2067 433 2001 368 1 rps
 2089 394 2001 368 1 rps
 2393 445 2475 464 1 rps
 3230 1214 3198 1210 1 rps
 3175 978 3130 1041 1 rps
 2300 1959
 2304 1959 2308 1961 2311 1964 2313 1968
 2313 1972 2311 1976 2308 1979 2304 1981
 2300 1981 2296 1979 2293 1976 2291 1972
 2291 1968 2293 1964 2296 1961 2300 1959
 16 3 1 roll cnp
 0.00 setgray
gsave eofill grestore  0.0 setgray
 stroke 0.0 setgray 2914 1244
 2918 1244 2922 1246 2925 1249 2927 1253
 2927 1257 2925 1261 2922 1264 2918 1266
 2914 1266 2910 1264 2907 1261 2905 1257
 2905 1253 2907 1249 2910 1246 2914 1244
 16 3 1 roll cnp
 0.00 setgray
gsave eofill grestore  0.0 setgray
 stroke 0.0 setgray 3251 1080
 3255 1080 3259 1082 3262 1085 3264 1089
 3264 1093 3262 1097 3259 1100 3255 1102
 3251 1102 3247 1100 3244 1097 3242 1093
 3242 1089 3244 1085 3247 1082 3251 1080
 16 3 1 roll cnp
 0.00 setgray
gsave eofill grestore  0.0 setgray
 stroke 0.0 setgray 0.0 setgray 2302 545 3002 545 1 rps
 3030 545 3239 545 1 rps
 3134 1039 3135 1036 3137 1032 3138 1028 3140 1024 3142 1021 3144 1017 3145 1013 3147 1010
 3149 1006 3152 1003 3154 999 3156 996 3158 993 3161 989 3163 986 3166 983
 3168 980 3171 977 3174 974 3177 971 3179 968 3182 965 3185 962 3188 959
 3192 957 3195 954 3198 952 3201 949 3204 947 3208 944 3211 942 3215 940
 3218 938 3222 936 3225 934 3229 932 3233 930 3236 928 3240 927 3244 925
 3248 924 3251 922 3255 921 3259 920 3263 919 3267 918 3271 917 3275 916
 3279 915 3283 914 3287 913 3291 913 3295 912 3299 912 3303 911 3307 911
 3311 911 3315 911 3319 911 3323 911 3327 911 3331 912 3335 912 3339 912
 3343 913 3347 913 3351 914 3355 915 3359 916 3363 917 3367 918 3371 919
 3375 920 3379 921 3383 923 3386 924 3390 926 3394 927 3398 929 3401 931
 3405 932 3409 934 3412 936 3416 938 3419 941 3423 943 3426 945 3429 947
 3433 950 3436 952 3439 955 3442 957 3445 960 3448 963 3451 966 3454 968
 3457 971 3460 974 3463 977 3465 980 100 rps
 3226 1217 3231 1218 3235 1220 3240 1222 3244 1223 3249 1225 3253 1227 3258 1229 3262 1231
 3267 1233 3271 1235 3275 1237 3280 1239 3284 1241 3288 1243 3293 1246 3297 1248
 3301 1250 3305 1253 3309 1255 3314 1258 3318 1261 3322 1263 3326 1266 3330 1269
 3334 1271 3337 1274 3341 1277 3345 1280 3349 1283 3353 1286 3356 1289 3360 1293
 3364 1296 3367 1299 3371 1302 3374 1306 3378 1309 3381 1312 3385 1316 3388 1319
 3391 1323 3395 1327 3398 1330 3401 1334 3404 1338 3407 1341 3410 1345 3413 1349
 3416 1353 3419 1357 3422 1361 3425 1365 3427 1369 3430 1373 3433 1377 3435 1381
 3438 1385 3440 1389 3443 1393 3445 1398 3447 1402 3450 1406 3452 1411 3454 1415
 3456 1419 3458 1424 3460 1428 3462 1433 3464 1437 3466 1442 3467 1446 3469 1451
 3471 1455 3472 1460 3474 1464 3475 1469 3477 1474 3478 1478 3480 1483 3481 1488
 3482 1492 3483 1497 3484 1502 3485 1506 3486 1511 3487 1516 3488 1521 3489 1526
 3489 1530 3490 1535 3490 1540 3491 1545 3491 1550 3492 1554 3492 1559 3492 1564
 3493 1569 3493 1574 3493 1579 3493 1583 100 rps
 2411 718 2425 687 1 rps

7 setlinewidth
 1054 857 1064 868 1079 887 1084 895 1090 906 1091 915 1087 919 1079 916 1074 909
 1067 893 1059 865 1056 841 1059 836 1063 835 1072 838 1077 842 1086 853
 16 rps
 3065 1092 3077 1100 3096 1115 3103 1121 3111 1131 3115 1139 3112 1144 3103 1143 3096 1137
 3086 1123 3072 1098 3062 1075 3065 1070 3068 1068 3078 1069 3083 1071 3095 1080
 16 rps
 grestore showpage
%Trailer
%EOF
