%!PS-Adobe-2.0 EPSF-1.2
%%BoundingBox: 0 0 468 360
%%%%DocumentFonts: /Helvetica
%%Title: Axum PostScript file
%%Creator: TriMetrix, Inc.
%%Pages: 1
%%EndComments
% Copyright 1988-1991 by TriMetrix, Inc. All rights reserved.
/downdict 4 dict def
/sdown
 {downdict begin
  /thestring exch def
  /lineskip exch def
  thestring
   {
    /charcode exch def
    /thechar ( ) dup 0 charcode put def
    0 lineskip neg rmoveto
    gsave
     thechar stringwidth pop 2 div neg 0 rmoveto
     thechar show
    grestore
   } forall
   end
  } def

/updict 4 dict def
/sup
 {updict begin
  /thestring exch def
  /lineskip exch def
  thestring 
   {
    /charcode exch def
    /thechar ( ) dup 0 charcode put def
    0 lineskip rmoveto
    gsave
     thechar stringwidth pop 2 div neg 0 rmoveto
     thechar show
    grestore
   } forall
   end
  } def

/leftdict 4 dict def
/sleft
 {leftdict begin
  /thestring exch def
  thestring
   {
    /charcode exch def
    /thechar ( ) dup 0 charcode put def
    gsave
     thechar stringwidth pop neg 0 rmoveto
     thechar show
    grestore
   } forall

   thechar stringwidth pop neg 0 rmoveto
   end
  } def

/path{newpath moveto{lineto}repeat} bind def 
/cnp{newpath moveto{lineto}repeat closepath} bind def
/clp{moveto{lineto}repeat closepath} bind def
/rps{ 3 1 roll path stroke} bind def
/rcs{ 3 1 roll clp stroke} bind def
/setF { currentscreen 4 -2 roll pop 3 1 roll setscreen} bind def
% required due to WinWord 2.0 bug:
/II { } def

/reencodedict 5 dict def
/reencode
{
   reencodedict begin
   /newencoding exch def
   /newfontname exch def
   /basefontname exch def

   /basefontdict basefontname findfont def
   /newfont basefontdict maxlength dict def

   basefontdict
   {
      exch dup dup /FID ne exch /Encoding ne and
      { exch newfont 3 1 roll put }
      { pop pop }
      ifelse
   }
   forall

   newfont /FontName newfontname put
   newfont /Encoding newencoding put
   newfontname newfont definefont pop
   end
}
def

/axumencoding
[
/.notdef        %   0
/.notdef        %   1
/.notdef        %   2
/.notdef        %   3
/.notdef        %   4
/.notdef        %   5
/.notdef        %   6
/.notdef        %   7
/.notdef        %   8
/.notdef        %   9
/.notdef        %  10
/.notdef        %  11
/.notdef        %  12
/.notdef        %  13
/.notdef        %  14
/.notdef        %  15
/.notdef        %  16
/.notdef        %  17
/.notdef        %  18
/.notdef        %  19
/.notdef        %  20
/.notdef        %  21
/.notdef        %  22
/.notdef        %  23
/.notdef        %  24
/.notdef        %  25
/.notdef        %  26
/.notdef        %  27
/.notdef        %  28
/.notdef        %  29
/.notdef        %  30
/.notdef        %  31
/space          %  32
/exclam         %  33
/quotedbl       %  34
/numbersign     %  35
/dollar         %  36
/percent        %  37
/ampersand      %  38
/quoteright     %  39
/parenleft      %  40
/parenright     %  41
/asterisk       %  42
/plus           %  43
/comma          %  44
/hyphen         %  45
/period         %  46
/slash          %  47
/zero           %  48
/one            %  49
/two            %  50
/three          %  51
/four           %  52
/five           %  53
/six            %  54
/seven          %  55
/eight          %  56
/nine           %  57
/colon          %  58
/semicolon      %  59
/less           %  60
/equal          %  61
/greater        %  62
/question       %  63
/at             %  64
/A              %  65
/B              %  66
/C              %  67
/D              %  68
/E              %  69
/F              %  70
/G              %  71
/H              %  72
/I              %  73
/J              %  74
/K              %  75
/L              %  76
/M              %  77
/N              %  78
/O              %  79
/P              %  80
/Q              %  81
/R              %  82
/S              %  83
/T              %  84
/U              %  85
/V              %  86
/W              %  87
/X              %  88
/Y              %  89
/Z              %  90
/bracketleft    %  91
/backslash      %  92
/bracketright   %  93
/asciicircum    %  94
/underscore     %  95
/quoteleft      %  96
/a              %  97
/b              %  98
/c              %  99
/d              % 100
/e              % 101
/f              % 102
/g              % 103
/h              % 104
/i              % 105
/j              % 106
/k              % 107
/l              % 108
/m              % 109
/n              % 110
/o              % 111
/p              % 112
/q              % 113
/r              % 114
/s              % 115
/t              % 116
/u              % 117
/v              % 118
/w              % 119
/x              % 120
/y              % 121
/z              % 122
/braceleft      % 123
/bar            % 124
/braceright     % 125
/asciitilde     % 126
/.notdef        % 127
/Ccedilla       % 128
/udieresis      % 129
/eacute         % 130
/acircumflex    % 131
/adieresis      % 132
/agrave         % 133
/aring          % 134
/ccedilla       % 135
/ecircumflex    % 136
/edieresis      % 137
/egrave         % 138
/idieresis      % 139
/icircumflex    % 140
/igrave         % 141
/Adieresis      % 142
/Aring          % 143
/Eacute         % 144
/ae             % 145
/AE             % 146
/ocircumflex    % 147
/odieresis      % 148
/ograve         % 149
/ucircumflex    % 150
/ugrave         % 151
/ydieresis      % 152
/Odieresis      % 153
/Udieresis      % 154
/cent           % 155
/sterling       % 156
/yen            % 157
/currency       % 158
/florin         % 159
/aacute         % 160
/iacute         % 161
/oacute         % 162
/uacute         % 163
/ntilde         % 164
/Ntilde         % 165
/ordfeminine    % 166
/ordmasculine   % 167
/questiondown   % 168
/quotedblleft   % 169
/quotedblright  % 170
/Aacute         % 171
/Acircumflex    % 172
/exclamdown     % 173
/Egrave         % 174
/Ecircumflex    % 175
/atilde         % 176
/otilde         % 177
/Edieresis      % 178
/Igrave         % 179
/oe             % 180
/OE             % 181
/Agrave         % 182
/Atilde         % 183
/Otilde         % 184
/section        % 185
/Iacute         % 186
/Icircumflex    % 187
/Idieresis      % 188
/Ograve         % 189
/Oacute         % 190
/Ocircumflex    % 191
/Ugrave         % 192
/Uacute         % 193
/Ucircumflex    % 194
/Ydieresis      % 195
/germandbls     % 196
/guillemotleft  % 197
/guillemotright % 198
/bullet         % 199
/.notdef        % 200
/.notdef        % 201
/.notdef        % 202
/.notdef        % 203
/.notdef        % 204
/.notdef        % 205
/.notdef        % 206
/.notdef        % 207
/.notdef        % 208
/.notdef        % 209
/.notdef        % 210
/.notdef        % 211
/.notdef        % 212
/.notdef        % 213
/.notdef        % 214
/.notdef        % 215
/.notdef        % 216
/.notdef        % 217
/.notdef        % 218
/.notdef        % 219
/.notdef        % 220
/.notdef        % 221
/.notdef        % 222
/.notdef        % 223
/.notdef        % 224
/.notdef        % 225
/.notdef        % 226
/.notdef        % 227
/.notdef        % 228
/.notdef        % 229
/.notdef        % 230
/.notdef        % 231
/.notdef        % 232
/.notdef        % 233
/.notdef        % 234
/.notdef        % 235
/.notdef        % 236
/.notdef        % 237
/.notdef        % 238
/.notdef        % 239
/.notdef        % 240
/.notdef        % 241
/.notdef        % 242
/.notdef        % 243
/.notdef        % 244
/.notdef        % 245
/.notdef        % 246
/.notdef        % 247
/.notdef        % 248
/.notdef        % 249
/.notdef        % 250
/.notdef        % 251
/.notdef        % 252
/.notdef        % 253
/.notdef        % 254
/.notdef        % 255
] 
def

/axumfindfont
{
   /axumfont axumencoding reencode
   /axumfont findfont
}
def


/MainFont /Helvetica axumfindfont 98 scalefont def
MainFont setfont
1 setlinejoin 0 setlinecap 0 setgray
 gsave 72 630 div dup scale
 [] 0 setdash

1 setlinewidth
 3518 0
 3518 638 3517 647 3517 656 3516 665
 3514 674 3512 683 3509 692 3506 701
 3503 710 3499 719 3495 728 3490 737
 3485 745 3479 754 3473 763 3466 772
 3459 781 3451 789 3443 798 3435 806
 3426 815 3417 823 3407 832 3397 840
 3387 849 3376 857 3364 865 3352 873
 3340 881 3328 889 3314 897 3301 905
 3287 912 3273 920 3258 928 3243 935
 3228 942 3212 950 3196 957 3180 964
 3163 971 3146 978 3128 985 3110 991
 3092 998 3073 1004 3055 1011 3035 1017
 3016 1023 2996 1029 2976 1035 2955 1041
 2935 1046 2914 1052 2892 1057 2871 1062
 2849 1068 2827 1073 2805 1077 2782 1082
 2759 1087 2736 1091 2713 1096 2690 1100
 2666 1104 2642 1108 2618 1111 2594 1115
 2569 1118 2545 1122 2520 1125 2495 1128
 2470 1131 2444 1134 2419 1136 2394 1139
 2368 1141 2342 1143 2316 1145 2290 1147
 2264 1148 2238 1150 2212 1151 2186 1152
 2160 1153 2133 1154 2107 1155 2080 1155
 2054 1156 2027 1156 2001 1156 1975 1156
 1948 1156 1922 1155 1895 1155 1869 1154
 1842 1153 1816 1152 1790 1151 1764 1150
 1738 1148 1712 1147 1686 1145 1660 1143
 1634 1141 1608 1139 1583 1136 1558 1134
 1532 1131 1507 1128 1482 1125 1457 1122
 1433 1118 1408 1115 1384 1111 1360 1108
 1336 1104 1312 1100 1289 1096 1266 1091
 1243 1087 1220 1082 1197 1077 1175 1073
 1153 1068 1131 1062 1110 1057 1088 1052
 1067 1046 1047 1041 1026 1035 1006 1029
 986 1023 967 1017 947 1011 929 1004
 910 998 892 991 874 985 856 978
 839 971 822 964 806 957 790 950
 774 942 759 935 744 928 729 920
 715 912 701 905 688 897 674 889
 662 881 650 873 638 865 626 857
 615 849 605 840 595 832 585 823
 576 815 567 806 559 798 551 789
 543 781 536 772 529 763 523 754
 517 745 512 737 507 728 503 719
 499 710 496 701 493 692 490 683
 488 674 486 665 485 656 485 647
 484 638 484 0 3518 0 183 3 1 roll cnp
 0.93 setgray eofill 0.0 setgray 484 0
 484 638 485 629 485 620 486 611
 488 601 490 592 493 583 496 574
 499 565 503 557 507 548 512 539
 517 530 523 521 529 512 536 503
 543 495 551 486 559 477 567 469
 576 460 585 452 595 443 605 435
 615 427 626 419 638 410 650 402
 662 394 674 386 688 378 701 371
 715 363 729 355 744 348 759 340
 774 333 790 326 806 318 822 311
 839 304 856 297 874 291 892 284
 910 277 929 271 947 265 967 258
 986 252 1006 246 1026 240 1047 235
 1067 229 1088 224 1110 218 1131 213
 1153 208 1175 203 1197 198 1220 193
 1243 189 1266 184 1289 180 1312 176
 1336 172 1360 168 1384 164 1408 160
 1433 157 1457 154 1482 150 1507 147
 1532 145 1558 142 1583 139 1608 137
 1634 135 1660 132 1686 130 1712 129
 1738 127 1764 126 1790 124 1816 123
 1842 122 1869 121 1895 120 1922 120
 1948 119 1975 119 2001 119 2027 119
 2054 119 2080 120 2107 120 2133 121
 2160 122 2186 123 2212 124 2238 126
 2264 127 2290 129 2316 130 2342 132
 2368 135 2394 137 2419 139 2444 142
 2470 145 2495 147 2520 150 2545 154
 2569 157 2594 160 2618 164 2642 168
 2666 172 2690 176 2713 180 2736 184
 2759 189 2782 193 2805 198 2827 203
 2849 208 2871 213 2892 218 2914 224
 2935 229 2955 235 2976 240 2996 246
 3016 252 3035 258 3055 265 3073 271
 3092 277 3110 284 3128 291 3146 297
 3163 304 3180 311 3196 318 3212 326
 3228 333 3243 340 3258 348 3273 355
 3287 363 3301 371 3314 378 3328 386
 3340 394 3352 402 3364 410 3376 419
 3387 427 3397 435 3407 443 3417 452
 3426 460 3435 469 3443 477 3451 486
 3459 495 3466 503 3473 512 3479 521
 3485 530 3490 539 3495 548 3499 557
 3503 565 3506 574 3509 583 3512 592
 3514 601 3516 611 3517 620 3517 629
 3518 638 3518 0 484 0 183 3 1 roll cnp
 1.00 setgray eofill 0.0 setgray 2001 638
 2616 1345 2953 1182 2001 638 3 3 1 roll cnp
 1.00 setgray eofill 0.0 setgray 3821 1409
 2823 1409 2821 1409 2819 1408 2817 1407
 2815 1406 2813 1406 2812 1405 2810 1404
 2808 1403 2806 1403 2804 1402 2802 1401
 2800 1401 2798 1400 2796 1399 2795 1398
 2793 1398 2791 1397 2789 1396 2787 1396
 2785 1395 2783 1394 2781 1393 2779 1393
 2777 1392 2775 1391 2773 1391 2771 1390
 2769 1389 2767 1389 2765 1388 2763 1387
 2761 1386 2759 1386 2757 1385 2755 1384
 2753 1384 2751 1383 2749 1382 2747 1382
 2745 1381 2743 1380 2741 1380 2739 1379
 2737 1378 2735 1378 2733 1377 2731 1376
 2729 1376 2727 1375 2724 1374 2722 1374
 2720 1373 2718 1372 2716 1372 2714 1371
 2712 1371 2710 1370 2708 1369 2705 1369
 2703 1368 2701 1367 2699 1367 2697 1366
 2695 1365 2693 1365 2690 1364 2688 1364
 2686 1363 2684 1362 2682 1362 2679 1361
 2677 1360 2675 1360 2673 1359 2671 1359
 2668 1358 2666 1357 2664 1357 2662 1356
 2659 1356 2657 1355 2655 1354 2653 1354
 2650 1353 2648 1353 2646 1352 2644 1352
 2641 1351 2639 1350 2637 1350 2635 1349
 2632 1349 2630 1348 2628 1348 2625 1347
 2623 1346 2621 1346 2618 1345 2616 1345
 2617 1342 2618 1340 2619 1338 2620 1335
 2622 1333 2623 1331 2624 1329 2625 1326
 2626 1324 2627 1322 2628 1319 2629 1317
 2630 1315 2631 1312 2632 1310 2633 1308
 2634 1305 2635 1303 2636 1301 2637 1298
 2638 1296 2640 1293 2641 1291 2642 1289
 2643 1286 2644 1284 2645 1282 2646 1279
 2647 1277 2648 1275 2649 1272 2650 1270
 2651 1267 2652 1265 2653 1263 2654 1260
 2655 1258 2656 1256 2657 1253 2658 1251
 2659 1248 2660 1246 2661 1244 2662 1241
 2663 1239 2664 1236 2665 1234 2666 1232
 2667 1229 2668 1227 2669 1224 2670 1222
 2671 1220 2672 1217 2673 1215 2674 1212
 2675 1210 2676 1208 2677 1205 2678 1203
 2679 1200 2680 1198 2681 1195 2681 1193
 2682 1191 2683 1188 2684 1186 2685 1183
 2686 1181 2687 1178 2688 1176 2689 1173
 2690 1171 2691 1169 2692 1166 2693 1164
 2694 1161 2695 1159 2696 1156 2696 1154
 2697 1151 2698 1149 2699 1146 2700 1144
 2701 1142 2702 1139 2703 1137 2704 1134
 2705 1132 2706 1129 2706 1127 2707 1124
 2708 1122 2709 1119 2710 1117 2711 1114
 2712 1112 2713 1109 2714 1107 3821 1107
 3821 1409 201 3 1 roll cnp
 0.93 setgray eofill 0.0 setgray 3821 1107
 2714 1107 2716 1108 2719 1108 2722 1109
 2724 1109 2727 1110 2730 1111 2732 1111
 2735 1112 2738 1113 2740 1113 2743 1114
 2746 1115 2748 1115 2751 1116 2753 1117
 2756 1117 2759 1118 2761 1119 2764 1120
 2766 1120 2769 1121 2772 1122 2774 1122
 2777 1123 2779 1124 2782 1124 2784 1125
 2787 1126 2789 1127 2792 1127 2795 1128
 2797 1129 2800 1129 2802 1130 2805 1131
 2807 1132 2810 1132 2812 1133 2815 1134
 2817 1135 2820 1135 2822 1136 2824 1137
 2827 1138 2829 1138 2832 1139 2834 1140
 2837 1141 2839 1141 2842 1142 2844 1143
 2846 1144 2849 1144 2851 1145 2854 1146
 2856 1147 2858 1147 2861 1148 2863 1149
 2865 1150 2868 1151 2870 1151 2872 1152
 2875 1153 2877 1154 2879 1154 2882 1155
 2884 1156 2886 1157 2889 1158 2891 1158
 2893 1159 2896 1160 2898 1161 2900 1162
 2902 1163 2905 1163 2907 1164 2909 1165
 2911 1166 2914 1167 2916 1167 2918 1168
 2920 1169 2923 1170 2925 1171 2927 1172
 2929 1172 2931 1173 2933 1174 2936 1175
 2938 1176 2940 1177 2942 1178 2944 1178
 2946 1179 2948 1180 2951 1181 2953 1182
 2952 1184 2950 1187 2949 1189 2948 1191
 2947 1194 2946 1196 2944 1199 2943 1201
 2942 1203 2941 1206 2940 1208 2938 1210
 2937 1213 2936 1215 2935 1218 2934 1220
 2932 1222 2931 1225 2930 1227 2929 1229
 2927 1232 2926 1234 2925 1236 2924 1239
 2922 1241 2921 1243 2920 1246 2919 1248
 2917 1250 2916 1253 2915 1255 2914 1258
 2912 1260 2911 1262 2910 1265 2909 1267
 2907 1269 2906 1271 2905 1274 2903 1276
 2902 1278 2901 1281 2900 1283 2898 1285
 2897 1288 2896 1290 2894 1292 2893 1295
 2892 1297 2890 1299 2889 1302 2888 1304
 2886 1306 2885 1308 2884 1311 2882 1313
 2881 1315 2880 1318 2878 1320 2877 1322
 2876 1324 2874 1327 2873 1329 2872 1331
 2870 1334 2869 1336 2868 1338 2866 1340
 2865 1343 2863 1345 2862 1347 2861 1349
 2859 1352 2858 1354 2857 1356 2855 1358
 2854 1361 2852 1363 2851 1365 2850 1367
 2848 1370 2847 1372 2845 1374 2844 1376
 2843 1378 2841 1381 2840 1383 2838 1385
 2837 1387 2835 1390 2834 1392 2833 1394
 2831 1396 2830 1398 2828 1401 2827 1403
 2825 1405 2824 1407 2823 1409 3821 1409
 3821 1107 201 3 1 roll cnp
 1.00 setgray eofill 0.0 setgray 0.0 setgray 2823 1409 2821 1409 2819 1408 2817 1407 2815 1406 2813 1406 2812 1405 2810 1404 2808 1403
 2806 1403 2804 1402 2802 1401 2800 1401 2798 1400 2796 1399 2795 1398 2793 1398
 2791 1397 2789 1396 2787 1396 2785 1395 2783 1394 2781 1393 2779 1393 2777 1392
 2775 1391 2773 1391 2771 1390 2769 1389 2767 1389 2765 1388 2763 1387 2761 1386
 2759 1386 2757 1385 2755 1384 2753 1384 2751 1383 2749 1382 2747 1382 2745 1381
 2743 1380 2741 1380 2739 1379 2737 1378 2735 1378 2733 1377 2731 1376 2729 1376
 2727 1375 2724 1374 2722 1374 2720 1373 2718 1372 2716 1372 2714 1371 2712 1371
 2710 1370 2708 1369 2705 1369 2703 1368 2701 1367 2699 1367 2697 1366 2695 1365
 2693 1365 2690 1364 2688 1364 2686 1363 2684 1362 2682 1362 2679 1361 2677 1360
 2675 1360 2673 1359 2671 1359 2668 1358 2666 1357 2664 1357 2662 1356 2659 1356
 2657 1355 2655 1354 2653 1354 2650 1353 2648 1353 2646 1352 2644 1352 2641 1351
 2639 1350 2637 1350 2635 1349 2632 1349 2630 1348 2628 1348 2625 1347 2623 1346
 2621 1346 2618 1345 2616 1345 2616 1345 2617 1342 101 rps
 2617 1342 2618 1340 2619 1338 2620 1335 2622 1333 2623 1331 2624 1329 2625 1326 2626 1324
 2627 1322 2628 1319 2629 1317 2630 1315 2631 1312 2632 1310 2633 1308 2634 1305
 2635 1303 2636 1301 2637 1298 2638 1296 2640 1293 2641 1291 2642 1289 2643 1286
 2644 1284 2645 1282 2646 1279 2647 1277 2648 1275 2649 1272 2650 1270 2651 1267
 2652 1265 2653 1263 2654 1260 2655 1258 2656 1256 2657 1253 2658 1251 2659 1248
 2660 1246 2661 1244 2662 1241 2663 1239 2664 1236 2665 1234 2666 1232 2667 1229
 2668 1227 2669 1224 2670 1222 2671 1220 2672 1217 2673 1215 2674 1212 2675 1210
 2676 1208 2677 1205 2678 1203 2679 1200 2680 1198 2681 1195 2681 1193 2682 1191
 2683 1188 2684 1186 2685 1183 2686 1181 2687 1178 2688 1176 2689 1173 2690 1171
 2691 1169 2692 1166 2693 1164 2694 1161 2695 1159 2696 1156 2696 1154 2697 1151
 2698 1149 2699 1146 2700 1144 2701 1142 2702 1139 2703 1137 2704 1134 2705 1132
 2706 1129 2706 1127 2707 1124 2708 1122 2709 1119 2710 1117 2711 1114 2712 1112
 2713 1109 2714 1107 98 rps
 2714 1107 2716 1108 2719 1108 2722 1109 2724 1109 2727 1110 2730 1111 2732 1111 2735 1112
 2738 1113 2740 1113 2743 1114 2746 1115 2748 1115 2751 1116 2753 1117 2756 1117
 2759 1118 2761 1119 2764 1120 2766 1120 2769 1121 2772 1122 2774 1122 2777 1123
 2779 1124 2782 1124 2784 1125 2787 1126 2789 1127 2792 1127 2795 1128 2797 1129
 2800 1129 2802 1130 2805 1131 2807 1132 2810 1132 2812 1133 2815 1134 2817 1135
 2820 1135 2822 1136 2824 1137 2827 1138 2829 1138 2832 1139 2834 1140 2837 1141
 2839 1141 2842 1142 2844 1143 2846 1144 2849 1144 2851 1145 2854 1146 2856 1147
 2858 1147 2861 1148 2863 1149 2865 1150 2868 1151 2870 1151 2872 1152 2875 1153
 2877 1154 2879 1154 2882 1155 2884 1156 2886 1157 2889 1158 2891 1158 2893 1159
 2896 1160 2898 1161 2900 1162 2902 1163 2905 1163 2907 1164 2909 1165 2911 1166
 2914 1167 2916 1167 2918 1168 2920 1169 2923 1170 2925 1171 2927 1172 2929 1172
 2931 1173 2933 1174 2936 1175 2938 1176 2940 1177 2942 1178 2944 1178 2946 1179
 2948 1180 2951 1181 2953 1182 2953 1182 2952 1184 101 rps
 2952 1184 2950 1187 2949 1189 2948 1191 2947 1194 2946 1196 2944 1199 2943 1201 2942 1203
 2941 1206 2940 1208 2938 1210 2937 1213 2936 1215 2935 1218 2934 1220 2932 1222
 2931 1225 2930 1227 2929 1229 2927 1232 2926 1234 2925 1236 2924 1239 2922 1241
 2921 1243 2920 1246 2919 1248 2917 1250 2916 1253 2915 1255 2914 1258 2912 1260
 2911 1262 2910 1265 2909 1267 2907 1269 2906 1271 2905 1274 2903 1276 2902 1278
 2901 1281 2900 1283 2898 1285 2897 1288 2896 1290 2894 1292 2893 1295 2892 1297
 2890 1299 2889 1302 2888 1304 2886 1306 2885 1308 2884 1311 2882 1313 2881 1315
 2880 1318 2878 1320 2877 1322 2876 1324 2874 1327 2873 1329 2872 1331 2870 1334
 2869 1336 2868 1338 2866 1340 2865 1343 2863 1345 2862 1347 2861 1349 2859 1352
 2858 1354 2857 1356 2855 1358 2854 1361 2852 1363 2851 1365 2850 1367 2848 1370
 2847 1372 2845 1374 2844 1376 2843 1378 2841 1381 2840 1383 2838 1385 2837 1387
 2835 1390 2834 1392 2833 1394 2831 1396 2830 1398 2828 1401 2827 1403 2825 1405
 2824 1407 2823 1409 98 rps
 2823 1409 2001 1645 2616 1345 2001 638 2714 290 2001 638 2714 1107 2001 638 2953 365
 2001 638 2953 1182 10 rps
 2714 1107 2714 290 1 rps
 2953 1182 2953 365 1 rps
 [20 20] 0 setdash
 2823 1409 2001 638 1 rps
 [] 0 setdash
 1849 548 1852 547 1855 547 1858 546 1862 546 1865 545 1868 545 1871 544 1874 543
 1877 543 1880 543 1884 542 1887 542 1890 541 1893 541 1897 540 1900 540
 1903 540 1906 539 1910 539 1913 538 1916 538 1920 538 1923 537 1926 537
 1930 537 1933 537 1937 536 1940 536 1943 536 1947 536 1950 535 1954 535
 1957 535 1960 535 1964 535 1967 535 1971 534 1974 534 1978 534 1981 534
 1985 534 1988 534 1992 534 1995 534 1999 534 2002 534 2006 534 2009 534
 2012 534 2016 534 2019 534 2023 534 2026 534 2030 534 2033 535 2037 535
 2040 535 2044 535 2047 535 2051 535 2054 536 2057 536 2061 536 2064 536
 2068 536 2071 537 2074 537 2078 537 2081 538 2084 538 2088 538 2091 539
 2094 539 2098 539 2101 540 2104 540 2108 541 2111 541 2114 541 2117 542
 2120 542 2124 543 2127 543 2130 544 2133 544 2136 545 2139 545 2142 546
 2145 546 2148 547 2152 548 2155 548 2158 549 2160 549 2163 550 2166 551
 2169 551 2172 552 2175 553 99 rps
 2262 510 2263 510 2264 511 2265 511 2266 511 2267 511 2268 512 2269 512 2270 512
 2271 512 2272 513 2273 513 2274 513 2275 513 2276 514 2277 514 2278 514
 2278 514 2279 515 2280 515 2281 515 2282 515 2283 516 2284 516 2285 516
 2286 516 2287 517 2288 517 2289 517 2290 517 2291 518 2292 518 2293 518
 2293 518 2294 519 2295 519 2296 519 2297 520 2298 520 2299 520 2300 520
 2301 521 2302 521 2303 521 2303 521 2304 522 2305 522 2306 522 2307 523
 2308 523 2309 523 2310 523 2311 524 2311 524 2312 524 2313 525 2314 525
 2315 525 2316 525 2317 526 2318 526 2318 526 2319 527 2320 527 2321 527
 2322 527 2323 528 2324 528 2324 528 2325 529 2326 529 2327 529 2328 529
 2329 530 2329 530 2330 530 2331 531 2332 531 2333 531 2334 532 2334 532
 2335 532 2336 532 2337 533 2338 533 2338 533 2339 534 2340 534 2341 534
 2342 535 2342 535 2343 535 2344 535 2345 536 2346 536 2346 536 2347 537
 2348 537 2349 537 2350 538 99 rps
 2001 923 2002 922 2004 921 2005 921 2007 920 2008 919 2009 918 2011 917 2012 917
 2013 916 2015 915 2016 914 2018 913 2019 912 2020 911 2022 911 2023 910
 2024 909 2026 908 2027 907 2028 906 2030 905 2031 904 2033 902 2034 901
 2035 900 2037 899 2038 898 2039 897 2041 896 2042 895 2043 893 2045 892
 2046 891 2047 890 2049 888 2050 887 2051 886 2053 885 2054 883 2055 882
 2057 881 2058 879 2059 878 2061 876 2062 875 2063 874 2064 872 2066 871
 2067 869 2068 868 2069 866 2071 865 2072 863 2073 862 2075 860 2076 858
 2077 857 2078 855 2079 854 2081 852 2082 850 2083 849 2084 847 2086 845
 2087 844 2088 842 2089 840 2090 838 2092 837 2093 835 2094 833 2095 831
 2096 830 2097 828 2099 826 2100 824 2101 822 2102 820 2103 819 2104 817
 2105 815 2106 813 2107 811 2109 809 2110 807 2111 805 2112 803 2113 801
 2114 799 2115 797 2116 795 2117 793 2118 791 2119 789 2120 787 2121 785
 2122 783 2123 781 2124 779 99 rps
 2186 850 2186 849 2186 848 2187 848 2187 847 2187 846 2187 846 2188 845 2188 844
 2188 844 2189 843 2189 842 2189 841 2190 841 2190 840 2190 839 2191 839
 2191 838 2191 837 2192 837 2192 836 2192 835 2193 834 2193 834 2193 833
 2193 832 2194 832 2194 831 2194 830 2195 829 2195 829 2195 828 2196 827
 2196 827 2196 826 2197 825 2197 824 2197 824 2197 823 2198 822 2198 822
 2198 821 2199 820 2199 819 2199 819 2200 818 2200 817 2200 817 2200 816
 2201 815 2201 814 2201 814 2202 813 2202 812 2202 812 2203 811 2203 810
 2203 809 2203 809 2204 808 2204 807 2204 806 2205 806 2205 805 2205 804
 2205 804 2206 803 2206 802 2206 801 2207 801 2207 800 2207 799 2207 798
 2208 798 2208 797 2208 796 2209 795 2209 795 2209 794 2209 793 2210 793
 2210 792 2210 791 2210 790 2211 790 2211 789 2211 788 2212 787 2212 787
 2212 786 2212 785 2213 784 2213 784 2213 783 2213 782 2214 781 2214 781
 2214 780 2215 779 2215 778 99 rps
 3518 638 3517 664 3517 691 3516 717 3514 743 3512 770 3509 796 3506 822 3503 849
 3499 875 3495 901 3490 927 3485 953 3479 979 3473 1004 3466 1030 3459 1056
 3451 1081 3443 1106 3435 1131 3426 1156 3417 1181 3407 1206 3397 1230 3387 1254
 3376 1278 3364 1302 3352 1326 3340 1349 3328 1373 3314 1396 3301 1419 3287 1441
 3273 1463 3258 1485 3243 1507 3228 1529 3212 1550 3196 1571 3180 1592 3163 1612
 3146 1632 3128 1652 3110 1672 3092 1691 3073 1710 3055 1728 3035 1746 3016 1764
 2996 1782 2976 1799 2955 1816 2935 1832 2914 1848 2892 1864 2871 1880 2849 1895
 2827 1909 2805 1923 2782 1937 2759 1951 2736 1964 2713 1976 2690 1989 2666 2000
 2642 2012 2618 2023 2594 2033 2569 2043 2545 2053 2520 2062 2495 2071 2470 2080
 2444 2088 2419 2095 2394 2102 2368 2109 2342 2115 2316 2121 2290 2126 2264 2131
 2238 2135 2212 2139 2186 2142 2160 2145 2133 2148 2107 2150 2080 2152 2054 2153
 2027 2154 2001 2154 1975 2154 1948 2153 1922 2152 1895 2150 1869 2148 1842 2145
 1816 2142 1790 2139 1764 2135 1738 2131 1712 2126 101 rps
 1712 2126 1686 2121 1660 2115 1634 2109 1608 2102 1583 2095 1558 2088 1532 2080 1507 2071
 1482 2062 1457 2053 1433 2043 1408 2033 1384 2023 1360 2012 1336 2000 1312 1989
 1289 1976 1266 1964 1243 1951 1220 1937 1197 1923 1175 1909 1153 1895 1131 1880
 1110 1864 1088 1848 1067 1832 1047 1816 1026 1799 1006 1782 986 1764 967 1746
 947 1728 929 1710 910 1691 892 1672 874 1652 856 1632 839 1612 822 1592
 806 1571 790 1550 774 1529 759 1507 744 1485 729 1463 715 1441 701 1419
 688 1396 674 1373 662 1349 650 1326 638 1302 626 1278 615 1254 605 1230
 595 1206 585 1181 576 1156 567 1131 559 1106 551 1081 543 1056 536 1030
 529 1004 523 979 517 953 512 927 507 901 503 875 499 849 496 822
 493 796 490 770 488 743 486 717 485 691 485 664 484 638 79 rps
 [20 20] 0 setdash
 3518 638 3517 647 3517 656 3516 665 3514 674 3512 683 3509 692 3506 701 3503 710
 3499 719 3495 728 3490 737 3485 745 3479 754 3473 763 3466 772 3459 781
 3451 789 3443 798 3435 806 3426 815 3417 823 3407 832 3397 840 3387 849
 3376 857 3364 865 3352 873 3340 881 3328 889 3314 897 3301 905 3287 912
 3273 920 3258 928 3243 935 3228 942 3212 950 3196 957 3180 964 3163 971
 3146 978 3128 985 3110 991 3092 998 3073 1004 3055 1011 3035 1017 3016 1023
 2996 1029 49 rps
 1975 1156 1948 1156 1922 1155 1895 1155 1869 1154 1842 1153 1816 1152 1790 1151 1764 1150
 1738 1148 1712 1147 1686 1145 1660 1143 1634 1141 1608 1139 1583 1136 1558 1134
 1532 1131 1507 1128 1482 1125 1457 1122 1433 1118 1408 1115 1384 1111 1360 1108
 1336 1104 1312 1100 1289 1096 1266 1091 1243 1087 1220 1082 1197 1077 1175 1073
 1153 1068 1131 1062 1110 1057 1088 1052 1067 1046 1047 1041 1026 1035 1006 1029
 986 1023 967 1017 947 1011 929 1004 910 998 892 991 874 985 856 978
 839 971 822 964 806 957 790 950 774 942 759 935 744 928 729 920
 715 912 701 905 688 897 674 889 662 881 650 873 638 865 626 857
 615 849 605 840 595 832 585 823 576 815 567 806 559 798 551 789
 543 781 536 772 529 763 523 754 517 745 512 737 507 728 503 719
 499 710 496 701 493 692 490 683 488 674 486 665 485 656 485 647
 484 638 89 rps
 [] 0 setdash
 484 638 485 629 485 620 486 611 488 601 490 592 493 583 496 574 499 565
 503 557 507 548 512 539 517 530 523 521 529 512 536 503 543 495
 551 486 559 477 567 469 576 460 585 452 595 443 605 435 615 427
 626 419 638 410 650 402 662 394 674 386 688 378 701 371 715 363
 729 355 744 348 759 340 774 333 790 326 806 318 822 311 839 304
 856 297 874 291 892 284 910 277 929 271 947 265 967 258 986 252
 1006 246 1026 240 1047 235 1067 229 1088 224 1110 218 1131 213 1153 208
 1175 203 1197 198 1220 193 1243 189 1266 184 1289 180 1312 176 1336 172
 1360 168 1384 164 1408 160 1433 157 1457 154 1482 150 1507 147 1532 145
 1558 142 1583 139 1608 137 1634 135 1660 132 1686 130 1712 129 1738 127
 1764 126 1790 124 1816 123 1842 122 1869 121 1895 120 1922 120 1948 119
 1975 119 2001 119 2027 119 2054 119 2080 120 2107 120 2133 121 2160 122
 2186 123 2212 124 2238 126 2264 127 2290 129 101 rps
 2290 129 2316 130 2342 132 2368 135 2394 137 2419 139 2444 142 2470 145 2495 147
 2520 150 2545 154 2569 157 2594 160 2618 164 2642 168 2666 172 2690 176
 2713 180 2736 184 2759 189 2782 193 2805 198 2827 203 2849 208 2871 213
 2892 218 2914 224 2935 229 2955 235 2976 240 2996 246 3016 252 3035 258
 3055 265 3073 271 3092 277 3110 284 3128 291 3146 297 3163 304 3180 311
 3196 318 3212 326 3228 333 3243 340 3258 348 3273 355 3287 363 3301 371
 3314 378 3328 386 3340 394 3352 402 3364 410 3376 419 3387 427 3397 435
 3407 443 3417 452 3426 460 3435 469 3443 477 3451 486 3459 495 3466 503
 3473 512 3479 521 3485 530 3490 539 3495 548 3499 557 3503 565 3506 574
 3509 583 3512 592 3514 601 3516 611 3517 620 3517 629 3518 638 79 rps

/Symbol findfont 124 scalefont setfont
 1983 441 moveto  (f) show 
 2074 941 moveto  (q) show 

/Times-Italic axumfindfont 128 scalefont setfont
 2561 363 moveto  (d) show 

/Symbol findfont 124 scalefont setfont
 2624 363 moveto  (f) show 

/Times-Italic axumfindfont 128 scalefont setfont
 2456 955 moveto  40 rotate (d) show  -40 rotate

/Symbol findfont 124 scalefont setfont
 2504 996 moveto  40 rotate (q) show  -40 rotate

/Times-Italic axumfindfont 128 scalefont setfont
 1587 400 moveto  (x) show 
 3257 609 moveto  (y) show 
 2065 1961 moveto  (z) show 
 2124 1733 moveto  (R) show 

/Times-Roman axumfindfont 124 scalefont setfont
 2202 1733 moveto  (\() show 

/Times-Italic axumfindfont 128 scalefont setfont
 2244 1733 moveto  (t) show 

/Times-Roman axumfindfont 124 scalefont setfont
 2279 1733 moveto  (\) ) show 

/Symbol findfont 124 scalefont setfont
 2353 1733 moveto  (v ) show 

/Times-Roman axumfindfont 124 scalefont setfont
 2472 1733 moveto  (sin) show 

/Symbol findfont 124 scalefont setfont
 2619 1733 moveto  (q ) show 

/Times-Italic axumfindfont 128 scalefont setfont
 2714 1733 moveto  (d) show 

/Symbol findfont 124 scalefont setfont
 2778 1733 moveto  (f) show 

/Times-Italic axumfindfont 128 scalefont setfont
 2962 1046 moveto  (R) show 

/Times-Roman axumfindfont 124 scalefont setfont
 3040 1046 moveto  (\() show 

/Times-Italic axumfindfont 128 scalefont setfont
 3082 1046 moveto  (t) show 

/Times-Roman axumfindfont 124 scalefont setfont
 3117 1046 moveto  (\) ) show 

/Symbol findfont 124 scalefont setfont
 3191 1046 moveto  (v ) show 

/Times-Roman axumfindfont 124 scalefont setfont
 3310 1046 moveto  (d) show 

/Symbol findfont 124 scalefont setfont
 3373 1046 moveto  (q) show 
 2001 636 2001 2001 1 rps
 2023 1911 2001 2001 1 rps
 1978 1911 2001 2001 1 rps
 2966 636 3212 636 1 rps
 3122 613 3212 636 1 rps
 3122 658 3212 636 1 rps
 2001 636 1697 459 1 rps
 1763 523 1697 459 1 rps
 1786 484 1697 459 1 rps
 2092 536 2174 555 1 rps
 2502 1669 2707 1383 1 rps
 2930 1305 2898 1301 1 rps
 2001 636 2698 636 1 rps
 2730 636 2939 636 1 rps
 3199 1180 3198 1183 3196 1187 3194 1190 3193 1193 3191 1196 3189 1199 3187 1202 3186 1205
 3184 1208 3182 1211 3180 1214 3177 1217 3175 1220 3173 1223 3171 1226 3169 1229
 3166 1232 3164 1234 3162 1237 3159 1240 3157 1242 3154 1245 3152 1247 3149 1250
 3147 1252 3144 1255 3141 1257 3138 1259 3136 1262 3133 1264 3130 1266 3127 1268
 3124 1271 3121 1273 3118 1275 3115 1277 3112 1279 3109 1280 3106 1282 3103 1284
 3100 1286 3097 1288 3093 1289 3090 1291 3087 1292 3084 1294 3080 1295 3077 1297
 3074 1298 3070 1299 3067 1301 3064 1302 3060 1303 3057 1304 3053 1305 3050 1306
 3046 1307 3043 1308 3039 1308 3036 1309 3032 1310 3029 1311 3025 1311 3022 1312
 3018 1312 3014 1313 3011 1313 3007 1313 3004 1314 3000 1314 2996 1314 2993 1314
 2989 1314 2987 1314 2983 1314 2979 1314 2976 1314 2972 1313 2969 1313 2965 1313
 2961 1312 2958 1312 2954 1311 2951 1311 2947 1310 2944 1309 2940 1309 2937 1308
 2933 1307 2930 1306 2926 1305 2923 1304 2919 1303 2916 1302 2912 1301 2909 1299
 2906 1298 2902 1297 2899 1295 2896 1294 100 rps
 2106 809 2124 778 1 rps
 grestore showpage
%Trailer
%EOF
