%!PS-Adobe-2.0 EPSF-1.2
%%BoundingBox: 0 0 468 360
%%%%DocumentFonts: /Helvetica
%%Title: Axum PostScript file
%%Creator: TriMetrix, Inc.
%%Pages: 1
%%EndComments
% Copyright 1988-1991 by TriMetrix, Inc. All rights reserved.
/downdict 4 dict def
/sdown
 {downdict begin
  /thestring exch def
  /lineskip exch def
  thestring
   {
    /charcode exch def
    /thechar ( ) dup 0 charcode put def
    0 lineskip neg rmoveto
    gsave
     thechar stringwidth pop 2 div neg 0 rmoveto
     thechar show
    grestore
   } forall
   end
  } def

/updict 4 dict def
/sup
 {updict begin
  /thestring exch def
  /lineskip exch def
  thestring 
   {
    /charcode exch def
    /thechar ( ) dup 0 charcode put def
    0 lineskip rmoveto
    gsave
     thechar stringwidth pop 2 div neg 0 rmoveto
     thechar show
    grestore
   } forall
   end
  } def

/leftdict 4 dict def
/sleft
 {leftdict begin
  /thestring exch def
  thestring
   {
    /charcode exch def
    /thechar ( ) dup 0 charcode put def
    gsave
     thechar stringwidth pop neg 0 rmoveto
     thechar show
    grestore
   } forall

   thechar stringwidth pop neg 0 rmoveto
   end
  } def

/path{newpath moveto{lineto}repeat} bind def 
/cnp{newpath moveto{lineto}repeat closepath} bind def
/clp{moveto{lineto}repeat closepath} bind def
/rps{ 3 1 roll path stroke} bind def
/rcs{ 3 1 roll clp stroke} bind def
/setF { currentscreen 4 -2 roll pop 3 1 roll setscreen} bind def
% required due to WinWord 2.0 bug:
/II { } def

/reencodedict 5 dict def
/reencode
{
   reencodedict begin
   /newencoding exch def
   /newfontname exch def
   /basefontname exch def

   /basefontdict basefontname findfont def
   /newfont basefontdict maxlength dict def

   basefontdict
   {
      exch dup dup /FID ne exch /Encoding ne and
      { exch newfont 3 1 roll put }
      { pop pop }
      ifelse
   }
   forall

   newfont /FontName newfontname put
   newfont /Encoding newencoding put
   newfontname newfont definefont pop
   end
}
def

/axumencoding
[
/.notdef        %   0
/.notdef        %   1
/.notdef        %   2
/.notdef        %   3
/.notdef        %   4
/.notdef        %   5
/.notdef        %   6
/.notdef        %   7
/.notdef        %   8
/.notdef        %   9
/.notdef        %  10
/.notdef        %  11
/.notdef        %  12
/.notdef        %  13
/.notdef        %  14
/.notdef        %  15
/.notdef        %  16
/.notdef        %  17
/.notdef        %  18
/.notdef        %  19
/.notdef        %  20
/.notdef        %  21
/.notdef        %  22
/.notdef        %  23
/.notdef        %  24
/.notdef        %  25
/.notdef        %  26
/.notdef        %  27
/.notdef        %  28
/.notdef        %  29
/.notdef        %  30
/.notdef        %  31
/space          %  32
/exclam         %  33
/quotedbl       %  34
/numbersign     %  35
/dollar         %  36
/percent        %  37
/ampersand      %  38
/quoteright     %  39
/parenleft      %  40
/parenright     %  41
/asterisk       %  42
/plus           %  43
/comma          %  44
/hyphen         %  45
/period         %  46
/slash          %  47
/zero           %  48
/one            %  49
/two            %  50
/three          %  51
/four           %  52
/five           %  53
/six            %  54
/seven          %  55
/eight          %  56
/nine           %  57
/colon          %  58
/semicolon      %  59
/less           %  60
/equal          %  61
/greater        %  62
/question       %  63
/at             %  64
/A              %  65
/B              %  66
/C              %  67
/D              %  68
/E              %  69
/F              %  70
/G              %  71
/H              %  72
/I              %  73
/J              %  74
/K              %  75
/L              %  76
/M              %  77
/N              %  78
/O              %  79
/P              %  80
/Q              %  81
/R              %  82
/S              %  83
/T              %  84
/U              %  85
/V              %  86
/W              %  87
/X              %  88
/Y              %  89
/Z              %  90
/bracketleft    %  91
/backslash      %  92
/bracketright   %  93
/asciicircum    %  94
/underscore     %  95
/quoteleft      %  96
/a              %  97
/b              %  98
/c              %  99
/d              % 100
/e              % 101
/f              % 102
/g              % 103
/h              % 104
/i              % 105
/j              % 106
/k              % 107
/l              % 108
/m              % 109
/n              % 110
/o              % 111
/p              % 112
/q              % 113
/r              % 114
/s              % 115
/t              % 116
/u              % 117
/v              % 118
/w              % 119
/x              % 120
/y              % 121
/z              % 122
/braceleft      % 123
/bar            % 124
/braceright     % 125
/asciitilde     % 126
/.notdef        % 127
/Ccedilla       % 128
/udieresis      % 129
/eacute         % 130
/acircumflex    % 131
/adieresis      % 132
/agrave         % 133
/aring          % 134
/ccedilla       % 135
/ecircumflex    % 136
/edieresis      % 137
/egrave         % 138
/idieresis      % 139
/icircumflex    % 140
/igrave         % 141
/Adieresis      % 142
/Aring          % 143
/Eacute         % 144
/ae             % 145
/AE             % 146
/ocircumflex    % 147
/odieresis      % 148
/ograve         % 149
/ucircumflex    % 150
/ugrave         % 151
/ydieresis      % 152
/Odieresis      % 153
/Udieresis      % 154
/cent           % 155
/sterling       % 156
/yen            % 157
/currency       % 158
/florin         % 159
/aacute         % 160
/iacute         % 161
/oacute         % 162
/uacute         % 163
/ntilde         % 164
/Ntilde         % 165
/ordfeminine    % 166
/ordmasculine   % 167
/questiondown   % 168
/quotedblleft   % 169
/quotedblright  % 170
/Aacute         % 171
/Acircumflex    % 172
/exclamdown     % 173
/Egrave         % 174
/Ecircumflex    % 175
/atilde         % 176
/otilde         % 177
/Edieresis      % 178
/Igrave         % 179
/oe             % 180
/OE             % 181
/Agrave         % 182
/Atilde         % 183
/Otilde         % 184
/section        % 185
/Iacute         % 186
/Icircumflex    % 187
/Idieresis      % 188
/Ograve         % 189
/Oacute         % 190
/Ocircumflex    % 191
/Ugrave         % 192
/Uacute         % 193
/Ucircumflex    % 194
/Ydieresis      % 195
/germandbls     % 196
/guillemotleft  % 197
/guillemotright % 198
/bullet         % 199
/.notdef        % 200
/.notdef        % 201
/.notdef        % 202
/.notdef        % 203
/.notdef        % 204
/.notdef        % 205
/.notdef        % 206
/.notdef        % 207
/.notdef        % 208
/.notdef        % 209
/.notdef        % 210
/.notdef        % 211
/.notdef        % 212
/.notdef        % 213
/.notdef        % 214
/.notdef        % 215
/.notdef        % 216
/.notdef        % 217
/.notdef        % 218
/.notdef        % 219
/.notdef        % 220
/.notdef        % 221
/.notdef        % 222
/.notdef        % 223
/.notdef        % 224
/.notdef        % 225
/.notdef        % 226
/.notdef        % 227
/.notdef        % 228
/.notdef        % 229
/.notdef        % 230
/.notdef        % 231
/.notdef        % 232
/.notdef        % 233
/.notdef        % 234
/.notdef        % 235
/.notdef        % 236
/.notdef        % 237
/.notdef        % 238
/.notdef        % 239
/.notdef        % 240
/.notdef        % 241
/.notdef        % 242
/.notdef        % 243
/.notdef        % 244
/.notdef        % 245
/.notdef        % 246
/.notdef        % 247
/.notdef        % 248
/.notdef        % 249
/.notdef        % 250
/.notdef        % 251
/.notdef        % 252
/.notdef        % 253
/.notdef        % 254
/.notdef        % 255
] 
def

/axumfindfont
{
   /axumfont axumencoding reencode
   /axumfont findfont
}
def


/MainFont /Helvetica axumfindfont 98 scalefont def
MainFont setfont
1 setlinejoin 0 setlinecap 0 setgray
 gsave 72 630 div dup scale
 [] 0 setdash

1 setlinewidth
 3244 1565
 3242 1625 3238 1684 3230 1744 3220 1803
 3207 1861 3190 1919 3171 1975 3149 2031
 3125 2086 3097 2139 3067 2191 3035 2241
 3000 2289 2962 2336 2923 2381 2881 2424
 2837 2464 2791 2503 2743 2539 2694 2572
 2643 2603 2590 2632 2536 2658 2481 2681
 2424 2701 2367 2718 2309 2733 2250 2745
 2191 2753 2132 2759 2072 2762 2012 2761
 1952 2758 1893 2752 1834 2743 1775 2731
 1717 2716 1660 2698 1604 2677 1549 2653
 1495 2627 1443 2598 1392 2567 1343 2533
 1295 2496 1250 2458 1206 2417 1164 2373
 1125 2328 1088 2281 1053 2233 1021 2182
 992 2130 965 2077 941 2022 919 1966
 901 1909 885 1851 872 1793 862 1734
 855 1674 851 1615 850 1555 852 1495
 857 1435 865 1376 876 1317 890 1259
 907 1202 926 1145 949 1090 974 1035
 1001 982 1032 931 1065 881 1100 833
 1138 786 1178 742 1220 699 1265 659
 1311 621 1359 586 1409 552 1460 522
 1513 494 1567 468 1623 446 1679 426
 1737 409 1795 395 1853 384 1913 376
 1972 370 2032 368 2092 369 2152 373
 2211 379 2270 389 2329 402 2387 417
 2443 436 2499 457 2554 481 2608 508
 2660 537 2711 569 2760 603 2807 640
 2852 679 2895 721 2936 764 2975 809
 3012 857 3046 906 3078 957 3107 1009
 3133 1063 3157 1117 3178 1174 3196 1231
 3212 1288 3224 1347 3233 1406 3240 1466
 3243 1525 3244 1565 126 3 1 roll cnp
 0.93 setgray eofill 0.0 setgray 3005 1565
 3003 1613 3000 1661 2994 1708 2985 1755
 2975 1802 2962 1848 2946 1893 2929 1938
 2909 1981 2887 2024 2863 2065 2837 2106
 2809 2144 2779 2182 2748 2218 2714 2252
 2679 2284 2642 2315 2604 2344 2564 2371
 2523 2396 2481 2418 2438 2439 2394 2457
 2349 2474 2303 2488 2257 2499 2210 2509
 2162 2516 2115 2520 2067 2522 2019 2522
 1971 2520 1924 2515 1876 2507 1829 2497
 1783 2485 1737 2471 1693 2455 1649 2436
 1606 2415 1564 2392 1523 2366 1483 2339
 1445 2310 1409 2279 1374 2246 1341 2212
 1309 2176 1280 2138 1252 2099 1226 2059
 1203 2017 1181 1974 1162 1930 1145 1886
 1130 1840 1117 1794 1107 1747 1099 1700
 1093 1653 1090 1605 1089 1557 1091 1509
 1095 1461 1101 1414 1110 1367 1121 1320
 1135 1274 1150 1229 1168 1185 1188 1141
 1211 1099 1235 1058 1261 1018 1290 979
 1320 942 1352 906 1386 873 1421 840
 1458 810 1497 781 1536 755 1578 730
 1620 708 1663 688 1708 670 1753 654
 1799 640 1845 629 1892 620 1940 614
 1987 609 2035 608 2083 608 2131 611
 2178 617 2226 624 2272 634 2319 647
 2364 662 2409 678 2453 698 2496 719
 2537 743 2578 768 2617 796 2655 825
 2691 856 2726 889 2758 924 2790 961
 2819 998 2846 1038 2872 1078 2895 1120
 2916 1163 2935 1207 2952 1252 2966 1297
 2979 1344 2989 1391 2996 1438 3001 1485
 3004 1533 3005 1565 126 3 1 roll cnp
 1.00 setgray eofill 0.0 setgray 0.0 setgray 3244 1565 3242 1625 3238 1684 3230 1744 3220 1803 3207 1861 3190 1919 3171 1975 3149 2031
 3125 2086 3097 2139 3067 2191 3035 2241 3000 2289 2962 2336 2923 2381 2881 2424
 2837 2464 2791 2503 2743 2539 2694 2572 2643 2603 2590 2632 2536 2658 2481 2681
 2424 2701 2367 2718 2309 2733 2250 2745 2191 2753 2132 2759 2072 2762 2012 2761
 1952 2758 1893 2752 1834 2743 1775 2731 1717 2716 1660 2698 1604 2677 1549 2653
 1495 2627 1443 2598 1392 2567 1343 2533 1295 2496 1250 2458 1206 2417 1164 2373
 1125 2328 1088 2281 1053 2233 1021 2182 992 2130 965 2077 941 2022 919 1966
 901 1909 885 1851 872 1793 862 1734 855 1674 851 1615 850 1555 852 1495
 857 1435 865 1376 876 1317 890 1259 907 1202 926 1145 949 1090 974 1035
 1001 982 1032 931 1065 881 1100 833 1138 786 1178 742 1220 699 1265 659
 1311 621 1359 586 1409 552 1460 522 1513 494 1567 468 1623 446 1679 426
 1737 409 1795 395 1853 384 1913 376 1972 370 2032 368 2092 369 2152 373
 2211 379 2270 389 2329 402 2387 417 2443 436 101 rps
 2443 436 2499 457 2554 481 2608 508 2660 537 2711 569 2760 603 2807 640 2852 679
 2895 721 2936 764 2975 809 3012 857 3046 906 3078 957 3107 1009 3133 1063
 3157 1117 3178 1174 3196 1231 3212 1288 3224 1347 3233 1406 3240 1466 3243 1525
 24 rps
 3005 1565 3003 1613 3000 1661 2994 1708 2985 1755 2975 1802 2962 1848 2946 1893 2929 1938
 2909 1981 2887 2024 2863 2065 2837 2106 2809 2144 2779 2182 2748 2218 2714 2252
 2679 2284 2642 2315 2604 2344 2564 2371 2523 2396 2481 2418 2438 2439 2394 2457
 2349 2474 2303 2488 2257 2499 2210 2509 2162 2516 2115 2520 2067 2522 2019 2522
 1971 2520 1924 2515 1876 2507 1829 2497 1783 2485 1737 2471 1693 2455 1649 2436
 1606 2415 1564 2392 1523 2366 1483 2339 1445 2310 1409 2279 1374 2246 1341 2212
 1309 2176 1280 2138 1252 2099 1226 2059 1203 2017 1181 1974 1162 1930 1145 1886
 1130 1840 1117 1794 1107 1747 1099 1700 1093 1653 1090 1605 1089 1557 1091 1509
 1095 1461 1101 1414 1110 1367 1121 1320 1135 1274 1150 1229 1168 1185 1188 1141
 1211 1099 1235 1058 1261 1018 1290 979 1320 942 1352 906 1386 873 1421 840
 1458 810 1497 781 1536 755 1578 730 1620 708 1663 688 1708 670 1753 654
 1799 640 1845 629 1892 620 1940 614 1987 609 2035 608 2083 608 2131 611
 2178 617 2226 624 2272 634 2319 647 2364 662 101 rps
 2364 662 2409 678 2453 698 2496 719 2537 743 2578 768 2617 796 2655 825 2691 856
 2726 889 2758 924 2790 961 2819 998 2846 1038 2872 1078 2895 1120 2916 1163
 2935 1207 2952 1252 2966 1297 2979 1344 2989 1391 2996 1438 3001 1485 3004 1533
 24 rps
 850 1565 852 1542 859 1519 871 1496 887 1473 907 1451 931 1430 959 1409 991 1389
 1026 1370 1063 1352 1103 1335 1145 1319 1190 1304 1235 1290 1282 1278 1330 1266
 1378 1255 1427 1245 1476 1237 1525 1229 1574 1222 1622 1216 1669 1210 1716 1206
 1762 1202 1808 1199 1852 1196 1895 1194 1937 1193 1978 1192 2018 1191 2056 1191
 2094 1192 2130 1192 2165 1193 2199 1194 2232 1196 2264 1197 2295 1199 2324 1201
 2353 1204 2380 1206 2407 1209 2433 1211 2457 1214 2481 1217 2504 1220 2526 1223
 2548 1226 2568 1229 2588 1232 2607 1235 2626 1238 2644 1241 2661 1244 2677 1247
 2693 1250 2709 1254 2724 1257 2738 1260 2752 1263 2765 1266 2778 1269 2791 1272
 2803 1275 2815 1278 2826 1281 2837 1284 2847 1287 2858 1290 2867 1293 2877 1296
 2886 1299 2895 1301 2904 1304 2912 1307 2921 1310 2929 1312 2936 1315 2944 1317
 2951 1320 2958 1323 2965 1325 2971 1328 2978 1330 2984 1332 2990 1335 2996 1337
 3001 1339 3007 1342 3012 1344 3018 1346 3023 1348 3028 1351 3032 1353 3037 1355
 3042 1357 3046 1359 3050 1361 3055 1363 3059 1365 101 rps
 3059 1365 3063 1367 3066 1369 3070 1371 3074 1373 3078 1375 3081 1377 3084 1379 3088 1380
 3091 1382 3094 1384 3097 1386 3100 1388 3103 1389 3106 1391 3109 1393 3112 1394
 3114 1396 3117 1398 3120 1399 3122 1401 3125 1402 3127 1404 3129 1405 3132 1407
 3134 1408 3136 1410 3138 1411 3140 1413 3142 1414 3144 1416 3146 1417 3148 1418
 3150 1420 3152 1421 3154 1423 3155 1424 3157 1425 3159 1427 3160 1428 3162 1429
 3164 1430 3165 1432 3167 1433 3168 1434 3170 1435 3171 1437 3172 1438 3174 1439
 3175 1440 3177 1441 3178 1443 3179 1444 3180 1445 3182 1446 3183 1447 3184 1448
 3185 1449 3186 1450 3187 1451 3188 1453 3190 1454 3191 1455 3192 1456 3193 1457
 3194 1458 3195 1459 3196 1460 3197 1461 3197 1462 3198 1463 3199 1464 3200 1465
 3201 1466 3202 1467 3203 1468 3204 1469 3204 1470 3205 1471 3206 1472 3207 1472
 3207 1473 3208 1474 3209 1475 3210 1476 3210 1477 3211 1478 3212 1479 3212 1480
 3213 1481 3214 1481 3214 1482 3215 1483 3215 1484 3216 1485 3217 1486 3217 1486
 3218 1487 3218 1488 3219 1489 3219 1490 3220 1491 101 rps
 3220 1491 3220 1491 3221 1492 3221 1493 3222 1494 3222 1495 3223 1495 3223 1496 3224 1497
 3224 1498 3225 1498 3225 1499 3226 1500 3226 1501 3227 1501 3227 1502 3227 1503
 3228 1504 3228 1504 3229 1505 3229 1506 3229 1507 3230 1507 3230 1508 3230 1509
 3231 1510 3231 1510 3231 1511 3232 1512 3232 1512 3232 1513 3233 1514 3233 1515
 3233 1515 3234 1516 3234 1517 3234 1517 3234 1518 3235 1519 3235 1519 3235 1520
 3235 1521 3236 1521 3236 1522 3236 1523 3236 1523 3237 1524 3237 1525 3237 1525
 3237 1526 3238 1527 3238 1527 3238 1528 3238 1529 3238 1529 3239 1530 3239 1531
 3239 1531 3239 1532 3239 1532 3240 1533 3240 1534 3240 1534 3240 1535 3240 1536
 3240 1536 3241 1537 3241 1538 3241 1538 3241 1539 3241 1539 3241 1540 3241 1541
 3242 1541 3242 1542 3242 1543 3242 1543 3242 1544 3242 1544 3242 1545 3242 1546
 3242 1546 3243 1547 3243 1547 3243 1548 3243 1549 3243 1549 3243 1550 3243 1550
 3243 1551 3243 1552 3243 1552 3243 1553 3243 1554 3243 1554 3243 1555 3244 1555
 3244 1556 3244 1557 3244 1557 3244 1558 3244 1558 101 rps
 3244 1558 3244 1559 3244 1560 3244 1560 3244 1561 3244 1561 3244 1562 3244 1563 3244 1563
 3244 1564 3244 1564 3244 1565 11 rps
 [40 20] 0 setdash
 3244 1565 3244 1566 3244 1566 3244 1567 3244 1567 3244 1568 3244 1569 3244 1569 3244 1570
 3244 1570 3244 1571 3244 1572 3244 1572 3244 1573 3244 1573 3244 1574 3244 1575
 3243 1575 3243 1576 3243 1576 3243 1577 3243 1578 3243 1578 3243 1579 3243 1579
 3243 1580 3243 1581 3243 1581 3243 1582 3243 1582 3243 1583 3242 1584 3242 1584
 3242 1585 3242 1586 3242 1586 3242 1587 3242 1587 3242 1588 3242 1589 3241 1589
 3241 1590 3241 1590 3241 1591 3241 1592 3241 1592 3241 1593 3240 1594 3240 1594
 3240 1595 3240 1596 3240 1596 3240 1597 3239 1597 3239 1598 3239 1599 3239 1599
 3239 1600 3238 1601 3238 1601 3238 1602 3238 1603 3238 1603 3237 1604 3237 1605
 3237 1605 3237 1606 3237 1607 3236 1607 3236 1608 3236 1609 3236 1609 3235 1610
 3235 1611 3235 1611 3234 1612 3234 1613 3234 1613 3234 1614 3233 1615 3233 1615
 3233 1616 3232 1617 3232 1617 3232 1618 3231 1619 3231 1620 3231 1620 3230 1621
 3230 1622 3230 1622 3229 1623 3229 1624 3229 1625 3228 1625 3228 1626 3227 1627
 3227 1628 3227 1628 3226 1629 3226 1630 3225 1631 101 rps
 3225 1631 3225 1631 3224 1632 3224 1633 3224 1634 3223 1635 3223 1635 3222 1636 3222 1637
 3221 1638 3221 1638 3220 1639 3220 1640 3219 1641 3218 1642 3218 1643 3217 1643
 3217 1644 3216 1645 3216 1646 3215 1647 3214 1648 3214 1648 3213 1649 3212 1650
 3212 1651 3211 1652 3210 1653 3210 1654 3209 1655 3208 1656 3208 1656 3207 1657
 3206 1658 3205 1659 3204 1660 3204 1661 3203 1662 3202 1663 3201 1664 3200 1665
 3199 1666 3199 1667 3198 1668 3197 1669 3196 1670 3195 1671 3194 1672 3193 1673
 3192 1674 3191 1675 3190 1676 3189 1677 3188 1678 3186 1679 3185 1681 3184 1682
 3183 1683 3182 1684 3181 1685 3179 1686 3178 1687 3177 1688 3175 1690 3174 1691
 3173 1692 3171 1693 3170 1694 3168 1696 3167 1697 3165 1698 3164 1699 3162 1701
 3161 1702 3159 1703 3157 1705 3156 1706 3154 1707 3152 1709 3150 1710 3148 1711
 3146 1713 3145 1714 3143 1716 3141 1717 3138 1718 3136 1720 3134 1721 3132 1723
 3130 1724 3127 1726 3125 1727 3122 1729 3120 1731 3117 1732 3115 1734 3112 1735
 3109 1737 3107 1739 3104 1740 3101 1742 3098 1744 101 rps
 3098 1744 3095 1746 3092 1747 3088 1749 3085 1751 3082 1753 3078 1755 3075 1757 3071 1759
 3067 1761 3063 1762 3059 1764 3055 1766 3051 1768 3047 1771 3042 1773 3038 1775
 3033 1777 3028 1779 3023 1781 3018 1783 3013 1786 3008 1788 3002 1790 2997 1793
 2991 1795 2985 1797 2979 1800 2972 1802 2966 1805 2959 1807 2952 1810 2945 1812
 2937 1815 2930 1817 2922 1820 2914 1823 2905 1825 2897 1828 2888 1831 2879 1834
 2869 1837 2859 1840 2849 1842 2839 1845 2828 1848 2816 1851 2805 1854 2793 1857
 2780 1860 2767 1863 2754 1867 2740 1870 2726 1873 2711 1876 2696 1879 2680 1882
 2663 1885 2646 1889 2629 1892 2610 1895 2591 1898 2571 1901 2551 1904 2530 1907
 2508 1910 2485 1913 2461 1916 2437 1918 2411 1921 2385 1924 2357 1926 2329 1928
 2299 1930 2269 1932 2237 1934 2205 1935 2171 1937 2136 1938 2100 1938 2062 1939
 2024 1939 1984 1938 1944 1937 1902 1936 1859 1934 1815 1932 1770 1929 1724 1925
 1677 1920 1629 1915 1581 1909 1533 1902 1484 1895 1435 1886 1386 1877 1338 1866
 1290 1854 1243 1842 1197 1828 1152 1813 1110 1797 101 rps
 1110 1797 1069 1781 1031 1763 996 1744 964 1724 936 1704 911 1682 890 1660 873 1638
 861 1615 853 1592 850 1569 11 rps
 [] 0 setdash
 1089 1565 1091 1546 1097 1528 1106 1509 1119 1491 1135 1474 1154 1457 1177 1440 1202 1424
 1230 1409 1260 1395 1292 1381 1326 1368 1361 1356 1398 1345 1435 1335 1473 1326
 1512 1317 1551 1309 1590 1302 1629 1296 1668 1290 1707 1286 1745 1281 1782 1278
 1819 1275 1855 1272 1891 1270 1925 1268 1959 1267 1992 1267 2024 1266 2054 1266
 2084 1266 2113 1267 2142 1267 2169 1268 2195 1270 2220 1271 2245 1272 2269 1274
 2292 1276 2314 1278 2335 1280 2355 1282 2375 1284 2394 1286 2413 1289 2430 1291
 2447 1293 2464 1296 2480 1298 2495 1301 2510 1303 2524 1306 2538 1308 2551 1311
 2564 1313 2576 1316 2588 1318 2600 1321 2611 1323 2622 1326 2632 1328 2642 1331
 2652 1333 2661 1336 2670 1338 2679 1340 2687 1343 2695 1345 2703 1347 2711 1350
 2718 1352 2726 1354 2733 1356 2739 1358 2746 1361 2752 1363 2758 1365 2764 1367
 2770 1369 2776 1371 2781 1373 2786 1375 2791 1377 2796 1379 2801 1381 2806 1383
 2811 1385 2815 1386 2819 1388 2823 1390 2827 1392 2831 1394 2835 1395 2839 1397
 2843 1399 2846 1400 2850 1402 2853 1404 2856 1405 101 rps
 2856 1405 2859 1407 2863 1408 2866 1410 2869 1411 2871 1413 2874 1414 2877 1416 2880 1417
 2882 1419 2885 1420 2887 1422 2890 1423 2892 1424 2894 1426 2897 1427 2899 1428
 2901 1430 2903 1431 2905 1432 2907 1434 2909 1435 2911 1436 2913 1437 2915 1439
 2916 1440 2918 1441 2920 1442 2922 1443 2923 1444 2925 1446 2926 1447 2928 1448
 2929 1449 2931 1450 2932 1451 2934 1452 2935 1453 2936 1454 2938 1455 2939 1456
 2940 1457 2942 1458 2943 1459 2944 1460 2945 1461 2946 1462 2947 1463 2949 1464
 2950 1465 2951 1466 2952 1467 2953 1468 2954 1469 2955 1470 2956 1471 2957 1472
 2958 1472 2958 1473 2959 1474 2960 1475 2961 1476 2962 1477 2963 1478 2964 1478
 2964 1479 2965 1480 2966 1481 2967 1482 2967 1483 2968 1483 2969 1484 2970 1485
 2970 1486 2971 1486 2972 1487 2972 1488 2973 1489 2973 1489 2974 1490 2975 1491
 2975 1492 2976 1492 2976 1493 2977 1494 2978 1495 2978 1495 2979 1496 2979 1497
 2980 1497 2980 1498 2981 1499 2981 1499 2982 1500 2982 1501 2983 1502 2983 1502
 2984 1503 2984 1504 2985 1504 2985 1505 2985 1505 101 rps
 2985 1505 2986 1506 2986 1507 2987 1507 2987 1508 2987 1509 2988 1509 2988 1510 2989 1511
 2989 1511 2989 1512 2990 1512 2990 1513 2990 1514 2991 1514 2991 1515 2991 1515
 2992 1516 2992 1517 2992 1517 2993 1518 2993 1518 2993 1519 2993 1520 2994 1520
 2994 1521 2994 1521 2994 1522 2995 1522 2995 1523 2995 1523 2996 1524 2996 1525
 2996 1525 2996 1526 2996 1526 2997 1527 2997 1527 2997 1528 2997 1528 2998 1529
 2998 1530 2998 1530 2998 1531 2998 1531 2999 1532 2999 1532 2999 1533 2999 1533
 2999 1534 2999 1534 3000 1535 3000 1535 3000 1536 3000 1536 3000 1537 3000 1537
 3001 1538 3001 1538 3001 1539 3001 1539 3001 1540 3001 1541 3001 1541 3002 1542
 3002 1542 3002 1543 3002 1543 3002 1544 3002 1544 3002 1545 3002 1545 3003 1546
 3003 1546 3003 1547 3003 1547 3003 1548 3003 1548 3003 1548 3003 1549 3003 1549
 3003 1550 3003 1550 3003 1551 3004 1551 3004 1552 3004 1552 3004 1553 3004 1553
 3004 1554 3004 1554 3004 1555 3004 1555 3004 1556 3004 1556 3004 1557 3004 1557
 3004 1558 3004 1558 3004 1559 3004 1559 3004 1560 101 rps
 3004 1560 3004 1560 3004 1561 3004 1561 3004 1562 3004 1562 3005 1563 3005 1563 3005 1563
 3005 1564 3005 1564 3005 1565 11 rps
 [40 20] 0 setdash
 3005 1565 3005 1565 3005 1566 3005 1566 3005 1567 3005 1567 3004 1568 3004 1568 3004 1569
 3004 1569 3004 1570 3004 1570 3004 1571 3004 1571 3004 1572 3004 1572 3004 1573
 3004 1573 3004 1574 3004 1574 3004 1575 3004 1575 3004 1576 3004 1576 3004 1577
 3004 1577 3004 1578 3004 1578 3004 1578 3003 1579 3003 1579 3003 1580 3003 1580
 3003 1581 3003 1581 3003 1582 3003 1582 3003 1583 3003 1583 3003 1584 3003 1584
 3002 1585 3002 1585 3002 1586 3002 1586 3002 1587 3002 1587 3002 1588 3002 1588
 3001 1589 3001 1589 3001 1590 3001 1590 3001 1591 3001 1591 3001 1592 3000 1592
 3000 1593 3000 1594 3000 1594 3000 1595 3000 1595 3000 1596 2999 1596 2999 1597
 2999 1597 2999 1598 2999 1598 2998 1599 2998 1599 2998 1600 2998 1600 2998 1601
 2997 1601 2997 1602 2997 1603 2997 1603 2997 1604 2996 1604 2996 1605 2996 1605
 2996 1606 2995 1606 2995 1607 2995 1608 2995 1608 2994 1609 2994 1609 2994 1610
 2993 1610 2993 1611 2993 1612 2993 1612 2992 1613 2992 1613 2992 1614 2991 1615
 2991 1615 2991 1616 2990 1616 2990 1617 2990 1618 101 rps
 2990 1618 2989 1618 2989 1619 2989 1619 2988 1620 2988 1621 2987 1621 2987 1622 2987 1623
 2986 1623 2986 1624 2985 1624 2985 1625 2985 1626 2984 1626 2984 1627 2983 1628
 2983 1628 2982 1629 2982 1630 2981 1630 2981 1631 2980 1632 2980 1632 2979 1633
 2979 1634 2978 1635 2978 1635 2977 1636 2977 1637 2976 1637 2975 1638 2975 1639
 2974 1640 2974 1640 2973 1641 2972 1642 2972 1643 2971 1643 2970 1644 2970 1645
 2969 1646 2968 1647 2967 1647 2967 1648 2966 1649 2965 1650 2964 1651 2964 1651
 2963 1652 2962 1653 2961 1654 2960 1655 2959 1656 2959 1657 2958 1657 2957 1658
 2956 1659 2955 1660 2954 1661 2953 1662 2952 1663 2951 1664 2950 1665 2949 1666
 2948 1667 2946 1668 2945 1669 2944 1670 2943 1670 2942 1671 2941 1673 2939 1674
 2938 1675 2937 1676 2935 1677 2934 1678 2933 1679 2931 1680 2930 1681 2928 1682
 2927 1683 2925 1684 2923 1685 2922 1687 2920 1688 2918 1689 2917 1690 2915 1691
 2913 1693 2911 1694 2909 1695 2907 1696 2905 1697 2903 1699 2901 1700 2899 1701
 2897 1703 2895 1704 2892 1705 2890 1707 2888 1708 101 rps
 2888 1708 2885 1710 2883 1711 2880 1712 2877 1714 2875 1715 2872 1717 2869 1718 2866 1720
 2863 1721 2860 1723 2857 1725 2854 1726 2850 1728 2847 1729 2843 1731 2840 1733
 2836 1734 2832 1736 2828 1738 2824 1740 2820 1741 2816 1743 2811 1745 2807 1747
 2802 1749 2797 1751 2792 1753 2787 1755 2782 1757 2777 1759 2771 1761 2765 1763
 2759 1765 2753 1767 2747 1769 2740 1771 2734 1773 2727 1776 2720 1778 2712 1780
 2705 1782 2697 1785 2689 1787 2680 1789 2672 1792 2663 1794 2653 1796 2644 1799
 2634 1801 2623 1804 2613 1806 2602 1809 2590 1811 2578 1814 2566 1816 2553 1819
 2540 1821 2526 1824 2512 1826 2498 1829 2482 1831 2467 1834 2450 1836 2433 1839
 2416 1841 2397 1843 2378 1846 2359 1848 2338 1850 2317 1852 2295 1854 2272 1856
 2249 1857 2224 1859 2199 1860 2173 1861 2146 1862 2118 1863 2089 1864 2059 1864
 2029 1864 1997 1864 1964 1863 1931 1862 1896 1860 1861 1858 1825 1856 1788 1853
 1751 1849 1713 1845 1674 1840 1636 1835 1597 1829 1557 1822 1518 1814 1479 1806
 1441 1797 1403 1786 1367 1775 1331 1764 1297 1751 101 rps
 1297 1751 1265 1737 1234 1723 1206 1708 1181 1692 1158 1676 1138 1659 1121 1641 1108 1623
 1098 1605 1092 1587 1090 1568 11 rps
 [] 0 setdash
 2047 1565 2807 2325 1 rps
 2807 2325
 2759 2245 2727 2277 2807 2325 3 3 1 roll cnp
 0.00 setgray
gsave eofill grestore  0.0 setgray
 stroke 0.0 setgray 0.0 setgray 2634 1565 2993 1565 1 rps
 2993 1565
 2903 1542 2903 1587 2993 1565 3 3 1 roll cnp
 0.00 setgray
gsave eofill grestore  0.0 setgray
 stroke 0.0 setgray 0.0 setgray 3612 1565 3253 1565 1 rps
 3253 1565
 3343 1587 3343 1542 3253 1565 3 3 1 roll cnp
 0.00 setgray
gsave eofill grestore  0.0 setgray
 stroke 0.0 setgray 0.0 setgray
/Times-Italic axumfindfont 128 scalefont setfont
 1087 2757 moveto  (dM) show 

/Times-Italic axumfindfont 95 scalefont setfont
 1257 2729 moveto  (r) show 

/Times-Italic axumfindfont 128 scalefont setfont
 2402 2001 moveto  (r) show 
 3062 1528 moveto  (dr) show 
 1237 2716 1387 2416 1 rps
 grestore showpage
%Trailer
%EOF
