%!PS-Adobe-2.0 EPSF-1.2
%%BoundingBox: 0 0 468 360
%%%%DocumentFonts: /Helvetica
%%Title: Axum PostScript file
%%Creator: TriMetrix, Inc.
%%Pages: 1
%%EndComments
% Copyright 1988-1991 by TriMetrix, Inc. All rights reserved.
/downdict 4 dict def
/sdown
 {downdict begin
  /thestring exch def
  /lineskip exch def
  thestring
   {
    /charcode exch def
    /thechar ( ) dup 0 charcode put def
    0 lineskip neg rmoveto
    gsave
     thechar stringwidth pop 2 div neg 0 rmoveto
     thechar show
    grestore
   } forall
   end
  } def

/updict 4 dict def
/sup
 {updict begin
  /thestring exch def
  /lineskip exch def
  thestring 
   {
    /charcode exch def
    /thechar ( ) dup 0 charcode put def
    0 lineskip rmoveto
    gsave
     thechar stringwidth pop 2 div neg 0 rmoveto
     thechar show
    grestore
   } forall
   end
  } def

/leftdict 4 dict def
/sleft
 {leftdict begin
  /thestring exch def
  thestring
   {
    /charcode exch def
    /thechar ( ) dup 0 charcode put def
    gsave
     thechar stringwidth pop neg 0 rmoveto
     thechar show
    grestore
   } forall

   thechar stringwidth pop neg 0 rmoveto
   end
  } def

/path{newpath moveto{lineto}repeat} bind def 
/cnp{newpath moveto{lineto}repeat closepath} bind def
/clp{moveto{lineto}repeat closepath} bind def
/rps{ 3 1 roll path stroke} bind def
/rcs{ 3 1 roll clp stroke} bind def
/setF { currentscreen 4 -2 roll pop 3 1 roll setscreen} bind def
% required due to WinWord 2.0 bug:
/II { } def

/reencodedict 5 dict def
/reencode
{
   reencodedict begin
   /newencoding exch def
   /newfontname exch def
   /basefontname exch def

   /basefontdict basefontname findfont def
   /newfont basefontdict maxlength dict def

   basefontdict
   {
      exch dup dup /FID ne exch /Encoding ne and
      { exch newfont 3 1 roll put }
      { pop pop }
      ifelse
   }
   forall

   newfont /FontName newfontname put
   newfont /Encoding newencoding put
   newfontname newfont definefont pop
   end
}
def

/axumencoding
[
/.notdef        %   0
/.notdef        %   1
/.notdef        %   2
/.notdef        %   3
/.notdef        %   4
/.notdef        %   5
/.notdef        %   6
/.notdef        %   7
/.notdef        %   8
/.notdef        %   9
/.notdef        %  10
/.notdef        %  11
/.notdef        %  12
/.notdef        %  13
/.notdef        %  14
/.notdef        %  15
/.notdef        %  16
/.notdef        %  17
/.notdef        %  18
/.notdef        %  19
/.notdef        %  20
/.notdef        %  21
/.notdef        %  22
/.notdef        %  23
/.notdef        %  24
/.notdef        %  25
/.notdef        %  26
/.notdef        %  27
/.notdef        %  28
/.notdef        %  29
/.notdef        %  30
/.notdef        %  31
/space          %  32
/exclam         %  33
/quotedbl       %  34
/numbersign     %  35
/dollar         %  36
/percent        %  37
/ampersand      %  38
/quoteright     %  39
/parenleft      %  40
/parenright     %  41
/asterisk       %  42
/plus           %  43
/comma          %  44
/hyphen         %  45
/period         %  46
/slash          %  47
/zero           %  48
/one            %  49
/two            %  50
/three          %  51
/four           %  52
/five           %  53
/six            %  54
/seven          %  55
/eight          %  56
/nine           %  57
/colon          %  58
/semicolon      %  59
/less           %  60
/equal          %  61
/greater        %  62
/question       %  63
/at             %  64
/A              %  65
/B              %  66
/C              %  67
/D              %  68
/E              %  69
/F              %  70
/G              %  71
/H              %  72
/I              %  73
/J              %  74
/K              %  75
/L              %  76
/M              %  77
/N              %  78
/O              %  79
/P              %  80
/Q              %  81
/R              %  82
/S              %  83
/T              %  84
/U              %  85
/V              %  86
/W              %  87
/X              %  88
/Y              %  89
/Z              %  90
/bracketleft    %  91
/backslash      %  92
/bracketright   %  93
/asciicircum    %  94
/underscore     %  95
/quoteleft      %  96
/a              %  97
/b              %  98
/c              %  99
/d              % 100
/e              % 101
/f              % 102
/g              % 103
/h              % 104
/i              % 105
/j              % 106
/k              % 107
/l              % 108
/m              % 109
/n              % 110
/o              % 111
/p              % 112
/q              % 113
/r              % 114
/s              % 115
/t              % 116
/u              % 117
/v              % 118
/w              % 119
/x              % 120
/y              % 121
/z              % 122
/braceleft      % 123
/bar            % 124
/braceright     % 125
/asciitilde     % 126
/.notdef        % 127
/Ccedilla       % 128
/udieresis      % 129
/eacute         % 130
/acircumflex    % 131
/adieresis      % 132
/agrave         % 133
/aring          % 134
/ccedilla       % 135
/ecircumflex    % 136
/edieresis      % 137
/egrave         % 138
/idieresis      % 139
/icircumflex    % 140
/igrave         % 141
/Adieresis      % 142
/Aring          % 143
/Eacute         % 144
/ae             % 145
/AE             % 146
/ocircumflex    % 147
/odieresis      % 148
/ograve         % 149
/ucircumflex    % 150
/ugrave         % 151
/ydieresis      % 152
/Odieresis      % 153
/Udieresis      % 154
/cent           % 155
/sterling       % 156
/yen            % 157
/currency       % 158
/florin         % 159
/aacute         % 160
/iacute         % 161
/oacute         % 162
/uacute         % 163
/ntilde         % 164
/Ntilde         % 165
/ordfeminine    % 166
/ordmasculine   % 167
/questiondown   % 168
/quotedblleft   % 169
/quotedblright  % 170
/Aacute         % 171
/Acircumflex    % 172
/exclamdown     % 173
/Egrave         % 174
/Ecircumflex    % 175
/atilde         % 176
/otilde         % 177
/Edieresis      % 178
/Igrave         % 179
/oe             % 180
/OE             % 181
/Agrave         % 182
/Atilde         % 183
/Otilde         % 184
/section        % 185
/Iacute         % 186
/Icircumflex    % 187
/Idieresis      % 188
/Ograve         % 189
/Oacute         % 190
/Ocircumflex    % 191
/Ugrave         % 192
/Uacute         % 193
/Ucircumflex    % 194
/Ydieresis      % 195
/germandbls     % 196
/guillemotleft  % 197
/guillemotright % 198
/bullet         % 199
/.notdef        % 200
/.notdef        % 201
/.notdef        % 202
/.notdef        % 203
/.notdef        % 204
/.notdef        % 205
/.notdef        % 206
/.notdef        % 207
/.notdef        % 208
/.notdef        % 209
/.notdef        % 210
/.notdef        % 211
/.notdef        % 212
/.notdef        % 213
/.notdef        % 214
/.notdef        % 215
/.notdef        % 216
/.notdef        % 217
/.notdef        % 218
/.notdef        % 219
/.notdef        % 220
/.notdef        % 221
/.notdef        % 222
/.notdef        % 223
/.notdef        % 224
/.notdef        % 225
/.notdef        % 226
/.notdef        % 227
/.notdef        % 228
/.notdef        % 229
/.notdef        % 230
/.notdef        % 231
/.notdef        % 232
/.notdef        % 233
/.notdef        % 234
/.notdef        % 235
/.notdef        % 236
/.notdef        % 237
/.notdef        % 238
/.notdef        % 239
/.notdef        % 240
/.notdef        % 241
/.notdef        % 242
/.notdef        % 243
/.notdef        % 244
/.notdef        % 245
/.notdef        % 246
/.notdef        % 247
/.notdef        % 248
/.notdef        % 249
/.notdef        % 250
/.notdef        % 251
/.notdef        % 252
/.notdef        % 253
/.notdef        % 254
/.notdef        % 255
] 
def

/axumfindfont
{
   /axumfont axumencoding reencode
   /axumfont findfont
}
def


/MainFont /Helvetica axumfindfont 98 scalefont def
MainFont setfont
1 setlinejoin 0 setlinecap 0 setgray
 gsave 72 630 div dup scale
 0.0 setgray
/Times-Roman axumfindfont 124 scalefont setfont
 955 982 moveto  39 rotate (1st signal) show  -39 rotate
 1792 555 moveto  39 rotate (2nd signal) show  -39 rotate

/Times-Italic axumfindfont 128 scalefont setfont
 3717 1710 moveto  (u) show 

/Symbol findfont 124 scalefont setfont
 2370 1833 moveto  (q) show 

/Times-Roman axumfindfont 124 scalefont setfont
 1123 523 moveto  39 rotate (To observer) show  -39 rotate
 [] 0 setdash

1 setlinewidth
 1979 1751 272 386 1 rps
 272 386
 328 459 356 424 272 386 3 3 1 roll cnp
 0.00 setgray
gsave eofill grestore  0.0 setgray
 stroke 0.0 setgray 0.0 setgray 3344 1751 1637 386 1 rps
 1637 386
 1693 459 1721 424 1637 386 3 3 1 roll cnp
 0.00 setgray
gsave eofill grestore  0.0 setgray
 stroke 0.0 setgray 0.0 setgray 3344 1751 3680 1751 1 rps
 3680 1751
 3590 1728 3590 1773 3680 1751 3 3 1 roll cnp
 0.00 setgray
gsave eofill grestore  0.0 setgray
 stroke 0.0 setgray 1975 1729
 1983 1729 1992 1733 1997 1738 2001 1747
 2001 1755 1997 1764 1992 1769 1983 1773
 1975 1773 1966 1769 1961 1764 1957 1755
 1957 1747 1961 1738 1966 1733 1975 1729
 16 3 1 roll cnp
 0.00 setgray
gsave eofill grestore  0.0 setgray
 stroke 0.0 setgray 0.0 setgray 1970 1706 1988 1706 2006 1715 2015 1724 2024 1742 2024 1760 2015 1778 2006 1787 1988 1796
 1970 1796 1952 1787 1943 1778 1934 1760 1934 1742 1943 1724 1952 1715 15 rcs

 1966 1683 1992 1683 2019 1697 2033 1711 2047 1738 2047 1764 2033 1791 2019 1805 1992 1819
 1966 1819 1939 1805 1925 1791 1911 1764 1911 1738 1925 1711 1939 1697 15 rcs

 3340 1729
 3348 1729 3357 1733 3362 1738 3366 1747
 3366 1755 3362 1764 3357 1769 3348 1773
 3340 1773 3331 1769 3326 1764 3322 1755
 3322 1747 3326 1738 3331 1733 3340 1729
 16 3 1 roll cnp
 0.00 setgray
gsave eofill grestore  0.0 setgray
 stroke 0.0 setgray 0.0 setgray 3335 1706 3353 1706 3371 1715 3380 1724 3389 1742 3389 1760 3380 1778 3371 1787 3353 1796
 3335 1796 3317 1787 3308 1778 3299 1760 3299 1742 3308 1724 3317 1715 15 rcs

 3331 1683 3357 1683 3384 1697 3398 1711 3412 1738 3412 1764 3398 1791 3384 1805 3357 1819
 3331 1819 3304 1805 3290 1791 3276 1764 3276 1738 3290 1711 3304 1697 15 rcs

 1979 1751 3344 1751 1 rps
 [20 20] 0 setdash
 1979 1751 2511 1082 1 rps
 1979 1751 2402 2092 1 rps
 [] 0 setdash
 1637 1751 1979 1751 1 rps
 2320 1763 2320 1765 2320 1767 2320 1769 2319 1771 2319 1773 2319 1775 2319 1777 2319 1779
 2319 1781 2318 1783 2318 1785 2318 1788 2318 1790 2318 1792 2317 1794 2317 1796
 2317 1798 2316 1800 2316 1802 2316 1804 2316 1806 2315 1808 2315 1810 2315 1812
 2314 1814 2314 1816 2313 1818 2313 1820 2313 1822 2312 1824 2312 1826 2311 1828
 2311 1830 2310 1832 2310 1834 2309 1836 2309 1838 2308 1840 2308 1842 2307 1844
 2306 1846 2306 1848 2305 1850 2305 1852 2304 1854 2303 1856 2303 1858 2302 1860
 2302 1862 2301 1864 2300 1866 2299 1868 2299 1869 2298 1871 2297 1873 2297 1875
 2296 1877 2295 1879 2294 1881 2293 1883 2293 1885 2292 1887 2291 1889 2290 1890
 2289 1892 2288 1894 2288 1896 2287 1898 2286 1900 2285 1902 2284 1903 2283 1905
 2282 1907 2281 1909 2280 1911 2279 1913 2278 1914 2277 1916 2276 1918 2275 1920
 2274 1922 2273 1923 2272 1925 2271 1927 2270 1929 2269 1930 2268 1932 2267 1934
 2266 1936 2265 1937 2263 1939 2262 1941 2261 1943 2260 1944 2259 1946 2258 1948
 2256 1949 2255 1951 2254 1953 2253 1954 100 rps
 2698 1779 2825 2074 1 rps
 2962 1378 3139 1160 1 rps

/Times-Italic axumfindfont 128 scalefont setfont
 3170 1055 moveto  (u) show 

/Symbol findfont 124 scalefont setfont
 3233 1055 moveto  (D) show 

/Times-Italic axumfindfont 128 scalefont setfont
 3309 1055 moveto  (t) show 

/Times-Roman axumfindfont 95 scalefont setfont
 3345 1027 moveto  (rest ) show 

/Times-Roman axumfindfont 124 scalefont setfont
 3504 1055 moveto  (cos ) show 

/Symbol findfont 124 scalefont setfont
 3704 1055 moveto  (q) show 

/Times-Roman axumfindfont 124 scalefont setfont
 3247 841 moveto  (1 ) show 

/Symbol findfont 124 scalefont setfont
 3341 841 moveto  (- ) show 

/Times-Italic axumfindfont 128 scalefont setfont
 3440 841 moveto  (u) show 

/Times-Roman axumfindfont 95 scalefont setfont
 3503 890 moveto  (2) show 

/Times-Roman axumfindfont 124 scalefont setfont
 3551 841 moveto  (/) show 

/Times-Italic axumfindfont 128 scalefont setfont
 3586 841 moveto  (c) show 

/Times-Roman axumfindfont 95 scalefont setfont
 3642 891 moveto  (2) show 

4 setlinewidth
 3097 1000 3789 1000 1 rps
 3211 973 3734 973 1 rps
 3174 805 3211 973 1 rps
 3133 873 3174 805 1 rps

/Times-Italic axumfindfont 128 scalefont setfont
 2865 2352 moveto  (u) show 

/Symbol findfont 124 scalefont setfont
 2928 2352 moveto  (D) show 

/Times-Italic axumfindfont 128 scalefont setfont
 3004 2352 moveto  (t) show 

/Times-Roman axumfindfont 95 scalefont setfont
 3040 2324 moveto  (rest) show 

/Times-Roman axumfindfont 124 scalefont setfont
 2815 2138 moveto  (1 ) show 

/Symbol findfont 124 scalefont setfont
 2909 2138 moveto  (- ) show 

/Times-Italic axumfindfont 128 scalefont setfont
 3008 2138 moveto  (u) show 

/Times-Roman axumfindfont 95 scalefont setfont
 3071 2187 moveto  (2) show 

/Times-Roman axumfindfont 124 scalefont setfont
 3119 2138 moveto  (/) show 

/Times-Italic axumfindfont 128 scalefont setfont
 3154 2138 moveto  (c) show 

/Times-Roman axumfindfont 95 scalefont setfont
 3210 2188 moveto  (2) show 
 2665 2297 3357 2297 1 rps
 2779 2270 3302 2270 1 rps
 2742 2102 2779 2270 1 rps
 2701 2170 2742 2102 1 rps
 grestore showpage
%Trailer
%EOF
