%!PS-Adobe-2.0 EPSF-1.2
%%BoundingBox: 0 0 468 360
%%%%DocumentFonts: /Helvetica
%%Title: Axum PostScript file
%%Creator: TriMetrix, Inc.
%%Pages: 1
%%EndComments
% Copyright 1988-1991 by TriMetrix, Inc. All rights reserved.
/downdict 4 dict def
/sdown
 {downdict begin
  /thestring exch def
  /lineskip exch def
  thestring
   {
    /charcode exch def
    /thechar ( ) dup 0 charcode put def
    0 lineskip neg rmoveto
    gsave
     thechar stringwidth pop 2 div neg 0 rmoveto
     thechar show
    grestore
   } forall
   end
  } def

/updict 4 dict def
/sup
 {updict begin
  /thestring exch def
  /lineskip exch def
  thestring 
   {
    /charcode exch def
    /thechar ( ) dup 0 charcode put def
    0 lineskip rmoveto
    gsave
     thechar stringwidth pop 2 div neg 0 rmoveto
     thechar show
    grestore
   } forall
   end
  } def

/leftdict 4 dict def
/sleft
 {leftdict begin
  /thestring exch def
  thestring
   {
    /charcode exch def
    /thechar ( ) dup 0 charcode put def
    gsave
     thechar stringwidth pop neg 0 rmoveto
     thechar show
    grestore
   } forall

   thechar stringwidth pop neg 0 rmoveto
   end
  } def

/path{newpath moveto{lineto}repeat} bind def 
/cnp{newpath moveto{lineto}repeat closepath} bind def
/clp{moveto{lineto}repeat closepath} bind def
/rps{ 3 1 roll path stroke} bind def
/rcs{ 3 1 roll clp stroke} bind def
/setF { currentscreen 4 -2 roll pop 3 1 roll setscreen} bind def
% required due to WinWord 2.0 bug:
/II { } def

/reencodedict 5 dict def
/reencode
{
   reencodedict begin
   /newencoding exch def
   /newfontname exch def
   /basefontname exch def

   /basefontdict basefontname findfont def
   /newfont basefontdict maxlength dict def

   basefontdict
   {
      exch dup dup /FID ne exch /Encoding ne and
      { exch newfont 3 1 roll put }
      { pop pop }
      ifelse
   }
   forall

   newfont /FontName newfontname put
   newfont /Encoding newencoding put
   newfontname newfont definefont pop
   end
}
def

/axumencoding
[
/.notdef        %   0
/.notdef        %   1
/.notdef        %   2
/.notdef        %   3
/.notdef        %   4
/.notdef        %   5
/.notdef        %   6
/.notdef        %   7
/.notdef        %   8
/.notdef        %   9
/.notdef        %  10
/.notdef        %  11
/.notdef        %  12
/.notdef        %  13
/.notdef        %  14
/.notdef        %  15
/.notdef        %  16
/.notdef        %  17
/.notdef        %  18
/.notdef        %  19
/.notdef        %  20
/.notdef        %  21
/.notdef        %  22
/.notdef        %  23
/.notdef        %  24
/.notdef        %  25
/.notdef        %  26
/.notdef        %  27
/.notdef        %  28
/.notdef        %  29
/.notdef        %  30
/.notdef        %  31
/space          %  32
/exclam         %  33
/quotedbl       %  34
/numbersign     %  35
/dollar         %  36
/percent        %  37
/ampersand      %  38
/quoteright     %  39
/parenleft      %  40
/parenright     %  41
/asterisk       %  42
/plus           %  43
/comma          %  44
/hyphen         %  45
/period         %  46
/slash          %  47
/zero           %  48
/one            %  49
/two            %  50
/three          %  51
/four           %  52
/five           %  53
/six            %  54
/seven          %  55
/eight          %  56
/nine           %  57
/colon          %  58
/semicolon      %  59
/less           %  60
/equal          %  61
/greater        %  62
/question       %  63
/at             %  64
/A              %  65
/B              %  66
/C              %  67
/D              %  68
/E              %  69
/F              %  70
/G              %  71
/H              %  72
/I              %  73
/J              %  74
/K              %  75
/L              %  76
/M              %  77
/N              %  78
/O              %  79
/P              %  80
/Q              %  81
/R              %  82
/S              %  83
/T              %  84
/U              %  85
/V              %  86
/W              %  87
/X              %  88
/Y              %  89
/Z              %  90
/bracketleft    %  91
/backslash      %  92
/bracketright   %  93
/asciicircum    %  94
/underscore     %  95
/quoteleft      %  96
/a              %  97
/b              %  98
/c              %  99
/d              % 100
/e              % 101
/f              % 102
/g              % 103
/h              % 104
/i              % 105
/j              % 106
/k              % 107
/l              % 108
/m              % 109
/n              % 110
/o              % 111
/p              % 112
/q              % 113
/r              % 114
/s              % 115
/t              % 116
/u              % 117
/v              % 118
/w              % 119
/x              % 120
/y              % 121
/z              % 122
/braceleft      % 123
/bar            % 124
/braceright     % 125
/asciitilde     % 126
/.notdef        % 127
/Ccedilla       % 128
/udieresis      % 129
/eacute         % 130
/acircumflex    % 131
/adieresis      % 132
/agrave         % 133
/aring          % 134
/ccedilla       % 135
/ecircumflex    % 136
/edieresis      % 137
/egrave         % 138
/idieresis      % 139
/icircumflex    % 140
/igrave         % 141
/Adieresis      % 142
/Aring          % 143
/Eacute         % 144
/ae             % 145
/AE             % 146
/ocircumflex    % 147
/odieresis      % 148
/ograve         % 149
/ucircumflex    % 150
/ugrave         % 151
/ydieresis      % 152
/Odieresis      % 153
/Udieresis      % 154
/cent           % 155
/sterling       % 156
/yen            % 157
/currency       % 158
/florin         % 159
/aacute         % 160
/iacute         % 161
/oacute         % 162
/uacute         % 163
/ntilde         % 164
/Ntilde         % 165
/ordfeminine    % 166
/ordmasculine   % 167
/questiondown   % 168
/quotedblleft   % 169
/quotedblright  % 170
/Aacute         % 171
/Acircumflex    % 172
/exclamdown     % 173
/Egrave         % 174
/Ecircumflex    % 175
/atilde         % 176
/otilde         % 177
/Edieresis      % 178
/Igrave         % 179
/oe             % 180
/OE             % 181
/Agrave         % 182
/Atilde         % 183
/Otilde         % 184
/section        % 185
/Iacute         % 186
/Icircumflex    % 187
/Idieresis      % 188
/Ograve         % 189
/Oacute         % 190
/Ocircumflex    % 191
/Ugrave         % 192
/Uacute         % 193
/Ucircumflex    % 194
/Ydieresis      % 195
/germandbls     % 196
/guillemotleft  % 197
/guillemotright % 198
/bullet         % 199
/.notdef        % 200
/.notdef        % 201
/.notdef        % 202
/.notdef        % 203
/.notdef        % 204
/.notdef        % 205
/.notdef        % 206
/.notdef        % 207
/.notdef        % 208
/.notdef        % 209
/.notdef        % 210
/.notdef        % 211
/.notdef        % 212
/.notdef        % 213
/.notdef        % 214
/.notdef        % 215
/.notdef        % 216
/.notdef        % 217
/.notdef        % 218
/.notdef        % 219
/.notdef        % 220
/.notdef        % 221
/.notdef        % 222
/.notdef        % 223
/.notdef        % 224
/.notdef        % 225
/.notdef        % 226
/.notdef        % 227
/.notdef        % 228
/.notdef        % 229
/.notdef        % 230
/.notdef        % 231
/.notdef        % 232
/.notdef        % 233
/.notdef        % 234
/.notdef        % 235
/.notdef        % 236
/.notdef        % 237
/.notdef        % 238
/.notdef        % 239
/.notdef        % 240
/.notdef        % 241
/.notdef        % 242
/.notdef        % 243
/.notdef        % 244
/.notdef        % 245
/.notdef        % 246
/.notdef        % 247
/.notdef        % 248
/.notdef        % 249
/.notdef        % 250
/.notdef        % 251
/.notdef        % 252
/.notdef        % 253
/.notdef        % 254
/.notdef        % 255
] 
def

/axumfindfont
{
   /axumfont axumencoding reencode
   /axumfont findfont
}
def


/MainFont /Helvetica axumfindfont 98 scalefont def
MainFont setfont
1 setlinejoin 0 setlinecap 0 setgray
 gsave 72 630 div dup scale
 [] 0 setdash

1 setlinewidth
 295 1683
 1796 1683 1796 525 295 525 295 1683
 4 3 1 roll cnp
 0.93 setgray eofill 0.0 setgray 295 525
 1796 525 1796 380 295 380 295 525
 4 3 1 roll cnp
 1.00 setgray eofill 0.0 setgray 295 525
 1796 525 1796 380 295 380 295 525
 4 3 1 roll cnp
 0.60 setgray eofill 0.0 setgray 0.0 setgray 295 525 1796 525 1 rps
 1796 2190 1840 2059 1725 2140 1867 2140 1752 2059 4 rcs


/Times-Italic axumfindfont 128 scalefont setfont
 805 2238 moveto  (z) show 

/Symbol findfont 124 scalefont setfont
 869 573 moveto  (t) show 

/Symbol findfont 91 scalefont setfont
 923 545 moveto  (l) show 

/Times-Roman axumfindfont 124 scalefont setfont
 973 573 moveto  ( = 0) show 

/Symbol findfont 124 scalefont setfont
 536 1733 moveto  (t) show 

/Symbol findfont 91 scalefont setfont
 590 1705 moveto  (l) show 

/Times-Roman axumfindfont 95 scalefont setfont
 641 1705 moveto  (,o) show 

/Symbol findfont 124 scalefont setfont
 823 859 moveto  (q) show 

/Times-Roman axumfindfont 124 scalefont setfont
 1255 1073 moveto  58 rotate (Increasing ) show  -58 rotate

/Times-Italic axumfindfont 128 scalefont setfont
 1549 1544 moveto  58 rotate (s) show  -58 rotate
 341 1073 moveto  (h) show 
 746 523 746 2261 1 rps
 768 2171 746 2261 1 rps
 723 2171 746 2261 1 rps
 [20 20] 0 setdash
 746 523 1797 2115 1 rps
 [] 0 setdash
 445 523 445 1683 1 rps
 445 1683
 467 1593 422 1593 445 1683 3 3 1 roll cnp
 0.00 setgray
gsave eofill grestore  0.0 setgray
 stroke 0.0 setgray 445 523
 422 613 467 613 445 523 3 3 1 roll cnp
 0.00 setgray
gsave eofill grestore  0.0 setgray
 stroke 0.0 setgray 0.0 setgray 295 1683 1797 1683 1 rps
 909 775 908 776 907 776 905 777 904 778 902 779 901 780 899 781 898 782
 896 783 895 784 893 784 892 785 890 786 889 787 887 788 886 789
 884 789 883 790 881 791 879 792 878 792 876 793 875 794 873 795
 872 795 870 796 869 797 867 798 865 798 864 799 862 800 861 800
 859 801 857 802 856 802 854 803 853 803 851 804 849 805 848 805
 846 806 844 806 843 807 841 808 840 808 838 809 836 809 835 810
 833 810 831 811 830 811 828 812 826 812 825 813 823 813 821 813
 820 814 818 814 816 815 815 815 813 815 811 816 810 816 808 817
 806 817 804 817 803 818 801 818 799 818 798 819 796 819 794 819
 793 819 791 820 789 820 787 820 786 820 784 821 782 821 781 821
 779 821 777 821 775 822 774 822 772 822 770 822 769 822 767 822
 765 822 763 822 762 823 760 823 758 823 756 823 755 823 753 823
 751 823 750 823 748 823 746 823 100 rps
 2274 630 3761 630 1 rps
 2274 630 3761 630 1 rps
 2271 2282 3764 2282 1 rps
 2273 629 3762 629 1 rps
 2273 629 3761 629 1 rps
 2271 2283 3764 2283 1 rps
 2273 628 3763 628 1 rps
 2273 628 3761 628 1 rps
 2271 2283 3764 2283 1 rps
 2272 628 3764 628 1 rps
 2272 628 3761 628 1 rps
 2271 2284 3764 2284 1 rps
 2271 627 3764 627 1 rps
 2271 627 3761 627 1 rps
 2271 2285 3764 2285 1 rps
 2274 630 2274 656 1 rps
 2274 2282 2274 2256 1 rps
 2486 630 2486 643 1 rps
 2486 2282 2486 2269 1 rps
 2699 630 2699 656 1 rps
 2699 2282 2699 2256 1 rps
 2911 630 2911 643 1 rps
 2911 2282 2911 2269 1 rps
 3124 630 3124 656 1 rps
 3124 2282 3124 2256 1 rps
 3336 630 3336 643 1 rps
 3336 2282 3336 2269 1 rps
 3549 630 3549 656 1 rps
 3549 2282 3549 2256 1 rps
 3761 630 3761 643 1 rps
 3761 2282 3761 2269 1 rps

/Times-Roman axumfindfont 121 scalefont setfont
 2244 511 moveto  (0) show 
 2669 511 moveto  (1) show 
 3094 511 moveto  (2) show 
 3520 511 moveto  (3) show 
 2274 630 2274 2282 1 rps
 2273 629 2273 2283 1 rps
 2273 628 2273 2283 1 rps
 2272 628 2272 2284 1 rps
 2271 627 2271 2285 1 rps
 3761 630 3761 2282 1 rps
 3762 629 3762 2283 1 rps
 3763 628 3763 2283 1 rps
 3764 628 3764 2284 1 rps
 3764 627 3764 2285 1 rps
 2274 630 2300 630 1 rps
 3761 630 3735 630 1 rps
 2274 767 2287 767 1 rps
 3761 767 3748 767 1 rps
 2274 905 2300 905 1 rps
 3761 905 3735 905 1 rps
 2274 1042 2287 1042 1 rps
 3761 1042 3748 1042 1 rps
 2274 1180 2300 1180 1 rps
 3761 1180 3735 1180 1 rps
 2274 1318 2287 1318 1 rps
 3761 1318 3748 1318 1 rps
 2274 1456 2300 1456 1 rps
 3761 1456 3735 1456 1 rps
 2274 1593 2287 1593 1 rps
 3761 1593 3748 1593 1 rps
 2274 1731 2300 1731 1 rps
 3761 1731 3735 1731 1 rps
 2274 1868 2287 1868 1 rps
 3761 1868 3748 1868 1 rps
 2274 2007 2300 2007 1 rps
 3761 2007 3735 2007 1 rps
 2274 2144 2287 2144 1 rps
 3761 2144 3748 2144 1 rps
 2274 2282 2300 2282 1 rps
 3761 2282 3735 2282 1 rps
 [20 20] 0 setdash
 2274 2007 2699 1662 1 rps
 [] 0 setdash
 2699 1662 3761 802 1 rps
 2893 348 moveto  (sec ) show 

/Symbol findfont 118 scalefont setfont
 3079 348 moveto  (q) show 

/Times-Roman axumfindfont 121 scalefont setfont
 2167 1326 moveto  90 rotate (ln ) show  -90 rotate

/Times-Italic axumfindfont 121 scalefont setfont
 2167 1451 moveto  90 rotate (I) show  -90 rotate

/Symbol findfont 88 scalefont setfont
 2195 1492 moveto  90 rotate (l) show  -90 rotate

/Times-Roman axumfindfont 121 scalefont setfont
 2402 2144 moveto  (ln ) show 

/Times-Italic axumfindfont 121 scalefont setfont
 2527 2144 moveto  (I) show 

/Symbol findfont 88 scalefont setfont
 2568 2116 moveto  (l) show 

/Times-Roman axumfindfont 88 scalefont setfont
 2618 2116 moveto  (,o) show 
 2380 2144 2293 2025 1 rps
 2770 1626
 2776 1626 2782 1629 2786 1632 2789 1639
 2789 1645 2786 1651 2782 1655 2776 1658
 2770 1658 2763 1655 2760 1651 2757 1645
 2757 1639 2760 1632 2763 1629 2770 1626
 16 3 1 roll cnp
 0.00 setgray
gsave eofill grestore  0.0 setgray
 stroke 0.0 setgray 2832 1507
 2838 1507 2845 1510 2848 1513 2851 1520
 2851 1526 2848 1532 2845 1536 2838 1539
 2832 1539 2826 1536 2822 1532 2819 1526
 2819 1520 2822 1513 2826 1510 2832 1507
 16 3 1 roll cnp
 0.00 setgray
gsave eofill grestore  0.0 setgray
 stroke 0.0 setgray 2991 1430
 2997 1430 3004 1433 3007 1437 3010 1443
 3010 1449 3007 1456 3004 1459 2997 1462
 2991 1462 2985 1459 2981 1456 2978 1449
 2978 1443 2981 1437 2985 1433 2991 1430
 16 3 1 roll cnp
 0.00 setgray
gsave eofill grestore  0.0 setgray
 stroke 0.0 setgray 3147 1302
 3153 1302 3159 1305 3163 1308 3166 1315
 3166 1321 3163 1327 3159 1331 3153 1334
 3147 1334 3140 1331 3137 1327 3134 1321
 3134 1315 3137 1308 3140 1305 3147 1302
 16 3 1 roll cnp
 0.00 setgray
gsave eofill grestore  0.0 setgray
 stroke 0.0 setgray 3418 1067
 3424 1067 3430 1070 3434 1074 3437 1080
 3437 1086 3434 1093 3430 1096 3424 1099
 3418 1099 3411 1096 3408 1093 3405 1086
 3405 1080 3408 1074 3411 1070 3418 1067
 16 3 1 roll cnp
 0.00 setgray
gsave eofill grestore  0.0 setgray
 stroke 0.0 setgray 3292 1140
 3298 1140 3304 1143 3308 1146 3311 1153
 3311 1159 3308 1165 3304 1169 3298 1172
 3292 1172 3286 1169 3282 1165 3279 1159
 3279 1153 3282 1146 3286 1143 3292 1140
 16 3 1 roll cnp
 0.00 setgray
gsave eofill grestore  0.0 setgray
 stroke 0.0 setgray 3550 952
 3556 952 3562 954 3566 958 3569 965
 3569 970 3566 977 3562 981 3556 984
 3550 984 3543 981 3540 977 3537 970
 3537 965 3540 958 3543 954 3550 952
 16 3 1 roll cnp
 0.00 setgray
gsave eofill grestore  0.0 setgray
 stroke 0.0 setgray 0.0 setgray 1096 896 1201 1055 1 rps
 1096 896
 1126 983 1164 958 1096 896 3 3 1 roll cnp
 0.00 setgray
gsave eofill grestore  0.0 setgray
 stroke 0.0 setgray grestore showpage
%Trailer
%EOF
