%!PS-Adobe-2.0 EPSF-1.2
%%BoundingBox: 0 0 468 360
%%%%DocumentFonts: /Helvetica
%%Title: Axum PostScript file
%%Creator: TriMetrix, Inc.
%%Pages: 1
%%EndComments
% Copyright 1988-1991 by TriMetrix, Inc. All rights reserved.
/downdict 4 dict def
/sdown
 {downdict begin
  /thestring exch def
  /lineskip exch def
  thestring
   {
    /charcode exch def
    /thechar ( ) dup 0 charcode put def
    0 lineskip neg rmoveto
    gsave
     thechar stringwidth pop 2 div neg 0 rmoveto
     thechar show
    grestore
   } forall
   end
  } def

/updict 4 dict def
/sup
 {updict begin
  /thestring exch def
  /lineskip exch def
  thestring 
   {
    /charcode exch def
    /thechar ( ) dup 0 charcode put def
    0 lineskip rmoveto
    gsave
     thechar stringwidth pop 2 div neg 0 rmoveto
     thechar show
    grestore
   } forall
   end
  } def

/leftdict 4 dict def
/sleft
 {leftdict begin
  /thestring exch def
  thestring
   {
    /charcode exch def
    /thechar ( ) dup 0 charcode put def
    gsave
     thechar stringwidth pop neg 0 rmoveto
     thechar show
    grestore
   } forall

   thechar stringwidth pop neg 0 rmoveto
   end
  } def

/path{newpath moveto{lineto}repeat} bind def 
/cnp{newpath moveto{lineto}repeat closepath} bind def
/clp{moveto{lineto}repeat closepath} bind def
/rps{ 3 1 roll path stroke} bind def
/rcs{ 3 1 roll clp stroke} bind def
/setF { currentscreen 4 -2 roll pop 3 1 roll setscreen} bind def
% required due to WinWord 2.0 bug:
/II { } def

/reencodedict 5 dict def
/reencode
{
   reencodedict begin
   /newencoding exch def
   /newfontname exch def
   /basefontname exch def

   /basefontdict basefontname findfont def
   /newfont basefontdict maxlength dict def

   basefontdict
   {
      exch dup dup /FID ne exch /Encoding ne and
      { exch newfont 3 1 roll put }
      { pop pop }
      ifelse
   }
   forall

   newfont /FontName newfontname put
   newfont /Encoding newencoding put
   newfontname newfont definefont pop
   end
}
def

/axumencoding
[
/.notdef        %   0
/.notdef        %   1
/.notdef        %   2
/.notdef        %   3
/.notdef        %   4
/.notdef        %   5
/.notdef        %   6
/.notdef        %   7
/.notdef        %   8
/.notdef        %   9
/.notdef        %  10
/.notdef        %  11
/.notdef        %  12
/.notdef        %  13
/.notdef        %  14
/.notdef        %  15
/.notdef        %  16
/.notdef        %  17
/.notdef        %  18
/.notdef        %  19
/.notdef        %  20
/.notdef        %  21
/.notdef        %  22
/.notdef        %  23
/.notdef        %  24
/.notdef        %  25
/.notdef        %  26
/.notdef        %  27
/.notdef        %  28
/.notdef        %  29
/.notdef        %  30
/.notdef        %  31
/space          %  32
/exclam         %  33
/quotedbl       %  34
/numbersign     %  35
/dollar         %  36
/percent        %  37
/ampersand      %  38
/quoteright     %  39
/parenleft      %  40
/parenright     %  41
/asterisk       %  42
/plus           %  43
/comma          %  44
/hyphen         %  45
/period         %  46
/slash          %  47
/zero           %  48
/one            %  49
/two            %  50
/three          %  51
/four           %  52
/five           %  53
/six            %  54
/seven          %  55
/eight          %  56
/nine           %  57
/colon          %  58
/semicolon      %  59
/less           %  60
/equal          %  61
/greater        %  62
/question       %  63
/at             %  64
/A              %  65
/B              %  66
/C              %  67
/D              %  68
/E              %  69
/F              %  70
/G              %  71
/H              %  72
/I              %  73
/J              %  74
/K              %  75
/L              %  76
/M              %  77
/N              %  78
/O              %  79
/P              %  80
/Q              %  81
/R              %  82
/S              %  83
/T              %  84
/U              %  85
/V              %  86
/W              %  87
/X              %  88
/Y              %  89
/Z              %  90
/bracketleft    %  91
/backslash      %  92
/bracketright   %  93
/asciicircum    %  94
/underscore     %  95
/quoteleft      %  96
/a              %  97
/b              %  98
/c              %  99
/d              % 100
/e              % 101
/f              % 102
/g              % 103
/h              % 104
/i              % 105
/j              % 106
/k              % 107
/l              % 108
/m              % 109
/n              % 110
/o              % 111
/p              % 112
/q              % 113
/r              % 114
/s              % 115
/t              % 116
/u              % 117
/v              % 118
/w              % 119
/x              % 120
/y              % 121
/z              % 122
/braceleft      % 123
/bar            % 124
/braceright     % 125
/asciitilde     % 126
/.notdef        % 127
/Ccedilla       % 128
/udieresis      % 129
/eacute         % 130
/acircumflex    % 131
/adieresis      % 132
/agrave         % 133
/aring          % 134
/ccedilla       % 135
/ecircumflex    % 136
/edieresis      % 137
/egrave         % 138
/idieresis      % 139
/icircumflex    % 140
/igrave         % 141
/Adieresis      % 142
/Aring          % 143
/Eacute         % 144
/ae             % 145
/AE             % 146
/ocircumflex    % 147
/odieresis      % 148
/ograve         % 149
/ucircumflex    % 150
/ugrave         % 151
/ydieresis      % 152
/Odieresis      % 153
/Udieresis      % 154
/cent           % 155
/sterling       % 156
/yen            % 157
/currency       % 158
/florin         % 159
/aacute         % 160
/iacute         % 161
/oacute         % 162
/uacute         % 163
/ntilde         % 164
/Ntilde         % 165
/ordfeminine    % 166
/ordmasculine   % 167
/questiondown   % 168
/quotedblleft   % 169
/quotedblright  % 170
/Aacute         % 171
/Acircumflex    % 172
/exclamdown     % 173
/Egrave         % 174
/Ecircumflex    % 175
/atilde         % 176
/otilde         % 177
/Edieresis      % 178
/Igrave         % 179
/oe             % 180
/OE             % 181
/Agrave         % 182
/Atilde         % 183
/Otilde         % 184
/section        % 185
/Iacute         % 186
/Icircumflex    % 187
/Idieresis      % 188
/Ograve         % 189
/Oacute         % 190
/Ocircumflex    % 191
/Ugrave         % 192
/Uacute         % 193
/Ucircumflex    % 194
/Ydieresis      % 195
/germandbls     % 196
/guillemotleft  % 197
/guillemotright % 198
/bullet         % 199
/.notdef        % 200
/.notdef        % 201
/.notdef        % 202
/.notdef        % 203
/.notdef        % 204
/.notdef        % 205
/.notdef        % 206
/.notdef        % 207
/.notdef        % 208
/.notdef        % 209
/.notdef        % 210
/.notdef        % 211
/.notdef        % 212
/.notdef        % 213
/.notdef        % 214
/.notdef        % 215
/.notdef        % 216
/.notdef        % 217
/.notdef        % 218
/.notdef        % 219
/.notdef        % 220
/.notdef        % 221
/.notdef        % 222
/.notdef        % 223
/.notdef        % 224
/.notdef        % 225
/.notdef        % 226
/.notdef        % 227
/.notdef        % 228
/.notdef        % 229
/.notdef        % 230
/.notdef        % 231
/.notdef        % 232
/.notdef        % 233
/.notdef        % 234
/.notdef        % 235
/.notdef        % 236
/.notdef        % 237
/.notdef        % 238
/.notdef        % 239
/.notdef        % 240
/.notdef        % 241
/.notdef        % 242
/.notdef        % 243
/.notdef        % 244
/.notdef        % 245
/.notdef        % 246
/.notdef        % 247
/.notdef        % 248
/.notdef        % 249
/.notdef        % 250
/.notdef        % 251
/.notdef        % 252
/.notdef        % 253
/.notdef        % 254
/.notdef        % 255
] 
def

/axumfindfont
{
   /axumfont axumencoding reencode
   /axumfont findfont
}
def


/MainFont /Helvetica axumfindfont 98 scalefont def
MainFont setfont
1 setlinejoin 0 setlinecap 0 setgray
 gsave 72 630 div dup scale
 [] 0 setdash

1 setlinewidth
 3366 239
 3366 781 3365 794 3363 808 3360 821
 3355 835 3349 848 3341 861 3332 875
 3322 888 3311 901 3298 914 3284 927
 3268 939 3251 952 3233 964 3214 976
 3194 988 3172 1000 3149 1011 3125 1022
 3100 1033 3074 1044 3047 1055 3018 1065
 2989 1075 2959 1084 2927 1094 2895 1103
 2862 1112 2828 1120 2793 1128 2757 1136
 2721 1143 2683 1150 2646 1156 2607 1163
 2568 1168 2528 1174 2488 1179 2447 1183
 2406 1188 2365 1192 2323 1195 2281 1198
 2238 1200 2195 1203 2152 1204 2109 1206
 2066 1206 2023 1207 1979 1207 1936 1206
 1893 1206 1850 1204 1807 1203 1764 1200
 1721 1198 1679 1195 1637 1192 1596 1188
 1555 1183 1514 1179 1474 1174 1434 1168
 1395 1163 1356 1156 1318 1150 1281 1143
 1245 1136 1209 1128 1174 1120 1140 1112
 1107 1103 1075 1094 1043 1084 1013 1075
 984 1065 955 1055 928 1044 902 1033
 877 1022 853 1011 830 1000 808 988
 788 976 769 964 751 952 734 939
 718 927 704 914 691 901 680 888
 670 875 661 861 653 848 647 835
 642 821 639 808 637 794 636 781
 636 239 3366 239 102 3 1 roll cnp
 0.87 setgray eofill 0.0 setgray 2683 239
 2683 781 2683 788 2682 794 2680 801
 2678 808 2675 815 2671 821 2667 828
 2662 834 2656 841 2649 847 2642 854
 2635 860 2626 866 2617 872 2608 878
 2597 884 2587 890 2575 896 2563 902
 2551 907 2537 912 2524 918 2510 923
 2495 928 2480 933 2464 937 2448 942
 2431 946 2414 950 2397 954 2379 958
 2361 962 2342 965 2323 969 2304 972
 2285 975 2265 977 2245 980 2224 982
 2204 984 2183 986 2162 988 2141 989
 2119 991 2098 992 2077 993 2055 993
 2033 994 2012 994 1990 994 1969 994
 1947 993 1925 993 1904 992 1883 991
 1861 989 1840 988 1819 986 1798 984
 1778 982 1757 980 1737 977 1717 975
 1698 972 1679 969 1660 965 1641 962
 1623 958 1605 954 1588 950 1571 946
 1554 942 1538 937 1522 933 1507 928
 1492 923 1478 918 1465 912 1451 907
 1439 902 1427 896 1415 890 1405 884
 1394 878 1385 872 1376 866 1367 860
 1360 854 1353 847 1346 841 1340 834
 1335 828 1331 821 1327 815 1324 808
 1322 801 1320 794 1319 788 1318 781
 1318 239 2683 239 102 3 1 roll cnp
 1.00 setgray eofill 0.0 setgray 1318 239
 1318 781 1319 774 1320 767 1322 761
 1324 754 1327 747 1331 741 1335 734
 1340 727 1346 721 1353 714 1360 708
 1367 702 1376 695 1385 689 1394 683
 1405 677 1415 671 1427 666 1439 660
 1451 654 1465 649 1478 644 1492 639
 1507 634 1522 629 1538 624 1554 620
 1571 615 1588 611 1605 607 1623 603
 1641 600 1660 596 1679 593 1698 590
 1717 587 1737 584 1757 582 1778 580
 1798 577 1819 575 1840 574 1861 572
 1883 571 1904 570 1925 569 1947 568
 1969 568 1990 568 2012 568 2033 568
 2055 568 2077 569 2098 570 2119 571
 2141 572 2162 574 2183 575 2204 577
 2224 580 2245 582 2265 584 2285 587
 2304 590 2323 593 2342 596 2361 600
 2379 603 2397 607 2414 611 2431 615
 2448 620 2464 624 2480 629 2495 634
 2510 639 2524 644 2537 649 2551 654
 2563 660 2575 666 2587 671 2597 677
 2608 683 2617 689 2626 695 2635 702
 2642 708 2649 714 2656 721 2662 727
 2667 734 2671 741 2675 747 2678 754
 2680 761 2682 767 2683 774 2683 781
 2683 239 1318 239 102 3 1 roll cnp
 0.87 setgray eofill 0.0 setgray 636 239
 636 781 637 767 639 754 642 740
 647 727 653 714 661 700 670 687
 680 674 691 661 704 648 718 635
 734 622 751 610 769 598 788 586
 808 574 830 562 853 550 877 539
 902 528 928 517 955 507 984 497
 1013 487 1043 477 1075 468 1107 459
 1140 450 1174 442 1209 434 1245 426
 1281 419 1318 412 1356 405 1395 399
 1434 393 1474 388 1514 383 1555 378
 1596 374 1637 370 1679 367 1721 364
 1764 361 1807 359 1850 357 1893 356
 1936 355 1979 355 2023 355 2066 355
 2109 356 2152 357 2195 359 2238 361
 2281 364 2323 367 2365 370 2406 374
 2447 378 2488 383 2528 388 2568 393
 2607 399 2646 405 2683 412 2721 419
 2757 426 2793 434 2828 442 2862 450
 2895 459 2927 468 2959 477 2989 487
 3018 497 3047 507 3074 517 3100 528
 3125 539 3149 550 3172 562 3194 574
 3214 586 3233 598 3251 610 3268 622
 3284 635 3298 648 3311 661 3322 674
 3332 687 3341 700 3349 714 3355 727
 3360 740 3363 754 3365 767 3366 781
 3366 239 636 239 102 3 1 roll cnp
 1.00 setgray eofill 0.0 setgray 0.0 setgray [20 20] 0 setdash

7 setlinewidth
 3366 781 3365 794 3363 808 3360 821 3355 835 3349 848 3341 861 3332 875 3322 888
 3311 901 3298 914 3284 927 3268 939 3251 952 3233 964 3214 976 3194 988
 3172 1000 3149 1011 3125 1022 3100 1033 3074 1044 3047 1055 3018 1065 2989 1075
 2959 1084 2927 1094 2895 1103 2862 1112 2828 1120 2793 1128 2757 1136 2721 1143
 2683 1150 2646 1156 2607 1163 2568 1168 2528 1174 2488 1179 2447 1183 2406 1188
 2365 1192 2323 1195 2281 1198 2238 1200 2195 1203 2152 1204 2109 1206 2066 1206
 2023 1207 1979 1207 1936 1206 1893 1206 1850 1204 1807 1203 1764 1200 1721 1198
 1679 1195 1637 1192 1596 1188 1555 1183 1514 1179 1474 1174 1434 1168 1395 1163
 1356 1156 1318 1150 1281 1143 1245 1136 1209 1128 1174 1120 1140 1112 1107 1103
 1075 1094 1043 1084 1013 1075 984 1065 955 1055 928 1044 902 1033 877 1022
 853 1011 830 1000 808 988 788 976 769 964 751 952 734 939 718 927
 704 914 691 901 680 888 670 875 661 861 653 848 647 835 642 821
 639 808 637 794 636 781 99 rps
 [] 0 setdash
 636 781 637 767 639 754 642 740 647 727 653 714 661 700 670 687 680 674
 691 661 704 648 718 635 734 622 751 610 769 598 788 586 808 574
 830 562 853 550 877 539 902 528 928 517 955 507 984 497 1013 487
 1043 477 1075 468 1107 459 1140 450 1174 442 1209 434 1245 426 1281 419
 1318 412 1356 405 1395 399 1434 393 1474 388 1514 383 1555 378 1596 374
 1637 370 1679 367 1721 364 1764 361 1807 359 1850 357 1893 356 1936 355
 1979 355 2023 355 2066 355 2109 356 2152 357 2195 359 2238 361 2281 364
 2323 367 2365 370 2406 374 2447 378 2488 383 2528 388 2568 393 2607 399
 2646 405 2683 412 2721 419 2757 426 2793 434 2828 442 2862 450 2895 459
 2927 468 2959 477 2989 487 3018 497 3047 507 3074 517 3100 528 3125 539
 3149 550 3172 562 3194 574 3214 586 3233 598 3251 610 3268 622 3284 635
 3298 648 3311 661 3322 674 3332 687 3341 700 3349 714 3355 727 3360 740
 3363 754 3365 767 3366 781 99 rps
 [20 20] 0 setdash
 2683 781 2683 788 2682 794 2680 801 2678 808 2675 815 2671 821 2667 828 2662 834
 2656 841 2649 847 2642 854 2635 860 2626 866 2617 872 2608 878 2597 884
 2587 890 2575 896 2563 902 2551 907 2537 912 2524 918 2510 923 2495 928
 2480 933 2464 937 2448 942 2431 946 2414 950 2397 954 2379 958 2361 962
 2342 965 2323 969 2304 972 2285 975 2265 977 2245 980 2224 982 2204 984
 2183 986 2162 988 2141 989 2119 991 2098 992 2077 993 2055 993 2033 994
 2012 994 1990 994 1969 994 1947 993 1925 993 1904 992 1883 991 1861 989
 1840 988 1819 986 1798 984 1778 982 1757 980 1737 977 1717 975 1698 972
 1679 969 1660 965 1641 962 1623 958 1605 954 1588 950 1571 946 1554 942
 1538 937 1522 933 1507 928 1492 923 1478 918 1465 912 1451 907 1439 902
 1427 896 1415 890 1405 884 1394 878 1385 872 1376 866 1367 860 1360 854
 1353 847 1346 841 1340 834 1335 828 1331 821 1327 815 1324 808 1322 801
 1320 794 1319 788 1318 781 99 rps
 1318 781 1319 774 1320 767 1322 761 1324 754 1327 747 1331 741 1335 734 1340 727
 1346 721 1353 714 1360 708 1367 702 1376 695 1385 689 1394 683 1405 677
 1415 671 1427 666 1439 660 1451 654 1465 649 1478 644 1492 639 1507 634
 1522 629 1538 624 1554 620 1571 615 1588 611 1605 607 1623 603 1641 600
 1660 596 1679 593 1698 590 1717 587 1737 584 1757 582 1778 580 1798 577
 1819 575 1840 574 1861 572 1883 571 1904 570 1925 569 1947 568 1969 568
 1990 568 2012 568 2033 568 2055 568 2077 569 2098 570 2119 571 2141 572
 2162 574 2183 575 2204 577 2224 580 2245 582 2265 584 2285 587 2304 590
 2323 593 2342 596 2361 600 2379 603 2397 607 2414 611 2431 615 2448 620
 2464 624 2480 629 2495 634 2510 639 2524 644 2537 649 2551 654 2563 660
 2575 666 2587 671 2597 677 2608 683 2617 689 2626 695 2635 702 2642 708
 2649 714 2656 721 2662 727 2667 734 2671 741 2675 747 2678 754 2680 761
 2682 767 2683 774 2683 781 99 rps
 [] 0 setdash

1 setlinewidth
 2001 781 3361 900 1 rps
 3361 900
 3317 879 3314 912 3361 900 3 3 1 roll cnp
 0.00 setgray
gsave eofill grestore  0.0 setgray
 stroke 0.0 setgray 0.0 setgray 2001 781 3319 1134 1 rps
 3319 1134
 3279 1106 3271 1138 3319 1134 3 3 1 roll cnp
 0.00 setgray
gsave eofill grestore  0.0 setgray
 stroke 0.0 setgray 0.0 setgray 2001 781 3238 1357 1 rps
 3238 1357
 3204 1322 3190 1353 3238 1357 3 3 1 roll cnp
 0.00 setgray
gsave eofill grestore  0.0 setgray
 stroke 0.0 setgray 0.0 setgray 2001 781 3119 1563 1 rps
 3119 1563
 3091 1523 3072 1551 3119 1563 3 3 1 roll cnp
 0.00 setgray
gsave eofill grestore  0.0 setgray
 stroke 0.0 setgray 0.0 setgray 2001 781 2966 1746 1 rps
 2966 1746
 2946 1702 2922 1726 2966 1746 3 3 1 roll cnp
 0.00 setgray
gsave eofill grestore  0.0 setgray
 stroke 0.0 setgray 0.0 setgray 2001 781 2784 1899 1 rps
 2784 1899
 2772 1852 2744 1871 2784 1899 3 3 1 roll cnp
 0.00 setgray
gsave eofill grestore  0.0 setgray
 stroke 0.0 setgray 0.0 setgray 2001 781 2578 2017 1 rps
 2578 2017
 2574 1969 2543 1983 2578 2017 3 3 1 roll cnp
 0.00 setgray
gsave eofill grestore  0.0 setgray
 stroke 0.0 setgray 0.0 setgray 2001 781 2354 2099 1 rps
 2354 2099
 2358 2051 2326 2059 2354 2099 3 3 1 roll cnp
 0.00 setgray
gsave eofill grestore  0.0 setgray
 stroke 0.0 setgray 0.0 setgray 2001 781 2120 2140 1 rps
 2120 2140
 2132 2093 2099 2096 2120 2140 3 3 1 roll cnp
 0.00 setgray
gsave eofill grestore  0.0 setgray
 stroke 0.0 setgray 0.0 setgray 2001 781 1882 2140 1 rps
 1882 2140
 1902 2096 1869 2093 1882 2140 3 3 1 roll cnp
 0.00 setgray
gsave eofill grestore  0.0 setgray
 stroke 0.0 setgray 0.0 setgray 2001 781 1648 2099 1 rps
 1648 2099
 1675 2059 1643 2051 1648 2099 3 3 1 roll cnp
 0.00 setgray
gsave eofill grestore  0.0 setgray
 stroke 0.0 setgray 0.0 setgray 2001 781 1424 2017 1 rps
 1424 2017
 1458 1983 1427 1969 1424 2017 3 3 1 roll cnp
 0.00 setgray
gsave eofill grestore  0.0 setgray
 stroke 0.0 setgray 0.0 setgray 2001 781 1218 1899 1 rps
 1218 1899
 1257 1871 1229 1852 1218 1899 3 3 1 roll cnp
 0.00 setgray
gsave eofill grestore  0.0 setgray
 stroke 0.0 setgray 0.0 setgray 2001 781 1036 1746 1 rps
 1036 1746
 1079 1726 1055 1702 1036 1746 3 3 1 roll cnp
 0.00 setgray
gsave eofill grestore  0.0 setgray
 stroke 0.0 setgray 0.0 setgray 2001 781 883 1563 1 rps
 883 1563
 929 1551 910 1523 883 1563 3 3 1 roll cnp
 0.00 setgray
gsave eofill grestore  0.0 setgray
 stroke 0.0 setgray 0.0 setgray 2001 781 764 1357 1 rps
 764 1357
 811 1353 797 1322 764 1357 3 3 1 roll cnp
 0.00 setgray
gsave eofill grestore  0.0 setgray
 stroke 0.0 setgray 0.0 setgray 2001 781 683 1134 1 rps
 683 1134
 730 1138 722 1106 683 1134 3 3 1 roll cnp
 0.00 setgray
gsave eofill grestore  0.0 setgray
 stroke 0.0 setgray 0.0 setgray 2001 781 641 900 1 rps
 641 900
 687 912 684 879 641 900 3 3 1 roll cnp
 0.00 setgray
gsave eofill grestore  0.0 setgray
 stroke 0.0 setgray 0.0 setgray 2001 781 1321 721 1 rps
 1321 721
 1364 741 1367 708 1321 721 3 3 1 roll cnp
 0.00 setgray
gsave eofill grestore  0.0 setgray
 stroke 0.0 setgray 0.0 setgray 2001 781 1342 604 1 rps
 1342 604
 1381 631 1389 599 1342 604 3 3 1 roll cnp
 0.00 setgray
gsave eofill grestore  0.0 setgray
 stroke 0.0 setgray 0.0 setgray 2001 781 1382 492 1 rps
 1382 492
 1415 526 1429 495 1382 492 3 3 1 roll cnp
 0.00 setgray
gsave eofill grestore  0.0 setgray
 stroke 0.0 setgray 0.0 setgray 2001 781 1442 389 1 rps
 1442 389
 1469 428 1488 401 1442 389 3 3 1 roll cnp
 0.00 setgray
gsave eofill grestore  0.0 setgray
 stroke 0.0 setgray 0.0 setgray 2001 781 1518 298 1 rps
 1518 298
 1537 341 1561 317 1518 298 3 3 1 roll cnp
 0.00 setgray
gsave eofill grestore  0.0 setgray
 stroke 0.0 setgray 0.0 setgray 2001 781 1610 223 1 rps
 1610 223
 1622 269 1649 250 1610 223 3 3 1 roll cnp
 0.00 setgray
gsave eofill grestore  0.0 setgray
 stroke 0.0 setgray 0.0 setgray 2001 781 1713 163 1 rps
 1713 163
 1716 210 1747 196 1713 163 3 3 1 roll cnp
 0.00 setgray
gsave eofill grestore  0.0 setgray
 stroke 0.0 setgray 0.0 setgray 2001 781 1824 123 1 rps
 1824 123
 1819 170 1851 162 1824 123 3 3 1 roll cnp
 0.00 setgray
gsave eofill grestore  0.0 setgray
 stroke 0.0 setgray 0.0 setgray 2001 781 1942 102 1 rps
 1942 102
 1929 148 1962 145 1942 102 3 3 1 roll cnp
 0.00 setgray
gsave eofill grestore  0.0 setgray
 stroke 0.0 setgray 0.0 setgray 2001 781 2060 102 1 rps
 2060 102
 2039 145 2072 148 2060 102 3 3 1 roll cnp
 0.00 setgray
gsave eofill grestore  0.0 setgray
 stroke 0.0 setgray 0.0 setgray 2001 781 2178 123 1 rps
 2178 123
 2150 162 2182 170 2178 123 3 3 1 roll cnp
 0.00 setgray
gsave eofill grestore  0.0 setgray
 stroke 0.0 setgray 0.0 setgray 2001 781 2289 163 1 rps
 2289 163
 2254 196 2285 210 2289 163 3 3 1 roll cnp
 0.00 setgray
gsave eofill grestore  0.0 setgray
 stroke 0.0 setgray 0.0 setgray 2001 781 2392 223 1 rps
 2392 223
 2352 250 2379 269 2392 223 3 3 1 roll cnp
 0.00 setgray
gsave eofill grestore  0.0 setgray
 stroke 0.0 setgray 0.0 setgray 2001 781 2484 298 1 rps
 2484 298
 2440 317 2464 341 2484 298 3 3 1 roll cnp
 0.00 setgray
gsave eofill grestore  0.0 setgray
 stroke 0.0 setgray 0.0 setgray 2001 781 2560 389 1 rps
 2560 389
 2513 401 2532 428 2560 389 3 3 1 roll cnp
 0.00 setgray
gsave eofill grestore  0.0 setgray
 stroke 0.0 setgray 0.0 setgray 2001 781 2620 492 1 rps
 2620 492
 2572 495 2586 526 2620 492 3 3 1 roll cnp
 0.00 setgray
gsave eofill grestore  0.0 setgray
 stroke 0.0 setgray 0.0 setgray 2001 781 2660 604 1 rps
 2660 604
 2612 599 2620 631 2660 604 3 3 1 roll cnp
 0.00 setgray
gsave eofill grestore  0.0 setgray
 stroke 0.0 setgray 0.0 setgray 2001 781 2681 721 1 rps
 2681 721
 2634 708 2637 741 2681 721 3 3 1 roll cnp
 0.00 setgray
gsave eofill grestore  0.0 setgray
 stroke 0.0 setgray 0.0 setgray
/Times-Italic axumfindfont 128 scalefont setfont
 3025 1870 moveto  (I) show 

/Times-Roman axumfindfont 95 scalefont setfont
 3067 1842 moveto  (out) show 

/Times-Italic axumfindfont 128 scalefont setfont
 2511 100 moveto  (I) show 

/Times-Roman axumfindfont 95 scalefont setfont
 2553 72 moveto  (in) show 

/Times-Italic axumfindfont 128 scalefont setfont
 2070 2552 moveto  (z) show 
 2001 2211 2001 2620 1 rps
 2023 2530 2001 2620 1 rps
 1978 2530 2001 2620 1 rps

7 setlinewidth
 3366 782 3365 825 3363 868 3360 910 3355 953 3349 995 3342 1038 3333 1080 3323 1121
 3312 1163 3299 1204 3285 1244 3270 1284 3254 1324 3236 1363 3217 1402 3197 1439
 3176 1477 3154 1513 3130 1549 3105 1584 3080 1618 3053 1652 3025 1685 2996 1716
 2966 1747 2936 1777 2904 1806 2871 1834 2838 1860 2804 1886 2768 1911 2733 1934
 2696 1957 2659 1978 2621 1998 2582 2017 2543 2035 2504 2051 2464 2066 2423 2080
 2382 2093 2341 2104 2299 2114 2257 2123 2215 2130 2172 2136 2130 2141 2087 2144
 2044 2146 2001 2147 1960 2146 1917 2144 1874 2141 1831 2136 1789 2130 1747 2123
 1705 2114 1663 2104 1622 2093 1581 2080 1540 2066 1500 2051 1460 2035 1421 2017
 1383 1998 1345 1978 1308 1957 1271 1935 1235 1911 1200 1887 1166 1861 1132 1834
 1100 1806 1068 1777 1037 1748 1007 1717 979 1685 951 1653 924 1619 898 1585
 873 1550 850 1514 827 1477 806 1440 786 1402 767 1364 750 1325 733 1285
 718 1245 704 1205 691 1164 680 1122 670 1080 661 1039 654 996 648 954
 643 911 640 869 638 826 637 783 100 rps
 1443 392 1451 382 1458 371 1466 361 1475 350 1483 340 1492 331 1500 321 1509 311
 1519 302 1528 293 1537 284 1547 275 1557 266 1567 258 1577 250 1587 242
 1598 234 1608 226 1619 219 1630 211 1641 204 1652 197 1664 191 1675 184
 1687 178 1698 172 1710 167 1722 161 1734 156 1746 151 1758 146 1770 142
 1783 137 1795 133 1808 129 1820 126 1833 122 1846 119 1858 116 1871 114
 1884 111 1897 109 1910 107 1923 106 1936 104 1949 103 1962 102 1975 102
 1988 101 2001 101 2013 101 2027 101 2040 102 2053 103 2066 104 2079 105
 2092 107 2105 109 2118 111 2131 113 2143 116 2156 119 2169 122 2181 125
 2194 129 2207 133 2219 137 2231 141 2244 146 2256 150 2268 155 2280 161
 2292 166 2304 172 2315 178 2327 184 2338 190 2350 197 2361 204 2372 211
 2383 218 2394 225 2404 233 2415 241 2425 249 2435 257 2445 265 2455 274
 2465 283 2474 292 2484 301 2493 310 2502 320 2511 330 2519 340 2528 350
 2536 360 2544 370 2552 381 2559 391 100 rps
 [20 20] 0 setdash
 1320 782 1320 779 1320 776 1320 772 1320 768 1320 764 1320 760 1321 756 1321 752
 1321 748 1321 744 1321 740 1322 736 1322 732 1322 728 1323 725 1323 721
 1323 717 1324 713 1324 709 1324 705 1325 701 1325 697 1326 693 1326 689
 1327 686 1328 682 1328 678 1329 674 1329 670 1330 666 1331 662 1331 658
 1332 655 1333 651 1334 647 1335 643 1335 639 1336 635 1337 632 1338 628
 1339 624 1340 620 1341 616 1342 612 1343 609 1344 605 1345 601 1346 597
 1347 593 1348 590 1349 586 1350 582 1351 578 1353 575 1354 571 1355 567
 1356 564 1358 560 1359 556 1360 552 1362 549 1363 545 1364 541 1366 538
 1367 534 1369 530 1370 527 1371 523 1373 519 1375 516 1376 512 1378 509
 1379 505 1381 501 1382 498 1384 494 1386 491 1387 487 1389 484 1391 480
 1393 477 1394 473 1396 470 1398 466 1400 463 1402 459 1404 456 1406 452
 1407 449 1409 446 1411 442 1413 439 1415 435 1417 432 1419 429 1421 425
 1423 422 1426 419 1428 415 1430 412 100 rps
 2573 411 2575 414 2577 418 2579 421 2581 424 2583 428 2585 431 2587 434 2589 438
 2591 441 2593 444 2595 448 2597 451 2599 455 2601 458 2603 462 2604 465
 2606 469 2608 472 2610 476 2612 479 2613 483 2615 486 2617 490 2618 493
 2620 497 2622 500 2623 504 2625 508 2626 511 2628 515 2630 518 2631 522
 2633 526 2634 529 2635 533 2637 537 2638 540 2640 544 2641 548 2642 551
 2644 555 2645 559 2646 562 2648 566 2649 570 2650 574 2651 577 2652 581
 2654 585 2655 589 2656 592 2657 596 2658 600 2659 604 2660 607 2661 611
 2662 615 2663 619 2664 623 2665 627 2666 630 2667 634 2667 638 2668 642
 2669 646 2670 650 2671 653 2671 657 2672 661 2673 665 2673 669 2674 673
 2675 677 2675 680 2676 684 2676 688 2677 692 2677 696 2678 700 2678 704
 2679 708 2679 712 2680 716 2680 719 2680 723 2681 727 2681 731 2681 735
 2682 739 2682 743 2682 747 2682 751 2682 755 2683 759 2683 763 2683 766
 2683 770 2683 774 2683 778 2683 782 100 rps
 grestore showpage
%Trailer
%EOF
