%!PS-Adobe-2.0 EPSF-1.2
%%BoundingBox: 0 0 468 360
%%%%DocumentFonts: /Helvetica
%%Title: Axum PostScript file
%%Creator: TriMetrix, Inc.
%%Pages: 1
%%EndComments
% Copyright 1988-1991 by TriMetrix, Inc. All rights reserved.
/downdict 4 dict def
/sdown
 {downdict begin
  /thestring exch def
  /lineskip exch def
  thestring
   {
    /charcode exch def
    /thechar ( ) dup 0 charcode put def
    0 lineskip neg rmoveto
    gsave
     thechar stringwidth pop 2 div neg 0 rmoveto
     thechar show
    grestore
   } forall
   end
  } def

/updict 4 dict def
/sup
 {updict begin
  /thestring exch def
  /lineskip exch def
  thestring 
   {
    /charcode exch def
    /thechar ( ) dup 0 charcode put def
    0 lineskip rmoveto
    gsave
     thechar stringwidth pop 2 div neg 0 rmoveto
     thechar show
    grestore
   } forall
   end
  } def

/leftdict 4 dict def
/sleft
 {leftdict begin
  /thestring exch def
  thestring
   {
    /charcode exch def
    /thechar ( ) dup 0 charcode put def
    gsave
     thechar stringwidth pop neg 0 rmoveto
     thechar show
    grestore
   } forall

   thechar stringwidth pop neg 0 rmoveto
   end
  } def

/path{newpath moveto{lineto}repeat} bind def 
/cnp{newpath moveto{lineto}repeat closepath} bind def
/clp{moveto{lineto}repeat closepath} bind def
/rps{ 3 1 roll path stroke} bind def
/rcs{ 3 1 roll clp stroke} bind def
/setF { currentscreen 4 -2 roll pop 3 1 roll setscreen} bind def
% required due to WinWord 2.0 bug:
/II { } def

/reencodedict 5 dict def
/reencode
{
   reencodedict begin
   /newencoding exch def
   /newfontname exch def
   /basefontname exch def

   /basefontdict basefontname findfont def
   /newfont basefontdict maxlength dict def

   basefontdict
   {
      exch dup dup /FID ne exch /Encoding ne and
      { exch newfont 3 1 roll put }
      { pop pop }
      ifelse
   }
   forall

   newfont /FontName newfontname put
   newfont /Encoding newencoding put
   newfontname newfont definefont pop
   end
}
def

/axumencoding
[
/.notdef        %   0
/.notdef        %   1
/.notdef        %   2
/.notdef        %   3
/.notdef        %   4
/.notdef        %   5
/.notdef        %   6
/.notdef        %   7
/.notdef        %   8
/.notdef        %   9
/.notdef        %  10
/.notdef        %  11
/.notdef        %  12
/.notdef        %  13
/.notdef        %  14
/.notdef        %  15
/.notdef        %  16
/.notdef        %  17
/.notdef        %  18
/.notdef        %  19
/.notdef        %  20
/.notdef        %  21
/.notdef        %  22
/.notdef        %  23
/.notdef        %  24
/.notdef        %  25
/.notdef        %  26
/.notdef        %  27
/.notdef        %  28
/.notdef        %  29
/.notdef        %  30
/.notdef        %  31
/space          %  32
/exclam         %  33
/quotedbl       %  34
/numbersign     %  35
/dollar         %  36
/percent        %  37
/ampersand      %  38
/quoteright     %  39
/parenleft      %  40
/parenright     %  41
/asterisk       %  42
/plus           %  43
/comma          %  44
/hyphen         %  45
/period         %  46
/slash          %  47
/zero           %  48
/one            %  49
/two            %  50
/three          %  51
/four           %  52
/five           %  53
/six            %  54
/seven          %  55
/eight          %  56
/nine           %  57
/colon          %  58
/semicolon      %  59
/less           %  60
/equal          %  61
/greater        %  62
/question       %  63
/at             %  64
/A              %  65
/B              %  66
/C              %  67
/D              %  68
/E              %  69
/F              %  70
/G              %  71
/H              %  72
/I              %  73
/J              %  74
/K              %  75
/L              %  76
/M              %  77
/N              %  78
/O              %  79
/P              %  80
/Q              %  81
/R              %  82
/S              %  83
/T              %  84
/U              %  85
/V              %  86
/W              %  87
/X              %  88
/Y              %  89
/Z              %  90
/bracketleft    %  91
/backslash      %  92
/bracketright   %  93
/asciicircum    %  94
/underscore     %  95
/quoteleft      %  96
/a              %  97
/b              %  98
/c              %  99
/d              % 100
/e              % 101
/f              % 102
/g              % 103
/h              % 104
/i              % 105
/j              % 106
/k              % 107
/l              % 108
/m              % 109
/n              % 110
/o              % 111
/p              % 112
/q              % 113
/r              % 114
/s              % 115
/t              % 116
/u              % 117
/v              % 118
/w              % 119
/x              % 120
/y              % 121
/z              % 122
/braceleft      % 123
/bar            % 124
/braceright     % 125
/asciitilde     % 126
/.notdef        % 127
/Ccedilla       % 128
/udieresis      % 129
/eacute         % 130
/acircumflex    % 131
/adieresis      % 132
/agrave         % 133
/aring          % 134
/ccedilla       % 135
/ecircumflex    % 136
/edieresis      % 137
/egrave         % 138
/idieresis      % 139
/icircumflex    % 140
/igrave         % 141
/Adieresis      % 142
/Aring          % 143
/Eacute         % 144
/ae             % 145
/AE             % 146
/ocircumflex    % 147
/odieresis      % 148
/ograve         % 149
/ucircumflex    % 150
/ugrave         % 151
/ydieresis      % 152
/Odieresis      % 153
/Udieresis      % 154
/cent           % 155
/sterling       % 156
/yen            % 157
/currency       % 158
/florin         % 159
/aacute         % 160
/iacute         % 161
/oacute         % 162
/uacute         % 163
/ntilde         % 164
/Ntilde         % 165
/ordfeminine    % 166
/ordmasculine   % 167
/questiondown   % 168
/quotedblleft   % 169
/quotedblright  % 170
/Aacute         % 171
/Acircumflex    % 172
/exclamdown     % 173
/Egrave         % 174
/Ecircumflex    % 175
/atilde         % 176
/otilde         % 177
/Edieresis      % 178
/Igrave         % 179
/oe             % 180
/OE             % 181
/Agrave         % 182
/Atilde         % 183
/Otilde         % 184
/section        % 185
/Iacute         % 186
/Icircumflex    % 187
/Idieresis      % 188
/Ograve         % 189
/Oacute         % 190
/Ocircumflex    % 191
/Ugrave         % 192
/Uacute         % 193
/Ucircumflex    % 194
/Ydieresis      % 195
/germandbls     % 196
/guillemotleft  % 197
/guillemotright % 198
/bullet         % 199
/.notdef        % 200
/.notdef        % 201
/.notdef        % 202
/.notdef        % 203
/.notdef        % 204
/.notdef        % 205
/.notdef        % 206
/.notdef        % 207
/.notdef        % 208
/.notdef        % 209
/.notdef        % 210
/.notdef        % 211
/.notdef        % 212
/.notdef        % 213
/.notdef        % 214
/.notdef        % 215
/.notdef        % 216
/.notdef        % 217
/.notdef        % 218
/.notdef        % 219
/.notdef        % 220
/.notdef        % 221
/.notdef        % 222
/.notdef        % 223
/.notdef        % 224
/.notdef        % 225
/.notdef        % 226
/.notdef        % 227
/.notdef        % 228
/.notdef        % 229
/.notdef        % 230
/.notdef        % 231
/.notdef        % 232
/.notdef        % 233
/.notdef        % 234
/.notdef        % 235
/.notdef        % 236
/.notdef        % 237
/.notdef        % 238
/.notdef        % 239
/.notdef        % 240
/.notdef        % 241
/.notdef        % 242
/.notdef        % 243
/.notdef        % 244
/.notdef        % 245
/.notdef        % 246
/.notdef        % 247
/.notdef        % 248
/.notdef        % 249
/.notdef        % 250
/.notdef        % 251
/.notdef        % 252
/.notdef        % 253
/.notdef        % 254
/.notdef        % 255
] 
def

/axumfindfont
{
   /axumfont axumencoding reencode
   /axumfont findfont
}
def


/MainFont /Helvetica axumfindfont 98 scalefont def
MainFont setfont
1 setlinejoin 0 setlinecap 0 setgray
 gsave 72 630 div dup scale
 0.0 setgray [] 0 setdash

1 setlinewidth
 2351 1683 2353 1684 2354 1684 2356 1684 2357 1684 2359 1684 2360 1684 2362 1684 2363 1684
 2365 1684 2366 1684 2368 1684 2369 1684 2371 1684 2373 1684 2374 1684 2376 1684
 2377 1684 2379 1684 2380 1684 2382 1685 2383 1685 2385 1685 2386 1685 2388 1685
 2389 1685 2391 1685 2392 1685 2394 1685 2395 1685 2397 1685 2398 1685 2400 1685
 2401 1685 2403 1685 2405 1685 2406 1685 2408 1685 2409 1685 2411 1685 2412 1685
 2414 1685 2415 1685 2417 1685 2418 1685 2420 1685 2421 1685 2423 1684 2424 1684
 2426 1684 2427 1683 2429 1683 2430 1683 2432 1682 2433 1682 2435 1682 2437 1681
 2438 1681 2440 1680 2441 1680 2443 1679 2444 1678 2446 1678 2447 1677 2449 1677
 2450 1676 2452 1675 2453 1675 2455 1674 2456 1673 2458 1673 2459 1672 2461 1671
 2462 1671 2464 1670 2465 1670 2467 1669 2469 1669 2470 1668 2472 1668 2473 1668
 2475 1667 2476 1667 2478 1667 2479 1667 2481 1667 2482 1668 2484 1668 2485 1668
 2487 1669 2488 1670 2490 1670 2491 1671 2493 1672 2494 1674 2496 1675 2498 1676
 2499 1678 2501 1680 2502 1682 2504 1683 2505 1686 101 rps
 2505 1686 2507 1688 2508 1690 2510 1693 2511 1695 2513 1698 2514 1700 2516 1703 2517 1706
 2519 1709 2520 1712 2522 1715 2523 1717 2525 1720 2526 1723 2528 1726 2530 1729
 2531 1731 2533 1734 2534 1736 2536 1739 2537 1741 2539 1743 2540 1744 2542 1746
 2543 1747 2545 1748 2546 1749 2548 1749 2549 1750 2551 1749 2552 1749 2554 1748
 2555 1747 2557 1746 2558 1744 2560 1742 2562 1739 2563 1736 2565 1733 2566 1730
 2568 1726 2569 1721 2571 1717 2572 1712 2574 1707 2575 1701 2577 1696 2578 1690
 2580 1683 2581 1677 2583 1671 2584 1664 2586 1657 2587 1650 2589 1644 2590 1637
 2592 1630 2594 1623 2595 1617 2597 1610 2598 1604 2600 1598 2601 1592 2603 1586
 2604 1581 2606 1576 2607 1571 2609 1567 2610 1563 2612 1560 2613 1557 2615 1555
 2616 1553 2618 1552 2619 1551 2621 1551 2622 1551 2624 1552 2626 1554 2627 1556
 2629 1559 2630 1562 2632 1566 2633 1570 2635 1575 2636 1581 2638 1586 2639 1593
 2641 1600 2642 1607 2644 1614 2645 1622 2647 1630 2648 1639 2650 1648 2651 1656
 2653 1665 2654 1674 2656 1683 2658 1693 2659 1702 101 rps
 2659 1702 2661 1711 2662 1719 2664 1728 2665 1737 2667 1745 2668 1753 2670 1760 2671 1767
 2673 1774 2674 1781 2676 1786 2677 1792 2679 1797 2680 1801 2682 1805 2683 1808
 2685 1811 2686 1813 2688 1815 2690 1816 2691 1816 2693 1816 2694 1815 2696 1814
 2697 1812 2699 1810 2700 1807 2702 1804 2703 1800 2705 1796 2706 1791 2708 1786
 2709 1781 2711 1775 2712 1769 2714 1763 2715 1757 2717 1750 2718 1744 2720 1737
 2722 1730 2723 1723 2725 1717 2726 1710 2728 1703 2729 1696 2731 1690 2732 1683
 2734 1677 2735 1671 2737 1666 2738 1660 2740 1655 2741 1650 2743 1646 2744 1641
 2746 1637 2747 1634 2749 1631 2750 1628 2752 1625 2754 1623 2755 1621 2757 1620
 2758 1619 2760 1618 2761 1618 2763 1617 2764 1618 2766 1618 2767 1619 2769 1620
 2770 1621 2772 1623 2773 1624 2775 1626 2776 1628 2778 1631 2779 1633 2781 1636
 2782 1638 2784 1641 2786 1644 2787 1647 2789 1650 2790 1652 2792 1655 2793 1658
 2795 1661 2796 1664 2798 1667 2799 1669 2801 1672 2802 1674 2804 1677 2805 1679
 2807 1681 2808 1683 2810 1685 2811 1687 2813 1689 101 rps
 2813 1689 2814 1691 2816 1692 2818 1693 2819 1695 2821 1696 2822 1697 2824 1697 2825 1698
 2827 1699 2828 1699 2830 1699 2831 1700 2833 1700 2834 1700 2836 1700 2837 1700
 2839 1699 2840 1699 2842 1699 2843 1698 2845 1698 2846 1697 2848 1697 2850 1696
 2851 1696 2853 1695 2854 1694 2856 1694 2857 1693 2859 1692 2860 1692 2862 1691
 2863 1690 2865 1690 2866 1689 2868 1689 2869 1688 2871 1687 2872 1687 2874 1686
 2875 1686 2877 1685 2879 1685 2880 1685 2882 1684 2883 1684 2885 1683 2886 1683
 2888 1683 2889 1683 2891 1682 2892 1682 2894 1682 2895 1682 2897 1682 2898 1682
 2900 1682 2901 1682 2903 1682 2904 1682 2906 1682 2907 1682 2909 1682 2911 1682
 2912 1682 2914 1682 2915 1682 2917 1682 2918 1682 2920 1682 2921 1682 2923 1682
 2924 1682 2926 1682 2927 1682 2929 1682 2930 1682 2932 1683 2933 1683 2935 1683
 2936 1683 81 rps
 2936 1683 2938 1683 2939 1683 2941 1683 2943 1683 2944 1683 2946 1683 2947 1683 2949 1683
 2950 1683 2952 1683 2953 1683 2955 1683 2956 1683 2958 1683 2959 1683 2961 1683
 16 rps
 2351 1684 2353 1684 2354 1684 2356 1684 2357 1684 2359 1684 2360 1684 2362 1684 2363 1684
 2365 1684 2366 1684 2368 1684 2369 1684 2371 1684 2373 1684 2374 1684 2376 1684
 2377 1684 2379 1685 2380 1685 2382 1685 2383 1685 2385 1685 2386 1685 2388 1685
 2389 1685 2391 1685 2392 1685 2394 1685 2395 1685 2397 1685 2398 1685 2400 1686
 2401 1686 2403 1686 2405 1686 2406 1686 2408 1686 2409 1686 2411 1686 2412 1687
 2414 1687 2415 1687 2417 1687 2418 1687 2420 1687 2421 1688 2423 1688 2424 1688
 2426 1688 2427 1688 2429 1689 2430 1689 2432 1689 2433 1689 2435 1690 2437 1690
 2438 1690 2440 1691 2441 1691 2443 1691 2444 1691 2446 1692 2447 1692 2449 1693
 2450 1693 2452 1693 2453 1694 2455 1694 2456 1695 2458 1695 2459 1695 2461 1696
 2462 1696 2464 1697 2465 1697 2467 1698 2469 1698 2470 1699 2472 1700 2473 1700
 2475 1701 2476 1701 2478 1702 2479 1703 2481 1703 2482 1704 2484 1705 2485 1706
 2487 1706 2488 1707 2490 1708 2491 1709 2493 1710 2494 1710 2496 1711 2498 1712
 2499 1713 2501 1714 2502 1715 2504 1716 2505 1717 101 rps
 2505 1717 2507 1718 2508 1719 2510 1720 2511 1721 2513 1722 2514 1723 2516 1724 2517 1725
 2519 1726 2520 1728 2522 1729 2523 1730 2525 1731 2526 1733 2528 1734 2530 1735
 2531 1736 2533 1738 2534 1739 2536 1740 2537 1742 2539 1743 2540 1744 2542 1746
 2543 1747 2545 1749 2546 1750 2548 1752 2549 1753 2551 1754 2552 1756 2554 1757
 2555 1759 2557 1760 2558 1762 2560 1763 2562 1765 2563 1766 2565 1768 2566 1769
 2568 1771 2569 1772 2571 1774 2572 1776 2574 1777 2575 1779 2577 1780 2578 1782
 2580 1783 2581 1785 2583 1786 2584 1787 2586 1789 2587 1790 2589 1792 2590 1793
 2592 1795 2594 1796 2595 1797 2597 1799 2598 1800 2600 1801 2601 1803 2603 1804
 2604 1805 2606 1807 2607 1808 2609 1809 2610 1810 2612 1811 2613 1812 2615 1813
 2616 1814 2618 1815 2619 1816 2621 1817 2622 1818 2624 1819 2626 1820 2627 1821
 2629 1821 2630 1822 2632 1823 2633 1824 2635 1824 2636 1825 2638 1825 2639 1826
 2641 1826 2642 1827 2644 1827 2645 1827 2647 1828 2648 1828 2650 1828 2651 1828
 2653 1828 2654 1828 2656 1828 2658 1828 2659 1828 101 rps
 2659 1828 2661 1828 2662 1828 2664 1828 2665 1828 2667 1827 2668 1827 2670 1827 2671 1826
 2673 1826 2674 1825 2676 1825 2677 1824 2679 1824 2680 1823 2682 1822 2683 1821
 2685 1821 2686 1820 2688 1819 2690 1818 2691 1817 2693 1816 2694 1815 2696 1814
 2697 1813 2699 1812 2700 1811 2702 1810 2703 1809 2705 1808 2706 1807 2708 1805
 2709 1804 2711 1803 2712 1801 2714 1800 2715 1799 2717 1797 2718 1796 2720 1795
 2722 1793 2723 1792 2725 1790 2726 1789 2728 1787 2729 1786 2731 1785 2732 1783
 2734 1782 2735 1780 2737 1779 2738 1777 2740 1776 2741 1774 2743 1772 2744 1771
 2746 1769 2747 1768 2749 1766 2750 1765 2752 1763 2754 1762 2755 1760 2757 1759
 2758 1757 2760 1756 2761 1754 2763 1753 2764 1752 2766 1750 2767 1749 2769 1747
 2770 1746 2772 1744 2773 1743 2775 1742 2776 1740 2778 1739 2779 1738 2781 1736
 2782 1735 2784 1734 2786 1733 2787 1731 2789 1730 2790 1729 2792 1728 2793 1726
 2795 1725 2796 1724 2798 1723 2799 1722 2801 1721 2802 1720 2804 1719 2805 1718
 2807 1717 2808 1716 2810 1715 2811 1714 2813 1713 101 rps
 2813 1713 2814 1712 2816 1711 2818 1710 2819 1710 2821 1709 2822 1708 2824 1707 2825 1706
 2827 1706 2828 1705 2830 1704 2831 1703 2833 1703 2834 1702 2836 1701 2837 1701
 2839 1700 2840 1700 2842 1699 2843 1698 2845 1698 2846 1697 2848 1697 2850 1696
 2851 1696 2853 1695 2854 1695 2856 1695 2857 1694 2859 1694 2860 1693 2862 1693
 2863 1693 2865 1692 2866 1692 2868 1691 2869 1691 2871 1691 2872 1691 2874 1690
 2875 1690 2877 1690 2879 1689 2880 1689 2882 1689 2883 1689 2885 1688 2886 1688
 2888 1688 2889 1688 2891 1688 2892 1687 2894 1687 2895 1687 2897 1687 2898 1687
 2900 1687 2901 1686 2903 1686 2904 1686 2906 1686 2907 1686 2909 1686 2911 1686
 2912 1686 2914 1685 2915 1685 2917 1685 2918 1685 2920 1685 2921 1685 2923 1685
 2924 1685 2926 1685 2927 1685 2929 1685 2930 1685 2932 1685 2933 1685 2935 1684
 2936 1684 81 rps
 2936 1684 2938 1684 2939 1684 2941 1684 2943 1684 2944 1684 2946 1684 2947 1684 2949 1684
 2950 1684 2952 1684 2953 1684 2955 1684 2956 1684 2958 1684 2959 1684 2961 1684
 16 rps
 2351 1683 2353 1683 2354 1683 2356 1683 2357 1683 2359 1683 2360 1683 2362 1683 2363 1683
 2365 1683 2366 1683 2368 1683 2369 1683 2371 1683 2373 1683 2374 1683 2376 1683
 2377 1683 2379 1682 2380 1682 2382 1682 2383 1682 2385 1682 2386 1682 2388 1682
 2389 1682 2391 1682 2392 1682 2394 1682 2395 1682 2397 1682 2398 1682 2400 1681
 2401 1681 2403 1681 2405 1681 2406 1681 2408 1681 2409 1681 2411 1681 2412 1680
 2414 1680 2415 1680 2417 1680 2418 1680 2420 1680 2421 1679 2423 1679 2424 1679
 2426 1679 2427 1679 2429 1678 2430 1678 2432 1678 2433 1678 2435 1677 2437 1677
 2438 1677 2440 1676 2441 1676 2443 1676 2444 1676 2446 1675 2447 1675 2449 1674
 2450 1674 2452 1674 2453 1673 2455 1673 2456 1672 2458 1672 2459 1672 2461 1671
 2462 1671 2464 1670 2465 1670 2467 1669 2469 1669 2470 1668 2472 1667 2473 1667
 2475 1666 2476 1666 2478 1665 2479 1664 2481 1664 2482 1663 2484 1662 2485 1661
 2487 1661 2488 1660 2490 1659 2491 1658 2493 1657 2494 1657 2496 1656 2498 1655
 2499 1654 2501 1653 2502 1652 2504 1651 2505 1650 101 rps
 2505 1650 2507 1649 2508 1648 2510 1647 2511 1646 2513 1645 2514 1644 2516 1643 2517 1642
 2519 1641 2520 1639 2522 1638 2523 1637 2525 1636 2526 1634 2528 1633 2530 1632
 2531 1631 2533 1629 2534 1628 2536 1627 2537 1625 2539 1624 2540 1623 2542 1621
 2543 1620 2545 1618 2546 1617 2548 1615 2549 1614 2551 1613 2552 1611 2554 1610
 2555 1608 2557 1607 2558 1605 2560 1604 2562 1602 2563 1601 2565 1599 2566 1598
 2568 1596 2569 1595 2571 1593 2572 1591 2574 1590 2575 1588 2577 1587 2578 1585
 2580 1584 2581 1582 2583 1581 2584 1580 2586 1578 2587 1577 2589 1575 2590 1574
 2592 1572 2594 1571 2595 1570 2597 1568 2598 1567 2600 1566 2601 1564 2603 1563
 2604 1562 2606 1560 2607 1559 2609 1558 2610 1557 2612 1556 2613 1555 2615 1554
 2616 1553 2618 1552 2619 1551 2621 1550 2622 1549 2624 1548 2626 1547 2627 1546
 2629 1546 2630 1545 2632 1544 2633 1543 2635 1543 2636 1542 2638 1542 2639 1541
 2641 1541 2642 1540 2644 1540 2645 1540 2647 1539 2648 1539 2650 1539 2651 1539
 2653 1539 2654 1539 2656 1539 2658 1539 2659 1539 101 rps
 2659 1539 2661 1539 2662 1539 2664 1539 2665 1539 2667 1540 2668 1540 2670 1540 2671 1541
 2673 1541 2674 1542 2676 1542 2677 1543 2679 1543 2680 1544 2682 1545 2683 1546
 2685 1546 2686 1547 2688 1548 2690 1549 2691 1550 2693 1551 2694 1552 2696 1553
 2697 1554 2699 1555 2700 1556 2702 1557 2703 1558 2705 1559 2706 1560 2708 1562
 2709 1563 2711 1564 2712 1566 2714 1567 2715 1568 2717 1570 2718 1571 2720 1572
 2722 1574 2723 1575 2725 1577 2726 1578 2728 1580 2729 1581 2731 1582 2732 1584
 2734 1585 2735 1587 2737 1588 2738 1590 2740 1591 2741 1593 2743 1595 2744 1596
 2746 1598 2747 1599 2749 1601 2750 1602 2752 1604 2754 1605 2755 1607 2757 1608
 2758 1610 2760 1611 2761 1613 2763 1614 2764 1615 2766 1617 2767 1618 2769 1620
 2770 1621 2772 1623 2773 1624 2775 1625 2776 1627 2778 1628 2779 1629 2781 1631
 2782 1632 2784 1633 2786 1634 2787 1636 2789 1637 2790 1638 2792 1639 2793 1641
 2795 1642 2796 1643 2798 1644 2799 1645 2801 1646 2802 1647 2804 1648 2805 1649
 2807 1650 2808 1651 2810 1652 2811 1653 2813 1654 101 rps
 2813 1654 2814 1655 2816 1656 2818 1657 2819 1657 2821 1658 2822 1659 2824 1660 2825 1661
 2827 1661 2828 1662 2830 1663 2831 1664 2833 1664 2834 1665 2836 1666 2837 1666
 2839 1667 2840 1667 2842 1668 2843 1669 2845 1669 2846 1670 2848 1670 2850 1671
 2851 1671 2853 1672 2854 1672 2856 1672 2857 1673 2859 1673 2860 1674 2862 1674
 2863 1674 2865 1675 2866 1675 2868 1676 2869 1676 2871 1676 2872 1676 2874 1677
 2875 1677 2877 1677 2879 1678 2880 1678 2882 1678 2883 1678 2885 1679 2886 1679
 2888 1679 2889 1679 2891 1679 2892 1680 2894 1680 2895 1680 2897 1680 2898 1680
 2900 1680 2901 1681 2903 1681 2904 1681 2906 1681 2907 1681 2909 1681 2911 1681
 2912 1681 2914 1682 2915 1682 2917 1682 2918 1682 2920 1682 2921 1682 2923 1682
 2924 1682 2926 1682 2927 1682 2929 1682 2930 1682 2932 1682 2933 1682 2935 1683
 2936 1683 81 rps
 2936 1683 2938 1683 2939 1683 2941 1683 2943 1683 2944 1683 2946 1683 2947 1683 2949 1683
 2950 1683 2952 1683 2953 1683 2955 1683 2956 1683 2958 1683 2959 1683 2961 1683
 16 rps

/Times-Roman axumfindfont 124 scalefont setfont
 2488 1883 moveto  (Photon) show 
 2120 905 moveto  (Ion) show 
 1342 1656 moveto  (Electron) show 
 673 523 1865 1656 1 rps
 1865 1656
 1815 1577 1784 1610 1865 1656 3 3 1 roll cnp
 0.00 setgray
gsave eofill grestore  0.0 setgray
 stroke 0.0 setgray 0.0 setgray 1906 1710 2502 2839 1 rps
 2502 2839
 2479 2748 2440 2769 2502 2839 3 3 1 roll cnp
 0.00 setgray
gsave eofill grestore  0.0 setgray
 stroke 0.0 setgray 0.0 setgray [20 20] 0 setdash
 3417 1683 2962 1683 1 rps
 2352 1683 1924 1683 1 rps
 [] 0 setdash
 1924 1683
 2014 1705 2014 1660 1924 1683 3 3 1 roll cnp
 0.00 setgray
gsave eofill grestore  0.0 setgray
 stroke 0.0 setgray 0.0 setgray 1888 1661 1896 1661 1905 1665 1910 1670 1914 1679 1914 1687 1910 1696 1905 1701 1896 1705
 1888 1705 1879 1701 1874 1696 1870 1687 1870 1679 1874 1670 1879 1665 15 rcs

 2184 1037
 2210 1037 2237 1051 2251 1065 2265 1092
 2265 1118 2251 1145 2237 1159 2210 1173
 2184 1173 2157 1159 2143 1145 2129 1118
 2129 1092 2143 1065 2157 1051 2184 1037
 16 3 1 roll cnp
 0.00 setgray
gsave eofill grestore  0.0 setgray
 stroke 0.0 setgray grestore showpage
%Trailer
%EOF
