%!PS-Adobe-2.0 EPSF-2.0
%%Title: fig_circle.dia
%%Creator: Dia v0.90
%%CreationDate: Tue Nov  9 17:14:54 2004
%%For: frigaard
%%Magnification: 1.0000
%%Orientation: Portrait
%%BoundingBox: 0 0 360 226
%%Pages: 1
%%EndComments
%%BeginProlog
/cp {closepath} bind def
/c {curveto} bind def
/f {fill} bind def
/a {arc} bind def
/ef {eofill} bind def
/ex {exch} bind def
/gr {grestore} bind def
/gs {gsave} bind def
/sa {save} bind def
/rs {restore} bind def
/l {lineto} bind def
/m {moveto} bind def
/rm {rmoveto} bind def
/n {newpath} bind def
/s {stroke} bind def
/sh {show} bind def
/slc {setlinecap} bind def
/slj {setlinejoin} bind def
/slw {setlinewidth} bind def
/srgb {setrgbcolor} bind def
/rot {rotate} bind def
/sc {scale} bind def
/sd {setdash} bind def
/ff {findfont} bind def
/sf {setfont} bind def
/scf {scalefont} bind def
/sw {stringwidth pop} bind def
/tr {translate} bind def

/ellipsedict 8 dict def
ellipsedict /mtrx matrix put
/ellipse
{ ellipsedict begin
   /endangle exch def
   /startangle exch def
   /yrad exch def
   /xrad exch def
   /y exch def
   /x exch def   /savematrix mtrx currentmatrix def
   x y tr xrad yrad sc
   0 0 1 startangle endangle arc
   savematrix setmatrix
   end
} def

/mergeprocs {
dup length
3 -1 roll
dup
length
dup
5 1 roll
3 -1 roll
add
array cvx
dup
3 -1 roll
0 exch
putinterval
dup
4 2 roll
putinterval
} bind def
%%EndProlog

%%BeginSetup
%%EndSetup
28.346000 -28.346000 scale
-28.915800 -12.005000 translate

0.913725 0.913725 0.913725 srgb
n 34.485410 8.500000 3.514610 3.500000 0 360 ellipse f
0.010000 slw
[] 0 sd
[] 0 sd
0.000000 0.000000 0.000000 srgb
n 34.485410 8.500000 3.514610 3.500000 0 360 ellipse cp s
1.000000 1.000000 1.000000 srgb
n 34.514610 8.500000 3.014610 3.000000 0 360 ellipse f
0.010000 slw
[] 0 sd
[] 0 sd
0.000000 0.000000 0.000000 srgb
n 34.514610 8.500000 3.014610 3.000000 0 360 ellipse cp s
 [ /xi /xi /xi /xi /xi /xi /xi /xi /xi /xi /xi /xi /xi /xi /xi /xi
 /xi /xi /xi /xi /xi /xi /xi /xi /xi /xi /xi /xi /xi /xi /xi /xi
 /r /d /A /equal /two /space /f /p /xi /xi /s /h /e /l /xi /xi
 /xi /xi /xi /xi /xi /xi /xi /xi /xi /xi /xi /xi /xi /xi /xi /xi
 /xi /xi /xi /xi /xi /xi /xi /xi /xi /xi /xi /xi /xi /xi /xi /xi
 /xi /xi /xi /xi /xi /xi /xi /xi /xi /xi /xi /xi /xi /xi /xi /xi
 /xi /xi /xi /xi /xi /xi /xi /xi /xi /xi /xi /xi /xi /xi /xi /xi
 /xi /xi /xi /xi /xi /xi /xi /xi /xi /xi /xi /xi /xi /xi /xi /xi
 /xi /xi /xi /xi /xi /xi /xi /xi /xi /xi /xi /xi /xi /xi /xi /xi
 /xi /xi /xi /xi /xi /xi /xi /xi /xi /xi /xi /xi /xi /xi /xi /xi
 /xi /xi /xi /xi /xi /xi /xi /xi /xi /xi /xi /xi /xi /xi /xi /xi
 /xi /xi /xi /xi /xi /xi /xi /xi /xi /xi /xi /xi /xi /xi /xi /xi
 /xi /xi /xi /xi /xi /xi /xi /xi /xi /xi /xi /xi /xi /xi /xi /xi
 /xi /xi /xi /xi /xi /xi /xi /xi /xi /xi /xi /xi /xi /xi /xi /xi
 /xi /xi /xi /xi /xi /xi /xi /xi /xi /xi /xi /xi /xi /xi /xi /xi
 /xi /xi /xi /xi /xi /xi /xi /xi /xi /xi /xi /xi /xi /xi /xi /xi
] /e0 exch def
/Times-Roman_e0 undefinefont
/Times-Roman_e0
  /Times-Roman findfont
  dup length dict begin
  {1 index /FID ne {def} {pop pop} ifelse} forall
  /Encoding e0 def
  currentdict end
definefont pop
/Times-Roman_e0 ff 0.800000 scf sf
( ) sw
2 div 35.566100 ex sub 7.646150 m ( )
 gs 1 -1 sc sh gr
/Times-Roman_e0 ff 0.800000 scf sf
(! ) sw
2 div 35.615500 ex sub 4.735380 m (! )
 gs 1 -1 sc sh gr
0.010000 slw
[] 0 sd
[] 0 sd
0 slc
n 37.087900 6.948860 m 34.550000 8.525000 l s
0.010000 slw
[] 0 sd
0 slj
0 slc
n 36.729094 7.318837 m 37.087900 6.948860 l 36.597200 7.106461 l s
0.010000 slw
[] 0 sd
[] 0 sd
0 slc
n 36.498500 4.491570 m 35.500000 6.500000 l s
0.010000 slw
[] 0 sd
[] 0 sd
0 slc
n 36.500000 4.500000 m 36.064000 5.364890 l s
0 slj
n 36.154764 4.962694 m 36.064000 5.364890 l 36.333354 5.052723 l f
0.010000 slw
[] 0 sd
[] 0 sd
0 slc
n 35.408800 6.697780 m 35.839100 5.816190 l s
0 slj
n 35.753513 6.219520 m 35.839100 5.816190 l 35.573780 6.131793 l f
/Times-Roman_e0 ff 0.800000 scf sf
(!"#$%% ! ) sw
2 div 39.862700 ex sub 9.224490 m (!"#$%% ! )
 gs 1 -1 sc sh gr
0.010000 slw
[] 0 sd
[] 0 sd
0 slc
n 37.713000 7.772486 m 38.767700 6.138890 l s
0.010000 slw
[] 0 sd
0 slj
0 slc
n 37.879188 7.284627 m 37.713000 7.772486 l 38.089217 7.420228 l s
0.010000 slw
[] 0 sd
[] 0 sd
0 slc
n 37.855800 9.462286 m 34.555216 8.522281 l s
0.010000 slw
[] 0 sd
[] 0 sd
0 slc
n 33.435268 7.891448 2.385637 2.385637 5.726478 45.915506 ellipse s
0.010000 slw
[] 0 sd
[] 0 sd
0 slc
n 37.617800 10.128686 m 34.560357 8.522281 l s
0.010000 slw
[] 0 sd
[] 0 sd
0 slc
n 35.285400 9.462286 m 35.579587 9.007106 l s
0 slj
n 35.446449 9.397330 m 35.579587 9.007106 l 35.278478 9.288768 l f
0.010000 slw
[] 0 sd
[] 0 sd
0 slc
n 35.761400 8.415086 m 35.666200 8.795886 l s
0 slj
n 35.666200 8.383575 m 35.666200 8.795886 l 35.860229 8.432082 l f
/Symbol ff 0.800000 scf sf
(f) sw
2 div 34.761800 ex sub 9.890686 m (f)
 gs 1 -1 sc sh gr
/Times-Roman_e0 ff 0.800000 scf sf
(!) sw
2 div 34.381000 ex sub 9.890686 m (!)
 gs 1 -1 sc sh gr
0.010000 slw
[] 0 sd
[] 0 sd
0 slc
n 37.481181 9.802722 m 39.569400 9.390886 l s
0.010000 slw
[] 0 sd
0 slj
0 slc
n 37.947546 9.583339 m 37.481181 9.802722 l 37.995919 9.828614 l s
/Symbol ff 0.800000 scf sf
(p) sw
2 div 40.274500 ex sub 9.226090 m (p)
 gs 1 -1 sc sh gr
/Times-Roman_e0 ff 0.800000 scf sf
(!") sw
2 div 38.498200 ex sub 5.884980 m (!")
 gs 1 -1 sc sh gr
/Times-Roman_e0 ff 0.600000 scf sf
(*+,--) sw
2 div 39.547400 ex sub 6.122980 m (*+,--)
 gs 1 -1 sc sh gr
showpage
