%!PS-Adobe-2.0 EPSF-2.0
%%Title: fig_cylindrical.dia
%%Creator: Dia v0.90
%%CreationDate: Tue Nov  9 16:53:20 2004
%%For: frigaard
%%Magnification: 1.0000
%%Orientation: Portrait
%%BoundingBox: 0 0 545 443
%%Pages: 1
%%EndComments
%%BeginProlog
/cp {closepath} bind def
/c {curveto} bind def
/f {fill} bind def
/a {arc} bind def
/ef {eofill} bind def
/ex {exch} bind def
/gr {grestore} bind def
/gs {gsave} bind def
/sa {save} bind def
/rs {restore} bind def
/l {lineto} bind def
/m {moveto} bind def
/rm {rmoveto} bind def
/n {newpath} bind def
/s {stroke} bind def
/sh {show} bind def
/slc {setlinecap} bind def
/slj {setlinejoin} bind def
/slw {setlinewidth} bind def
/srgb {setrgbcolor} bind def
/rot {rotate} bind def
/sc {scale} bind def
/sd {setdash} bind def
/ff {findfont} bind def
/sf {setfont} bind def
/scf {scalefont} bind def
/sw {stringwidth pop} bind def
/tr {translate} bind def

/ellipsedict 8 dict def
ellipsedict /mtrx matrix put
/ellipse
{ ellipsedict begin
   /endangle exch def
   /startangle exch def
   /yrad exch def
   /xrad exch def
   /y exch def
   /x exch def   /savematrix mtrx currentmatrix def
   x y tr xrad yrad sc
   0 0 1 startangle endangle arc
   savematrix setmatrix
   end
} def

/mergeprocs {
dup length
3 -1 roll
dup
length
dup
5 1 roll
3 -1 roll
add
array cvx
dup
3 -1 roll
0 exch
putinterval
dup
4 2 roll
putinterval
} bind def
%%EndProlog

%%BeginSetup
%%EndSetup
28.346000 -28.346000 scale
-4.713622 -40.329412 translate

0.010000 slw
[] 0 sd
[] 0 sd
0 slc
0.000000 0.000000 0.000000 srgb
n 10.000000 25.000000 m 10.000000 35.000000 l s
0.010000 slw
[] 0 sd
0 slj
0 slc
n 10.200000 25.800000 m 10.000000 25.000000 l 9.800000 25.800000 l s
7.000000 40.000000 m  [ /xi /xi /xi /xi /xi /xi /xi /xi /xi /xi /xi /xi /xi /xi /xi /xi
 /xi /xi /xi /xi /xi /xi /xi /xi /xi /xi /xi /xi /xi /xi /xi /xi
 /x /z /y /r /f /parenleft /comma /parenright /xi /xi /space /P /equal /xi /xi /xi
 /xi /xi /xi /xi /xi /xi /xi /xi /xi /xi /xi /xi /xi /xi /xi /xi
 /xi /xi /xi /xi /xi /xi /xi /xi /xi /xi /xi /xi /xi /xi /xi /xi
 /xi /xi /xi /xi /xi /xi /xi /xi /xi /xi /xi /xi /xi /xi /xi /xi
 /xi /xi /xi /xi /xi /xi /xi /xi /xi /xi /xi /xi /xi /xi /xi /xi
 /xi /xi /xi /xi /xi /xi /xi /xi /xi /xi /xi /xi /xi /xi /xi /xi
 /xi /xi /xi /xi /xi /xi /xi /xi /xi /xi /xi /xi /xi /xi /xi /xi
 /xi /xi /xi /xi /xi /xi /xi /xi /xi /xi /xi /xi /xi /xi /xi /xi
 /xi /xi /xi /xi /xi /xi /xi /xi /xi /xi /xi /xi /xi /xi /xi /xi
 /xi /xi /xi /xi /xi /xi /xi /xi /xi /xi /xi /xi /xi /xi /xi /xi
 /xi /xi /xi /xi /xi /xi /xi /xi /xi /xi /xi /xi /xi /xi /xi /xi
 /xi /xi /xi /xi /xi /xi /xi /xi /xi /xi /xi /xi /xi /xi /xi /xi
 /xi /xi /xi /xi /xi /xi /xi /xi /xi /xi /xi /xi /xi /xi /xi /xi
 /xi /xi /xi /xi /xi /xi /xi /xi /xi /xi /xi /xi /xi /xi /xi /xi
] /e0 exch def
/Times-Roman_e0 undefinefont
/Times-Roman_e0
  /Times-Roman findfont
  dup length dict begin
  {1 index /FID ne {def} {pop pop} ifelse} forall
  /Encoding e0 def
  currentdict end
definefont pop
/Times-Roman_e0 ff 1.600000 scf sf
( )
 gs 1 -1 sc sh gr
0.010000 slw
[] 0 sd
[] 0 sd
0 slc
n 20.000000 35.000000 m 10.000000 35.000000 l s
0.010000 slw
[] 0 sd
0 slj
0 slc
n 19.200000 35.200000 m 20.000000 35.000000 l 19.200000 34.800000 l s
0.010000 slw
[] 0 sd
[] 0 sd
0 slc
n 5.000000 40.000000 m 10.000000 35.000000 l s
0.010000 slw
[] 0 sd
0 slj
0 slc
n 5.424264 39.292893 m 5.000000 40.000000 l 5.707107 39.575736 l s
11.000000 26.000000 m /Times-Roman_e0 ff 1.600000 scf sf
(!)
 gs 1 -1 sc sh gr
19.000000 37.000000 m /Times-Roman_e0 ff 1.600000 scf sf
(")
 gs 1 -1 sc sh gr
0.010000 slw
[0.200000] 0 sd
[0.200000] 0 sd
0 slc
n 15.000000 38.000000 m 10.000000 35.000000 l s
12.000000 38.000000 m /Times-Roman_e0 ff 1.600000 scf sf
(#)
 gs 1 -1 sc sh gr
0.020000 slw
[] 0 sd
[] 0 sd
0 slc
n 10.168047 33.875588 2.408956 2.408956 57.363904 118.190362 ellipse s
0 slj
n 10.901370 36.504064 m 11.467200 35.904200 l 10.685649 36.167219 l f
9.880780 37.607000 m /Symbol ff 1.600000 scf sf
(f)
 gs 1 -1 sc sh gr
18.188300 28.405400 m /Times-Roman_e0 ff 1.600000 scf sf
(% &"&!')
 gs 1 -1 sc sh gr
18.238800 30.322500 m /Times-Roman_e0 ff 1.600000 scf sf
(%#&***&!')
 gs 1 -1 sc sh gr
15.709300 29.541300 m /Times-Roman_e0 ff 1.600000 scf sf
(+*,)
 gs 1 -1 sc sh gr
0.010000 slw
[0.200000] 0 sd
[0.200000] 0 sd
0 slc
n 15.000000 38.000000 m 15.000000 29.000000 l s
n 14.997405 29.014360 0.153805 0.166160 0 360 ellipse f
0.100000 slw
[] 0 sd
[] 0 sd
n 14.997405 29.014360 0.153805 0.166160 0 360 ellipse cp s
0.100000 slw
[] 0 sd
[] 0 sd
0 slc
n 10.000000 35.000000 m 14.888648 29.131853 l s
19.830800 30.443400 m /Symbol ff 1.600000 scf sf
(f)
 gs 1 -1 sc sh gr
0.010000 slw
[0.200000] 0 sd
[0.200000] 0 sd
0 slc
n 14.997405 28.848200 m 10.000000 26.000000 l s
showpage
