%!PS-Adobe-2.0 EPSF-2.0
%%Title: fig_pi.dia
%%Creator: Dia v0.90
%%CreationDate: Mon Oct 18 16:27:15 2004
%%For: caf
%%Magnification: 1.0000
%%Orientation: Portrait
%%BoundingBox: 0 0 856 282
%%Pages: 1
%%EndComments
%%BeginProlog
/cp {closepath} bind def
/c {curveto} bind def
/f {fill} bind def
/a {arc} bind def
/ef {eofill} bind def
/ex {exch} bind def
/gr {grestore} bind def
/gs {gsave} bind def
/sa {save} bind def
/rs {restore} bind def
/l {lineto} bind def
/m {moveto} bind def
/rm {rmoveto} bind def
/n {newpath} bind def
/s {stroke} bind def
/sh {show} bind def
/slc {setlinecap} bind def
/slj {setlinejoin} bind def
/slw {setlinewidth} bind def
/srgb {setrgbcolor} bind def
/rot {rotate} bind def
/sc {scale} bind def
/sd {setdash} bind def
/ff {findfont} bind def
/sf {setfont} bind def
/scf {scalefont} bind def
/sw {stringwidth pop} bind def
/tr {translate} bind def

/ellipsedict 8 dict def
ellipsedict /mtrx matrix put
/ellipse
{ ellipsedict begin
   /endangle exch def
   /startangle exch def
   /yrad exch def
   /xrad exch def
   /y exch def
   /x exch def   /savematrix mtrx currentmatrix def
   x y tr xrad yrad sc
   0 0 1 startangle endangle arc
   savematrix setmatrix
   end
} def

/mergeprocs {
dup length
3 -1 roll
dup
length
dup
5 1 roll
3 -1 roll
add
array cvx
dup
3 -1 roll
0 exch
putinterval
dup
4 2 roll
putinterval
} bind def
%%EndProlog

%%BeginSetup
%%EndSetup
28.346000 -28.346000 scale
-8.950000 -32.005000 translate

0.000000 0.000000 0.000000 srgb
8.950000 28.550000 m  [ /xi /xi /xi /xi /xi /xi /xi /xi /xi /xi /xi /xi /xi /xi /xi /xi
 /xi /xi /xi /xi /xi /xi /xi /xi /xi /xi /xi /xi /xi /xi /xi /xi
 /one /space /A /U /r /p /asterisk /xi /xi /xi /xi /xi /xi /xi /xi /xi
 /xi /xi /xi /xi /xi /xi /xi /xi /xi /xi /xi /xi /xi /xi /xi /xi
 /xi /xi /xi /xi /xi /xi /xi /xi /xi /xi /xi /xi /xi /xi /xi /xi
 /xi /xi /xi /xi /xi /xi /xi /xi /xi /xi /xi /xi /xi /xi /xi /xi
 /xi /xi /xi /xi /xi /xi /xi /xi /xi /xi /xi /xi /xi /xi /xi /xi
 /xi /xi /xi /xi /xi /xi /xi /xi /xi /xi /xi /xi /xi /xi /xi /xi
 /xi /xi /xi /xi /xi /xi /xi /xi /xi /xi /xi /xi /xi /xi /xi /xi
 /xi /xi /xi /xi /xi /xi /xi /xi /xi /xi /xi /xi /xi /xi /xi /xi
 /xi /xi /xi /xi /xi /xi /xi /xi /xi /xi /xi /xi /xi /xi /xi /xi
 /xi /xi /xi /xi /xi /xi /xi /xi /xi /xi /xi /xi /xi /xi /xi /xi
 /xi /xi /xi /xi /xi /xi /xi /xi /xi /xi /xi /xi /xi /xi /xi /xi
 /xi /xi /xi /xi /xi /xi /xi /xi /xi /xi /xi /xi /xi /xi /xi /xi
 /xi /xi /xi /xi /xi /xi /xi /xi /xi /xi /xi /xi /xi /xi /xi /xi
 /xi /xi /xi /xi /xi /xi /xi /xi /xi /xi /xi /xi /xi /xi /xi /xi
] /e0 exch def
/Times-Roman_e0 undefinefont
/Times-Roman_e0
  /Times-Roman findfont
  dup length dict begin
  {1 index /FID ne {def} {pop pop} ifelse} forall
  /Encoding e0 def
  currentdict end
definefont pop
/Times-Roman_e0 ff 1.600000 scf sf
( !"#)
 gs 1 -1 sc sh gr
26.000000 23.250000 m /Times-Roman_e0 ff 1.600000 scf sf
($!)
 gs 1 -1 sc sh gr
20.000000 29.000000 m /Symbol ff 1.600000 scf sf
(p)
 gs 1 -1 sc sh gr
38.100000 31.300000 m /Times-Roman_e0 ff 2.500000 scf sf
(&)
 gs 1 -1 sc sh gr
0.100000 slw
[] 0 sd
[] 0 sd
0 slc
n 19.000000 28.500000 2.500000 2.500000 323.130102 36.869898 ellipse s
0.010000 slw
[] 0 sd
[] 0 sd
0 slc
n 14.998700 30.006100 m 38.000000 30.000000 l s
0.010000 slw
[] 0 sd
[] 0 sd
0 slc
n 15.044600 26.061500 m 38.000000 30.000000 l s
0.010000 slw
[] 0 sd
[] 0 sd
0 slc
n 15.000000 24.000000 m 38.000000 24.000000 l s
0 slj
n 15.800000 23.800000 m 15.000000 24.000000 l 15.800000 24.200000 l f
0 slj
n 37.200000 24.200000 m 38.000000 24.000000 l 37.200000 23.800000 l f
0.010000 slw
[] 0 sd
[] 0 sd
0 slc
n 38.000000 23.000000 m 38.000000 25.000000 l s
0.010000 slw
[] 0 sd
[] 0 sd
0 slc
n 15.000000 23.000000 m 15.000000 25.000000 l s
0.010000 slw
[] 0 sd
[] 0 sd
0 slc
n 13.000000 30.000000 m 13.000000 32.000000 l s
0 slj
n 13.200000 30.800000 m 13.000000 30.000000 l 12.800000 30.800000 l f
0.010000 slw
[] 0 sd
[] 0 sd
0 slc
n 12.000000 30.000000 m 14.000000 30.000000 l s
0.010000 slw
[] 0 sd
[] 0 sd
0 slc
n 12.000000 26.000000 m 14.000000 26.000000 l s
0.010000 slw
[] 0 sd
[] 0 sd
0 slc
n 13.000000 26.000000 m 13.000000 24.000000 l s
0 slj
n 12.800000 25.200000 m 13.000000 26.000000 l 13.200000 25.200000 l f
0.010000 slw
[] 0 sd
[] 0 sd
0 slc
n 13.000000 26.000000 m 13.000000 30.000000 l s
1.000000 1.000000 1.000000 srgb
n 14.994605 30.011500 0.394605 0.411500 0 360 ellipse f
0.100000 slw
[] 0 sd
[] 0 sd
0.000000 0.000000 0.000000 srgb
n 14.994605 30.011500 0.394605 0.411500 0 360 ellipse cp s
0.100000 slw
[] 0 sd
[] 0 sd
0 slc
n 15.034900 29.976100 m 14.962500 30.036200 l s
1.000000 1.000000 1.000000 srgb
n 15.044605 26.061500 0.394605 0.411500 0 360 ellipse f
0.100000 slw
[] 0 sd
[] 0 sd
0.000000 0.000000 0.000000 srgb
n 15.044605 26.061500 0.394605 0.411500 0 360 ellipse cp s
0.100000 slw
[] 0 sd
[] 0 sd
0 slc
n 14.765600 25.770500 m 15.323600 26.352500 l s
0.100000 slw
[] 0 sd
[] 0 sd
0 slc
n 15.323600 25.770500 m 14.765600 26.352500 l s
showpage
