%!PS-Adobe-2.0 EPSF-2.0
%%Title: fig_volumen.dia
%%Creator: Dia v0.90
%%CreationDate: Mon Jan 24 20:31:50 2005
%%For: caf
%%Magnification: 1.0000
%%Orientation: Portrait
%%BoundingBox: 0 0 256 139
%%Pages: 1
%%EndComments
%%BeginProlog
/cp {closepath} bind def
/c {curveto} bind def
/f {fill} bind def
/a {arc} bind def
/ef {eofill} bind def
/ex {exch} bind def
/gr {grestore} bind def
/gs {gsave} bind def
/sa {save} bind def
/rs {restore} bind def
/l {lineto} bind def
/m {moveto} bind def
/rm {rmoveto} bind def
/n {newpath} bind def
/s {stroke} bind def
/sh {show} bind def
/slc {setlinecap} bind def
/slj {setlinejoin} bind def
/slw {setlinewidth} bind def
/srgb {setrgbcolor} bind def
/rot {rotate} bind def
/sc {scale} bind def
/sd {setdash} bind def
/ff {findfont} bind def
/sf {setfont} bind def
/scf {scalefont} bind def
/sw {stringwidth pop} bind def
/tr {translate} bind def

/ellipsedict 8 dict def
ellipsedict /mtrx matrix put
/ellipse
{ ellipsedict begin
   /endangle exch def
   /startangle exch def
   /yrad exch def
   /xrad exch def
   /y exch def
   /x exch def   /savematrix mtrx currentmatrix def
   x y tr xrad yrad sc
   0 0 1 startangle endangle arc
   savematrix setmatrix
   end
} def

/mergeprocs {
dup length
3 -1 roll
dup
length
dup
5 1 roll
3 -1 roll
add
array cvx
dup
3 -1 roll
0 exch
putinterval
dup
4 2 roll
putinterval
} bind def
%%EndProlog

%%BeginSetup
%%EndSetup
28.346000 -28.346000 scale
-19.494000 -19.368709 translate

0.898039 0.898039 0.898039 srgb
n 20.000000 15.000000 m 20.000000 17.500000 l 24.000000 17.500000 l 24.000000 15.000000 l f
0.100000 slw
[] 0 sd
[] 0 sd
0 slj
1.000000 1.000000 1.000000 srgb
n 20.000000 15.000000 m 20.000000 17.500000 l 24.000000 17.500000 l 24.000000 15.000000 l cp s
0.898039 0.898039 0.898039 srgb
n 24.000000 16.250000 0.500000 1.250000 0 360 ellipse f
0.010000 slw
[] 0 sd
[] 0 sd
0.000000 0.000000 0.000000 srgb
n 24.000000 16.250000 0.500000 1.250000 0 360 ellipse cp s
0.010000 slw
[] 0 sd
[] 0 sd
0 slc
n 20.000000 18.500000 m 24.000000 18.500000 l s
0 slj
n 20.600000 18.350000 m 20.000000 18.500000 l 20.600000 18.650000 l f
0 slj
n 23.400000 18.650000 m 24.000000 18.500000 l 23.400000 18.350000 l f
 [ /xi /xi /xi /xi /xi /xi /xi /xi /xi /xi /xi /xi /xi /xi /xi /xi
 /xi /xi /xi /xi /xi /xi /xi /xi /xi /xi /xi /xi /xi /xi /xi /xi
 /I /W /d /V /c /t /A /xi /xi /xi /xi /xi /xi /xi /xi /xi
 /xi /xi /xi /xi /xi /xi /xi /xi /xi /xi /xi /xi /xi /xi /xi /xi
 /xi /xi /xi /xi /xi /xi /xi /xi /xi /xi /xi /xi /xi /xi /xi /xi
 /xi /xi /xi /xi /xi /xi /xi /xi /xi /xi /xi /xi /xi /xi /xi /xi
 /xi /xi /xi /xi /xi /xi /xi /xi /xi /xi /xi /xi /xi /xi /xi /xi
 /xi /xi /xi /xi /xi /xi /xi /xi /xi /xi /xi /xi /xi /xi /xi /xi
 /xi /xi /xi /xi /xi /xi /xi /xi /xi /xi /xi /xi /xi /xi /xi /xi
 /xi /xi /xi /xi /xi /xi /xi /xi /xi /xi /xi /xi /xi /xi /xi /xi
 /xi /xi /xi /xi /xi /xi /xi /xi /xi /xi /xi /xi /xi /xi /xi /xi
 /xi /xi /xi /xi /xi /xi /xi /xi /xi /xi /xi /xi /xi /xi /xi /xi
 /xi /xi /xi /xi /xi /xi /xi /xi /xi /xi /xi /xi /xi /xi /xi /xi
 /xi /xi /xi /xi /xi /xi /xi /xi /xi /xi /xi /xi /xi /xi /xi /xi
 /xi /xi /xi /xi /xi /xi /xi /xi /xi /xi /xi /xi /xi /xi /xi /xi
 /xi /xi /xi /xi /xi /xi /xi /xi /xi /xi /xi /xi /xi /xi /xi /xi
] /e0 exch def
/Times-Roman_e0 undefinefont
/Times-Roman_e0
  /Times-Roman findfont
  dup length dict begin
  {1 index /FID ne {def} {pop pop} ifelse} forall
  /Encoding e0 def
  currentdict end
definefont pop
/Times-Roman_e0 ff 0.800000 scf sf
( ) sw
2 div 25.500000 ex sub 18.500000 m ( )
 gs 1 -1 sc sh gr
0.898039 0.898039 0.898039 srgb
n 20.000000 16.250000 0.500000 1.250000 0 360 ellipse f
0.010000 slw
[] 0 sd
[] 0 sd
0.000000 0.000000 0.000000 srgb
n 20.000000 16.250000 0.500000 1.250000 0 360 ellipse cp s
0.010000 slw
[] 0 sd
[] 0 sd
0 slc
n 20.000000 15.000000 m 24.000000 15.000000 l s
0.010000 slw
[] 0 sd
[] 0 sd
0 slc
n 20.000000 17.500000 m 24.000000 17.500000 l s
0.010000 slw
[] 0 sd
[] 0 sd
0 slc
n 24.000000 15.000000 m 28.000000 14.500000 l s
0.010000 slw
[] 0 sd
[] 0 sd
0 slc
n 24.000000 17.500000 m 28.000000 18.000000 l s
1.000000 1.000000 1.000000 srgb
n 27.750000 16.250000 0.750000 1.750000 0 360 ellipse f
0.010000 slw
[] 0 sd
[] 0 sd
0.000000 0.000000 0.000000 srgb
n 27.750000 16.250000 0.750000 1.750000 0 360 ellipse cp s
/Symbol ff 0.800000 scf sf
(W) sw
2 div 28.000000 ex sub 16.500000 m (W)
 gs 1 -1 sc sh gr
/Times-Roman_e0 ff 0.800000 scf sf
(") sw
2 div 27.500000 ex sub 16.500000 m (")
 gs 1 -1 sc sh gr
/Times-Roman_e0 ff 0.800000 scf sf
("#) sw
2 div 22.000000 ex sub 16.500000 m ("#)
 gs 1 -1 sc sh gr
/Times-Roman_e0 ff 0.800000 scf sf
($"%) sw
2 div 22.011400 ex sub 19.165200 m ($"%)
 gs 1 -1 sc sh gr
0.010000 slw
[] 0 sd
[] 0 sd
0 slc
n 20.000000 18.000000 m 20.000000 19.000000 l s
0.010000 slw
[] 0 sd
[] 0 sd
0 slc
n 24.000000 18.000000 m 24.000000 19.000000 l s
/Times-Roman_e0 ff 0.800000 scf sf
("&) sw
2 div 20.000000 ex sub 16.500000 m ("&)
 gs 1 -1 sc sh gr
0.010000 slw
[] 0 sd
[] 0 sd
0 slc
n 25.000000 15.500000 m 26.500000 15.500000 l s
0.010000 slw
[] 0 sd
0 slj
0 slc
n 25.400000 15.300000 m 25.000000 15.500000 l 25.400000 15.700000 l s
0.010000 slw
[] 0 sd
[] 0 sd
0 slc
n 25.000000 16.000000 m 26.500000 16.000000 l s
0.010000 slw
[] 0 sd
0 slj
0 slc
n 25.400000 15.800000 m 25.000000 16.000000 l 25.400000 16.200000 l s
0.010000 slw
[] 0 sd
[] 0 sd
0 slc
n 25.000000 17.000000 m 26.500000 17.000000 l s
0.010000 slw
[] 0 sd
0 slj
0 slc
n 25.400000 16.800000 m 25.000000 17.000000 l 25.400000 17.200000 l s
0.010000 slw
[] 0 sd
[] 0 sd
0 slc
n 25.000000 16.500000 m 26.500000 16.500000 l s
0.010000 slw
[] 0 sd
0 slj
0 slc
n 25.400000 16.300000 m 25.000000 16.500000 l 25.400000 16.700000 l s
showpage
