%!PS-Adobe-2.0 EPSF-1.2
%%Creator: MATLAB, The Mathworks, Inc.
%%Title: fig_mr_zoom-eps.eps
%%CreationDate: 10/26/2006  19:18:57
%%DocumentNeededFonts: Helvetica
%%DocumentProcessColors: Cyan Magenta Yellow Black
%%Pages: 1
%%BoundingBox:    75	   209   540   580
%%EndComments

%%BeginProlog
% MathWorks dictionary
/MathWorks 160 dict begin
% definition operators
/bdef {bind def} bind def
/ldef {load def} bind def
/xdef {exch def} bdef
/xstore {exch store} bdef
% operator abbreviations
/c  /clip ldef
/cc /concat ldef
/cp /closepath ldef
/gr /grestore ldef
/gs /gsave ldef
/mt /moveto ldef
/np /newpath ldef
/cm /currentmatrix ldef
/sm /setmatrix ldef
/rm /rmoveto ldef
/rl /rlineto ldef
/s {show newpath} bdef
/sc {setcmykcolor} bdef
/sr /setrgbcolor ldef
/sg /setgray ldef
/w /setlinewidth ldef
/j /setlinejoin ldef
/cap /setlinecap ldef
/rc {rectclip} bdef
/rf {rectfill} bdef
% page state control
/pgsv () def
/bpage {/pgsv save def} bdef
/epage {pgsv restore} bdef
/bplot /gsave ldef
/eplot {stroke grestore} bdef
% orientation switch
/portraitMode 0 def /landscapeMode 1 def /rotateMode 2 def
% coordinate system mappings
/dpi2point 0 def
% font control
/FontSize 0 def
/FMS {/FontSize xstore findfont [FontSize 0 0 FontSize neg 0 0]
  makefont setfont} bdef
/ISOLatin1Encoding where {pop /WindowsLatin1Encoding 256 array bdef
ISOLatin1Encoding WindowsLatin1Encoding copy pop
/.notdef/.notdef/quotesinglbase/florin/quotedblbase/ellipsis/dagger
/daggerdbl/circumflex/perthousand/Scaron/guilsinglleft/OE/.notdef/.notdef
/.notdef/.notdef/quoteleft/quoteright/quotedblleft/quotedblright/bullet
/endash/emdash/tilde/trademark/scaron/guilsinglright/oe/.notdef/.notdef
/Ydieresis WindowsLatin1Encoding 128 32 getinterval astore pop}
{/WindowsLatin1Encoding StandardEncoding bdef} ifelse
/reencode {exch dup where {pop load} {pop StandardEncoding} ifelse
  exch dup 3 1 roll findfont dup length dict begin
  { 1 index /FID ne {def}{pop pop} ifelse } forall
  /Encoding exch def currentdict end definefont pop} bdef
/isroman {findfont /CharStrings get /Agrave known} bdef
/FMSR {3 1 roll 1 index dup isroman {reencode} {pop pop} ifelse
  exch FMS} bdef
/csm {1 dpi2point div -1 dpi2point div scale neg translate
 dup landscapeMode eq {pop -90 rotate}
  {rotateMode eq {90 rotate} if} ifelse} bdef
% line types: solid, dotted, dashed, dotdash
/SO { [] 0 setdash } bdef
/DO { [.5 dpi2point mul 4 dpi2point mul] 0 setdash } bdef
/DA { [6 dpi2point mul] 0 setdash } bdef
/DD { [.5 dpi2point mul 4 dpi2point mul 6 dpi2point mul 4
  dpi2point mul] 0 setdash } bdef
% macros for lines and objects
/L {lineto stroke} bdef
/MP {3 1 roll moveto 1 sub {rlineto} repeat} bdef
/AP {{rlineto} repeat} bdef
/PDlw -1 def
/W {/PDlw currentlinewidth def setlinewidth} def
/PP {closepath eofill} bdef
/DP {closepath stroke} bdef
/MR {4 -2 roll moveto dup  0 exch rlineto exch 0 rlineto
  neg 0 exch rlineto closepath} bdef
/FR {MR stroke} bdef
/PR {MR fill} bdef
/L1i {{currentfile picstr readhexstring pop} image} bdef
/tMatrix matrix def
/MakeOval {newpath tMatrix currentmatrix pop translate scale
0 0 1 0 360 arc tMatrix setmatrix} bdef
/FO {MakeOval stroke} bdef
/PO {MakeOval fill} bdef
/PD {currentlinewidth 2 div 0 360 arc fill
   PDlw -1 eq not {PDlw w /PDlw -1 def} if} def
/FA {newpath tMatrix currentmatrix pop translate scale
  0 0 1 5 -2 roll arc tMatrix setmatrix stroke} bdef
/PA {newpath tMatrix currentmatrix pop	translate 0 0 moveto scale
  0 0 1 5 -2 roll arc closepath tMatrix setmatrix fill} bdef
/FAn {newpath tMatrix currentmatrix pop translate scale
  0 0 1 5 -2 roll arcn tMatrix setmatrix stroke} bdef
/PAn {newpath tMatrix currentmatrix pop translate 0 0 moveto scale
  0 0 1 5 -2 roll arcn closepath tMatrix setmatrix fill} bdef
/vradius 0 def /hradius 0 def /lry 0 def
/lrx 0 def /uly 0 def /ulx 0 def /rad 0 def
/MRR {/vradius xdef /hradius xdef /lry xdef /lrx xdef /uly xdef
  /ulx xdef newpath tMatrix currentmatrix pop ulx hradius add uly
  vradius add translate hradius vradius scale 0 0 1 180 270 arc 
  tMatrix setmatrix lrx hradius sub uly vradius add translate
  hradius vradius scale 0 0 1 270 360 arc tMatrix setmatrix
  lrx hradius sub lry vradius sub translate hradius vradius scale
  0 0 1 0 90 arc tMatrix setmatrix ulx hradius add lry vradius sub
  translate hradius vradius scale 0 0 1 90 180 arc tMatrix setmatrix
  closepath} bdef
/FRR {MRR stroke } bdef
/PRR {MRR fill } bdef
/MlrRR {/lry xdef /lrx xdef /uly xdef /ulx xdef /rad lry uly sub 2 div def
  newpath tMatrix currentmatrix pop ulx rad add uly rad add translate
  rad rad scale 0 0 1 90 270 arc tMatrix setmatrix lrx rad sub lry rad
  sub translate rad rad scale 0 0 1 270 90 arc tMatrix setmatrix
  closepath} bdef
/FlrRR {MlrRR stroke } bdef
/PlrRR {MlrRR fill } bdef
/MtbRR {/lry xdef /lrx xdef /uly xdef /ulx xdef /rad lrx ulx sub 2 div def
  newpath tMatrix currentmatrix pop ulx rad add uly rad add translate
  rad rad scale 0 0 1 180 360 arc tMatrix setmatrix lrx rad sub lry rad
  sub translate rad rad scale 0 0 1 0 180 arc tMatrix setmatrix
  closepath} bdef
/FtbRR {MtbRR stroke } bdef
/PtbRR {MtbRR fill } bdef
/stri 6 array def /dtri 6 array def
/smat 6 array def /dmat 6 array def
/tmat1 6 array def /tmat2 6 array def /dif 3 array def
/asub {/ind2 exch def /ind1 exch def dup dup
  ind1 get exch ind2 get sub exch } bdef
/tri_to_matrix {
  2 0 asub 3 1 asub 4 0 asub 5 1 asub
  dup 0 get exch 1 get 7 -1 roll astore } bdef
/compute_transform {
  dmat dtri tri_to_matrix tmat1 invertmatrix 
  smat stri tri_to_matrix tmat2 concatmatrix } bdef
/ds {stri astore pop} bdef
/dt {dtri astore pop} bdef
/db {2 copy /cols xdef /rows xdef mul dup string
  currentfile exch readhexstring pop
  /bmap xdef pop pop} bdef
/it {gs np dtri aload pop moveto lineto lineto cp c
  cols rows 8 compute_transform 
  {bmap} image gr}bdef
/il {newpath moveto lineto stroke}bdef
currentdict end def
%%EndProlog

%%BeginSetup
MathWorks begin

0 cap

end
%%EndSetup

%%Page: 1 1
%%BeginPageSetup
%%PageBoundingBox:    18   209   543   586
MathWorks begin
bpage
%%EndPageSetup

%%BeginObject: obj1
bplot

/dpi2point 12 def
portraitMode 0216 7344 csm

    0   305  6311  4521 MR c np
85 dict begin %Colortable dictionary
/c0 { 0 0 0 sr} bdef
/c1 { 1 1 1 sr} bdef
/c2 { 1 0 0 sr} bdef
/c3 { 0 1 0 sr} bdef
/c4 { 0 0 1 sr} bdef
/c5 { 1 1 0 sr} bdef
/c6 { 1 0 1 sr} bdef
/c7 { 0 1 1 sr} bdef
c0
1 j
1 sg
   0    0 6919 5187 PR
6 w
0 4227 5362 0 0 -4227 899 4616 4 MP
PP
-5362 0 0 4227 5362 0 0 -4227 899 4616 5 MP stroke
4 w
DO
0 sg
4791 4616 mt 4791  389 L
4791  389 mt 4791  389 L
 899 4081 mt 6261 4081 L
6261 4081 mt 6261 4081 L
 899 3392 mt 6261 3392 L
6261 3392 mt 6261 3392 L
 899 2704 mt 6261 2704 L
6261 2704 mt 6261 2704 L
 899 2015 mt 6261 2015 L
6261 2015 mt 6261 2015 L
 899 1326 mt 6261 1326 L
6261 1326 mt 6261 1326 L
 899  637 mt 6261  637 L
6261  637 mt 6261  637 L
SO
6 w
 899  389 mt 6261  389 L
 899 4616 mt 6261 4616 L
6261 4616 mt 6261  389 L
 899 4616 mt  899  389 L
 899 4616 mt 6261 4616 L
 899 4616 mt  899  389 L
4791 4616 mt 4791 4589 L
4791  389 mt 4791  415 L
DO
4791 4616 mt 4791  389 L
4791  389 mt 4791  389 L
SO
4245 4616 mt 4245 4589 L
4245  389 mt 4245  415 L
DO
4245 4616 mt 4245  389 L
4245  389 mt 4245  389 L
SO
3634 4616 mt 3634 4589 L
3634  389 mt 3634  415 L
DO
3634 4616 mt 3634  389 L
3634  389 mt 3634  389 L
SO
2942 4616 mt 2942 4589 L
2942  389 mt 2942  415 L
DO
2942 4616 mt 2942  389 L
2942  389 mt 2942  389 L
SO
2144 4616 mt 2144 4589 L
2144  389 mt 2144  415 L
DO
2144 4616 mt 2144  389 L
2144  389 mt 2144  389 L
SO
1199 4616 mt 1199 4589 L
1199  389 mt 1199  415 L
DO
1199 4616 mt 1199  389 L
1199  389 mt 1199  389 L
SO
4791 4616 mt 4791 4562 L
4791  389 mt 4791  442 L
%%IncludeResource: font Helvetica
/Helvetica /WindowsLatin1Encoding 120 FMSR

4703 4798 mt 
(10) s
%%IncludeResource: font Helvetica
/Helvetica /WindowsLatin1Encoding 80 FMSR

4836 4724 mt 
(4) s
 899 4081 mt  952 4081 L
6261 4081 mt 6207 4081 L
%%IncludeResource: font Helvetica
/Helvetica /WindowsLatin1Encoding 120 FMSR

 698 4125 mt 
(0.5) s
 899 3392 mt  952 3392 L
6261 3392 mt 6207 3392 L
 698 3436 mt 
(0.6) s
 899 2704 mt  952 2704 L
6261 2704 mt 6207 2704 L
 698 2748 mt 
(0.7) s
 899 2015 mt  952 2015 L
6261 2015 mt 6207 2015 L
 698 2059 mt 
(0.8) s
 899 1326 mt  952 1326 L
6261 1326 mt 6207 1326 L
 698 1370 mt 
(0.9) s
 899  637 mt  952  637 L
6261  637 mt 6207  637 L
 798  681 mt 
(1) s
 899  389 mt 6261  389 L
 899 4616 mt 6261 4616 L
6261 4616 mt 6261  389 L
 899 4616 mt  899  389 L
gs 899 389 5363 4228 MR c np
-572 -506 -898 -969 -830 -1006 -771 -963 4197 3832 5 MP stroke
gr

gs 1053 315 3218 3591 MR c np
4172 3807 mt 4222 3857 L
4222 3807 mt 4172 3857 L
3401 2844 mt 3451 2894 L
3451 2844 mt 3401 2894 L
2571 1838 mt 2621 1888 L
2621 1838 mt 2571 1888 L
1673  869 mt 1723  919 L
1723  869 mt 1673  919 L
gr

gs 899 389 5363 4228 MR c np
0 -358 2009 793 2 MP stroke
177 0 1920 793 2 MP stroke
177 0 1920 435 2 MP stroke
0 -413 3116 2566 2 MP stroke
143 0 3044 2566 2 MP stroke
143 0 3044 2153 2 MP stroke
0 -827 4693 2773 2 MP stroke
106 0 4640 2773 2 MP stroke
106 0 4640 1946 2 MP stroke
0 -551 4048 2704 2 MP stroke
120 0 3988 2704 2 MP stroke
120 0 3988 2153 2 MP stroke
0 -1653 4979 3530 2 MP stroke
100 0 4929 3530 2 MP stroke
100 0 4929 1877 2 MP stroke
0 -551 3407 3255 2 MP stroke
135 0 3339 3255 2 MP stroke
135 0 3339 2704 2 MP stroke
0 -207 4002 3482 2 MP stroke
120 0 3942 3482 2 MP stroke
120 0 3942 3275 2 MP stroke
0 -551 5014 3737 2 MP stroke
99 0 4964 3737 2 MP stroke
99 0 4964 3186 2 MP stroke
0 -551 4352 4081 2 MP stroke
113 0 4295 4081 2 MP stroke
113 0 4295 3530 2 MP stroke
0 -689 3858 4219 2 MP stroke
124 0 3795 4219 2 MP stroke
124 0 3795 3530 2 MP stroke
0 -152 4506 4150 2 MP stroke
110 0 4451 4150 2 MP stroke
110 0 4451 3998 2 MP stroke
0 -811 4272 4617 2 MP stroke
114 0 4215 3806 2 MP stroke
0 -138 4437 4563 2 MP stroke
111 0 4381 4563 2 MP stroke
111 0 4381 4425 2 MP stroke
0 -123 4533 4617 2 MP stroke
109 0 4478 4494 2 MP stroke
308 0 1853 614 2 MP stroke
0 -138 1853 683 2 MP stroke
0 -138 2161 683 2 MP stroke
299 0 2964 2359 2 MP stroke
0 -138 2964 2428 2 MP stroke
0 -138 3263 2428 2 MP stroke
1480 0 3901 2359 2 MP stroke
0 -138 3901 2428 2 MP stroke
0 -138 5381 2428 2 MP stroke
333 0 3879 2428 2 MP stroke
0 -138 3879 2497 2 MP stroke
0 -138 4212 2497 2 MP stroke
697 0 4619 2704 2 MP stroke
0 -138 4619 2773 2 MP stroke
0 -138 5316 2773 2 MP stroke
945 0 2913 2979 2 MP stroke
0 -138 2913 3048 2 MP stroke
0 -138 3858 3048 2 MP stroke
269 0 3866 3379 2 MP stroke
0 -137 3866 3447 2 MP stroke
0 -137 4135 3447 2 MP stroke
692 0 4657 3461 2 MP stroke
0 -138 4657 3530 2 MP stroke
0 -138 5349 3530 2 MP stroke
787 0 3943 3806 2 MP stroke
0 -137 3943 3874 2 MP stroke
0 -137 4730 3874 2 MP stroke
3593 0 1756 3874 2 MP stroke
0 -137 1756 3943 2 MP stroke
0 -137 5349 3943 2 MP stroke
152 0 4430 4074 2 MP stroke
0 -138 4430 4143 2 MP stroke
0 -138 4582 4143 2 MP stroke
1607 0 3407 4357 2 MP stroke
0 -137 3407 4425 2 MP stroke
0 -137 5014 4425 2 MP stroke
464 0 4200 4494 2 MP stroke
0 -138 4200 4563 2 MP stroke
0 -138 4664 4563 2 MP stroke
gs 1936 541 147 147 MR c np
24 W
2009 614 PD
gr

gs 3043 2286 147 147 MR c np
24 W
3116 2359 PD
gr

gs 4620 2286 147 147 MR c np
24 W
4693 2359 PD
gr

gs 3975 2355 147 147 MR c np
24 W
4048 2428 PD
gr

gs 4906 2631 147 147 MR c np
24 W
4979 2704 PD
gr

gs 3334 2906 147 147 MR c np
24 W
3407 2979 PD
gr

gs 3929 3306 147 147 MR c np
24 W
4002 3379 PD
gr

gs 4941 3388 147 147 MR c np
24 W
5014 3461 PD
gr

gs 4279 3733 147 147 MR c np
24 W
4352 3806 PD
gr

gs 3785 3801 147 147 MR c np
24 W
3858 3874 PD
gr

gs 4433 4001 147 147 MR c np
24 W
4506 4074 PD
gr

gs 4199 4284 147 147 MR c np
24 W
4272 4357 PD
gr

gs 4364 4421 147 147 MR c np
24 W
4437 4494 PD
gr

0 -358 2009 793 2 MP stroke
177 0 1920 793 2 MP stroke
177 0 1920 435 2 MP stroke
0 -413 3116 2566 2 MP stroke
143 0 3044 2566 2 MP stroke
143 0 3044 2153 2 MP stroke
0 -827 4693 2773 2 MP stroke
106 0 4640 2773 2 MP stroke
106 0 4640 1946 2 MP stroke
0 -551 4048 2704 2 MP stroke
120 0 3988 2704 2 MP stroke
120 0 3988 2153 2 MP stroke
0 -1653 4979 3530 2 MP stroke
100 0 4929 3530 2 MP stroke
100 0 4929 1877 2 MP stroke
0 -551 3407 3255 2 MP stroke
135 0 3339 3255 2 MP stroke
135 0 3339 2704 2 MP stroke
0 -207 4002 3482 2 MP stroke
120 0 3942 3482 2 MP stroke
120 0 3942 3275 2 MP stroke
0 -551 5014 3737 2 MP stroke
99 0 4964 3737 2 MP stroke
99 0 4964 3186 2 MP stroke
0 -551 4352 4081 2 MP stroke
113 0 4295 4081 2 MP stroke
113 0 4295 3530 2 MP stroke
0 -689 3858 4219 2 MP stroke
124 0 3795 4219 2 MP stroke
124 0 3795 3530 2 MP stroke
0 -152 4506 4150 2 MP stroke
110 0 4451 4150 2 MP stroke
110 0 4451 3998 2 MP stroke
0 -811 4272 4617 2 MP stroke
114 0 4215 3806 2 MP stroke
0 -138 4437 4563 2 MP stroke
111 0 4381 4563 2 MP stroke
111 0 4381 4425 2 MP stroke
0 -123 4533 4617 2 MP stroke
109 0 4478 4494 2 MP stroke
308 0 1853 614 2 MP stroke
0 -138 1853 683 2 MP stroke
0 -138 2161 683 2 MP stroke
299 0 2964 2359 2 MP stroke
0 -138 2964 2428 2 MP stroke
0 -138 3263 2428 2 MP stroke
1480 0 3901 2359 2 MP stroke
0 -138 3901 2428 2 MP stroke
0 -138 5381 2428 2 MP stroke
333 0 3879 2428 2 MP stroke
0 -138 3879 2497 2 MP stroke
0 -138 4212 2497 2 MP stroke
697 0 4619 2704 2 MP stroke
0 -138 4619 2773 2 MP stroke
0 -138 5316 2773 2 MP stroke
945 0 2913 2979 2 MP stroke
0 -138 2913 3048 2 MP stroke
0 -138 3858 3048 2 MP stroke
269 0 3866 3379 2 MP stroke
0 -137 3866 3447 2 MP stroke
0 -137 4135 3447 2 MP stroke
692 0 4657 3461 2 MP stroke
0 -138 4657 3530 2 MP stroke
0 -138 5349 3530 2 MP stroke
787 0 3943 3806 2 MP stroke
0 -137 3943 3874 2 MP stroke
0 -137 4730 3874 2 MP stroke
3593 0 1756 3874 2 MP stroke
0 -137 1756 3943 2 MP stroke
0 -137 5349 3943 2 MP stroke
152 0 4430 4074 2 MP stroke
0 -138 4430 4143 2 MP stroke
0 -138 4582 4143 2 MP stroke
1607 0 3407 4357 2 MP stroke
0 -137 3407 4425 2 MP stroke
0 -137 5014 4425 2 MP stroke
464 0 4200 4494 2 MP stroke
0 -138 4200 4563 2 MP stroke
0 -138 4664 4563 2 MP stroke
gs 1936 541 147 147 MR c np
24 W
2009 614 PD
gr

gs 3043 2286 147 147 MR c np
24 W
3116 2359 PD
gr

gs 4620 2286 147 147 MR c np
24 W
4693 2359 PD
gr

gs 3975 2355 147 147 MR c np
24 W
4048 2428 PD
gr

gs 4906 2631 147 147 MR c np
24 W
4979 2704 PD
gr

gs 3334 2906 147 147 MR c np
24 W
3407 2979 PD
gr

gs 3929 3306 147 147 MR c np
24 W
4002 3379 PD
gr

gs 4941 3388 147 147 MR c np
24 W
5014 3461 PD
gr

gs 4279 3733 147 147 MR c np
24 W
4352 3806 PD
gr

gs 3785 3801 147 147 MR c np
24 W
3858 3874 PD
gr

gs 4433 4001 147 147 MR c np
24 W
4506 4074 PD
gr

gs 4199 4284 147 147 MR c np
24 W
4272 4357 PD
gr

gs 4364 4421 147 147 MR c np
24 W
4437 4494 PD
gr

gs 2022 2011 147 147 MR c np
24 W
2095 2084 PD
gr

gs 3334 3388 147 147 MR c np
24 W
3407 3461 PD
gr

gs 3564 3457 147 147 MR c np
24 W
3637 3530 PD
gr

gs 3043 4008 147 147 MR c np
24 W
3116 4081 PD
gr

gs 3334 4008 147 147 MR c np
24 W
3407 4081 PD
gr

gs 4159 4421 147 147 MR c np
24 W
4232 4494 PD
gr

gs 4119 4421 147 147 MR c np
24 W
4192 4494 PD
gr

0 -358 2009 793 2 MP stroke
177 0 1920 793 2 MP stroke
177 0 1920 435 2 MP stroke
0 -413 3116 2566 2 MP stroke
143 0 3044 2566 2 MP stroke
143 0 3044 2153 2 MP stroke
0 -827 4693 2773 2 MP stroke
106 0 4640 2773 2 MP stroke
106 0 4640 1946 2 MP stroke
0 -551 4048 2704 2 MP stroke
120 0 3988 2704 2 MP stroke
120 0 3988 2153 2 MP stroke
0 -1653 4979 3530 2 MP stroke
100 0 4929 3530 2 MP stroke
100 0 4929 1877 2 MP stroke
0 -551 3407 3255 2 MP stroke
135 0 3339 3255 2 MP stroke
135 0 3339 2704 2 MP stroke
0 -207 4002 3482 2 MP stroke
120 0 3942 3482 2 MP stroke
120 0 3942 3275 2 MP stroke
0 -551 5014 3737 2 MP stroke
99 0 4964 3737 2 MP stroke
99 0 4964 3186 2 MP stroke
0 -551 4352 4081 2 MP stroke
113 0 4295 4081 2 MP stroke
113 0 4295 3530 2 MP stroke
0 -689 3858 4219 2 MP stroke
124 0 3795 4219 2 MP stroke
124 0 3795 3530 2 MP stroke
0 -152 4506 4150 2 MP stroke
110 0 4451 4150 2 MP stroke
110 0 4451 3998 2 MP stroke
0 -811 4272 4617 2 MP stroke
114 0 4215 3806 2 MP stroke
0 -138 4437 4563 2 MP stroke
111 0 4381 4563 2 MP stroke
111 0 4381 4425 2 MP stroke
0 -123 4533 4617 2 MP stroke
109 0 4478 4494 2 MP stroke
0 -276 2095 2222 2 MP stroke
174 0 2007 2222 2 MP stroke
174 0 2007 1946 2 MP stroke
0 -826 3407 3874 2 MP stroke
135 0 3339 3874 2 MP stroke
135 0 3339 3048 2 MP stroke
0 -688 3637 3874 2 MP stroke
129 0 3572 3874 2 MP stroke
129 0 3572 3186 2 MP stroke
0 -276 3116 4219 2 MP stroke
143 0 3044 4219 2 MP stroke
143 0 3044 3943 2 MP stroke
0 -688 3407 4425 2 MP stroke
135 0 3339 4425 2 MP stroke
135 0 3339 3737 2 MP stroke
0 -260 4232 4617 2 MP stroke
116 0 4174 4357 2 MP stroke
0 -467 4192 4617 2 MP stroke
116 0 4134 4150 2 MP stroke
0 -54 3858 4617 2 MP stroke
124 0 3795 4563 2 MP stroke
308 0 1853 614 2 MP stroke
0 -138 1853 683 2 MP stroke
0 -138 2161 683 2 MP stroke
299 0 2964 2359 2 MP stroke
0 -138 2964 2428 2 MP stroke
0 -138 3263 2428 2 MP stroke
1480 0 3901 2359 2 MP stroke
0 -138 3901 2428 2 MP stroke
0 -138 5381 2428 2 MP stroke
333 0 3879 2428 2 MP stroke
0 -138 3879 2497 2 MP stroke
0 -138 4212 2497 2 MP stroke
697 0 4619 2704 2 MP stroke
0 -138 4619 2773 2 MP stroke
0 -138 5316 2773 2 MP stroke
945 0 2913 2979 2 MP stroke
0 -138 2913 3048 2 MP stroke
0 -138 3858 3048 2 MP stroke
269 0 3866 3379 2 MP stroke
0 -137 3866 3447 2 MP stroke
0 -137 4135 3447 2 MP stroke
692 0 4657 3461 2 MP stroke
0 -138 4657 3530 2 MP stroke
0 -138 5349 3530 2 MP stroke
787 0 3943 3806 2 MP stroke
0 -137 3943 3874 2 MP stroke
0 -137 4730 3874 2 MP stroke
3593 0 1756 3874 2 MP stroke
0 -137 1756 3943 2 MP stroke
0 -137 5349 3943 2 MP stroke
152 0 4430 4074 2 MP stroke
0 -138 4430 4143 2 MP stroke
0 -138 4582 4143 2 MP stroke
1607 0 3407 4357 2 MP stroke
0 -137 3407 4425 2 MP stroke
0 -137 5014 4425 2 MP stroke
464 0 4200 4494 2 MP stroke
0 -138 4200 4563 2 MP stroke
0 -138 4664 4563 2 MP stroke
608 0 1782 2084 2 MP stroke
0 -138 1782 2153 2 MP stroke
0 -138 2390 2153 2 MP stroke
945 0 2913 3461 2 MP stroke
0 -138 2913 3530 2 MP stroke
0 -138 3858 3530 2 MP stroke
360 0 3454 3530 2 MP stroke
0 -138 3454 3599 2 MP stroke
0 -138 3814 3599 2 MP stroke
599 0 2808 4081 2 MP stroke
0 -138 2808 4150 2 MP stroke
0 -138 3407 4150 2 MP stroke
945 0 2913 4081 2 MP stroke
0 -138 2913 4150 2 MP stroke
0 -138 3858 4150 2 MP stroke
643 0 3901 4494 2 MP stroke
0 -138 3901 4563 2 MP stroke
0 -138 4544 4563 2 MP stroke
811 0 3771 4494 2 MP stroke
0 -138 3771 4563 2 MP stroke
0 -138 4582 4563 2 MP stroke
0 -54 3407 4617 2 MP stroke
0 -54 4272 4617 2 MP stroke
gr


end

eplot
%%EndObject

epage
end

showpage

%%Trailer
%%EOF
