%!PS-Adobe-3.0 EPSF-3.0 
%%BoundingBox: 0 0 558 805
%%Pages: 0
%%Creator: Sun Microsystems, Inc.
%%Title: none
%%CreationDate: none
%%LanguageLevel: 2
%%EndComments
%%BeginProlog
%%BeginResource: SDRes
/b4_inc_state save def
/dict_count countdictstack def
/op_count count 1 sub def
userdict begin
0 setgray 0 setlinecap 1 setlinewidth 0 setlinejoin 10 setmiterlimit[] 0 setdash newpath
/languagelevel where {pop languagelevel 1 ne {false setstrokeadjust false setoverprint} if} if
/bdef {bind def} bind def
/c {setgray} bdef
/l {neg lineto} bdef
/rl {neg rlineto} bdef
/cl {currentlinewidth currentdash currentlinecap 2 setlinecap} bdef
/lc {setlinecap} bdef
/lw {setlinewidth} bdef
/ld {setdash} bdef
/m {neg moveto} bdef
/ct {6 2 roll neg 6 2 roll neg 6 2 roll neg curveto} bdef
/r {rotate} bdef
/t {neg translate} bdef
/s {scale} bdef
/sw {show} bdef
/gs {gsave} bdef
/gr {grestore} bdef
/f {findfont dup length dict begin
{1 index /FID ne {def} {pop pop} ifelse} forall /Encoding ISOLatin1Encoding def
currentdict end /NFont exch definefont pop /NFont findfont} bdef
/p {closepath} bdef
/sf {scalefont setfont} bdef
/ef {eofill}bdef
/pc {closepath stroke}bdef
/ps {stroke}bdef
/pum {matrix currentmatrix}bdef
/pom {setmatrix}bdef
/bs {/aString exch def /nXOfs exch def /nWidth exch def currentpoint nXOfs 0 rmoveto pum nWidth aString stringwidth pop div 1 scale aString show pom moveto} bdef
%%EndResource
%%EndProlog
%%BeginSetup
%%EndSetup
%%Page: 1 1
%%BeginPageSetup
%%EndPageSetup
pum
0.2834 0.28344 s 
0 -2840.1 t 
gs
-63.5 -63.5 t 
63.5 63.5 m 2032.3 63.5 l 2032.3 2903.5 l 63.5 2903.5 l 63.5 63.5 l
eoclip newpath
0.000 c 1063.5 563.5 m  1025.9 551 l  1026 576 l  1063.5 563.5 l 
p ef
663.5 563.5 m  1033.5 563.5 l  ps
663.5 163.5 m  651 201 l  676 200.9 l  663.5 163.5 l 
p ef
663.5 563.5 m  663.5 193.4 l  ps
465.1 763.5 m  500.4 745.8 l  482.7 728.1 l 
465.1 763.5 l  p ef
665.1 563.5 m  486.3 742.2 l  ps
gs
/TimesItalic f
42.3 sf 531.8 751.7 m  (X) sw
531.8 751.7 m  (X) sw
gr
gs
/TimesItalic f
42.3 sf 682.6 204 m  (Z) sw
682.6 204 m  (Z) sw
gr
gs
/TimesItalic f
42.3 sf 1023.9 529.39999 m  (Y) sw
1023.9 529.39999 m  (Y) sw
gr
661.8 562.3 m  861.8 262.3 l  865.1 264.6 l 
665.1 564.6 l  661.8 562.3 l  p ef
gs
/TimesItalic f
42.3 sf 963.1 254.3 m  13.2 0 (\() bs
18.5 13.5 (x) bs
10.6 32.2 (,) bs
18.5 43.2 (y) bs
10.6 61.8 (,) bs
15.9 72.79999 (z) bs
13.2 88.9 (\)) bs
gr
gs
/Symbol findfont
42.3 sf 963.1 307.8 m  13.2 0 (\() bs
15.9 13.5 (r) bs
10.6 30.5 (,) bs
/Symbol findfont
42.3 sf 1003.7 307.8 m  23.8 0 (q) bs
10.6 22 (,) bs
23.8 32.2 (f) bs
13.2 54.2 (\)) bs
gr
gs
/TimesItalic f
42.3 sf 902.2 283.4 m  26.5 0 (P) bs
29.1 25.4 (=) bs
gr
863.5 263.5 m  863.5 268.8 l  ps
863.5 274.1 m  863.5 279.4 l  ps
863.5 284.69999 m  863.5 290 l  ps
863.5 295.3 m  863.5 300.6 l  ps
863.5 305.9 m  863.5 311.2 l  ps
863.5 316.5 m  863.5 321.9 l  ps
863.5 327.2 m  863.5 332.5 l  ps
863.5 337.8 m  863.5 343.1 l  ps
863.5 348.4 m  863.5 353.7 l  ps
863.5 359 m  863.5 364.3 l  ps
863.5 369.6 m  863.5 374.9 l  ps
863.5 380.3 m  863.5 385.6 l  ps
863.5 390.9 m  863.5 396.2 l  ps
863.5 401.5 m  863.5 406.8 l  ps
863.5 412.1 m  863.5 417.4 l  ps
863.5 422.7 m  863.5 428 l  ps
863.5 433.3 m  863.5 438.7 l  ps
863.5 444 m  863.5 449.3 l  ps
863.5 454.6 m  863.5 459.9 l  ps
863.5 465.2 m  863.5 470.5 l  ps
863.5 475.8 m  863.5 481.1 l  ps
863.5 486.4 m  863.5 491.7 l  ps
863.5 497.1 m  863.5 502.4 l  ps
863.5 507.7 m  863.5 513 l  ps
863.5 518.3 m  863.5 523.6 l  ps
863.5 528.89999 m  863.5 534.2 l  ps
863.5 539.5 m  863.5 544.8 l  ps
863.5 550.1 m  863.5 555.5 l  ps
863.5 560.8 m  863.5 566.1 l  ps
863.5 571.39999 m  863.5 576.7 l  ps
863.5 582 m  863.5 587.3 l  ps
863.5 592.6 m  863.5 597.89999 l  ps
863.5 603.2 m  863.5 608.5 l  ps
863.5 613.9 m  863.5 619.2 l  ps
863.5 624.5 m  863.5 629.8 l  ps
863.5 635.1 m  863.5 640.4 l  ps
863.5 645.7 m  863.5 651 l  ps
863.5 656.3 m  863.5 661.6 l  ps
863.5 666.9 m  863.5 672.3 l  ps
863.5 677.6 m  863.5 682.9 l  ps
863.5 688.2 m  863.5 693.5 l  ps
863.5 698.8 m  863.5 704.1 l  ps
863.5 709.4 m  863.5 713.5 l  ps
663.5 563.5 m  667.7 566.6 l  ps
671.9 569.8 m  676.2 573 l  ps
680.4 576.2 m  684.7 579.39999 l  ps
688.9 582.6 m  693.2 585.7 l  ps
697.4 588.89999 m  701.7 592.1 l  ps
705.9 595.3 m  710.2 598.5 l  ps
714.4 601.7 m  718.7 604.89999 l  ps
722.9 608 m  727.2 611.2 l  ps
731.4 614.4 m  735.7 617.6 l  ps
739.9 620.8 m  744.1 624 l  ps
748.4 627.2 m  752.6 630.3 l  ps
756.9 633.5 m  761.1 636.7 l  ps
765.4 639.9 m  769.6 643.1 l  ps
773.9 646.3 m  778.1 649.5 l  ps
782.4 652.6 m  786.6 655.8 l  ps
790.9 659 m  795.1 662.2 l  ps
799.4 665.4 m  803.6 668.6 l  ps
807.9 671.8 m  812.1 674.9 l  ps
816.4 678.1 m  820.6 681.3 l  ps
824.8 684.5 m  829.1 687.7 l  ps
833.3 690.9 m  837.6 694.1 l  ps
841.8 697.2 m  846.1 700.4 l  ps
850.3 703.6 m  854.6 706.8 l  ps
858.8 710 m  863.1 713.2 l  ps
874.8 260 m  874.8 259.5 l  874.7 259.1 l  874.7 258.6 l 
874.6 258.1 l  874.5 257.69999 l  874.3 257.19999 l 
874.1 256.8 l  873.9 256.4 l  873.7 255.9 l 
873.5 255.5 l  873.2 255.1 l  872.9 254.7 l 
872.6 254.4 l  872.2 254 l  871.9 253.7 l  871.5 253.3 l 
871.1 253 l  870.6 252.7 l  870.2 252.4 l  869.8 252.2 l 
869.3 252 l  868.8 251.7 l  868.3 251.5 l  867.8 251.4 l 
867.3 251.2 l  866.8 251.1 l  866.3 251 l  865.7 250.9 l 
865.2 250.8 l  864.6 250.8 l  864.1 250.8 l 
864.1 250.8 l  863.6 250.8 l  863 250.8 l  862.5 250.9 l 
861.9 251 l  861.4 251.1 l  860.9 251.2 l  860.4 251.4 l 
859.9 251.5 l  859.4 251.7 l  858.9 252 l  858.4 252.2 l 
858 252.4 l  857.6 252.7 l  857.1 253 l  856.7 253.3 l 
856.3 253.7 l  856 254 l  855.6 254.4 l  855.3 254.7 l 
855 255.1 l  854.7 255.5 l  854.5 255.9 l  854.3 256.4 l 
854.1 256.8 l  853.9 257.19999 l  853.7 257.69999 l 
853.6 258.1 l  853.5 258.6 l  853.5 259.1 l 
853.4 259.5 l  853.4 260 l  853.4 260 l  853.4 260.5 l 
853.5 260.9 l  853.5 261.4 l  853.6 261.9 l 
853.7 262.3 l  853.9 262.8 l  854.1 263.19999 l 
854.3 263.6 l  854.5 264.1 l  854.7 264.5 l 
855 264.9 l  855.3 265.3 l  855.6 265.6 l  856 266 l 
856.3 266.3 l  856.7 266.69999 l  857.1 267 l  857.6 267.3 l 
858 267.6 l  858.4 267.8 l  858.9 268 l  859.4 268.3 l 
859.9 268.5 l  860.4 268.6 l  860.9 268.8 l 
861.4 268.9 l  861.9 269 l  862.5 269.1 l  863 269.19999 l 
863.6 269.19999 l  864.1 269.19999 l  864.1 269.19999 l 
864.6 269.19999 l  865.2 269.19999 l  865.7 269.1 l 
866.3 269 l  866.8 268.9 l  867.3 268.8 l  867.8 268.6 l 
868.3 268.5 l  868.8 268.3 l  869.3 268 l  869.8 267.8 l 
870.2 267.6 l  870.6 267.3 l  871.1 267 l  871.5 266.69999 l 
871.9 266.3 l  872.2 266 l  872.6 265.6 l  872.9 265.3 l 
873.2 264.9 l  873.5 264.5 l  873.7 264.1 l 
873.9 263.6 l  874.1 263.19999 l  874.3 262.8 l 
874.5 262.3 l  874.6 261.9 l  874.7 261.4 l 
874.7 260.9 l  874.8 260.5 l  874.8 260 l  p ef
864.1 269.19999 m  859.9 268.4 l  856.5 266.4 l 
854.2 263.5 l  853.4 260 l  854.2 256.4 l  856.5 253.5 l 
859.9 251.5 l  864.1 250.8 l  868.2 251.5 l 
871.6 253.5 l  873.9 256.4 l  874.8 260 l  873.9 263.5 l 
871.6 266.4 l  868.2 268.4 l  864.1 269.19999 l 
ps
gs
/Symbol findfont
42.3 sf 690.6 421.6 m  (q) sw
690.6 421.6 m  (q) sw
gr
gs
/Symbol findfont
42.3 sf 656.2 633.2 m  (f) sw
656.2 633.2 m  (f) sw
gr
gs
/TimesItalic f
42.3 sf 780.5 444.8 m  (r) sw
780.5 444.8 m  (r) sw
gr
gr
0 2840.1 t 
pom
count op_count sub {pop} repeat countdictstack dict_count sub {end} repeat b4_inc_state restore
%%PageTrailer
%%Trailer
%%EOF
