%!PS-Adobe-2.0 EPSF-2.0
%%Title: fig_inclination.dia
%%Creator: Dia v0.90
%%CreationDate: Wed Dec 01 18:10:59 2004
%%For: cfr
%%Magnification: 1.0000
%%Orientation: Portrait
%%BoundingBox: 0 0 554 525
%%Pages: 1
%%EndComments
%%BeginProlog
[ /.notdef /.notdef /.notdef /.notdef /.notdef /.notdef /.notdef /.notdef /.notdef /.notdef
/.notdef /.notdef /.notdef /.notdef /.notdef /.notdef /.notdef /.notdef /.notdef /.notdef
/.notdef /.notdef /.notdef /.notdef /.notdef /.notdef /.notdef /.notdef /.notdef /.notdef
/.notdef /.notdef /space /exclam /quotedbl /numbersign /dollar /percent /ampersand /quoteright
/parenleft /parenright /asterisk /plus /comma /hyphen /period /slash /zero /one
/two /three /four /five /six /seven /eight /nine /colon /semicolon
/less /equal /greater /question /at /A /B /C /D /E
/F /G /H /I /J /K /L /M /N /O
/P /Q /R /S /T /U /V /W /X /Y
/Z /bracketleft /backslash /bracketright /asciicircum /underscore /quoteleft /a /b /c
/d /e /f /g /h /i /j /k /l /m
/n /o /p /q /r /s /t /u /v /w
/x /y /z /braceleft /bar /braceright /asciitilde /.notdef /.notdef /.notdef
/.notdef /.notdef /.notdef /.notdef /.notdef /.notdef /.notdef /.notdef /.notdef /.notdef
/.notdef /.notdef /.notdef /.notdef /.notdef /.notdef /.notdef /.notdef /.notdef /.notdef
/.notdef /.notdef /.notdef /.notdef /.notdef /.notdef /.notdef /.notdef /.notdef /.notdef
/space /exclamdown /cent /sterling /currency /yen /brokenbar /section /dieresis /copyright
/ordfeminine /guillemotleft /logicalnot /hyphen /registered /macron /degree /plusminus /twosuperior /threesuperior
/acute /mu /paragraph /periodcentered /cedilla /onesuperior /ordmasculine /guillemotright /onequarter /onehalf
/threequarters /questiondown /Agrave /Aacute /Acircumflex /Atilde /Adieresis /Aring /AE /Ccedilla
/Egrave /Eacute /Ecircumflex /Edieresis /Igrave /Iacute /Icircumflex /Idieresis /Eth /Ntilde
/Ograve /Oacute /Ocircumflex /Otilde /Odieresis /multiply /Oslash /Ugrave /Uacute /Ucircumflex
/Udieresis /Yacute /Thorn /germandbls /agrave /aacute /acircumflex /atilde /adieresis /aring
/ae /ccedilla /egrave /eacute /ecircumflex /edieresis /igrave /iacute /icircumflex /idieresis
/eth /ntilde /ograve /oacute /ocircumflex /otilde /odieresis /divide /oslash /ugrave
/uacute /ucircumflex /udieresis /yacute /thorn /ydieresis] /isolatin1encoding exch def
/cp {closepath} bind def
/c {curveto} bind def
/f {fill} bind def
/a {arc} bind def
/ef {eofill} bind def
/ex {exch} bind def
/gr {grestore} bind def
/gs {gsave} bind def
/sa {save} bind def
/rs {restore} bind def
/l {lineto} bind def
/m {moveto} bind def
/rm {rmoveto} bind def
/n {newpath} bind def
/s {stroke} bind def
/sh {show} bind def
/slc {setlinecap} bind def
/slj {setlinejoin} bind def
/slw {setlinewidth} bind def
/srgb {setrgbcolor} bind def
/rot {rotate} bind def
/sc {scale} bind def
/sd {setdash} bind def
/ff {findfont} bind def
/sf {setfont} bind def
/scf {scalefont} bind def
/sw {stringwidth pop} bind def
/tr {translate} bind def

/ellipsedict 8 dict def
ellipsedict /mtrx matrix put
/ellipse
{ ellipsedict begin
   /endangle exch def
   /startangle exch def
   /yrad exch def
   /xrad exch def
   /y exch def
   /x exch def   /savematrix mtrx currentmatrix def
   x y tr xrad yrad sc
   0 0 1 startangle endangle arc
   savematrix setmatrix
   end
} def

/mergeprocs {
dup length
3 -1 roll
dup
length
dup
5 1 roll
3 -1 roll
add
array cvx
dup
3 -1 roll
0 exch
putinterval
dup
4 2 roll
putinterval
} bind def
/Times-Roman-latin1
    /Times-Roman findfont
    dup length dict begin
	{1 index /FID ne {def} {pop pop} ifelse} forall
	/Encoding isolatin1encoding def
    currentdict end
definefont pop
/Symbol-latin1
    /Symbol findfont
definefont pop
%%EndProlog

%%BeginSetup
%%EndSetup
28.346000 -28.346000 scale
-4.995000 -54.506325 translate

0.010000 slw
[] 0 sd
[] 0 sd
0.000000 0.000000 0.000000 srgb
n 9.000000 47.500000 4.000000 2.500000 0 360 ellipse cp s
0.010000 slw
[] 0 sd
[] 0 sd
n 9.000000 40.000000 4.000000 4.000000 0 360 ellipse cp s
0.010000 slw
[] 0 sd
[] 0 sd
0 slc
n 9.003090 47.263300 m 9.003590 45.279500 l s
0 slj
n 9.203388 46.079550 m 9.003590 45.279500 l 8.803388 46.079450 l f
/Times-Roman-latin1 ff 1.600000 scf sf
(i=0) 14.000000 40.000000 m gs 1 -1 sc sh gr
0.010000 slw
[] 0 sd
[] 0 sd
0 slc
n 5.000000 54.000000 m 13.000000 54.000000 l s
1.000000 1.000000 1.000000 srgb
n 9.015330 40.011825 0.501520 0.522825 0 360 ellipse f
0.100000 slw
[] 0 sd
[] 0 sd
0.000000 0.000000 0.000000 srgb
n 9.015330 40.011825 0.501520 0.522825 0 360 ellipse cp s
0.003922 0.003922 0.003922 srgb
n 9.012572 39.999531 0.106492 0.112431 0 360 ellipse f
0.100000 slw
[] 0 sd
[] 0 sd
0.000000 0.000000 0.000000 srgb
n 9.012572 39.999531 0.106492 0.112431 0 360 ellipse cp s
0.003922 0.003922 0.003922 srgb
n 9.003090 47.395206 0.140000 0.131906 0 360 ellipse f
0.100000 slw
[] 0 sd
[] 0 sd
0.000000 0.000000 0.000000 srgb
n 9.003090 47.395206 0.140000 0.131906 0 360 ellipse cp s
0.010000 slw
[] 0 sd
[] 0 sd
0 slc
n 9.000000 54.000000 m 8.996910 51.372100 l s
0 slj
n 9.197851 52.171864 m 8.996910 51.372100 l 8.797851 52.172335 l f
/Times-Roman-latin1 ff 1.600000 scf sf
(i>0) 14.000000 48.000000 m gs 1 -1 sc sh gr
/Times-Roman-latin1 ff 1.600000 scf sf
(i=90) 14.000000 54.000000 m gs 1 -1 sc sh gr
0.010000 slw
[0.200000] 0 sd
[0.200000] 0 sd
0 slc
n 5.000000 40.000000 m 13.000000 40.000000 l s
0.010000 slw
[0.200000] 0 sd
[0.200000] 0 sd
0 slc
n 5.000000 47.500000 m 13.000000 47.500000 l s
0.010000 slw
[0.200000] 0 sd
[0.200000] 0 sd
0 slc
n 9.000000 36.000000 m 9.000000 44.000000 l s
0.010000 slw
[0.200000] 0 sd
[0.200000] 0 sd
0 slc
n 9.000000 47.500000 m 9.000000 50.000000 l s
/Symbol-latin1 ff 1.600000 scf sf
(a) 6.550000 41.393000 m gs 1 -1 sc sh gr
/Symbol-latin1 ff 1.600000 scf sf
(b) 9.400000 38.236400 m gs 1 -1 sc sh gr
/Symbol-latin1 ff 1.600000 scf sf
(a) 6.650000 49.036400 m gs 1 -1 sc sh gr
/Symbol-latin1 ff 1.600000 scf sf
(b) 9.650000 46.736400 m gs 1 -1 sc sh gr
0.010000 slw
[] 0 sd
[] 0 sd
0 slc
n 19.000000 36.000000 m 19.000000 44.000000 l s
0.010000 slw
[] 0 sd
[] 0 sd
0 slc
n 17.000000 45.000000 m 22.000000 50.000000 l s
0.010000 slw
[] 0 sd
[] 0 sd
0 slc
n 21.000000 40.000000 m 19.000000 40.000000 l s
0 slj
n 20.200000 40.200000 m 21.000000 40.000000 l 20.200000 39.800000 l f
0.010000 slw
[] 0 sd
[] 0 sd
0 slc
n 21.000000 46.000000 m 19.500000 47.500000 l s
0 slj
n 20.575736 46.707107 m 21.000000 46.000000 l 20.292893 46.424264 l f
0.010000 slw
[] 0 sd
[] 0 sd
0 slc
n 23.000000 39.500000 m 24.500000 40.000000 l s
0.010000 slw
[] 0 sd
[] 0 sd
0 slc
n 23.000000 40.500000 m 24.500000 40.000000 l s
0.010000 slw
[] 0 sd
[] 0 sd
0 slc
n 24.065642 40.001916 0.417947 0.417947 129.091724 228.664134 ellipse s
0.010000 slw
[] 0 sd
[] 0 sd
0 slc
n 23.000000 47.000000 m 24.500000 47.500000 l s
0.010000 slw
[] 0 sd
[] 0 sd
0 slc
n 23.000000 48.000000 m 24.500000 47.500000 l s
0.010000 slw
[] 0 sd
[] 0 sd
0 slc
n 24.065642 47.501916 0.417947 0.417947 129.091724 228.664134 ellipse s
0.010000 slw
[] 0 sd
[] 0 sd
0 slc
n 23.000000 53.500000 m 24.500000 54.000000 l s
0.010000 slw
[] 0 sd
[] 0 sd
0 slc
n 23.000000 54.500000 m 24.500000 54.000000 l s
0.010000 slw
[] 0 sd
[] 0 sd
0 slc
n 24.065642 54.001916 0.417947 0.417947 129.091724 228.664134 ellipse s
showpage
