%!PS-Adobe-3.0 EPSF-3.0
%%Creator: MATLAB, The Mathworks, Inc.
%%Title: fig_rotation_1.eps
%%CreationDate: 06/09/2004  09:28:46
%%DocumentNeededFonts: Helvetica
%%DocumentProcessColors: Cyan Magenta Yellow Black
%%LanguageLevel: 2
%%Pages: 1
%%BoundingBox:    66   402   288   602
%%EndComments

%%BeginProlog
% MathWorks dictionary
/MathWorks 160 dict begin
% definition operators
/bdef {bind def} bind def
/ldef {load def} bind def
/xdef {exch def} bdef
/xstore {exch store} bdef
% operator abbreviations
/c  /clip ldef
/cc /concat ldef
/cp /closepath ldef
/gr /grestore ldef
/gs /gsave ldef
/mt /moveto ldef
/np /newpath ldef
/cm /currentmatrix ldef
/sm /setmatrix ldef
/rm /rmoveto ldef
/rl /rlineto ldef
/s {show newpath} bdef
/sc {setcmykcolor} bdef
/sr /setrgbcolor ldef
/sg /setgray ldef
/w /setlinewidth ldef
/j /setlinejoin ldef
/cap /setlinecap ldef
/rc {rectclip} bdef
/rf {rectfill} bdef
% page state control
/pgsv () def
/bpage {/pgsv save def} bdef
/epage {pgsv restore} bdef
/bplot /gsave ldef
/eplot {stroke grestore} bdef
% orientation switch
/portraitMode 0 def /landscapeMode 1 def /rotateMode 2 def
% coordinate system mappings
/dpi2point 0 def
% font control
/FontSize 0 def
/FMS {/FontSize xstore findfont [FontSize 0 0 FontSize neg 0 0]
  makefont setfont} bdef
/ISOLatin1Encoding where {pop /WindowsLatin1Encoding 256 array bdef
ISOLatin1Encoding WindowsLatin1Encoding copy pop
/.notdef/.notdef/quotesinglbase/florin/quotedblbase/ellipsis/dagger
/daggerdbl/circumflex/perthousand/Scaron/guilsinglleft/OE/.notdef/.notdef
/.notdef/.notdef/quoteleft/quoteright/quotedblleft/quotedblright/bullet
/endash/emdash/tilde/trademark/scaron/guilsinglright/oe/.notdef/.notdef
/Ydieresis WindowsLatin1Encoding 128 32 getinterval astore pop}
{/WindowsLatin1Encoding StandardEncoding bdef} ifelse
/reencode {exch dup where {pop load} {pop StandardEncoding} ifelse
  exch dup 3 1 roll findfont dup length dict begin
  { 1 index /FID ne {def}{pop pop} ifelse } forall
  /Encoding exch def currentdict end definefont pop} bdef
/isroman {findfont /CharStrings get /Agrave known} bdef
/FMSR {3 1 roll 1 index dup isroman {reencode} {pop pop} ifelse
  exch FMS} bdef
/csm {1 dpi2point div -1 dpi2point div scale neg translate
 dup landscapeMode eq {pop -90 rotate}
  {rotateMode eq {90 rotate} if} ifelse} bdef
% line types: solid, dotted, dashed, dotdash
/SO { [] 0 setdash } bdef
/DO { [.5 dpi2point mul 4 dpi2point mul] 0 setdash } bdef
/DA { [6 dpi2point mul] 0 setdash } bdef
/DD { [.5 dpi2point mul 4 dpi2point mul 6 dpi2point mul 4
  dpi2point mul] 0 setdash } bdef
% macros for lines and objects
/L {lineto stroke} bdef
/MP {3 1 roll moveto 1 sub {rlineto} repeat} bdef
/AP {{rlineto} repeat} bdef
/PDlw -1 def
/W {/PDlw currentlinewidth def setlinewidth} def
/PP {closepath eofill} bdef
/DP {closepath stroke} bdef
/MR {4 -2 roll moveto dup  0 exch rlineto exch 0 rlineto
  neg 0 exch rlineto closepath} bdef
/FR {MR stroke} bdef
/PR {MR fill} bdef
/L1i {{currentfile picstr readhexstring pop} image} bdef
/tMatrix matrix def
/MakeOval {newpath tMatrix currentmatrix pop translate scale
0 0 1 0 360 arc tMatrix setmatrix} bdef
/FO {MakeOval stroke} bdef
/PO {MakeOval fill} bdef
/PD {currentlinewidth 2 div 0 360 arc fill
   PDlw -1 eq not {PDlw w /PDlw -1 def} if} def
/FA {newpath tMatrix currentmatrix pop translate scale
  0 0 1 5 -2 roll arc tMatrix setmatrix stroke} bdef
/PA {newpath tMatrix currentmatrix pop	translate 0 0 moveto scale
  0 0 1 5 -2 roll arc closepath tMatrix setmatrix fill} bdef
/FAn {newpath tMatrix currentmatrix pop translate scale
  0 0 1 5 -2 roll arcn tMatrix setmatrix stroke} bdef
/PAn {newpath tMatrix currentmatrix pop translate 0 0 moveto scale
  0 0 1 5 -2 roll arcn closepath tMatrix setmatrix fill} bdef
/vradius 0 def /hradius 0 def /lry 0 def
/lrx 0 def /uly 0 def /ulx 0 def /rad 0 def
/MRR {/vradius xdef /hradius xdef /lry xdef /lrx xdef /uly xdef
  /ulx xdef newpath tMatrix currentmatrix pop ulx hradius add uly
  vradius add translate hradius vradius scale 0 0 1 180 270 arc 
  tMatrix setmatrix lrx hradius sub uly vradius add translate
  hradius vradius scale 0 0 1 270 360 arc tMatrix setmatrix
  lrx hradius sub lry vradius sub translate hradius vradius scale
  0 0 1 0 90 arc tMatrix setmatrix ulx hradius add lry vradius sub
  translate hradius vradius scale 0 0 1 90 180 arc tMatrix setmatrix
  closepath} bdef
/FRR {MRR stroke } bdef
/PRR {MRR fill } bdef
/MlrRR {/lry xdef /lrx xdef /uly xdef /ulx xdef /rad lry uly sub 2 div def
  newpath tMatrix currentmatrix pop ulx rad add uly rad add translate
  rad rad scale 0 0 1 90 270 arc tMatrix setmatrix lrx rad sub lry rad
  sub translate rad rad scale 0 0 1 270 90 arc tMatrix setmatrix
  closepath} bdef
/FlrRR {MlrRR stroke } bdef
/PlrRR {MlrRR fill } bdef
/MtbRR {/lry xdef /lrx xdef /uly xdef /ulx xdef /rad lrx ulx sub 2 div def
  newpath tMatrix currentmatrix pop ulx rad add uly rad add translate
  rad rad scale 0 0 1 180 360 arc tMatrix setmatrix lrx rad sub lry rad
  sub translate rad rad scale 0 0 1 0 180 arc tMatrix setmatrix
  closepath} bdef
/FtbRR {MtbRR stroke } bdef
/PtbRR {MtbRR fill } bdef
/stri 6 array def /dtri 6 array def
/smat 6 array def /dmat 6 array def
/tmat1 6 array def /tmat2 6 array def /dif 3 array def
/asub {/ind2 exch def /ind1 exch def dup dup
  ind1 get exch ind2 get sub exch } bdef
/tri_to_matrix {
  2 0 asub 3 1 asub 4 0 asub 5 1 asub
  dup 0 get exch 1 get 7 -1 roll astore } bdef
/compute_transform {
  dmat dtri tri_to_matrix tmat1 invertmatrix 
  smat stri tri_to_matrix tmat2 concatmatrix } bdef
/ds {stri astore pop} bdef
/dt {dtri astore pop} bdef
/db {2 copy /cols xdef /rows xdef mul dup string
  currentfile 
  3 index 0 eq {/ASCIIHexDecode filter}
  {/ASCII85Decode filter 3 index 2 eq {/RunLengthDecode filter} if }
  ifelse exch readstring pop
  /bmap xdef pop pop} bdef
/it {gs np dtri aload pop moveto lineto lineto cp c
  cols rows 8 compute_transform 
  {bmap} image gr}bdef
/il {newpath moveto lineto stroke}bdef
currentdict end def
%%EndProlog

%%BeginSetup
MathWorks begin

0 cap

end
%%EndSetup

%%Page: 1 1
%%BeginPageSetup
%%PageBoundingBox:    66   402   288   602
MathWorks begin
bpage
%%EndPageSetup

%%BeginObject: obj1
bplot

/dpi2point 12 def
portraitMode 0216 7344 csm

  580   110  2664  2402 rc
85 dict begin %Colortable dictionary
/c0 { 0 0 0 sr} bdef
/c1 { 1 1 1 sr} bdef
/c2 { 1 0 0 sr} bdef
/c3 { 0 1 0 sr} bdef
/c4 { 0 0 1 sr} bdef
/c5 { 1 1 0 sr} bdef
/c6 { 1 0 1 sr} bdef
/c7 { 0 1 1 sr} bdef
c0
1 j
1 sg
   0    0 6919 5187 rf
6 w
0 1783 2263 0 0 -1783 899 2172 4 MP
PP
-2263 0 0 1783 2263 0 0 -1783 899 2172 5 MP stroke
4 w
DO
SO
6 w
0 sg
 899  389 mt 3162  389 L
 899 2172 mt 3162 2172 L
3162 2172 mt 3162  389 L
 899 2172 mt  899  389 L
 899 2172 mt 3162 2172 L
 899 2172 mt  899  389 L
 899 2172 mt  899 2149 L
 899  389 mt  899  411 L
%%IncludeResource: font Helvetica
/Helvetica /WindowsLatin1Encoding 120 FMSR

 866 2317 mt 
(0) s
1464 2172 mt 1464 2149 L
1464  389 mt 1464  411 L
1431 2317 mt 
(1) s
2030 2172 mt 2030 2149 L
2030  389 mt 2030  411 L
1997 2317 mt 
(2) s
2596 2172 mt 2596 2149 L
2596  389 mt 2596  411 L
2563 2317 mt 
(3) s
3162 2172 mt 3162 2149 L
3162  389 mt 3162  411 L
3129 2317 mt 
(4) s
 899 2172 mt  921 2172 L
3162 2172 mt 3139 2172 L
 798 2216 mt 
(0) s
 899 1726 mt  921 1726 L
3162 1726 mt 3139 1726 L
 798 1770 mt 
(1) s
 899 1280 mt  921 1280 L
3162 1280 mt 3139 1280 L
 798 1324 mt 
(2) s
 899  834 mt  921  834 L
3162  834 mt 3139  834 L
 798  878 mt 
(3) s
 899  389 mt  921  389 L
3162  389 mt 3139  389 L
 798  433 mt 
(4) s
 899  389 mt 3162  389 L
 899 2172 mt 3162 2172 L
3162 2172 mt 3162  389 L
 899 2172 mt  899  389 L
gs 899 389 2264 1784 rc
DO
57 -44 57 -45 56 -44 57 -45 56 -44 57 -45 57 -45 56 -44 
57 -45 56 -44 57 -45 56 -44 57 -45 57 -45 56 -44 57 -45 
56 -44 57 -45 56 -44 57 -45 57 -45 56 -44 57 -45 56 -44 
57 -45 56 -44 57 -45 57 -45 56 -44 57 -45 56 -44 57 -45 
56 -44 57 -45 57 -45 56 -44 57 -45 56 -44 57 -45 955 2127 40 MP stroke
DA
1 0 57 -11 57 -12 56 -11 57 -12 56 -12 57 -12 57 -12 
56 -12 57 -13 56 -12 57 -13 56 -14 57 -13 57 -14 56 -14 
57 -14 56 -14 57 -15 56 -16 57 -15 57 -16 56 -16 57 -17 
56 -18 57 -18 56 -18 57 -19 57 -20 56 -21 57 -22 56 -23 
57 -24 56 -26 57 -27 57 -30 56 -34 57 -37 56 -45 57 -59 
955 2031 41 MP stroke
DD
1 0 57 0 57 0 56 0 57 0 56 0 57 0 57 0 
56 0 57 0 56 0 57 0 56 0 57 0 57 0 56 0 
57 0 56 0 57 0 56 0 57 0 57 0 56 0 57 0 
56 0 57 0 56 0 57 0 57 0 56 0 57 0 56 0 
57 0 56 0 57 0 57 0 56 0 57 0 56 0 57 0 
955 1726 41 MP stroke
SO
1 0 57 2 57 3 56 2 57 3 56 3 57 3 57 3 
56 3 57 4 56 4 57 5 56 5 57 5 57 6 56 6 
57 7 56 8 57 9 56 10 57 11 57 13 56 14 57 17 
56 19 57 22 56 27 57 31 57 39 56 47 57 59 56 77 
57 100 56 139 57 198 57 301 56 501 1 21 1124 389 39 MP stroke
gr

1505  294 mt 
(Rotaion velocity v\(r\)) s
1595 2460 mt 
(r \(arbitrary units\)) s
 716 1386 mt  -90 rotate
(v\(r\) ) s
90 rotate
1 sg
0 714 1430 0 0 -714 1672 1163 4 MP
PP
-1430 0 0 714 1430 0 0 -714 1672 1163 5 MP stroke
4 w
DO
SO
6 w
0 sg
1672  449 mt 3102  449 L
1672 1163 mt 3102 1163 L
3102 1163 mt 3102  449 L
1672 1163 mt 1672  449 L
1672 1163 mt 3102 1163 L
1672 1163 mt 1672  449 L
1672  449 mt 3102  449 L
1672 1163 mt 3102 1163 L
3102 1163 mt 3102  449 L
1672 1163 mt 1672  449 L
2005  612 mt 
(v\(r\)=r) s
%%IncludeResource: font Helvetica
/Helvetica /WindowsLatin1Encoding 96 FMSR

2294  552 mt 
(1) s
%%IncludeResource: font Helvetica
/Helvetica /WindowsLatin1Encoding 120 FMSR

2347  612 mt 
(=r, rigid body) s
2005  782 mt 
(v\(r\)=r) s
%%IncludeResource: font Helvetica
/Helvetica /WindowsLatin1Encoding 96 FMSR

2294  722 mt 
(0.5) s
%%IncludeResource: font Helvetica
/Helvetica /WindowsLatin1Encoding 120 FMSR

2005  952 mt 
(v\(r\)=r) s
%%IncludeResource: font Helvetica
/Helvetica /WindowsLatin1Encoding 96 FMSR

2294  892 mt 
(0) s
%%IncludeResource: font Helvetica
/Helvetica /WindowsLatin1Encoding 120 FMSR

2347  952 mt 
(=k) s
2005 1122 mt 
(v\(r\)=r) s
%%IncludeResource: font Helvetica
/Helvetica /WindowsLatin1Encoding 96 FMSR

2294 1062 mt 
(-0.5) s
%%IncludeResource: font Helvetica
/Helvetica /WindowsLatin1Encoding 120 FMSR

2483 1122 mt 
(, kepler) s
gs 1672 449 1431 715 rc
DO
200 0 1738 551 2 MP stroke
SO
DA
200 0 1738 722 2 MP stroke
SO
DD
200 0 1738 894 2 MP stroke
SO
200 0 1738 1066 2 MP stroke
gr


end

eplot
%%EndObject

epage
end

showpage

%%Trailer
%%EOF
