%!PS-Adobe-2.0 EPSF-2.0
%%Title: fig_arc.dia
%%Creator: Dia v0.90
%%CreationDate: Tue Nov  9 21:35:54 2004
%%For: frigaard
%%Magnification: 1.0000
%%Orientation: Portrait
%%BoundingBox: 0 0 454 396
%%Pages: 1
%%EndComments
%%BeginProlog
/cp {closepath} bind def
/c {curveto} bind def
/f {fill} bind def
/a {arc} bind def
/ef {eofill} bind def
/ex {exch} bind def
/gr {grestore} bind def
/gs {gsave} bind def
/sa {save} bind def
/rs {restore} bind def
/l {lineto} bind def
/m {moveto} bind def
/rm {rmoveto} bind def
/n {newpath} bind def
/s {stroke} bind def
/sh {show} bind def
/slc {setlinecap} bind def
/slj {setlinejoin} bind def
/slw {setlinewidth} bind def
/srgb {setrgbcolor} bind def
/rot {rotate} bind def
/sc {scale} bind def
/sd {setdash} bind def
/ff {findfont} bind def
/sf {setfont} bind def
/scf {scalefont} bind def
/sw {stringwidth pop} bind def
/tr {translate} bind def

/ellipsedict 8 dict def
ellipsedict /mtrx matrix put
/ellipse
{ ellipsedict begin
   /endangle exch def
   /startangle exch def
   /yrad exch def
   /xrad exch def
   /y exch def
   /x exch def   /savematrix mtrx currentmatrix def
   x y tr xrad yrad sc
   0 0 1 startangle endangle arc
   savematrix setmatrix
   end
} def

/mergeprocs {
dup length
3 -1 roll
dup
length
dup
5 1 roll
3 -1 roll
add
array cvx
dup
3 -1 roll
0 exch
putinterval
dup
4 2 roll
putinterval
} bind def
%%EndProlog

%%BeginSetup
%%EndSetup
28.346000 -28.346000 scale
-20.995000 -26.505000 translate

0.913725 0.913725 0.913725 srgb
n 27.000000 20.500000 6.000000 6.000000 0 360 ellipse f
0.010000 slw
[] 0 sd
[] 0 sd
0.000000 0.000000 0.000000 srgb
n 27.000000 20.500000 6.000000 6.000000 0 360 ellipse cp s
1.000000 1.000000 1.000000 srgb
n 27.000000 20.500000 5.500000 5.500000 0 360 ellipse f
0.010000 slw
[] 0 sd
[] 0 sd
0.000000 0.000000 0.000000 srgb
n 27.000000 20.500000 5.500000 5.500000 0 360 ellipse cp s
/Symbol ff 0.800000 scf sf
(p) sw
2 div 35.500000 ex sub 26.000000 m (p)
 gs 1 -1 sc sh gr
 [ /xi /xi /xi /xi /xi /xi /xi /xi /xi /xi /xi /xi /xi /xi /xi /xi
 /xi /xi /xi /xi /xi /xi /xi /xi /xi /xi /xi /xi /xi /xi /xi /xi
 /p /d /A /space /equal /two /r /s /xi /xi /h /e /l /f /y /x
 /xi /xi /xi /xi /xi /xi /xi /xi /xi /xi /xi /xi /xi /xi /xi /xi
 /xi /xi /xi /xi /xi /xi /xi /xi /xi /xi /xi /xi /xi /xi /xi /xi
 /xi /xi /xi /xi /xi /xi /xi /xi /xi /xi /xi /xi /xi /xi /xi /xi
 /xi /xi /xi /xi /xi /xi /xi /xi /xi /xi /xi /xi /xi /xi /xi /xi
 /xi /xi /xi /xi /xi /xi /xi /xi /xi /xi /xi /xi /xi /xi /xi /xi
 /xi /xi /xi /xi /xi /xi /xi /xi /xi /xi /xi /xi /xi /xi /xi /xi
 /xi /xi /xi /xi /xi /xi /xi /xi /xi /xi /xi /xi /xi /xi /xi /xi
 /xi /xi /xi /xi /xi /xi /xi /xi /xi /xi /xi /xi /xi /xi /xi /xi
 /xi /xi /xi /xi /xi /xi /xi /xi /xi /xi /xi /xi /xi /xi /xi /xi
 /xi /xi /xi /xi /xi /xi /xi /xi /xi /xi /xi /xi /xi /xi /xi /xi
 /xi /xi /xi /xi /xi /xi /xi /xi /xi /xi /xi /xi /xi /xi /xi /xi
 /xi /xi /xi /xi /xi /xi /xi /xi /xi /xi /xi /xi /xi /xi /xi /xi
 /xi /xi /xi /xi /xi /xi /xi /xi /xi /xi /xi /xi /xi /xi /xi /xi
] /e0 exch def
/Times-Roman_e0 undefinefont
/Times-Roman_e0
  /Times-Roman findfont
  dup length dict begin
  {1 index /FID ne {def} {pop pop} ifelse} forall
  /Encoding e0 def
  currentdict end
definefont pop
/Times-Roman_e0 ff 0.800000 scf sf
(!"####$) sw
2 div 33.767200 ex sub 26.000000 m (!"####$)
 gs 1 -1 sc sh gr
/Times-Roman_e0 ff 0.800000 scf sf
(##%###&#!&) sw
2 div 35.658400 ex sub 26.000000 m (##%###&#!&)
 gs 1 -1 sc sh gr
/Times-Roman_e0 ff 0.500000 scf sf
('*+,,) sw
2 div 33.974200 ex sub 26.277600 m ('*+,,)
 gs 1 -1 sc sh gr
0.300000 slw
[] 0 sd
[] 0 sd
0 slj
0 slc
1.000000 1.000000 1.000000 srgb
n 30.478900 14.446500 m 30.913900 15.279400 l s
0.000000 0.000000 0.000000 srgb
/Symbol ff 0.800000 scf sf
(f) sw
2 div 28.886300 ex sub 20.113200 m (f)
 gs 1 -1 sc sh gr
/Times-Roman_e0 ff 0.800000 scf sf
(.) sw
2 div 26.996500 ex sub 13.190900 m (.)
 gs 1 -1 sc sh gr
0.010000 slw
[] 0 sd
[] 0 sd
0 slc
n 27.000000 20.500000 m 32.242800 13.963200 l s
0.100000 slw
[] 0 sd
[] 0 sd
0 slj
0 slc
n 30.000000 13.500000 m 30.000000 13.500000 l s
0.010000 slw
[] 0 sd
[] 0 sd
0 slc
n 27.000000 20.500000 m 30.292800 12.763200 l s
0.010000 slw
[] 0 sd
[] 0 sd
0 slc
n 27.002583 20.377087 1.437013 1.437013 312.770172 4.826674 ellipse s
0 slj
n 28.339939 19.520415 m 27.978400 19.322200 l 28.204127 19.667232 l f
/Symbol ff 0.800000 scf sf
(f) sw
2 div 27.800200 ex sub 17.691700 m (f)
 gs 1 -1 sc sh gr
/Times-Roman_e0 ff 0.800000 scf sf
(!) sw
2 div 27.383800 ex sub 17.665100 m (!)
 gs 1 -1 sc sh gr
0.040000 slw
[] 0 sd
[] 0 sd
0 slj
0 slc
1.000000 1.000000 1.000000 srgb
n 31.261600 15.290900 m 31.815600 15.491500 l s
0.010000 slw
[] 0 sd
[] 0 sd
0 slc
0.000000 0.000000 0.000000 srgb
n 30.067800 15.748200 m 32.467800 16.198200 l s
0.010000 slw
[] 0 sd
0 slj
0 slc
n 30.582272 15.717485 m 30.067800 15.748200 l 30.536200 15.963203 l s
0.010000 slw
[] 0 sd
[] 0 sd
0 slc
n 29.554100 18.172300 m 29.201100 17.819700 l s
0 slj
n 29.554774 18.031632 m 29.201100 17.819700 l 29.413432 18.173133 l f
0.010000 slw
[] 0 sd
[] 0 sd
0 slc
n 28.051500 16.936400 m 28.420800 17.181400 l s
0 slj
n 28.032198 17.043600 m 28.420800 17.181400 l 28.142763 16.876941 l f
0.010000 slw
[] 0 sd
[] 0 sd
0 slc
n 24.290746 23.144670 7.235461 7.235461 298.947798 318.004244 ellipse s
/Times-Roman_e0 ff 0.800000 scf sf
(&) sw
2 div 30.235800 ex sub 17.245100 m (&)
 gs 1 -1 sc sh gr
/Times-Roman_e0 ff 0.800000 scf sf
(!&) sw
2 div 28.853700 ex sub 13.899800 m (!&)
 gs 1 -1 sc sh gr
0.010000 slw
[] 0 sd
[] 0 sd
0 slc
n 28.791318 16.788671 3.864390 3.864390 290.655909 323.077513 ellipse s
0.010000 slw
[] 0 sd
[] 0 sd
0 slc
n 30.568700 13.351000 m 30.168700 13.173500 l s
0 slj
n 30.574880 13.244339 m 30.168700 13.173500 l 30.493758 13.427148 l f
0.010000 slw
[] 0 sd
[] 0 sd
0 slc
n 31.549100 14.069700 m 31.887000 14.474200 l s
0 slj
n 31.553815 14.231326 m 31.887000 14.474200 l 31.707307 14.103107 l f
/Times-Roman_e0 ff 0.800000 scf sf
(&) sw
2 div 31.145500 ex sub 13.183000 m (&)
 gs 1 -1 sc sh gr
/Times-Roman_e0 ff 0.800000 scf sf
(!) sw
2 div 31.647500 ex sub 13.180000 m (!)
 gs 1 -1 sc sh gr
/Symbol ff 0.800000 scf sf
(f) sw
2 div 32.054500 ex sub 13.201700 m (f)
 gs 1 -1 sc sh gr
/Times-Roman_e0 ff 0.800000 scf sf
(/) sw
2 div 34.434000 ex sub 20.692200 m (/)
 gs 1 -1 sc sh gr
/Symbol ff 0.800000 scf sf
(f) sw
2 div 35.100000 ex sub 16.600000 m (f)
 gs 1 -1 sc sh gr
/Times-Roman_e0 ff 0.800000 scf sf
(!"$) sw
2 div 33.188600 ex sub 16.656400 m (!"$)
 gs 1 -1 sc sh gr
/Times-Roman_e0 ff 0.800000 scf sf
(&) sw
2 div 34.191000 ex sub 16.581300 m (&)
 gs 1 -1 sc sh gr
/Times-Roman_e0 ff 0.800000 scf sf
(!) sw
2 div 34.693000 ex sub 16.578300 m (!)
 gs 1 -1 sc sh gr
/Times-Roman_e0 ff 0.800000 scf sf
(!&) sw
2 div 35.871300 ex sub 16.602800 m (!&)
 gs 1 -1 sc sh gr
0.010000 slw
[] 0 sd
[] 0 sd
0 slc
n 29.318800 13.816800 m 28.426600 16.046300 l s
0.010000 slw
[] 0 sd
[] 0 sd
0 slc
n 29.171800 14.167800 m 28.916600 14.817400 l s
0 slj
n 28.969786 14.408534 m 28.916600 14.817400 l 29.155936 14.481665 l f
0.010000 slw
[] 0 sd
[] 0 sd
0 slc
n 28.526800 15.820000 m 28.731000 15.293000 l s
0 slj
n 28.679724 15.702110 m 28.731000 15.293000 l 28.493234 15.629849 l f
0.010000 slw
[] 0 sd
[] 0 sd
0 slc
n 27.000000 20.500000 m 34.000000 20.500000 l s
0.010000 slw
[] 0 sd
0 slj
0 slc
n 33.500000 20.625000 m 34.000000 20.500000 l 33.500000 20.375000 l s
0.010000 slw
[] 0 sd
[] 0 sd
0 slc
n 27.000000 20.500000 m 27.000000 13.500000 l s
0.010000 slw
[] 0 sd
0 slj
0 slc
n 27.125000 14.000000 m 27.000000 13.500000 l 26.875000 14.000000 l s
0.010000 slw
[] 0 sd
[] 0 sd
0 slc
n 31.993000 23.299906 m 33.043000 25.299906 l s
0.010000 slw
[] 0 sd
0 slj
0 slc
n 32.336092 23.684501 m 31.993000 23.299906 l 32.114742 23.800709 l s
showpage
