%!PS-Adobe-2.0 EPSF-2.0
%%Title: fig_trig.dia
%%Creator: Dia v0.90
%%CreationDate: Tue Nov  9 21:39:28 2004
%%For: frigaard
%%Magnification: 1.0000
%%Orientation: Portrait
%%BoundingBox: 0 0 929 295
%%Pages: 1
%%EndComments
%%BeginProlog
/cp {closepath} bind def
/c {curveto} bind def
/f {fill} bind def
/a {arc} bind def
/ef {eofill} bind def
/ex {exch} bind def
/gr {grestore} bind def
/gs {gsave} bind def
/sa {save} bind def
/rs {restore} bind def
/l {lineto} bind def
/m {moveto} bind def
/rm {rmoveto} bind def
/n {newpath} bind def
/s {stroke} bind def
/sh {show} bind def
/slc {setlinecap} bind def
/slj {setlinejoin} bind def
/slw {setlinewidth} bind def
/srgb {setrgbcolor} bind def
/rot {rotate} bind def
/sc {scale} bind def
/sd {setdash} bind def
/ff {findfont} bind def
/sf {setfont} bind def
/scf {scalefont} bind def
/sw {stringwidth pop} bind def
/tr {translate} bind def

/ellipsedict 8 dict def
ellipsedict /mtrx matrix put
/ellipse
{ ellipsedict begin
   /endangle exch def
   /startangle exch def
   /yrad exch def
   /xrad exch def
   /y exch def
   /x exch def   /savematrix mtrx currentmatrix def
   x y tr xrad yrad sc
   0 0 1 startangle endangle arc
   savematrix setmatrix
   end
} def

/mergeprocs {
dup length
3 -1 roll
dup
length
dup
5 1 roll
3 -1 roll
add
array cvx
dup
3 -1 roll
0 exch
putinterval
dup
4 2 roll
putinterval
} bind def
%%EndProlog

%%BeginSetup
%%EndSetup
28.346000 -28.346000 scale
-2.994460 -19.429412 translate

0.010000 slw
[] 0 sd
[] 0 sd
0 slc
0.000000 0.000000 0.000000 srgb
n 3.000000 11.000000 m 26.000000 11.000000 l s
0 slj
n 3.800000 10.800000 m 3.000000 11.000000 l 3.800000 11.200000 l f
0 slj
n 25.200000 11.200000 m 26.000000 11.000000 l 25.200000 10.800000 l f
0.010000 slw
[] 0 sd
[] 0 sd
0 slc
n 3.000000 10.000000 m 3.000000 12.000000 l s
0.010000 slw
[] 0 sd
[] 0 sd
0 slc
n 26.000000 10.000000 m 26.000000 12.000000 l s
13.950000 10.300000 m  [ /xi /xi /xi /xi /xi /xi /xi /xi /xi /xi /xi /xi /xi /xi /xi /xi
 /xi /xi /xi /xi /xi /xi /xi /xi /xi /xi /xi /xi /xi /xi /xi /xi
 /space /r /F /quotesingle /R /a /xi /xi /xi /xi /xi /xi /xi /xi /xi /xi
 /xi /xi /xi /xi /xi /xi /xi /xi /xi /xi /xi /xi /xi /xi /xi /xi
 /xi /xi /xi /xi /xi /xi /xi /xi /xi /xi /xi /xi /xi /xi /xi /xi
 /xi /xi /xi /xi /xi /xi /xi /xi /xi /xi /xi /xi /xi /xi /xi /xi
 /xi /xi /xi /xi /xi /xi /xi /xi /xi /xi /xi /xi /xi /xi /xi /xi
 /xi /xi /xi /xi /xi /xi /xi /xi /xi /xi /xi /xi /xi /xi /xi /xi
 /xi /xi /xi /xi /xi /xi /xi /xi /xi /xi /xi /xi /xi /xi /xi /xi
 /xi /xi /xi /xi /xi /xi /xi /xi /xi /xi /xi /xi /xi /xi /xi /xi
 /xi /xi /xi /xi /xi /xi /xi /xi /xi /xi /xi /xi /xi /xi /xi /xi
 /xi /xi /xi /xi /xi /xi /xi /xi /xi /xi /xi /xi /xi /xi /xi /xi
 /xi /xi /xi /xi /xi /xi /xi /xi /xi /xi /xi /xi /xi /xi /xi /xi
 /xi /xi /xi /xi /xi /xi /xi /xi /xi /xi /xi /xi /xi /xi /xi /xi
 /xi /xi /xi /xi /xi /xi /xi /xi /xi /xi /xi /xi /xi /xi /xi /xi
 /xi /xi /xi /xi /xi /xi /xi /xi /xi /xi /xi /xi /xi /xi /xi /xi
] /e0 exch def
/Times-Roman_e0 undefinefont
/Times-Roman_e0
  /Times-Roman findfont
  dup length dict begin
  {1 index /FID ne {def} {pop pop} ifelse} forall
  /Encoding e0 def
  currentdict end
definefont pop
/Times-Roman_e0 ff 1.600000 scf sf
( !)
 gs 1 -1 sc sh gr
0.100000 slw
[] 0 sd
[] 0 sd
0 slc
n 14.000000 15.000000 2.500000 2.500000 323.130102 36.869898 ellipse s
26.100000 19.100000 m /Times-Roman_e0 ff 1.600000 scf sf
(")
 gs 1 -1 sc sh gr
3.050000 16.800000 m /Times-Roman_e0 ff 1.600000 scf sf
("#)
 gs 1 -1 sc sh gr
0.010000 slw
[] 0 sd
[] 0 sd
0 slc
n 3.000000 15.000000 m 29.000000 18.000000 l s
0.010000 slw
[] 0 sd
[] 0 sd
0 slc
n 3.000000 15.000000 m 29.000000 12.000000 l s
0.010000 slw
[] 0 sd
[] 0 sd
0 slc
n 34.000000 15.000000 m 34.000000 17.000000 l s
0 slj
n 34.200000 15.800000 m 34.000000 15.000000 l 33.800000 15.800000 l f
0.010000 slw
[] 0 sd
[] 0 sd
0 slc
n 33.000000 15.000000 m 35.000000 15.000000 l s
0.010000 slw
[] 0 sd
[] 0 sd
0 slc
n 33.000000 12.000000 m 35.000000 12.000000 l s
34.650000 14.050000 m /Times-Roman_e0 ff 1.600000 scf sf
($)
 gs 1 -1 sc sh gr
0.010000 slw
[] 0 sd
[] 0 sd
0 slc
n 34.000000 12.000000 m 34.000000 10.000000 l s
0 slj
n 33.800000 11.200000 m 34.000000 12.000000 l 34.200000 11.200000 l f
0.010000 slw
[] 0 sd
[] 0 sd
0 slc
n 34.000000 12.000000 m 34.000000 15.000000 l s
1.000000 1.000000 1.000000 srgb
n 29.000000 15.000000 3.000000 3.000000 0 360 ellipse f
0.100000 slw
[] 0 sd
[] 0 sd
0.000000 0.000000 0.000000 srgb
n 29.000000 15.000000 3.000000 3.000000 0 360 ellipse cp s
/Symbol ff 1.600000 scf sf
(a) sw
2 div 15.400000 ex sub 15.300000 m (a)
 gs 1 -1 sc sh gr
showpage
