%!PS-Adobe-2.0 EPSF-2.0
%%Title: fig_solid.dia
%%Creator: Dia v0.90
%%CreationDate: Tue Nov  9 17:37:59 2004
%%For: frigaard
%%Magnification: 1.0000
%%Orientation: Portrait
%%BoundingBox: 0 0 355 460
%%Pages: 1
%%EndComments
%%BeginProlog
/cp {closepath} bind def
/c {curveto} bind def
/f {fill} bind def
/a {arc} bind def
/ef {eofill} bind def
/ex {exch} bind def
/gr {grestore} bind def
/gs {gsave} bind def
/sa {save} bind def
/rs {restore} bind def
/l {lineto} bind def
/m {moveto} bind def
/rm {rmoveto} bind def
/n {newpath} bind def
/s {stroke} bind def
/sh {show} bind def
/slc {setlinecap} bind def
/slj {setlinejoin} bind def
/slw {setlinewidth} bind def
/srgb {setrgbcolor} bind def
/rot {rotate} bind def
/sc {scale} bind def
/sd {setdash} bind def
/ff {findfont} bind def
/sf {setfont} bind def
/scf {scalefont} bind def
/sw {stringwidth pop} bind def
/tr {translate} bind def

/ellipsedict 8 dict def
ellipsedict /mtrx matrix put
/ellipse
{ ellipsedict begin
   /endangle exch def
   /startangle exch def
   /yrad exch def
   /xrad exch def
   /y exch def
   /x exch def   /savematrix mtrx currentmatrix def
   x y tr xrad yrad sc
   0 0 1 startangle endangle arc
   savematrix setmatrix
   end
} def

/mergeprocs {
dup length
3 -1 roll
dup
length
dup
5 1 roll
3 -1 roll
add
array cvx
dup
3 -1 roll
0 exch
putinterval
dup
4 2 roll
putinterval
} bind def
%%EndProlog

%%BeginSetup
%%EndSetup
28.346000 -28.346000 scale
-17.819688 -19.169697 translate

0.010000 slw
[] 0 sd
[] 0 sd
0 slj
0 slc
0.901515 0.901515 0.901515 srgb
n 24.000000 7.000000 m 25.000000 9.000000 l 27.000000 9.000000 l f
n 24.000000 7.000000 m 25.000000 9.000000 l 27.000000 9.000000 l cp s
0.100000 slw
[] 0 sd
[] 0 sd
0 slj
0 slc
n 23.984954 7.001259 m 25.992535 7.001259 l 26.996326 8.993858 l f
n 23.984954 7.001259 m 25.992535 7.001259 l 26.996326 8.993858 l cp s
0.010000 slw
[] 0 sd
[] 0 sd
0 slj
0 slc
n 23.508000 8.258000 m 24.319356 9.876778 l 25.008000 9.008000 l f
n 23.508000 8.258000 m 24.319356 9.876778 l 25.008000 9.008000 l cp s
0.010000 slw
[] 0 sd
[] 0 sd
0 slj
0 slc
n 24.000000 7.000000 m 23.474356 8.240778 l 25.000000 9.000000 l f
n 24.000000 7.000000 m 23.474356 8.240778 l 25.000000 9.000000 l cp s
0.010000 slw
[] 0 sd
[] 0 sd
0 slc
0.000000 0.000000 0.000000 srgb
n 21.000000 14.000000 m 25.992535 7.001259 l s
0.300000 slw
[] 0 sd
[] 0 sd
0 slj
0 slc
1.000000 1.000000 1.000000 srgb
n 23.855300 8.923660 m 24.221356 9.666778 l s
0.150000 slw
[] 0 sd
[] 0 sd
0 slj
0 slc
0.901515 0.901515 0.901515 srgb
n 23.881357 8.817979 m 24.316357 9.650829 l s
0.010000 slw
[] 0 sd
[] 0 sd
0 slj
0 slc
n 27.000000 9.000000 m 25.000000 9.000000 l 25.951356 9.868778 l f
n 27.000000 9.000000 m 25.000000 9.000000 l 25.951356 9.868778 l cp s
0.010000 slw
[] 0 sd
[] 0 sd
0 slj
0 slc
n 24.999356 8.988778 m 24.303356 9.868778 l 25.951356 9.876778 l f
n 24.999356 8.988778 m 24.303356 9.868778 l 25.951356 9.876778 l cp s
0.000000 0.000000 0.000000 srgb
25.688800 5.580820 m  [ /xi /xi /xi /xi /xi /xi /xi /xi /xi /xi /xi /xi /xi /xi /xi /xi
 /xi /xi /xi /xi /xi /xi /xi /xi /xi /xi /xi /xi /xi /xi /xi /xi
 /equal /r /space /d /s /i /n /q /xi /xi /f /x /y /z /W /V
 /A /two /xi /xi /xi /xi /xi /xi /xi /xi /xi /xi /xi /xi /xi /xi
 /xi /xi /xi /xi /xi /xi /xi /xi /xi /xi /xi /xi /xi /xi /xi /xi
 /xi /xi /xi /xi /xi /xi /xi /xi /xi /xi /xi /xi /xi /xi /xi /xi
 /xi /xi /xi /xi /xi /xi /xi /xi /xi /xi /xi /xi /xi /xi /xi /xi
 /xi /xi /xi /xi /xi /xi /xi /xi /xi /xi /xi /xi /xi /xi /xi /xi
 /xi /xi /xi /xi /xi /xi /xi /xi /xi /xi /xi /xi /xi /xi /xi /xi
 /xi /xi /xi /xi /xi /xi /xi /xi /xi /xi /xi /xi /xi /xi /xi /xi
 /xi /xi /xi /xi /xi /xi /xi /xi /xi /xi /xi /xi /xi /xi /xi /xi
 /xi /xi /xi /xi /xi /xi /xi /xi /xi /xi /xi /xi /xi /xi /xi /xi
 /xi /xi /xi /xi /xi /xi /xi /xi /xi /xi /xi /xi /xi /xi /xi /xi
 /xi /xi /xi /xi /xi /xi /xi /xi /xi /xi /xi /xi /xi /xi /xi /xi
 /xi /xi /xi /xi /xi /xi /xi /xi /xi /xi /xi /xi /xi /xi /xi /xi
 /xi /xi /xi /xi /xi /xi /xi /xi /xi /xi /xi /xi /xi /xi /xi /xi
] /e0 exch def
/Times-Roman_e0 undefinefont
/Times-Roman_e0
  /Times-Roman findfont
  dup length dict begin
  {1 index /FID ne {def} {pop pop} ifelse} forall
  /Encoding e0 def
  currentdict end
definefont pop
/Times-Roman_e0 ff 0.800000 scf sf
( !""#")
 gs 1 -1 sc sh gr
/Times-Roman_e0 ff 0.800000 scf sf
(!""$%&) sw
2 div 26.964800 ex sub 4.386270 m (!""$%&)
 gs 1 -1 sc sh gr
/Symbol ff 0.800000 scf sf
(q) sw
2 div 28.201600 ex sub 4.378270 m (q)
 gs 1 -1 sc sh gr
/Symbol ff 0.800000 scf sf
(f) sw
2 div 29.192400 ex sub 4.386670 m (f)
 gs 1 -1 sc sh gr
/Times-Roman_e0 ff 0.800000 scf sf
(#) sw
2 div 28.776100 ex sub 4.360070 m (#)
 gs 1 -1 sc sh gr
0.010000 slw
[] 0 sd
[] 0 sd
0 slc
n 21.369445 10.404472 5.337731 5.337731 58.208755 80.946199 ellipse s
0.010000 slw
[] 0 sd
[] 0 sd
0 slc
n 25.000000 17.000000 m 21.000000 14.000000 l s
0.010000 slw
[] 0 sd
[] 0 sd
0 slc
n 27.000000 17.000000 m 21.000000 14.000000 l s
0.010000 slw
[] 0 sd
[] 0 sd
0 slc
n 23.942300 15.083500 m 23.554300 15.277900 l s
0 slj
n 23.867128 15.009314 m 23.554300 15.277900 l 23.956718 15.188125 l f
0.020000 slw
[] 0 sd
[] 0 sd
0 slj
0 slc
n 23.508000 8.258000 m 25.143800 8.249020 l s
0.300000 slw
[] 0 sd
[] 0 sd
0 slj
0 slc
0.901515 0.901515 0.901515 srgb
n 24.478900 7.946540 m 24.913900 8.779390 l s
0.010000 slw
[] 0 sd
[] 0 sd
0 slc
0.000000 0.000000 0.000000 srgb
n 21.000000 14.000000 m 28.000000 14.000000 l s
0.010000 slw
[] 0 sd
0 slj
0 slc
n 27.500000 14.125000 m 28.000000 14.000000 l 27.500000 13.875000 l s
/Symbol ff 0.800000 scf sf
(f) sw
2 div 21.027500 ex sub 15.838200 m (f)
 gs 1 -1 sc sh gr
0.010000 slw
[] 0 sd
[] 0 sd
0 slc
n 21.000000 14.000000 m 21.000000 7.000000 l s
0.010000 slw
[] 0 sd
0 slj
0 slc
n 21.125000 7.500000 m 21.000000 7.000000 l 20.875000 7.500000 l s
0.010000 slw
[] 0 sd
[] 0 sd
0 slc
n 21.000000 14.000000 m 18.000000 17.000000 l s
0.010000 slw
[] 0 sd
0 slj
0 slc
n 18.265165 16.558058 m 18.000000 17.000000 l 18.441942 16.734835 l s
/Times-Roman_e0 ff 0.800000 scf sf
(+) sw
2 div 18.224800 ex sub 17.708300 m (+)
 gs 1 -1 sc sh gr
/Times-Roman_e0 ff 0.800000 scf sf
(,) sw
2 div 28.535600 ex sub 14.119200 m (,)
 gs 1 -1 sc sh gr
/Times-Roman_e0 ff 0.800000 scf sf
(-) sw
2 div 20.996500 ex sub 6.690870 m (-)
 gs 1 -1 sc sh gr
0.010000 slw
[] 0 sd
[] 0 sd
0 slc
n 21.000000 14.000000 m 25.000000 9.000000 l s
0.010000 slw
[] 0 sd
[] 0 sd
0 slc
n 21.000000 14.000000 m 27.000000 9.000000 l s
0.100000 slw
[] 0 sd
[] 0 sd
0 slj
0 slc
n 24.000000 7.000000 m 24.000000 7.000000 l s
0.050000 slw
[] 0 sd
[] 0 sd
0 slj
0 slc
n 23.975000 7.000000 m 24.975000 9.000000 l s
0.050000 slw
[] 0 sd
[] 0 sd
0 slc
n 24.000000 7.000000 m 26.000000 7.000000 l s
0.040000 slw
[] 0 sd
[] 0 sd
0 slc
n 26.000000 7.000000 m 27.000000 9.000000 l s
0.010000 slw
[] 0 sd
[] 0 sd
0 slc
n 21.000000 14.000000 m 24.000000 7.000000 l s
0.010000 slw
[] 0 sd
[] 0 sd
0 slj
0 slc
n 25.000000 17.000000 m 27.000000 17.000000 l s
/Symbol ff 0.800000 scf sf
(W) sw
2 div 23.453800 ex sub 10.175900 m (W)
 gs 1 -1 sc sh gr
/Symbol ff 0.800000 scf sf
(q) sw
2 div 21.558700 ex sub 10.563100 m (q)
 gs 1 -1 sc sh gr
0.010000 slw
[] 0 sd
[] 0 sd
0 slc
n 21.159087 13.056660 2.015431 2.015431 62.086087 118.539039 ellipse s
0 slj
n 21.795954 15.113223 m 22.102600 14.837600 l 21.702325 14.936493 l f
0.010000 slw
[] 0 sd
[] 0 sd
0 slc
n 21.146663 11.812775 1.123552 1.123552 262.833684 333.918149 ellipse s
0 slj
n 21.890121 11.003499 m 22.155800 11.318800 l 22.069755 10.915568 l f
0.010000 slw
[] 0 sd
[] 0 sd
0 slc
n 22.564400 15.608800 m 23.000000 15.500000 l s
0 slj
n 22.636155 15.693950 m 23.000000 15.500000 l 22.587689 15.499911 l f
/Times-Roman_e0 ff 0.800000 scf sf
(!) sw
2 div 22.633200 ex sub 9.338640 m (!)
 gs 1 -1 sc sh gr
/Times-Roman_e0 ff 0.800000 scf sf
(#) sw
2 div 23.605200 ex sub 12.711600 m (#)
 gs 1 -1 sc sh gr
/Symbol ff 0.800000 scf sf
(q) sw
2 div 24.012200 ex sub 12.733300 m (q)
 gs 1 -1 sc sh gr
/Symbol ff 0.800000 scf sf
(f) sw
2 div 22.813200 ex sub 16.540100 m (f)
 gs 1 -1 sc sh gr
/Times-Roman_e0 ff 0.800000 scf sf
(#) sw
2 div 22.396800 ex sub 16.513500 m (#)
 gs 1 -1 sc sh gr
/Times-Roman_e0 ff 0.800000 scf sf
(!"$%&) sw
2 div 27.207900 ex sub 18.398900 m (!"$%&)
 gs 1 -1 sc sh gr
/Symbol ff 0.800000 scf sf
(q) sw
2 div 28.174700 ex sub 18.420900 m (q)
 gs 1 -1 sc sh gr
/Symbol ff 0.800000 scf sf
(f) sw
2 div 29.195500 ex sub 18.429300 m (f)
 gs 1 -1 sc sh gr
/Times-Roman_e0 ff 0.800000 scf sf
(#) sw
2 div 28.779200 ex sub 18.402700 m (#)
 gs 1 -1 sc sh gr
0.050000 slw
[] 0 sd
[] 0 sd
0 slj
0 slc
n 24.355700 9.874300 m 25.974700 9.875570 l s
0.020000 slw
[] 0 sd
[] 0 sd
0 slj
0 slc
n 25.115800 8.229810 m 25.975100 9.875950 l s
0.300000 slw
[] 0 sd
[] 0 sd
0 slj
0 slc
0.901515 0.901515 0.901515 srgb
n 25.277075 8.992956 m 25.808510 8.987630 l s
0.050000 slw
[] 0 sd
[] 0 sd
0 slj
0 slc
0.000000 0.000000 0.000000 srgb
n 25.000000 9.000000 m 27.000000 9.000000 l s
/Times-Roman_e0 ff 0.800000 scf sf
(#/) sw
2 div 28.436400 ex sub 10.332400 m (#/)
 gs 1 -1 sc sh gr
/Times-Roman_e0 ff 0.800000 scf sf
(!) sw
2 div 28.188800 ex sub 7.533510 m (!)
 gs 1 -1 sc sh gr
/Times-Roman_e0 ff 0.800000 scf sf
(#) sw
2 div 28.690800 ex sub 7.530500 m (#)
 gs 1 -1 sc sh gr
/Symbol ff 0.800000 scf sf
(q) sw
2 div 29.097800 ex sub 7.552160 m (q)
 gs 1 -1 sc sh gr
0.010000 slw
[] 0 sd
[] 0 sd
0 slc
n 24.075200 6.181100 m 23.014800 8.597850 l s
/Times-Roman_e0 ff 0.800000 scf sf
(#!) sw
2 div 23.036100 ex sub 7.468220 m (#!)
 gs 1 -1 sc sh gr
24.665300 4.460510 m /Times-Roman_e0 ff 0.800000 scf sf
(#0 """)
 gs 1 -1 sc sh gr
26.500800 5.159590 m /Times-Roman_e0 ff 0.600000 scf sf
(1)
 gs 1 -1 sc sh gr
0.050000 slw
[] 0 sd
[] 0 sd
0 slj
0 slc
n 23.477600 8.216510 m 24.309300 9.840210 l s
0.010000 slw
[] 0 sd
[] 0 sd
0 slc
n 23.455300 11.645500 m 23.209300 11.260800 l s
0 slj
n 23.509040 11.543918 m 23.209300 11.260800 l 23.340544 11.651664 l f
0.010000 slw
[] 0 sd
[] 0 sd
0 slc
n 22.141300 10.197900 m 22.510900 10.490400 l s
0 slj
n 22.135183 10.320586 m 22.510900 10.490400 l 22.259298 10.163756 l f
0.010000 slw
[] 0 sd
[] 0 sd
0 slc
n 23.067800 8.465280 m 23.282800 7.987590 l s
0 slj
n 23.209818 8.393390 m 23.282800 7.987590 l 23.027440 8.311305 l f
0.010000 slw
[] 0 sd
[] 0 sd
0 slc
n 24.063900 6.207600 m 23.791000 6.819870 l s
0 slj
n 23.862506 6.413807 m 23.791000 6.819870 l 24.045182 6.495229 l f
0.300000 slw
[] 0 sd
[] 0 sd
0 slc
1.000000 1.000000 1.000000 srgb
n 22.838300 10.754800 m 23.155500 11.180900 l s
0.010000 slw
[] 0 sd
[] 0 sd
0 slc
0.000000 0.000000 0.000000 srgb
n 19.729719 13.714711 4.260197 4.260197 301.743776 333.331249 ellipse s
26.440800 4.109590 m /Times-Roman_e0 ff 0.600000 scf sf
(1)
 gs 1 -1 sc sh gr
/Symbol ff 0.800000 scf sf
(W) sw
2 div 27.550800 ex sub 5.609590 m (W)
 gs 1 -1 sc sh gr
0.010000 slw
[] 0 sd
[] 0 sd
0 slc
n 27.527100 9.345100 m 25.969800 6.225980 l s
0.010000 slw
[] 0 sd
[] 0 sd
0 slc
n 26.020900 6.330840 m 26.253200 6.795350 l s
0 slj
n 25.984848 6.482321 m 26.253200 6.795350 l 26.163726 6.392865 l f
0.010000 slw
[] 0 sd
[] 0 sd
0 slc
n 27.531500 9.354010 m 27.264800 8.819980 l s
0 slj
n 27.532980 9.133156 m 27.264800 8.819980 l 27.354053 9.222514 l f
0.010000 slw
[] 0 sd
[] 0 sd
0 slc
n 26.000000 17.500000 m 27.000000 17.500000 l s
0 slj
n 26.600000 17.600000 m 27.000000 17.500000 l 26.600000 17.400000 l f
0.010000 slw
[] 0 sd
[] 0 sd
0 slc
n 26.000000 17.500000 m 25.000000 17.500000 l s
0 slj
n 25.400000 17.400000 m 25.000000 17.500000 l 25.400000 17.600000 l f
0.100000 slw
[] 0 sd
[] 0 sd
0 slc
1.000000 1.000000 1.000000 srgb
n 24.849500 14.005200 m 25.139200 14.023300 l s
0.010000 slw
[0.200000] 0 sd
[0.200000] 0 sd
0 slc
0.000000 0.000000 0.000000 srgb
n 25.000000 17.000000 m 25.000000 9.000000 l s
0.100000 slw
[] 0 sd
[] 0 sd
0 slc
1.000000 1.000000 1.000000 srgb
n 26.840900 14.005200 m 27.184900 14.023300 l s
0.010000 slw
[0.200000] 0 sd
[0.200000] 0 sd
0 slc
0.000000 0.000000 0.000000 srgb
n 27.000000 17.000000 m 27.000000 9.000000 l s
0.050000 slw
[] 0 sd
[] 0 sd
0 slc
1.000000 1.000000 1.000000 srgb
n 25.000000 7.000000 m 25.513113 7.001259 l s
0.010000 slw
[] 0 sd
[] 0 sd
0 slc
0.000000 0.000000 0.000000 srgb
n 25.299000 7.331940 m 24.849000 4.856940 l s
0.010000 slw
[] 0 sd
0 slj
0 slc
n 25.086574 6.862366 m 25.299000 7.331940 l 25.332541 6.817644 l s
0.100000 slw
[] 0 sd
[] 0 sd
0 slc
1.000000 1.000000 1.000000 srgb
n 26.191276 9.707531 m 26.666276 9.332531 l s
0.010000 slw
[] 0 sd
[] 0 sd
0 slc
0.000000 0.000000 0.000000 srgb
n 25.974000 9.331940 m 27.840000 10.009700 l s
0.010000 slw
[] 0 sd
0 slj
0 slc
n 26.486634 9.385147 m 25.974000 9.331940 l 26.401286 9.620127 l s
/Times-Roman_e0 ff 0.800000 scf sf
(#) sw
2 div 29.733349 ex sub 4.370852 m (#)
 gs 1 -1 sc sh gr
/Symbol ff 0.800000 scf sf
(q) sw
2 div 30.140349 ex sub 4.392552 m (q)
 gs 1 -1 sc sh gr
0.010000 slw
[] 0 sd
[] 0 sd
0 slj
0 slc
0.901515 0.901515 0.901515 srgb
n 24.500000 7.500000 m 24.500000 10.000000 l 24.500000 7.500000 l f
n 24.500000 7.500000 m 24.500000 10.000000 l 24.500000 7.500000 l cp s
showpage
