%!PS-Adobe-3.0 EPSF-3.0
%%Creator: MATLAB, The Mathworks, Inc.
%%Title: fig_blackbody_g2v.eps
%%CreationDate: 12/01/ 4  01:58:46
%%DocumentNeededFonts: Helvetica
%%DocumentProcessColors: Cyan Magenta Yellow Black
%%LanguageLevel: 2
%%Pages: 1
%%BoundingBox:    57   200   553   600
%%EndComments

%%BeginProlog

% MathWorks dictionary
/MathWorks 160 dict begin

% definition operators
/bdef {bind def} bind def
/ldef {load def} bind def
/xdef {exch def} bdef
/xstore {exch store} bdef

% operator abbreviations
/c  /clip ldef
/cc /concat ldef
/cp /closepath ldef
/gr /grestore ldef
/gs /gsave ldef
/mt /moveto ldef
/np /newpath ldef
/cm /currentmatrix ldef
/sm /setmatrix ldef
/rc {rectclip} bdef
/rf {rectfill} bdef
/rm /rmoveto ldef
/rl /rlineto ldef
/s /show ldef
/sc {setcmykcolor} bdef
/sr /setrgbcolor ldef
/sg /setgray ldef
/w /setlinewidth ldef
/j /setlinejoin ldef
/cap /setlinecap ldef

% page state control
/pgsv () def
/bpage {/pgsv save def} bdef
/epage {pgsv restore} bdef
/bplot /gsave ldef
/eplot {stroke grestore} bdef

% orientation switch
/portraitMode 	0 def
/landscapeMode 	1 def

% coordinate system mappings
/dpi2point 0 def

% font control
/FontSize 0 def
/FMS {
	/FontSize xstore		%save size off stack
	findfont
	[FontSize 0 0 FontSize neg 0 0]
	makefont
	setfont
	}bdef

/ISOLatin1Encoding where
{pop
/WindowsLatin1Encoding 256 array bdef
ISOLatin1Encoding WindowsLatin1Encoding copy pop
/.notdef/.notdef/quotesinglbase/florin/quotedblbase/ellipsis/dagger/daggerdbl
/circumflex/perthousand/Scaron/guilsinglleft/OE/.notdef/.notdef/.notdef
/.notdef/quoteleft/quoteright/quotedblleft/quotedblright/bullet/endash/emdash
/tilde/trademark/scaron/guilsinglright/oe/.notdef/.notdef/Ydieresis
WindowsLatin1Encoding 128 32 getinterval astore pop}
{/WindowsLatin1Encoding StandardEncoding bdef} ifelse

/reencode {
exch dup where
{pop load} {pop StandardEncoding} ifelse
exch
dup 3 1 roll
findfont dup length dict begin
  { 1 index /FID ne {def}{pop pop} ifelse } forall
  /Encoding exch def
  currentdict
end
definefont pop
} bdef

/isroman {
findfont /CharStrings get
/Agrave known
} bdef

/FMSR {
3 1 roll 1 index
dup isroman
{reencode} {pop pop} ifelse
exch FMS
} bdef

/csm {
	1 dpi2point div -1 dpi2point div scale
	neg translate
	landscapeMode eq {90 rotate} if
	} bdef

% line types: solid, dotted, dashed, dotdash
/SO { [] 0 setdash } bdef
/DO { [.5 dpi2point mul 4 dpi2point mul] 0 setdash } bdef
/DA { [6 dpi2point mul] 0 setdash } bdef
/DD { [.5 dpi2point mul 4 dpi2point mul 6 dpi2point mul 4 dpi2point mul] 0 setdash } bdef

% macros for lines and objects
/L {
	lineto
	stroke
	} bdef
/MP {
	3 1 roll moveto
	1 sub {rlineto} repeat
	} bdef
/AP {
	{rlineto} repeat
	} bdef
/PP {
	closepath eofill
	} bdef
/DP {
	closepath stroke
	} bdef
/MR {
	4 -2 roll moveto
	dup  0 exch rlineto
	exch 0 rlineto
	neg  0 exch rlineto
	closepath
	} bdef
/FR {
	MR stroke
	} bdef
/PR {
	MR fill
	} bdef
/L1i {
	{ currentfile picstr readhexstring pop } image
	} bdef

/tMatrix matrix def
/MakeOval {
	newpath
	tMatrix currentmatrix pop
	translate scale
	0 0 1 0 360 arc
	tMatrix setmatrix
	} bdef
/FO {
	MakeOval
	stroke
	} bdef
/PO {
	MakeOval
	fill
	} bdef

/PD {
	currentlinecap 1 setlinecap 3 1 roll 2 copy moveto lineto stroke setlinecap
	} bdef

/FA {
	newpath
	tMatrix currentmatrix pop
	translate scale
	0 0 1 5 -2 roll arc
	tMatrix setmatrix
	stroke
	} bdef
/PA {
	newpath
	tMatrix currentmatrix pop
	translate 0 0 moveto scale
	0 0 1 5 -2 roll arc
	closepath
	tMatrix setmatrix
	fill
	} bdef

/FAn {
	newpath
	tMatrix currentmatrix pop
	translate scale
	0 0 1 5 -2 roll arcn
	tMatrix setmatrix
	stroke
	} bdef
/PAn {
	newpath
	tMatrix currentmatrix pop
	translate 0 0 moveto scale
	0 0 1 5 -2 roll arcn
	closepath
	tMatrix setmatrix
	fill
	} bdef

/MRR {
	/vradius xdef
	/hradius xdef
	/lry xdef
	/lrx xdef
	/uly xdef
	/ulx xdef
	newpath
	tMatrix currentmatrix pop
	ulx hradius add uly vradius add translate
	hradius vradius scale
	0 0 1 180 270 arc 
	tMatrix setmatrix
	lrx hradius sub uly vradius add translate
	hradius vradius scale
	0 0 1 270 360 arc
	tMatrix setmatrix
	lrx hradius sub lry vradius sub translate
	hradius vradius scale
	0 0 1 0 90 arc
	tMatrix setmatrix
	ulx hradius add lry vradius sub translate
	hradius vradius scale
	0 0 1 90 180 arc
	tMatrix setmatrix
	closepath
	} bdef
/FRR {
	MRR stroke } bdef
/PRR {
	MRR fill } bdef

/MlrRR {
	/lry xdef
	/lrx xdef
	/uly xdef
	/ulx xdef
	/rad lry uly sub 2 div def
	newpath
	tMatrix currentmatrix pop
	ulx rad add uly rad add translate
	rad rad scale
	0 0 1 90 270 arc
	tMatrix setmatrix
	lrx rad sub lry rad sub translate
	rad rad scale
	0 0 1 270 90 arc
	tMatrix setmatrix
	closepath
	} bdef
/FlrRR {
	MlrRR stroke } bdef
/PlrRR {
	MlrRR fill } bdef

/MtbRR {
	/lry xdef
	/lrx xdef
	/uly xdef
	/ulx xdef
	/rad lrx ulx sub 2 div def
	newpath
	tMatrix currentmatrix pop
	ulx rad add uly rad add translate
	rad rad scale
	0 0 1 180 360 arc
	tMatrix setmatrix
	lrx rad sub lry rad sub translate
	rad rad scale
	0 0 1 0 180 arc
	tMatrix setmatrix
	closepath
	} bdef
/FtbRR {
	MtbRR stroke } bdef
/PtbRR {
	MtbRR fill } bdef

currentdict end def
%%EndProlog

%%BeginSetup
MathWorks begin

0 cap

end
%%EndSetup

%%Page: 1 1
%%BeginPageSetup
%%PageBoundingBox:    57   200   553   600
MathWorks begin
bpage
%%EndPageSetup

%%BeginObject: obj1
bplot

/dpi2point 12 def
portraitMode 0204 7344 csm

  488   138  5948  4800 rc
85 dict begin %Colortable dictionary
/c0 { 0 0 0 sr} bdef
/c1 { 1 1 1 sr} bdef
/c2 { 1 0 0 sr} bdef
/c3 { 0 1 0 sr} bdef
/c4 { 0 0 1 sr} bdef
/c5 { 1 1 0 sr} bdef
/c6 { 1 0 1 sr} bdef
/c7 { 0 1 1 sr} bdef
1 j
1 sg
   0    0 6913 5185 rf
6 w
0 4224 5356 0 0 -4224 898 4612 4 MP
PP
-5356 0 0 4224 5356 0 0 -4224 898 4612 5 MP stroke
4 w
DO
0 sg
 898 4612 mt  898  388 L
 898  388 mt  898  388 L
1385 4612 mt 1385  388 L
1385  388 mt 1385  388 L
1872 4612 mt 1872  388 L
1872  388 mt 1872  388 L
2359 4612 mt 2359  388 L
2359  388 mt 2359  388 L
2846 4612 mt 2846  388 L
2846  388 mt 2846  388 L
3333 4612 mt 3333  388 L
3333  388 mt 3333  388 L
3819 4612 mt 3819  388 L
3819  388 mt 3819  388 L
4306 4612 mt 4306  388 L
4306  388 mt 4306  388 L
4793 4612 mt 4793  388 L
4793  388 mt 4793  388 L
5280 4612 mt 5280  388 L
5280  388 mt 5280  388 L
5767 4612 mt 5767  388 L
5767  388 mt 5767  388 L
6254 4612 mt 6254  388 L
6254  388 mt 6254  388 L
 898 4612 mt 6254 4612 L
6254 4612 mt 6254 4612 L
 898 3864 mt 6254 3864 L
6254 3864 mt 6254 3864 L
 898 3117 mt 6254 3117 L
6254 3117 mt 6254 3117 L
 898 2369 mt 6254 2369 L
6254 2369 mt 6254 2369 L
 898 1622 mt 6254 1622 L
6254 1622 mt 6254 1622 L
 898  874 mt 6254  874 L
6254  874 mt 6254  874 L
SO
6 w
 898  388 mt 6254  388 L
 898 4612 mt 6254 4612 L
6254 4612 mt 6254  388 L
 898 4612 mt  898  388 L
 898 4612 mt 6254 4612 L
 898 4612 mt  898  388 L
 898 4612 mt  898 4558 L
 898  388 mt  898  442 L
%%IncludeResource: font Helvetica
/Helvetica /WindowsLatin1Encoding 120 FMSR

 865 4758 mt 
(0) s
1385 4612 mt 1385 4558 L
1385  388 mt 1385  442 L
1285 4758 mt 
(100) s
1872 4612 mt 1872 4558 L
1872  388 mt 1872  442 L
1772 4758 mt 
(200) s
2359 4612 mt 2359 4558 L
2359  388 mt 2359  442 L
2259 4758 mt 
(300) s
2846 4612 mt 2846 4558 L
2846  388 mt 2846  442 L
2746 4758 mt 
(400) s
3333 4612 mt 3333 4558 L
3333  388 mt 3333  442 L
3233 4758 mt 
(500) s
3819 4612 mt 3819 4558 L
3819  388 mt 3819  442 L
3719 4758 mt 
(600) s
4306 4612 mt 4306 4558 L
4306  388 mt 4306  442 L
4206 4758 mt 
(700) s
4793 4612 mt 4793 4558 L
4793  388 mt 4793  442 L
4693 4758 mt 
(800) s
5280 4612 mt 5280 4558 L
5280  388 mt 5280  442 L
5180 4758 mt 
(900) s
5767 4612 mt 5767 4558 L
5767  388 mt 5767  442 L
5634 4758 mt 
(1000) s
6254 4612 mt 6254 4558 L
6254  388 mt 6254  442 L
6121 4758 mt 
(1100) s
 898 4612 mt  952 4612 L
6254 4612 mt 6200 4612 L
 797 4656 mt 
(0) s
 898 3864 mt  952 3864 L
6254 3864 mt 6200 3864 L
 697 3908 mt 
(0.5) s
 898 3117 mt  952 3117 L
6254 3117 mt 6200 3117 L
 797 3161 mt 
(1) s
 898 2369 mt  952 2369 L
6254 2369 mt 6200 2369 L
 697 2413 mt 
(1.5) s
 898 1622 mt  952 1622 L
6254 1622 mt 6200 1622 L
 797 1666 mt 
(2) s
 898  874 mt  952  874 L
6254  874 mt 6200  874 L
 697  918 mt 
(2.5) s
 898  334 mt 
(x 10) s
%%IncludeResource: font Helvetica
/Helvetica /WindowsLatin1Encoding 80 FMSR

1124  260 mt 
(13) s
 898  388 mt 6254  388 L
 898 4612 mt 6254 4612 L
6254 4612 mt 6254  388 L
 898 4612 mt  898  388 L
gs 898 388 5357 4225 rc
54 32 53 33 54 34 53 35 54 36 53 37 54 38 53 39 
54 40 54 41 53 43 54 43 53 44 54 46 53 46 54 48 
54 49 53 50 54 51 53 53 54 53 53 55 54 56 53 57 
54 58 54 59 53 60 54 62 53 62 54 63 53 63 54 65 
53 65 54 65 54 66 53 66 54 66 53 65 54 66 53 64 
54 63 54 63 53 60 54 59 53 56 54 53 53 49 54 46 
53 41 54 36 54 31 53 24 54 16 53 9 54 -1 53 -10 
54 -21 53 -31 54 -45 54 -57 53 -71 54 -85 53 -100 54 -116 
53 -130 54 -147 54 -161 53 -175 54 -189 53 -200 54 -211 53 -217 
54 -221 53 -222 54 -220 54 -212 53 -201 54 -186 53 -167 54 -146 
53 -122 54 -98 53 -75 54 -53 54 -36 53 -21 54 -12 53 -5 
54 -2 53 -1 54 0 54 0 53 0 54 0 53 0 54 0 
53 0 54 0 53 0 54 0 898 4612 101 MP stroke
DO
54 30 53 30 54 31 53 32 54 33 53 34 54 34 53 36 
54 36 54 37 53 39 54 39 53 40 54 41 53 42 54 43 
54 44 53 45 54 46 53 47 54 48 53 48 54 50 53 51 
54 51 54 52 53 53 54 54 53 55 54 55 53 55 54 56 
53 56 54 56 54 57 53 56 54 56 53 55 54 55 53 54 
54 52 54 51 53 49 54 47 53 44 54 41 53 38 54 34 
53 29 54 24 54 19 53 12 54 6 53 -2 54 -10 53 -19 
54 -29 53 -38 54 -50 54 -61 53 -73 54 -86 53 -98 54 -111 
53 -124 54 -137 54 -148 53 -160 54 -169 53 -178 54 -185 53 -188 
54 -190 53 -189 54 -184 54 -176 53 -164 54 -150 53 -133 54 -114 
53 -95 54 -74 53 -55 54 -39 54 -25 53 -15 54 -8 53 -3 
54 -2 53 0 54 0 54 0 53 0 54 0 53 0 54 0 
53 0 54 0 53 0 54 0 898 4612 101 MP stroke
SO
2 7 3 7 2 6 3 5 2 3 3 3 2 3 3 7 
2 10 2 11 3 11 2 7 3 2 2 -1 3 -2 2 0 
2 3 3 4 2 4 3 1 2 -4 3 -6 2 -4 2 0 
3 6 2 9 3 7 2 -1 3 -12 2 -18 2 -16 3 -7 
2 8 3 16 2 19 3 14 2 4 3 -2 2 -2 2 3 
3 14 2 17 3 16 2 6 3 -7 2 -17 2 -19 3 -15 
2 -6 3 1 2 3 3 1 2 -4 2 -8 3 -6 2 -3 
3 4 2 8 3 12 2 11 3 9 2 6 2 6 3 3 
2 3 3 1 2 -2 3 -5 2 -9 2 -9 3 -6 2 2 
3 11 2 17 3 16 2 10 2 -2 3 -8 2 -9 3 -3 
2 7 3 13 2 13 3 8 2 -3 2 -10 3 -9 2 -5 
3 -13 2 45 3 3 2 -14 2 4 3 7 2 -13 3 -24 
2 23 3 -1 2 -14 2 33 3 0 2 12 3 -10 2 -8 
3 -22 2 24 3 6 2 18 2 4 3 -42 2 0 3 17 
2 -28 3 -27 2 37 2 18 3 19 2 25 3 -7 2 34 
3 -51 2 9 2 21 3 -23 2 33 3 -6 2 -21 3 31 
2 -11 3 -5 2 14 2 -4 3 9 2 -9 3 14 2 4 
3 -39 2 2 2 14 3 16 2 -46 3 41 2 20 3 -22 
2 6 2 5 3 -13 2 17 3 -14 2 -5 3 3 2 -2 
3 33 2 -4 2 -21 3 42 2 -9 3 -3 2 -11 3 19 
2 -33 2 18 3 -17 2 -10 3 -9 2 12 3 23 2 -7 
2 -18 3 7 2 -12 3 -15 2 11 3 26 2 8 3 7 
2 33 2 30 3 2 2 11 3 12 2 -7 3 -14 2 11 
2 20 3 -9 2 -3 3 -13 2 -7 3 -33 2 -29 2 -2 
3 -8 2 -2 3 -1 2 4 3 4 2 27 2 1 3 13 
2 14 3 10 2 -2 3 15 2 -26 3 -19 2 20 2 12 
3 36 2 -43 3 -4 2 16 3 -10 2 16 2 -2 3 57 
2 -3 3 -32 2 -28 3 -31 2 69 2 62 3 -44 2 -107 
3 53 2 89 3 -33 2 -38 3 25 2 24 2 -15 3 -74 
2 27 3 60 2 -70 3 -58 2 97 2 -27 3 18 2 39 
3 -3 2 12 3 55 2 34 2 40 3 -48 2 -67 3 -55 
2 -11 3 -14 2 22 3 -39 2 -25 2 57 3 -90 2 14 
3 35 2 49 3 -16 2 1 2 39 3 37 2 9 3 29 
2 3 3 22 2 3 2 2 3 7 2 3 3 -18 2 -47 
3 -1 2 21 3 1 2 -12 2 7 3 31 2 10 3 -36 
2 -17 3 20 2 28 2 6 3 -14 2 9 3 4 2 -25 
3 -19 2 19 2 34 3 -16 2 -44 3 17 2 32 3 4 
2 -29 3 15 2 26 5341 2773 300 MP stroke
2 -16 3 -2 2 12 3 -11 2 -20 3 -20 2 8 2 13 
3 10 2 25 3 1 2 -1 3 16 2 35 2 7 3 3 
2 2 3 8 2 -27 3 -41 2 -7 3 -17 2 16 2 -11 
3 22 2 34 3 -68 2 37 3 31 2 -17 2 -1 3 6 
2 16 3 4 2 -12 3 9 2 22 2 0 3 -21 2 3 
3 18 2 13 3 4 2 7 3 -12 2 -3 2 13 3 1 
2 -10 3 -11 2 -24 3 -8 2 28 2 27 3 4 2 -8 
3 -15 2 13 3 17 2 -13 2 13 3 -10 2 -53 3 -1 
2 51 3 4 2 3 3 24 2 7 2 -7 3 2 2 5 
3 -6 2 -17 3 5 2 12 2 -4 3 1 2 15 3 13 
2 5 3 -14 2 1 2 19 3 0 2 -39 3 -46 2 13 
3 6 2 -67 2 -111 3 -90 2 85 3 162 2 56 3 16 
2 20 3 6 2 -7 2 -13 3 -9 2 -7 3 14 2 7 
3 -11 2 -1 2 7 3 1 2 5 3 11 2 5 3 4 
2 -31 2 -74 3 -126 2 -137 3 55 2 226 3 85 2 15 
3 8 2 -4 2 19 3 -67 2 -107 3 80 2 125 3 25 
2 -5 2 -8 3 -14 2 19 3 24 2 -2 3 -18 2 -12 
2 -4 3 2 2 17 3 -1 2 3 3 7 2 4 3 7 
2 9 2 -13 3 -26 2 5 3 27 2 5 3 -1 2 1 
2 9 3 9 2 -19 3 -30 2 -13 3 0 2 13 2 22 
3 5 2 5 3 2 2 2 3 6 2 -3 3 0 2 7 
2 -4 3 18 2 39 3 5 2 -22 3 -9 2 17 2 1 
3 -13 2 -53 3 -54 2 39 3 42 2 48 2 11 3 -29 
2 -70 3 -8 2 39 3 1 2 10 3 10 2 -3 2 4 
3 26 2 8 3 1 2 14 3 21 2 15 2 14 3 8 
2 -7 3 4 2 11 3 -13 2 -21 2 0 3 19 2 8 
3 15 2 -4 3 2 2 14 3 12 2 -22 2 -29 3 9 
2 33 3 -7 2 -18 3 13 2 30 2 3 3 -9 2 -11 
3 -19 2 27 3 33 2 6 2 -1 3 2 2 -1 3 -7 
2 -8 3 -3 2 -23 3 -22 2 13 2 3 3 18 2 13 
3 4 2 19 3 14 2 0 2 -9 3 9 2 25 3 5 
2 -21 3 11 2 5 2 8 3 5 2 -6 3 -3 2 5 
3 -8 2 -21 3 22 2 32 2 3 3 -6 2 -18 3 2 
2 1 3 9 2 3 2 -7 3 -11 2 10 3 26 2 16 
3 -4 2 -18 2 -35 3 15 2 41 3 9 2 -16 3 3 
2 6 2 2 3 11 2 4 3 -7 2 -2 3 8 2 4 
3 8 2 3 2 -11 3 -15 2 4 3 17 2 15 3 7 
2 6 2 1 3 -4 4613 2101 300 MP stroke
2 -1 3 -11 2 -5 3 13 2 22 2 17 3 1 2 -14 
3 -15 2 5 3 4 2 0 3 8 2 -1 2 3 3 11 
2 12 3 8 2 -18 3 -20 2 8 2 20 3 -14 2 -24 
3 28 2 5 3 -11 2 26 2 17 3 3 2 15 3 15 
2 -14 3 -8 2 8 3 -23 2 -17 2 32 3 26 2 -9 
3 -34 2 -38 3 -14 2 8 2 37 3 6 2 -19 3 -35 
2 31 3 62 2 11 2 -4 3 -10 2 -3 3 -8 2 21 
3 33 2 12 3 -29 2 -24 2 11 3 16 2 -15 3 -36 
2 9 3 34 2 -46 2 -41 3 44 2 12 3 6 2 43 
3 -1 2 2 2 -4 3 16 2 -13 3 -11 2 7 3 52 
2 16 3 2 2 1 2 -53 3 -61 2 -20 3 -26 2 -32 
3 24 2 80 2 28 3 26 2 15 3 61 2 11 3 -31 
2 22 2 39 3 -18 2 -22 3 2 2 8 3 -5 2 8 
3 20 2 3 2 -16 3 -19 2 0 3 30 2 11 3 -13 
2 -8 2 5 3 7 2 22 3 13 2 -31 3 -15 2 9 
2 -19 3 2 2 -4 3 20 2 -10 3 21 2 27 3 7 
2 4 2 -24 3 10 2 31 3 -1 2 -7 3 -3 2 0 
2 -1 3 8 2 5 3 -3 2 -1 3 -4 2 3 2 11 
3 3 2 -1 3 -1 2 -1 3 0 2 10 2 1 3 -4 
2 3 3 -8 2 5 3 5 2 -7 3 4 2 17 2 16 
3 10 2 0 3 4 2 -5 3 -4 2 10 2 2 3 11 
2 -1 3 3 2 -6 3 -13 2 15 2 14 3 -5 2 -6 
3 10 2 8 3 4 2 -4 3 -7 2 -18 2 6 3 30 
2 3 3 0 2 9 3 17 2 -3 2 -22 3 5 2 23 
3 -12 2 11 3 23 2 0 2 -15 3 -3 2 -14 3 14 
2 39 3 17 2 -8 3 -18 2 0 2 16 3 -39 2 2 
3 23 2 2 3 -53 2 -132 2 -281 3 -68 2 318 3 171 
2 57 3 31 2 15 2 4 3 -2 2 -8 3 13 2 34 
3 -23 2 -75 3 -66 2 82 2 56 3 1 2 -1 3 -3 
2 -17 3 -1 2 18 2 14 3 30 2 -15 3 -6 2 12 
3 0 2 -28 2 -1 3 -4 2 17 3 1 2 12 3 36 
2 12 3 -1 2 15 2 -9 3 -44 2 -12 3 40 2 30 
3 -16 2 -31 2 7 3 45 2 -10 3 -49 2 -7 3 45 
2 -12 2 -27 3 44 2 34 3 -18 2 -61 3 47 2 41 
3 -26 2 -28 2 -23 3 30 2 8 3 24 2 -6 3 0 
2 38 2 -10 3 8 2 42 3 34 2 -9 3 -41 2 -29 
2 38 3 16 2 -41 3 -69 2 -47 3 25 2 87 3 36 
2 -14 2 -51 3 5 3885 1378 300 MP stroke
2 70 3 -3 2 -19 3 39 2 23 2 -40 3 -18 2 30 
3 10 2 7 3 4 2 52 2 23 3 -25 2 -1 3 12 
2 10 3 5 2 -8 3 8 2 -29 2 -51 3 -25 2 25 
3 21 2 11 3 37 2 19 2 -25 3 -16 2 25 3 19 
2 31 3 6 2 -3 2 -19 3 -23 2 32 3 33 2 -4 
3 -29 2 20 2 18 3 -9 2 13 3 5 2 -112 3 -186 
2 -14 3 201 2 158 2 49 3 -13 2 -50 3 -46 2 4 
3 66 2 53 2 26 3 -16 2 3 3 -3 2 -7 3 -19 
2 -13 2 10 3 0 2 -23 3 -27 2 -38 3 17 2 67 
3 25 2 -32 2 -32 3 -9 2 29 3 39 2 30 3 4 
2 5 2 9 3 -41 2 -102 3 -86 2 59 3 81 2 29 
2 -35 3 -25 2 48 3 40 2 -19 3 -62 2 -46 3 54 
2 82 2 -12 3 -24 2 19 3 14 2 -40 3 -54 2 31 
2 104 3 -81 2 -85 3 -21 2 -40 3 74 2 113 2 -25 
3 -38 2 52 3 35 2 59 3 35 2 -47 3 -30 2 -30 
2 -38 3 46 2 70 3 -36 2 -37 3 13 2 43 2 12 
3 -10 2 -27 3 -63 2 20 3 72 2 2 2 -7 3 -11 
2 0 3 19 2 75 3 -90 2 -55 3 35 2 27 2 -27 
3 -92 2 -52 3 45 2 48 3 74 2 58 2 9 3 -71 
2 -93 3 73 2 155 3 17 2 -92 2 -55 3 -18 2 6 
3 -124 2 -17 3 183 2 123 3 37 2 -88 2 -119 3 69 
2 97 3 -76 2 -117 3 -144 2 -203 2 42 3 289 2 99 
3 -7 2 68 3 16 2 -147 2 -133 3 45 2 128 3 -21 
2 -90 3 -12 2 64 3 -76 2 -108 2 -174 3 17 2 -91 
3 -236 2 247 3 416 2 82 2 -47 3 -67 2 -28 3 69 
2 22 3 15 2 107 2 44 3 -80 2 -33 3 -4 2 66 
3 76 2 -98 3 -102 2 45 2 65 3 59 2 78 3 -55 
2 -67 3 -67 2 -71 2 116 3 65 2 -80 3 -116 2 -23 
3 54 2 24 2 109 3 81 2 -4 3 -134 2 19 3 153 
2 37 2 -2 3 -87 2 38 3 135 2 -39 3 -140 2 31 
3 82 2 -175 2 -168 3 164 2 130 3 101 2 11 3 -110 
2 -181 2 42 3 93 2 -104 3 -177 2 -267 3 -177 2 389 
2 356 3 76 2 -28 3 38 2 28 3 23 2 61 3 -6 
2 -64 2 22 3 43 2 -8 3 -69 2 16 3 77 2 -10 
2 -99 3 -83 2 37 3 33 2 69 3 20 2 -64 2 -85 
3 -35 2 125 3 72 2 -95 3 -127 2 -65 3 28 2 119 
2 32 3 1 2 -29 3 -32 2 -73 3 33 2 167 2 -55 
3 -89 2 12 3 72 3157 631 300 MP stroke
2 40 3 76 2 21 2 -8 3 -35 2 9 3 -52 2 -74 
3 10 2 30 3 -15 2 3 2 96 3 26 2 -21 3 1 
2 -113 3 -103 2 74 2 51 3 -156 2 -143 3 128 2 218 
3 81 2 99 2 -5 3 -93 2 -105 3 -44 2 -5 3 10 
2 48 3 -84 2 -173 2 -133 3 52 2 190 3 14 2 -56 
3 -44 2 43 2 24 3 -18 2 -83 3 -79 2 -140 3 8 
2 -31 2 -155 3 -156 2 130 3 147 2 139 3 93 2 -44 
3 -106 2 -97 2 -204 3 -182 2 243 3 162 2 -45 3 67 
2 -401 2 -603 3 -150 2 157 3 328 2 212 3 148 2 59 
2 -113 3 -24 2 172 3 12 2 -26 3 5 2 90 3 28 
2 -64 2 -102 3 -47 2 252 3 151 2 22 3 -156 2 -163 
2 60 3 62 2 -18 3 -3 2 -25 3 88 2 122 2 7 
3 -78 2 -1 3 5 2 39 3 -69 2 -49 2 88 3 94 
2 22 3 -137 2 -325 3 -150 2 308 3 266 2 -49 2 -193 
3 -86 2 -13 3 -60 2 6 3 87 2 48 2 -37 3 142 
2 -44 3 -40 2 92 3 42 2 -33 2 -87 3 -93 2 -14 
3 -42 2 -46 3 -108 2 -311 3 -725 2 -702 2 127 3 652 
2 434 3 5 2 -370 3 -515 2 -504 2 55 3 585 2 525 
3 300 2 9 3 -177 2 -54 2 -80 3 -209 2 -94 3 39 
2 26 3 37 2 3 3 -124 2 105 2 123 3 -172 2 -426 
3 -235 2 7 3 159 2 260 2 310 3 328 2 19 3 -232 
2 -105 3 161 2 300 2 166 3 -168 2 -277 3 -139 2 -51 
3 -11 2 -267 3 -47 2 35 2 -68 3 214 2 76 3 4 
2 242 3 -56 2 -1 2 161 3 -20 2 -123 3 -84 2 17 
3 110 2 61 2 80 3 18 2 -163 3 -271 2 -54 3 70 
2 -59 3 0 2 1 2 -168 3 -74 2 -2 3 165 2 137 
3 -92 2 -262 2 -216 3 -4 2 118 3 38 2 146 3 180 
2 73 2 69 3 39 2 -22 3 -84 2 -147 3 -115 2 28 
3 43 2 18 2 46 3 26 2 -109 3 -134 2 -37 3 31 
2 41 2 23 3 -4 2 -11 3 -2 2 -43 3 -104 2 -21 
2 175 3 179 2 -10 3 -99 2 -44 3 43 2 109 3 52 
2 -97 2 -128 3 -34 2 -8 3 -63 2 -64 3 9 2 79 
2 113 3 70 2 -34 3 -66 2 -18 3 16 2 17 2 -6 
3 -31 2 21 3 123 2 92 3 -67 2 -140 3 -96 2 -6 
2 87 3 88 2 -2 3 -100 2 -166 3 -145 2 -54 2 -30 
3 -74 2 -55 3 33 2 75 3 61 2 48 2 43 3 96 
2 -277 3 -65 2 -6 3 30 2 122 2 13 3 -105 2 -85 
3 -72 2 67 3 1 2429 3420 300 MP stroke
2 119 3 113 2 -6 2 -157 3 -11 2 139 3 75 2 -99 
3 -214 2 -66 2 107 3 216 2 -66 3 -39 2 -10 3 -93 
2 -71 2 10 3 90 2 -18 3 -36 2 39 3 3 2 -121 
3 -123 2 12 2 34 3 -86 2 -37 3 88 2 -7 3 -90 
2 65 2 82 3 -77 2 -24 3 91 2 1 3 -40 2 0 
2 -18 3 -15 2 -30 3 -14 2 46 3 36 2 -26 3 -34 
2 -29 2 -70 3 -17 2 -71 3 -120 2 67 3 7 2 18 
2 -84 3 -233 2 -61 3 166 2 115 3 42 2 4 2 -42 
3 -40 2 -106 3 -177 2 -89 3 -46 2 -2 3 70 2 110 
2 54 3 84 2 68 3 -41 2 -81 3 -74 2 -38 2 -37 
3 32 2 96 3 68 2 -32 3 -37 2 112 2 36 3 30 
2 -33 3 -54 2 21 3 39 2 -1 3 1 2 19 2 -28 
3 43 2 14 3 -74 2 32 3 9 2 -152 2 -172 3 -15 
2 18 3 -37 2 -22 3 10 2 6 2 21 3 46 2 19 
3 17 2 -25 3 -13 2 -48 3 -32 2 -8 2 -29 3 -17 
2 -11 3 3 2 -12 3 -24 2 3 2 19 3 35 2 22 
3 -1 2 -53 3 -43 2 23 2 22 3 -5 2 -2 3 5 
2 -17 3 -32 2 28 3 67 2 29 2 2 3 0 2 -17 
3 -32 2 -44 3 -12 2 -6 2 2 3 15 2 3 3 -14 
2 14 3 5 2 12 2 -14 3 7 2 -13 3 -10 2 0 
3 18 2 -15 3 30 2 35 2 -48 3 -32 2 23 3 -14 
2 9 3 -4 2 -9 2 -35 3 14 2 -4 3 -2 2 19 
3 52 2 -1 2 -60 3 55 2 2 3 -28 2 -28 3 30 
2 -9 2 -27 3 66 2 -30 3 9 2 -35 3 17 2 34 
3 -8 2 -71 2 -44 3 34 2 61 3 9 2 17 3 -9 
2 -8 2 -14 3 -54 2 70 3 1 2 -12 3 20 2 -1 
2 -36 3 -46 2 12 3 13 2 16 3 -30 2 -28 3 2 
2 19 2 -12 3 -5 2 -18 3 -1 2 0 3 0 2 0 
2 0 3 3 2 -3 3 0 2 28 3 5 2 23 2 -2 
3 -42 2 -12 3 1 2 17 3 18 2 -3 3 -15 2 -2 
2 -3 3 -1 2 0 3 1 2 1 3 -1 2 -1 2 -1 
3 0 2 1 3 0 2 -1 3 0 2 -1 2 0 3 -1 
2 0 3 -1 2 -1 3 0 2 1 3 0 2 0 2 0 
3 0 2 0 3 -1 2 -1 3 -1 2 -1 2 -1 3 2 
2 1 3 0 2 -1 3 0 2 -1 2 0 3 0 2 0 
3 0 2 -1 3 0 2 0 3 0 2 -1 2 0 3 0 
2 1 3 0 2 -1 3 0 2 0 2 0 3 0 2 1 
3 -1 2 0 3 0 1701 4610 300 MP stroke
2 0 2 -1 3 1 2 0 3 -1 2 0 3 0 2 0 
3 1 2 -1 2 0 3 1 2 0 3 0 2 0 3 0 
2 0 2 0 3 -1 2 1 3 1 2 -1 3 0 2 -1 
2 0 3 0 2 0 3 0 2 0 3 0 2 0 3 0 
2 0 2 0 3 0 2 0 3 0 2 -1 3 1 2 1 
2 1 3 -2 2 0 3 0 2 -1 3 0 2 0 2 1 
3 0 2 0 3 0 2 -1 3 1 2 0 2 0 3 -1 
2 1 3 0 2 0 3 -1 2 0 3 0 2 1 2 0 
3 -1 2 1 3 0 2 -1 3 0 2 1 2 -1 3 0 
2 1 3 0 2 -1 3 0 2 0 2 1 3 0 2 0 
3 0 2 0 3 0 2 0 3 9 2 47 2 36 3 -40 
2 -41 3 -8 2 -4 3 0 2 3 2 2 3 -5 2 0 
3 1 2 16 3 4 2 -3 1458 4594 101 MP stroke

gr 
%%IncludeResource: font Helvetica
/Helvetica /WindowsLatin1Encoding 120 FMSR

3050 4901 mt 
(Wavelength ) s
%%IncludeResource: font Symbol
/Symbol /WindowsLatin1Encoding 120 FMSR

3706 4901 mt 
(l) s
%%IncludeResource: font Helvetica
/Helvetica /WindowsLatin1Encoding 120 FMSR

3771 4901 mt 
( in nm) s
 642 3255 mt  -90 rotate
(B) s
90 rotate
%%IncludeResource: font Symbol
/Symbol /WindowsLatin1Encoding 96 FMSR

 702 3175 mt  -90 rotate
(l) s
90 rotate
%%IncludeResource: font Helvetica
/Helvetica /WindowsLatin1Encoding 120 FMSR

 642 3123 mt  -90 rotate
(\(T\) in W m) s
90 rotate
%%IncludeResource: font Helvetica
/Helvetica /WindowsLatin1Encoding 96 FMSR

 582 2568 mt  -90 rotate
(-2) s
90 rotate
%%IncludeResource: font Helvetica
/Helvetica /WindowsLatin1Encoding 120 FMSR

 642 2459 mt  -90 rotate
( m) s
90 rotate
%%IncludeResource: font Helvetica
/Helvetica /WindowsLatin1Encoding 96 FMSR

 582 2326 mt  -90 rotate
(-1) s
90 rotate
%%IncludeResource: font Helvetica
/Helvetica /WindowsLatin1Encoding 120 FMSR

 642 2217 mt  -90 rotate
( sterad) s
90 rotate
%%IncludeResource: font Helvetica
/Helvetica /WindowsLatin1Encoding 96 FMSR

 582 1852 mt  -90 rotate
(-1) s
90 rotate
%%IncludeResource: font Helvetica
/Helvetica /WindowsLatin1Encoding 120 FMSR

2812 3607 mt 
(K) s
2894 3159 mt 
(H) s
2992 2411 mt 
(G) s
3722 1664 mt 
(D) s
4063 2292 mt 
(H) s
%%IncludeResource: font Symbol
/Symbol /WindowsLatin1Encoding 96 FMSR

4149 2352 mt 
(a) s
1 sg
0 482 1572 0 0 -482 4544 974 4 MP
PP
-1572 0 0 482 1572 0 0 -482 4544 974 5 MP stroke
4 w
DO
SO
6 w
0 sg
4544  492 mt 6116  492 L
4544  974 mt 6116  974 L
6116  974 mt 6116  492 L
4544  974 mt 4544  492 L
4544  974 mt 6116  974 L
4544  974 mt 4544  492 L
4544  492 mt 6116  492 L
4544  974 mt 6116  974 L
6116  974 mt 6116  492 L
4544  974 mt 4544  492 L
%%IncludeResource: font Helvetica
/Helvetica /WindowsLatin1Encoding 156 FMSR

5347  708 mt 
(T=5785 K) s
gs 4544 492 1573 483 rc
428 0 4651 653 2 MP stroke

gr 
5347  868 mt 
(T=5636 K) s
gs 4544 492 1573 483 rc
DO
428 0 4651 813 2 MP stroke
SO

gr 

end

eplot
%%EndObject

epage
end

showpage

%%Trailer
%%EOF
