%!PS-Adobe-2.0 EPSF-2.0
%%Title: fig_harmonic.dia
%%Creator: Dia v0.90
%%CreationDate: Tue May 10 16:35:01 2005
%%For: caf
%%Magnification: 1.0000
%%Orientation: Portrait
%%BoundingBox: 0 0 783 633
%%Pages: 1
%%EndComments
%%BeginProlog
/cp {closepath} bind def
/c {curveto} bind def
/f {fill} bind def
/a {arc} bind def
/ef {eofill} bind def
/ex {exch} bind def
/gr {grestore} bind def
/gs {gsave} bind def
/sa {save} bind def
/rs {restore} bind def
/l {lineto} bind def
/m {moveto} bind def
/rm {rmoveto} bind def
/n {newpath} bind def
/s {stroke} bind def
/sh {show} bind def
/slc {setlinecap} bind def
/slj {setlinejoin} bind def
/slw {setlinewidth} bind def
/srgb {setrgbcolor} bind def
/rot {rotate} bind def
/sc {scale} bind def
/sd {setdash} bind def
/ff {findfont} bind def
/sf {setfont} bind def
/scf {scalefont} bind def
/sw {stringwidth pop} bind def
/tr {translate} bind def

/ellipsedict 8 dict def
ellipsedict /mtrx matrix put
/ellipse
{ ellipsedict begin
   /endangle exch def
   /startangle exch def
   /yrad exch def
   /xrad exch def
   /y exch def
   /x exch def   /savematrix mtrx currentmatrix def
   x y tr xrad yrad sc
   0 0 1 startangle endangle arc
   savematrix setmatrix
   end
} def

/mergeprocs {
dup length
3 -1 roll
dup
length
dup
5 1 roll
3 -1 roll
add
array cvx
dup
3 -1 roll
0 exch
putinterval
dup
4 2 roll
putinterval
} bind def
%%EndProlog

%%BeginSetup
%%EndSetup
28.346000 -28.346000 scale
-8.950000 -55.325216 translate

0.100000 slw
[] 0 sd
[] 0 sd
0 slj
0 slc
0.000000 0.000000 0.000000 srgb
n 14.000000 34.000000 m 14.000000 43.000000 17.000000 46.000000 20.000000 46.000000 c s
0.100000 slw
[] 0 sd
[] 0 sd
0 slj
0 slc
n 26.000000 34.000000 m 26.000000 43.000000 23.000000 46.000000 20.000000 46.000000 c s
0.010000 slw
[] 0 sd
[] 0 sd
0 slc
n 13.000000 38.000000 m 27.000000 38.000000 l s
0.010000 slw
[] 0 sd
[] 0 sd
0 slc
n 13.000000 44.000000 m 27.000000 44.000000 l s
0.010000 slw
[] 0 sd
[] 0 sd
0 slc
n 13.000000 44.000000 m 27.000000 44.000000 l s
0.010000 slw
[] 0 sd
[] 0 sd
0 slc
n 13.000000 44.000000 m 27.000000 44.000000 l s
0.010000 slw
[] 0 sd
[] 0 sd
0 slc
n 13.000000 44.000000 m 27.000000 44.000000 l s
0.010000 slw
[] 0 sd
[] 0 sd
0 slc
n 13.000000 44.000000 m 27.000000 44.000000 l s
0.010000 slw
[] 0 sd
[] 0 sd
0 slc
n 13.000000 44.000000 m 27.000000 44.000000 l s
0.010000 slw
[] 0 sd
[] 0 sd
0 slc
n 13.000000 44.000000 m 27.000000 44.000000 l s
0.010000 slw
[] 0 sd
[] 0 sd
0 slc
n 13.000000 42.000000 m 27.000000 42.000000 l s
0.010000 slw
[] 0 sd
[] 0 sd
0 slc
n 13.000000 40.000000 m 27.000000 40.000000 l s
8.964645 44.000000 m  [ /xi /xi /xi /xi /xi /xi /xi /xi /xi /xi /xi /xi /xi /xi /xi /xi
 /xi /xi /xi /xi /xi /xi /xi /xi /xi /xi /xi /xi /xi /xi /xi /xi
 /n /equal /zero /space /three /two /one /E /xi /xi /seven /slash /h /w /five /hyphen
 /x /plus /four /xi /xi /xi /xi /xi /xi /xi /xi /xi /xi /xi /xi /xi
 /xi /xi /xi /xi /xi /xi /xi /xi /xi /xi /xi /xi /xi /xi /xi /xi
 /xi /xi /xi /xi /xi /xi /xi /xi /xi /xi /xi /xi /xi /xi /xi /xi
 /xi /xi /xi /xi /xi /xi /xi /xi /xi /xi /xi /xi /xi /xi /xi /xi
 /xi /xi /xi /xi /xi /xi /xi /xi /xi /xi /xi /xi /xi /xi /xi /xi
 /xi /xi /xi /xi /xi /xi /xi /xi /xi /xi /xi /xi /xi /xi /xi /xi
 /xi /xi /xi /xi /xi /xi /xi /xi /xi /xi /xi /xi /xi /xi /xi /xi
 /xi /xi /xi /xi /xi /xi /xi /xi /xi /xi /xi /xi /xi /xi /xi /xi
 /xi /xi /xi /xi /xi /xi /xi /xi /xi /xi /xi /xi /xi /xi /xi /xi
 /xi /xi /xi /xi /xi /xi /xi /xi /xi /xi /xi /xi /xi /xi /xi /xi
 /xi /xi /xi /xi /xi /xi /xi /xi /xi /xi /xi /xi /xi /xi /xi /xi
 /xi /xi /xi /xi /xi /xi /xi /xi /xi /xi /xi /xi /xi /xi /xi /xi
 /xi /xi /xi /xi /xi /xi /xi /xi /xi /xi /xi /xi /xi /xi /xi /xi
] /e0 exch def
/Times-Roman_e0 undefinefont
/Times-Roman_e0
  /Times-Roman findfont
  dup length dict begin
  {1 index /FID ne {def} {pop pop} ifelse} forall
  /Encoding e0 def
  currentdict end
definefont pop
/Times-Roman_e0 ff 1.600000 scf sf
( !"#)
 gs 1 -1 sc sh gr
9.000000 38.000000 m /Times-Roman_e0 ff 1.600000 scf sf
( !$#)
 gs 1 -1 sc sh gr
9.000000 40.000000 m /Times-Roman_e0 ff 1.600000 scf sf
( !%#)
 gs 1 -1 sc sh gr
9.000000 42.000000 m /Times-Roman_e0 ff 1.600000 scf sf
( !&#)
 gs 1 -1 sc sh gr
28.000000 38.000000 m /Times-Roman_e0 ff 1.600000 scf sf
('#!*+%#,#)
 gs 1 -1 sc sh gr
33.775000 38.000000 m /Symbol ff 1.600000 scf sf
(w)
 gs 1 -1 sc sh gr
0.100000 slw
[] 0 sd
[] 0 sd
0 slc
n 32.675000 37.275000 m 33.125000 37.100000 l s
27.879729 44.017872 m /Times-Roman_e0 ff 1.600000 scf sf
('#!&+%#,#)
 gs 1 -1 sc sh gr
33.654729 44.017872 m /Symbol ff 1.600000 scf sf
(w)
 gs 1 -1 sc sh gr
0.100000 slw
[] 0 sd
[] 0 sd
0 slc
n 32.554729 43.292872 m 33.004729 43.117872 l s
27.929729 42.017872 m /Times-Roman_e0 ff 1.600000 scf sf
('#!$+%#,#)
 gs 1 -1 sc sh gr
33.704729 42.017872 m /Symbol ff 1.600000 scf sf
(w)
 gs 1 -1 sc sh gr
0.100000 slw
[] 0 sd
[] 0 sd
0 slc
n 32.604729 41.292872 m 33.054729 41.117872 l s
27.929729 40.042872 m /Times-Roman_e0 ff 1.600000 scf sf
('#!.+%#,#)
 gs 1 -1 sc sh gr
33.704729 40.042872 m /Symbol ff 1.600000 scf sf
(w)
 gs 1 -1 sc sh gr
0.100000 slw
[] 0 sd
[] 0 sd
0 slc
n 32.604729 39.317872 m 33.054729 39.142872 l s
28.875000 44.525000 m /Times-Roman_e0 ff 1.000000 scf sf
("#)
 gs 1 -1 sc sh gr
28.875000 40.525000 m /Times-Roman_e0 ff 1.000000 scf sf
(%#)
 gs 1 -1 sc sh gr
28.875000 42.525000 m /Times-Roman_e0 ff 1.000000 scf sf
(&#)
 gs 1 -1 sc sh gr
28.875000 38.525000 m /Times-Roman_e0 ff 1.000000 scf sf
($#)
 gs 1 -1 sc sh gr
0.010000 slw
[0.200000] 0 sd
[0.200000] 0 sd
0 slc
n 14.000000 33.000000 m 14.000000 46.000000 l s
0.010000 slw
[0.200000] 0 sd
[0.200000] 0 sd
0 slc
n 26.000000 33.000000 m 26.000000 46.000000 l s
0.100000 slw
[] 0 sd
[] 0 sd
0 slc
n 28.000000 46.000000 m 12.000000 46.000000 l s
0 slj
n 27.200000 46.200000 m 28.000000 46.000000 l 27.200000 45.800000 l f
13.000000 47.000000 m /Times-Roman_e0 ff 1.600000 scf sf
(/0#)
 gs 1 -1 sc sh gr
25.000000 47.000000 m /Times-Roman_e0 ff 1.600000 scf sf
(10#)
 gs 1 -1 sc sh gr
14.929289 47.318198 m /Times-Roman_e0 ff 1.000000 scf sf
("#)
 gs 1 -1 sc sh gr
26.905559 47.340722 m /Times-Roman_e0 ff 1.000000 scf sf
("#)
 gs 1 -1 sc sh gr
0.100000 slw
[] 0 sd
[] 0 sd
0 slc
n 12.000000 50.000000 m 28.000000 50.000000 l s
0.100000 slw
[] 0 sd
[] 0 sd
0 slc
n 12.000000 52.000000 m 28.000000 52.000000 l s
0.100000 slw
[] 0 sd
[] 0 sd
0 slc
n 12.000000 50.000000 m 12.000000 52.000000 l s
0.100000 slw
[] 0 sd
[] 0 sd
0 slc
n 21.000000 50.000000 m 21.000000 52.000000 l s
0.100000 slw
[] 0 sd
[] 0 sd
0 slc
n 18.000000 50.000000 m 18.000000 52.000000 l s
0.100000 slw
[] 0 sd
[] 0 sd
0 slc
n 15.000000 50.000000 m 15.000000 52.000000 l s
0.100000 slw
[] 0 sd
[] 0 sd
0 slc
n 24.000000 50.000000 m 24.000000 52.000000 l s
28.434315 49.459619 m /Symbol ff 1.600000 scf sf
(n)
 gs 1 -1 sc sh gr
0.100000 slw
[] 0 sd
[] 0 sd
0 slc
n 28.000000 49.000000 m 12.000000 49.000000 l s
0 slj
n 27.200000 49.200000 m 28.000000 49.000000 l 27.200000 48.800000 l f
28.398959 46.353553 m /Times-Roman_e0 ff 1.600000 scf sf
(0#)
 gs 1 -1 sc sh gr
14.732412 53.318198 m /Symbol ff 1.600000 scf sf
(n)
 gs 1 -1 sc sh gr
15.767767 53.752513 m /Times-Roman_e0 ff 1.000000 scf sf
("#)
 gs 1 -1 sc sh gr
17.732412 53.318198 m /Symbol ff 1.600000 scf sf
(n)
 gs 1 -1 sc sh gr
18.767767 53.752513 m /Times-Roman_e0 ff 1.000000 scf sf
("#)
 gs 1 -1 sc sh gr
23.732412 53.318198 m /Symbol ff 1.600000 scf sf
(n)
 gs 1 -1 sc sh gr
24.767767 53.752513 m /Times-Roman_e0 ff 1.000000 scf sf
("#)
 gs 1 -1 sc sh gr
20.732412 53.318198 m /Symbol ff 1.600000 scf sf
(n)
 gs 1 -1 sc sh gr
21.767767 53.752513 m /Times-Roman_e0 ff 1.000000 scf sf
("#)
 gs 1 -1 sc sh gr
13.979899 53.318198 m /Times-Roman_e0 ff 1.600000 scf sf
(&)
 gs 1 -1 sc sh gr
13.979899 54.918198 m (#)
 gs 1 -1 sc sh gr
16.979899 53.318198 m /Times-Roman_e0 ff 1.600000 scf sf
(%)
 gs 1 -1 sc sh gr
16.979899 54.918198 m (#)
 gs 1 -1 sc sh gr
19.979899 53.318198 m /Times-Roman_e0 ff 1.600000 scf sf
($)
 gs 1 -1 sc sh gr
19.979899 54.918198 m (#)
 gs 1 -1 sc sh gr
22.979899 53.318198 m /Times-Roman_e0 ff 1.600000 scf sf
(2)
 gs 1 -1 sc sh gr
22.979899 54.918198 m (#)
 gs 1 -1 sc sh gr
showpage
