%!PS-Adobe-3.0 EPSF-3.0
%%Creator: MATLAB, The Mathworks, Inc.
%%Title: fig_blackbody_27.eps
%%CreationDate: 12/01/ 4  01:58:45
%%DocumentNeededFonts: Helvetica
%%DocumentProcessColors: Cyan Magenta Yellow Black
%%LanguageLevel: 2
%%Pages: 1
%%BoundingBox:    57   200   550   600
%%EndComments

%%BeginProlog

% MathWorks dictionary
/MathWorks 160 dict begin

% definition operators
/bdef {bind def} bind def
/ldef {load def} bind def
/xdef {exch def} bdef
/xstore {exch store} bdef

% operator abbreviations
/c  /clip ldef
/cc /concat ldef
/cp /closepath ldef
/gr /grestore ldef
/gs /gsave ldef
/mt /moveto ldef
/np /newpath ldef
/cm /currentmatrix ldef
/sm /setmatrix ldef
/rc {rectclip} bdef
/rf {rectfill} bdef
/rm /rmoveto ldef
/rl /rlineto ldef
/s /show ldef
/sc {setcmykcolor} bdef
/sr /setrgbcolor ldef
/sg /setgray ldef
/w /setlinewidth ldef
/j /setlinejoin ldef
/cap /setlinecap ldef

% page state control
/pgsv () def
/bpage {/pgsv save def} bdef
/epage {pgsv restore} bdef
/bplot /gsave ldef
/eplot {stroke grestore} bdef

% orientation switch
/portraitMode 	0 def
/landscapeMode 	1 def

% coordinate system mappings
/dpi2point 0 def

% font control
/FontSize 0 def
/FMS {
	/FontSize xstore		%save size off stack
	findfont
	[FontSize 0 0 FontSize neg 0 0]
	makefont
	setfont
	}bdef

/ISOLatin1Encoding where
{pop
/WindowsLatin1Encoding 256 array bdef
ISOLatin1Encoding WindowsLatin1Encoding copy pop
/.notdef/.notdef/quotesinglbase/florin/quotedblbase/ellipsis/dagger/daggerdbl
/circumflex/perthousand/Scaron/guilsinglleft/OE/.notdef/.notdef/.notdef
/.notdef/quoteleft/quoteright/quotedblleft/quotedblright/bullet/endash/emdash
/tilde/trademark/scaron/guilsinglright/oe/.notdef/.notdef/Ydieresis
WindowsLatin1Encoding 128 32 getinterval astore pop}
{/WindowsLatin1Encoding StandardEncoding bdef} ifelse

/reencode {
exch dup where
{pop load} {pop StandardEncoding} ifelse
exch
dup 3 1 roll
findfont dup length dict begin
  { 1 index /FID ne {def}{pop pop} ifelse } forall
  /Encoding exch def
  currentdict
end
definefont pop
} bdef

/isroman {
findfont /CharStrings get
/Agrave known
} bdef

/FMSR {
3 1 roll 1 index
dup isroman
{reencode} {pop pop} ifelse
exch FMS
} bdef

/csm {
	1 dpi2point div -1 dpi2point div scale
	neg translate
	landscapeMode eq {90 rotate} if
	} bdef

% line types: solid, dotted, dashed, dotdash
/SO { [] 0 setdash } bdef
/DO { [.5 dpi2point mul 4 dpi2point mul] 0 setdash } bdef
/DA { [6 dpi2point mul] 0 setdash } bdef
/DD { [.5 dpi2point mul 4 dpi2point mul 6 dpi2point mul 4 dpi2point mul] 0 setdash } bdef

% macros for lines and objects
/L {
	lineto
	stroke
	} bdef
/MP {
	3 1 roll moveto
	1 sub {rlineto} repeat
	} bdef
/AP {
	{rlineto} repeat
	} bdef
/PP {
	closepath eofill
	} bdef
/DP {
	closepath stroke
	} bdef
/MR {
	4 -2 roll moveto
	dup  0 exch rlineto
	exch 0 rlineto
	neg  0 exch rlineto
	closepath
	} bdef
/FR {
	MR stroke
	} bdef
/PR {
	MR fill
	} bdef
/L1i {
	{ currentfile picstr readhexstring pop } image
	} bdef

/tMatrix matrix def
/MakeOval {
	newpath
	tMatrix currentmatrix pop
	translate scale
	0 0 1 0 360 arc
	tMatrix setmatrix
	} bdef
/FO {
	MakeOval
	stroke
	} bdef
/PO {
	MakeOval
	fill
	} bdef

/PD {
	currentlinecap 1 setlinecap 3 1 roll 2 copy moveto lineto stroke setlinecap
	} bdef

/FA {
	newpath
	tMatrix currentmatrix pop
	translate scale
	0 0 1 5 -2 roll arc
	tMatrix setmatrix
	stroke
	} bdef
/PA {
	newpath
	tMatrix currentmatrix pop
	translate 0 0 moveto scale
	0 0 1 5 -2 roll arc
	closepath
	tMatrix setmatrix
	fill
	} bdef

/FAn {
	newpath
	tMatrix currentmatrix pop
	translate scale
	0 0 1 5 -2 roll arcn
	tMatrix setmatrix
	stroke
	} bdef
/PAn {
	newpath
	tMatrix currentmatrix pop
	translate 0 0 moveto scale
	0 0 1 5 -2 roll arcn
	closepath
	tMatrix setmatrix
	fill
	} bdef

/MRR {
	/vradius xdef
	/hradius xdef
	/lry xdef
	/lrx xdef
	/uly xdef
	/ulx xdef
	newpath
	tMatrix currentmatrix pop
	ulx hradius add uly vradius add translate
	hradius vradius scale
	0 0 1 180 270 arc 
	tMatrix setmatrix
	lrx hradius sub uly vradius add translate
	hradius vradius scale
	0 0 1 270 360 arc
	tMatrix setmatrix
	lrx hradius sub lry vradius sub translate
	hradius vradius scale
	0 0 1 0 90 arc
	tMatrix setmatrix
	ulx hradius add lry vradius sub translate
	hradius vradius scale
	0 0 1 90 180 arc
	tMatrix setmatrix
	closepath
	} bdef
/FRR {
	MRR stroke } bdef
/PRR {
	MRR fill } bdef

/MlrRR {
	/lry xdef
	/lrx xdef
	/uly xdef
	/ulx xdef
	/rad lry uly sub 2 div def
	newpath
	tMatrix currentmatrix pop
	ulx rad add uly rad add translate
	rad rad scale
	0 0 1 90 270 arc
	tMatrix setmatrix
	lrx rad sub lry rad sub translate
	rad rad scale
	0 0 1 270 90 arc
	tMatrix setmatrix
	closepath
	} bdef
/FlrRR {
	MlrRR stroke } bdef
/PlrRR {
	MlrRR fill } bdef

/MtbRR {
	/lry xdef
	/lrx xdef
	/uly xdef
	/ulx xdef
	/rad lrx ulx sub 2 div def
	newpath
	tMatrix currentmatrix pop
	ulx rad add uly rad add translate
	rad rad scale
	0 0 1 180 360 arc
	tMatrix setmatrix
	lrx rad sub lry rad sub translate
	rad rad scale
	0 0 1 0 180 arc
	tMatrix setmatrix
	closepath
	} bdef
/FtbRR {
	MtbRR stroke } bdef
/PtbRR {
	MtbRR fill } bdef

currentdict end def
%%EndProlog

%%BeginSetup
MathWorks begin

0 cap

end
%%EndSetup

%%Page: 1 1
%%BeginPageSetup
%%PageBoundingBox:    57   200   550   600
MathWorks begin
bpage
%%EndPageSetup

%%BeginObject: obj1
bplot

/dpi2point 12 def
portraitMode 0204 7344 csm

  488   138  5915  4800 rc
85 dict begin %Colortable dictionary
/c0 { 0 0 0 sr} bdef
/c1 { 1 1 1 sr} bdef
/c2 { 1 0 0 sr} bdef
/c3 { 0 1 0 sr} bdef
/c4 { 0 0 1 sr} bdef
/c5 { 1 1 0 sr} bdef
/c6 { 1 0 1 sr} bdef
/c7 { 0 1 1 sr} bdef
1 j
1 sg
   0    0 6913 5185 rf
6 w
0 1782 5356 0 0 -1782 898 2170 4 MP
PP
-5356 0 0 1782 5356 0 0 -1782 898 2170 5 MP stroke
4 w
DO
0 sg
 898 2170 mt  898  388 L
 898  388 mt  898  388 L
1434 2170 mt 1434  388 L
1434  388 mt 1434  388 L
1969 2170 mt 1969  388 L
1969  388 mt 1969  388 L
2505 2170 mt 2505  388 L
2505  388 mt 2505  388 L
3040 2170 mt 3040  388 L
3040  388 mt 3040  388 L
3576 2170 mt 3576  388 L
3576  388 mt 3576  388 L
4112 2170 mt 4112  388 L
4112  388 mt 4112  388 L
4647 2170 mt 4647  388 L
4647  388 mt 4647  388 L
5183 2170 mt 5183  388 L
5183  388 mt 5183  388 L
5718 2170 mt 5718  388 L
5718  388 mt 5718  388 L
6254 2170 mt 6254  388 L
6254  388 mt 6254  388 L
 898 2170 mt 6254 2170 L
6254 2170 mt 6254 2170 L
 898 1915 mt 6254 1915 L
6254 1915 mt 6254 1915 L
 898 1661 mt 6254 1661 L
6254 1661 mt 6254 1661 L
 898 1406 mt 6254 1406 L
6254 1406 mt 6254 1406 L
 898 1152 mt 6254 1152 L
6254 1152 mt 6254 1152 L
 898  897 mt 6254  897 L
6254  897 mt 6254  897 L
 898  643 mt 6254  643 L
6254  643 mt 6254  643 L
 898  388 mt 6254  388 L
6254  388 mt 6254  388 L
SO
6 w
 898  388 mt 6254  388 L
 898 2170 mt 6254 2170 L
6254 2170 mt 6254  388 L
 898 2170 mt  898  388 L
 898 2170 mt 6254 2170 L
 898 2170 mt  898  388 L
 898 2170 mt  898 2116 L
 898  388 mt  898  442 L
%%IncludeResource: font Helvetica
/Helvetica /WindowsLatin1Encoding 120 FMSR

 865 2316 mt 
(0) s
1434 2170 mt 1434 2116 L
1434  388 mt 1434  442 L
1351 2316 mt 
(0.5) s
1969 2170 mt 1969 2116 L
1969  388 mt 1969  442 L
1936 2316 mt 
(1) s
2505 2170 mt 2505 2116 L
2505  388 mt 2505  442 L
2422 2316 mt 
(1.5) s
3040 2170 mt 3040 2116 L
3040  388 mt 3040  442 L
3007 2316 mt 
(2) s
3576 2170 mt 3576 2116 L
3576  388 mt 3576  442 L
3493 2316 mt 
(2.5) s
4112 2170 mt 4112 2116 L
4112  388 mt 4112  442 L
4079 2316 mt 
(3) s
4647 2170 mt 4647 2116 L
4647  388 mt 4647  442 L
4564 2316 mt 
(3.5) s
5183 2170 mt 5183 2116 L
5183  388 mt 5183  442 L
5150 2316 mt 
(4) s
5718 2170 mt 5718 2116 L
5718  388 mt 5718  442 L
5635 2316 mt 
(4.5) s
6254 2170 mt 6254 2116 L
6254  388 mt 6254  442 L
6221 2316 mt 
(5) s
 898 2170 mt  952 2170 L
6254 2170 mt 6200 2170 L
 797 2214 mt 
(0) s
 898 1915 mt  952 1915 L
6254 1915 mt 6200 1915 L
 797 1959 mt 
(1) s
 898 1661 mt  952 1661 L
6254 1661 mt 6200 1661 L
 797 1705 mt 
(2) s
 898 1406 mt  952 1406 L
6254 1406 mt 6200 1406 L
 797 1450 mt 
(3) s
 898 1152 mt  952 1152 L
6254 1152 mt 6200 1152 L
 797 1196 mt 
(4) s
 898  897 mt  952  897 L
6254  897 mt 6200  897 L
 797  941 mt 
(5) s
 898  643 mt  952  643 L
6254  643 mt 6200  643 L
 797  687 mt 
(6) s
 898  388 mt  952  388 L
6254  388 mt 6200  388 L
 797  432 mt 
(7) s
 898  334 mt 
(x 10) s
%%IncludeResource: font Helvetica
/Helvetica /WindowsLatin1Encoding 80 FMSR

1124  260 mt 
(-4) s
 898  388 mt 6254  388 L
 898 2170 mt 6254 2170 L
6254 2170 mt 6254  388 L
 898 2170 mt  898  388 L
gs 898 388 5357 1783 rc
54 2 53 1 54 2 53 2 54 2 53 3 54 2 53 2 
54 3 54 3 53 2 54 3 53 3 54 3 53 4 54 3 
54 4 53 4 54 4 53 4 54 4 53 5 54 5 53 5 
54 5 54 6 53 6 54 6 53 7 54 7 53 7 54 8 
53 8 54 9 54 9 53 10 54 10 53 11 54 11 53 12 
54 13 54 14 53 14 54 15 53 16 54 17 53 18 54 20 
53 20 54 21 54 23 53 25 54 25 53 28 54 28 53 31 
54 32 53 35 54 36 54 38 53 40 54 43 53 44 54 47 
53 49 54 50 54 53 53 53 54 55 53 56 54 56 53 54 
54 53 53 50 54 45 54 39 53 29 54 18 53 4 54 -14 
53 -35 54 -58 53 -85 54 -113 54 -140 53 -164 54 -182 53 -187 
54 -180 53 -156 54 -120 54 -77 53 -39 54 -13 53 -3 54 0 
53 0 54 0 53 0 54 0 898 2170 101 MP stroke

gr 
2019  578 mt 2069  628 L
2069  578 mt 2019  628 L
gs 898 388 5357 1783 rc

gr 
  36   36 2044  603 FO
gs 898 388 5357 1783 rc

gr 
%%IncludeResource: font Helvetica
/Helvetica /WindowsLatin1Encoding 120 FMSR

1969  405 mt 
(B) s
%%IncludeResource: font Symbol
/Symbol /WindowsLatin1Encoding 96 FMSR

2049  465 mt 
(l) s
%%IncludeResource: font Helvetica
/Helvetica /WindowsLatin1Encoding 120 FMSR

2101  405 mt 
(\(T=2.725 K,) s
%%IncludeResource: font Symbol
/Symbol /WindowsLatin1Encoding 120 FMSR

2731  405 mt 
(l) s
%%IncludeResource: font Helvetica
/Helvetica /WindowsLatin1Encoding 120 FMSR

2796  405 mt 
(=1.07 mm\) = 6.2E-4) s
3034 2459 mt 
(Wavelength ) s
%%IncludeResource: font Symbol
/Symbol /WindowsLatin1Encoding 120 FMSR

3690 2459 mt 
(l) s
%%IncludeResource: font Helvetica
/Helvetica /WindowsLatin1Encoding 120 FMSR

3755 2459 mt 
( in mm) s
 742 2034 mt  -90 rotate
(B) s
90 rotate
%%IncludeResource: font Symbol
/Symbol /WindowsLatin1Encoding 96 FMSR

 802 1954 mt  -90 rotate
(l) s
90 rotate
%%IncludeResource: font Helvetica
/Helvetica /WindowsLatin1Encoding 120 FMSR

 742 1902 mt  -90 rotate
(\(T\) in W m) s
90 rotate
%%IncludeResource: font Helvetica
/Helvetica /WindowsLatin1Encoding 96 FMSR

 682 1347 mt  -90 rotate
(-2) s
90 rotate
%%IncludeResource: font Helvetica
/Helvetica /WindowsLatin1Encoding 120 FMSR

 742 1238 mt  -90 rotate
( m) s
90 rotate
%%IncludeResource: font Helvetica
/Helvetica /WindowsLatin1Encoding 96 FMSR

 682 1105 mt  -90 rotate
(-1) s
90 rotate
%%IncludeResource: font Helvetica
/Helvetica /WindowsLatin1Encoding 120 FMSR

 742  996 mt  -90 rotate
( sterad) s
90 rotate
%%IncludeResource: font Helvetica
/Helvetica /WindowsLatin1Encoding 96 FMSR

 682  631 mt  -90 rotate
(-1) s
90 rotate
1 sg
0 1782 5356 0 0 -1782 898 4612 4 MP
PP
-5356 0 0 1782 5356 0 0 -1782 898 4612 5 MP stroke
4 w
DO
0 sg
 898 4612 mt  898 2830 L
 898 2830 mt  898 2830 L
1791 4612 mt 1791 2830 L
1791 2830 mt 1791 2830 L
2683 4612 mt 2683 2830 L
2683 2830 mt 2683 2830 L
3576 4612 mt 3576 2830 L
3576 2830 mt 3576 2830 L
4469 4612 mt 4469 2830 L
4469 2830 mt 4469 2830 L
5361 4612 mt 5361 2830 L
5361 2830 mt 5361 2830 L
6254 4612 mt 6254 2830 L
6254 2830 mt 6254 2830 L
 898 4612 mt 6254 4612 L
6254 4612 mt 6254 4612 L
 898 4380 mt 6254 4380 L
6254 4380 mt 6254 4380 L
 898 4148 mt 6254 4148 L
6254 4148 mt 6254 4148 L
 898 3915 mt 6254 3915 L
6254 3915 mt 6254 3915 L
 898 3683 mt 6254 3683 L
6254 3683 mt 6254 3683 L
 898 3451 mt 6254 3451 L
6254 3451 mt 6254 3451 L
 898 3219 mt 6254 3219 L
6254 3219 mt 6254 3219 L
 898 2986 mt 6254 2986 L
6254 2986 mt 6254 2986 L
SO
6 w
 898 2830 mt 6254 2830 L
 898 4612 mt 6254 4612 L
6254 4612 mt 6254 2830 L
 898 4612 mt  898 2830 L
 898 4612 mt 6254 4612 L
 898 4612 mt  898 2830 L
 898 4612 mt  898 4558 L
 898 2830 mt  898 2884 L
%%IncludeResource: font Helvetica
/Helvetica /WindowsLatin1Encoding 120 FMSR

 865 4758 mt 
(0) s
1791 4612 mt 1791 4558 L
1791 2830 mt 1791 2884 L
1691 4758 mt 
(100) s
2683 4612 mt 2683 4558 L
2683 2830 mt 2683 2884 L
2583 4758 mt 
(200) s
3576 4612 mt 3576 4558 L
3576 2830 mt 3576 2884 L
3476 4758 mt 
(300) s
4469 4612 mt 4469 4558 L
4469 2830 mt 4469 2884 L
4369 4758 mt 
(400) s
5361 4612 mt 5361 4558 L
5361 2830 mt 5361 2884 L
5261 4758 mt 
(500) s
6254 4612 mt 6254 4558 L
6254 2830 mt 6254 2884 L
6154 4758 mt 
(600) s
 898 4612 mt  952 4612 L
6254 4612 mt 6200 4612 L
 797 4656 mt 
(0) s
 898 4380 mt  952 4380 L
6254 4380 mt 6200 4380 L
 697 4424 mt 
(0.5) s
 898 4148 mt  952 4148 L
6254 4148 mt 6200 4148 L
 797 4192 mt 
(1) s
 898 3915 mt  952 3915 L
6254 3915 mt 6200 3915 L
 697 3959 mt 
(1.5) s
 898 3683 mt  952 3683 L
6254 3683 mt 6200 3683 L
 797 3727 mt 
(2) s
 898 3451 mt  952 3451 L
6254 3451 mt 6200 3451 L
 697 3495 mt 
(2.5) s
 898 3219 mt  952 3219 L
6254 3219 mt 6200 3219 L
 797 3263 mt 
(3) s
 898 2986 mt  952 2986 L
6254 2986 mt 6200 2986 L
 697 3030 mt 
(3.5) s
 898 2776 mt 
(x 10) s
%%IncludeResource: font Helvetica
/Helvetica /WindowsLatin1Encoding 80 FMSR

1124 2702 mt 
(-18) s
 898 2830 mt 6254 2830 L
 898 4612 mt 6254 4612 L
6254 4612 mt 6254 2830 L
 898 4612 mt  898 2830 L
gs 898 2830 5357 1783 rc
54 3 53 3 54 4 53 3 54 4 53 5 54 4 53 5 
54 5 54 6 53 6 54 6 53 7 54 7 53 8 54 8 
54 9 53 10 54 10 53 10 54 12 53 12 54 13 53 13 
54 15 54 15 53 16 54 17 53 18 54 19 53 20 54 22 
53 22 54 23 54 25 53 26 54 27 53 28 54 30 53 31 
54 32 54 33 53 35 54 36 53 38 54 38 53 40 54 41 
53 42 54 43 54 44 53 45 54 46 53 46 54 46 53 47 
54 47 53 47 54 46 54 46 53 44 54 44 53 42 54 40 
53 37 54 35 54 33 53 28 54 25 53 20 54 16 53 10 
54 5 53 -1 54 -8 54 -15 53 -21 54 -29 53 -37 54 -45 
53 -52 54 -60 53 -68 54 -76 54 -83 53 -90 54 -95 53 -101 
54 -105 53 -108 54 -109 54 -109 53 -107 54 -102 53 -95 54 -86 
53 -73 54 -57 53 -37 54 -13 898 4612 101 MP stroke

gr 
2292 2805 mt 2342 2855 L
2342 2805 mt 2292 2855 L
gs 898 2830 5357 1783 rc

gr 
  36   36 2317 2830 FO
gs 898 2830 5357 1783 rc

gr 
%%IncludeResource: font Helvetica
/Helvetica /WindowsLatin1Encoding 120 FMSR

2282 3096 mt 
(B) s
%%IncludeResource: font Symbol
/Symbol /WindowsLatin1Encoding 96 FMSR

2362 3156 mt 
(n) s
%%IncludeResource: font Helvetica
/Helvetica /WindowsLatin1Encoding 120 FMSR

2412 3096 mt 
(\(T=2.725 K,) s
%%IncludeResource: font Symbol
/Symbol /WindowsLatin1Encoding 120 FMSR

3042 3096 mt 
(n) s
%%IncludeResource: font Helvetica
/Helvetica /WindowsLatin1Encoding 120 FMSR

3104 3096 mt 
(=159 GHz\) = 3.7E-18) s
3048 4901 mt 
(Frequency ) s
%%IncludeResource: font Symbol
/Symbol /WindowsLatin1Encoding 120 FMSR

3642 4901 mt 
(n) s
%%IncludeResource: font Helvetica
/Helvetica /WindowsLatin1Encoding 120 FMSR

3704 4901 mt 
( in GHz) s
 642 4499 mt  -90 rotate
(B) s
90 rotate
%%IncludeResource: font Symbol
/Symbol /WindowsLatin1Encoding 96 FMSR

 702 4419 mt  -90 rotate
(n) s
90 rotate
%%IncludeResource: font Helvetica
/Helvetica /WindowsLatin1Encoding 120 FMSR

 642 4369 mt  -90 rotate
(\(T\) in W m) s
90 rotate
%%IncludeResource: font Helvetica
/Helvetica /WindowsLatin1Encoding 96 FMSR

 582 3814 mt  -90 rotate
(-2) s
90 rotate
%%IncludeResource: font Helvetica
/Helvetica /WindowsLatin1Encoding 120 FMSR

 642 3705 mt  -90 rotate
( Hz) s
90 rotate
%%IncludeResource: font Helvetica
/Helvetica /WindowsLatin1Encoding 96 FMSR

 582 3525 mt  -90 rotate
(-1) s
90 rotate
%%IncludeResource: font Helvetica
/Helvetica /WindowsLatin1Encoding 120 FMSR

 642 3416 mt  -90 rotate
( sterad) s
90 rotate
%%IncludeResource: font Helvetica
/Helvetica /WindowsLatin1Encoding 96 FMSR

 582 3051 mt  -90 rotate
(-1) s
90 rotate

end

eplot
%%EndObject

epage
end

showpage

%%Trailer
%%EOF
