%!PS-Adobe-2.0 EPSF-2.0
%%Title: fig_conventions.dia
%%Creator: Dia v0.90
%%CreationDate: Thu Jan 27 19:38:02 2005
%%For: caf
%%Magnification: 1.0000
%%Orientation: Portrait
%%BoundingBox: 0 0 371 292
%%Pages: 1
%%EndComments
%%BeginProlog
/cp {closepath} bind def
/c {curveto} bind def
/f {fill} bind def
/a {arc} bind def
/ef {eofill} bind def
/ex {exch} bind def
/gr {grestore} bind def
/gs {gsave} bind def
/sa {save} bind def
/rs {restore} bind def
/l {lineto} bind def
/m {moveto} bind def
/rm {rmoveto} bind def
/n {newpath} bind def
/s {stroke} bind def
/sh {show} bind def
/slc {setlinecap} bind def
/slj {setlinejoin} bind def
/slw {setlinewidth} bind def
/srgb {setrgbcolor} bind def
/rot {rotate} bind def
/sc {scale} bind def
/sd {setdash} bind def
/ff {findfont} bind def
/sf {setfont} bind def
/scf {scalefont} bind def
/sw {stringwidth pop} bind def
/tr {translate} bind def

/ellipsedict 8 dict def
ellipsedict /mtrx matrix put
/ellipse
{ ellipsedict begin
   /endangle exch def
   /startangle exch def
   /yrad exch def
   /xrad exch def
   /y exch def
   /x exch def   /savematrix mtrx currentmatrix def
   x y tr xrad yrad sc
   0 0 1 startangle endangle arc
   savematrix setmatrix
   end
} def

/mergeprocs {
dup length
3 -1 roll
dup
length
dup
5 1 roll
3 -1 roll
add
array cvx
dup
3 -1 roll
0 exch
putinterval
dup
4 2 roll
putinterval
} bind def
%%EndProlog

%%BeginSetup
%%EndSetup
28.346000 -28.346000 scale
-15.692200 -22.407432 translate

0.010000 slw
[1.000000] 0 sd
[0.200000] 0 sd
0 slc
0.000000 0.000000 0.000000 srgb
n 17.500000 13.000000 m 17.500000 20.500000 l s
0.010000 slw
[] 0 sd
[] 0 sd
0 slc
n 17.500000 19.500000 m 26.500000 19.500000 l s
0 slj
n 25.900000 19.650000 m 26.500000 19.500000 l 25.900000 19.350000 l f
0.010000 slw
[] 0 sd
[] 0 sd
0 slc
n 17.500000 19.000000 m 17.500000 20.000000 l s
0.010000 slw
[] 0 sd
[] 0 sd
0 slc
n 26.500000 13.500000 m 17.500000 13.500000 l s
0 slj
n 18.100000 13.350000 m 17.500000 13.500000 l 18.100000 13.650000 l f
0.010000 slw
[] 0 sd
[] 0 sd
0 slc
n 17.500000 20.500000 m 17.500000 21.500000 l s
0.010000 slw
[] 0 sd
[] 0 sd
0 slc
n 17.500000 21.000000 m 26.500000 21.000000 l s
0 slj
n 25.900000 21.150000 m 26.500000 21.000000 l 25.900000 20.850000 l f
0.020000 slw
[] 0 sd
[] 0 sd
0 slc
0 slj
0 slc
0 slj
[] 0 sd
0.898039 0.898039 0.898039 srgb
n 20.670878 15.447249 m 20.272538 15.436832 19.500000 15.655586 19.608638 16.124343 c 19.717275 16.593101 20.236325 16.697265 20.453601 16.561850 c 20.670878 16.426431 20.115616 17.218107 21.177856 17.426443 c 22.240087 17.634780 22.783279 17.301441 22.626357 17.061854 c 22.469435 16.822267 23.555817 17.624363 24.062796 17.166022 c 24.569774 16.707682 23.543747 16.270179 23.761023 16.332680 c 23.978300 16.395181 24.642200 16.311846 24.424923 15.530584 c 24.207647 14.749321 22.252158 15.353497 22.469435 15.238912 c 22.686711 15.124327 22.143520 14.551400 21.467558 14.665985 c 20.791587 14.780571 20.743641 14.988502 20.671216 15.446843 c 20.670878 15.447249 l f
0.000000 0.000000 0.000000 srgb
n 20.670878 15.447249 m 20.272538 15.436832 19.500000 15.655586 19.608638 16.124343 c 19.717275 16.593101 20.236325 16.697265 20.453601 16.561850 c 20.670878 16.426431 20.115616 17.218107 21.177856 17.426443 c 22.240087 17.634780 22.783279 17.301441 22.626357 17.061854 c 22.469435 16.822267 23.555817 17.624363 24.062796 17.166022 c 24.569774 16.707682 23.543747 16.270179 23.761023 16.332680 c 23.978300 16.395181 24.642200 16.311846 24.424923 15.530584 c 24.207647 14.749321 22.252158 15.353497 22.469435 15.238912 c 22.686711 15.124327 22.143520 14.551400 21.467558 14.665985 c 20.791587 14.780571 20.743641 14.988502 20.671216 15.446843 c 20.670878 15.447249 l s
 [ /xi /xi /xi /xi /xi /xi /xi /xi /xi /xi /xi /xi /xi /xi /xi /xi
 /xi /xi /xi /xi /xi /xi /xi /xi /xi /xi /xi /xi /xi /xi /xi /xi
 /x /equal /zero /t /I /parenleft /parenright /space /xi /xi /a /b /r /comma /s /z
 /xi /xi /xi /xi /xi /xi /xi /xi /xi /xi /xi /xi /xi /xi /xi /xi
 /xi /xi /xi /xi /xi /xi /xi /xi /xi /xi /xi /xi /xi /xi /xi /xi
 /xi /xi /xi /xi /xi /xi /xi /xi /xi /xi /xi /xi /xi /xi /xi /xi
 /xi /xi /xi /xi /xi /xi /xi /xi /xi /xi /xi /xi /xi /xi /xi /xi
 /xi /xi /xi /xi /xi /xi /xi /xi /xi /xi /xi /xi /xi /xi /xi /xi
 /xi /xi /xi /xi /xi /xi /xi /xi /xi /xi /xi /xi /xi /xi /xi /xi
 /xi /xi /xi /xi /xi /xi /xi /xi /xi /xi /xi /xi /xi /xi /xi /xi
 /xi /xi /xi /xi /xi /xi /xi /xi /xi /xi /xi /xi /xi /xi /xi /xi
 /xi /xi /xi /xi /xi /xi /xi /xi /xi /xi /xi /xi /xi /xi /xi /xi
 /xi /xi /xi /xi /xi /xi /xi /xi /xi /xi /xi /xi /xi /xi /xi /xi
 /xi /xi /xi /xi /xi /xi /xi /xi /xi /xi /xi /xi /xi /xi /xi /xi
 /xi /xi /xi /xi /xi /xi /xi /xi /xi /xi /xi /xi /xi /xi /xi /xi
 /xi /xi /xi /xi /xi /xi /xi /xi /xi /xi /xi /xi /xi /xi /xi /xi
] /e0 exch def
/Times-Roman_e0 undefinefont
/Times-Roman_e0
  /Times-Roman findfont
  dup length dict begin
  {1 index /FID ne {def} {pop pop} ifelse} forall
  /Encoding e0 def
  currentdict end
definefont pop
/Times-Roman_e0 ff 0.800000 scf sf
( !") sw
2 div 16.506800 ex sub 19.776100 m ( !")
 gs 1 -1 sc sh gr
/Symbol ff 0.800000 scf sf
(t) sw
2 div 15.947400 ex sub 21.212700 m (t)
 gs 1 -1 sc sh gr
/Times-Roman_e0 ff 0.800000 scf sf
(!") sw
2 div 16.740700 ex sub 21.195400 m (!")
 gs 1 -1 sc sh gr
0.010000 slw
[1.000000] 0 sd
[0.200000] 0 sd
0 slc
n 19.500000 13.000000 m 19.500000 21.000000 l s
0.010000 slw
[0.200000] 0 sd
[0.200000] 0 sd
0 slc
n 24.500000 13.000000 m 24.500000 21.000000 l s
/Times-Roman_e0 ff 0.800000 scf sf
($) sw
2 div 26.850000 ex sub 13.750000 m ($)
 gs 1 -1 sc sh gr
/Times-Roman_e0 ff 0.800000 scf sf
($%"&) sw
2 div 17.300000 ex sub 12.775000 m ($%"&)
 gs 1 -1 sc sh gr
/Times-Roman_e0 ff 0.800000 scf sf
($%''''&) sw
2 div 19.500000 ex sub 12.725000 m ($%''''&)
 gs 1 -1 sc sh gr
/Symbol ff 0.800000 scf sf
(t) sw
2 div 19.500000 ex sub 12.725000 m (t)
 gs 1 -1 sc sh gr
/Times-Roman_e0 ff 0.600000 scf sf
(*) sw
2 div 19.871000 ex sub 12.802400 m (*)
 gs 1 -1 sc sh gr
/Times-Roman_e0 ff 0.800000 scf sf
($%''''&) sw
2 div 24.500000 ex sub 12.725000 m ($%''''&)
 gs 1 -1 sc sh gr
/Symbol ff 0.800000 scf sf
(t) sw
2 div 24.500000 ex sub 12.725000 m (t)
 gs 1 -1 sc sh gr
/Times-Roman_e0 ff 0.600000 scf sf
(+) sw
2 div 24.871000 ex sub 12.879800 m (+)
 gs 1 -1 sc sh gr
/Symbol ff 0.800000 scf sf
(t) sw
2 div 19.500000 ex sub 22.100000 m (t)
 gs 1 -1 sc sh gr
/Times-Roman_e0 ff 0.600000 scf sf
(*) sw
2 div 19.871000 ex sub 22.177400 m (*)
 gs 1 -1 sc sh gr
/Symbol ff 0.800000 scf sf
(t) sw
2 div 24.500000 ex sub 22.100000 m (t)
 gs 1 -1 sc sh gr
/Times-Roman_e0 ff 0.600000 scf sf
(+) sw
2 div 24.871000 ex sub 22.254800 m (+)
 gs 1 -1 sc sh gr
0.010000 slw
[] 0 sd
[] 0 sd
0 slc
n 26.500000 13.000000 m 26.500000 14.000000 l s
0.010000 slw
[] 0 sd
[] 0 sd
0 slc
n 26.500000 18.000000 m 17.500000 18.000000 l s
0 slj
n 18.100000 17.850000 m 17.500000 18.000000 l 18.100000 18.150000 l f
/Times-Roman_e0 ff 0.800000 scf sf
( ) sw
2 div 27.000000 ex sub 19.700000 m ( )
 gs 1 -1 sc sh gr
/Symbol ff 0.800000 scf sf
(t) sw
2 div 27.000000 ex sub 21.200000 m (t)
 gs 1 -1 sc sh gr
/Times-Roman_e0 ff 0.800000 scf sf
(,-.-/) sw
2 div 27.500000 ex sub 18.200000 m (,-.-/)
 gs 1 -1 sc sh gr
0.010000 slw
[] 0 sd
[] 0 sd
0 slc
n 26.500000 17.500000 m 26.500000 18.500000 l s
showpage
