%!PS-Adobe-3.0 EPSF-3.0
%%Creator: MATLAB, The Mathworks, Inc.
%%Title: fig_hubble_velocity.eps
%%CreationDate: 06/09/2004  13:04:09
%%DocumentNeededFonts: Helvetica
%%DocumentProcessColors: Cyan Magenta Yellow Black
%%LanguageLevel: 2
%%Pages: 1
%%BoundingBox:    58   402   322   602
%%EndComments

%%BeginProlog
% MathWorks dictionary
/MathWorks 160 dict begin
% definition operators
/bdef {bind def} bind def
/ldef {load def} bind def
/xdef {exch def} bdef
/xstore {exch store} bdef
% operator abbreviations
/c  /clip ldef
/cc /concat ldef
/cp /closepath ldef
/gr /grestore ldef
/gs /gsave ldef
/mt /moveto ldef
/np /newpath ldef
/cm /currentmatrix ldef
/sm /setmatrix ldef
/rm /rmoveto ldef
/rl /rlineto ldef
/s {show newpath} bdef
/sc {setcmykcolor} bdef
/sr /setrgbcolor ldef
/sg /setgray ldef
/w /setlinewidth ldef
/j /setlinejoin ldef
/cap /setlinecap ldef
/rc {rectclip} bdef
/rf {rectfill} bdef
% page state control
/pgsv () def
/bpage {/pgsv save def} bdef
/epage {pgsv restore} bdef
/bplot /gsave ldef
/eplot {stroke grestore} bdef
% orientation switch
/portraitMode 0 def /landscapeMode 1 def /rotateMode 2 def
% coordinate system mappings
/dpi2point 0 def
% font control
/FontSize 0 def
/FMS {/FontSize xstore findfont [FontSize 0 0 FontSize neg 0 0]
  makefont setfont} bdef
/ISOLatin1Encoding where {pop /WindowsLatin1Encoding 256 array bdef
ISOLatin1Encoding WindowsLatin1Encoding copy pop
/.notdef/.notdef/quotesinglbase/florin/quotedblbase/ellipsis/dagger
/daggerdbl/circumflex/perthousand/Scaron/guilsinglleft/OE/.notdef/.notdef
/.notdef/.notdef/quoteleft/quoteright/quotedblleft/quotedblright/bullet
/endash/emdash/tilde/trademark/scaron/guilsinglright/oe/.notdef/.notdef
/Ydieresis WindowsLatin1Encoding 128 32 getinterval astore pop}
{/WindowsLatin1Encoding StandardEncoding bdef} ifelse
/reencode {exch dup where {pop load} {pop StandardEncoding} ifelse
  exch dup 3 1 roll findfont dup length dict begin
  { 1 index /FID ne {def}{pop pop} ifelse } forall
  /Encoding exch def currentdict end definefont pop} bdef
/isroman {findfont /CharStrings get /Agrave known} bdef
/FMSR {3 1 roll 1 index dup isroman {reencode} {pop pop} ifelse
  exch FMS} bdef
/csm {1 dpi2point div -1 dpi2point div scale neg translate
 dup landscapeMode eq {pop -90 rotate}
  {rotateMode eq {90 rotate} if} ifelse} bdef
% line types: solid, dotted, dashed, dotdash
/SO { [] 0 setdash } bdef
/DO { [.5 dpi2point mul 4 dpi2point mul] 0 setdash } bdef
/DA { [6 dpi2point mul] 0 setdash } bdef
/DD { [.5 dpi2point mul 4 dpi2point mul 6 dpi2point mul 4
  dpi2point mul] 0 setdash } bdef
% macros for lines and objects
/L {lineto stroke} bdef
/MP {3 1 roll moveto 1 sub {rlineto} repeat} bdef
/AP {{rlineto} repeat} bdef
/PDlw -1 def
/W {/PDlw currentlinewidth def setlinewidth} def
/PP {closepath eofill} bdef
/DP {closepath stroke} bdef
/MR {4 -2 roll moveto dup  0 exch rlineto exch 0 rlineto
  neg 0 exch rlineto closepath} bdef
/FR {MR stroke} bdef
/PR {MR fill} bdef
/L1i {{currentfile picstr readhexstring pop} image} bdef
/tMatrix matrix def
/MakeOval {newpath tMatrix currentmatrix pop translate scale
0 0 1 0 360 arc tMatrix setmatrix} bdef
/FO {MakeOval stroke} bdef
/PO {MakeOval fill} bdef
/PD {currentlinewidth 2 div 0 360 arc fill
   PDlw -1 eq not {PDlw w /PDlw -1 def} if} def
/FA {newpath tMatrix currentmatrix pop translate scale
  0 0 1 5 -2 roll arc tMatrix setmatrix stroke} bdef
/PA {newpath tMatrix currentmatrix pop	translate 0 0 moveto scale
  0 0 1 5 -2 roll arc closepath tMatrix setmatrix fill} bdef
/FAn {newpath tMatrix currentmatrix pop translate scale
  0 0 1 5 -2 roll arcn tMatrix setmatrix stroke} bdef
/PAn {newpath tMatrix currentmatrix pop translate 0 0 moveto scale
  0 0 1 5 -2 roll arcn closepath tMatrix setmatrix fill} bdef
/vradius 0 def /hradius 0 def /lry 0 def
/lrx 0 def /uly 0 def /ulx 0 def /rad 0 def
/MRR {/vradius xdef /hradius xdef /lry xdef /lrx xdef /uly xdef
  /ulx xdef newpath tMatrix currentmatrix pop ulx hradius add uly
  vradius add translate hradius vradius scale 0 0 1 180 270 arc 
  tMatrix setmatrix lrx hradius sub uly vradius add translate
  hradius vradius scale 0 0 1 270 360 arc tMatrix setmatrix
  lrx hradius sub lry vradius sub translate hradius vradius scale
  0 0 1 0 90 arc tMatrix setmatrix ulx hradius add lry vradius sub
  translate hradius vradius scale 0 0 1 90 180 arc tMatrix setmatrix
  closepath} bdef
/FRR {MRR stroke } bdef
/PRR {MRR fill } bdef
/MlrRR {/lry xdef /lrx xdef /uly xdef /ulx xdef /rad lry uly sub 2 div def
  newpath tMatrix currentmatrix pop ulx rad add uly rad add translate
  rad rad scale 0 0 1 90 270 arc tMatrix setmatrix lrx rad sub lry rad
  sub translate rad rad scale 0 0 1 270 90 arc tMatrix setmatrix
  closepath} bdef
/FlrRR {MlrRR stroke } bdef
/PlrRR {MlrRR fill } bdef
/MtbRR {/lry xdef /lrx xdef /uly xdef /ulx xdef /rad lrx ulx sub 2 div def
  newpath tMatrix currentmatrix pop ulx rad add uly rad add translate
  rad rad scale 0 0 1 180 360 arc tMatrix setmatrix lrx rad sub lry rad
  sub translate rad rad scale 0 0 1 0 180 arc tMatrix setmatrix
  closepath} bdef
/FtbRR {MtbRR stroke } bdef
/PtbRR {MtbRR fill } bdef
/stri 6 array def /dtri 6 array def
/smat 6 array def /dmat 6 array def
/tmat1 6 array def /tmat2 6 array def /dif 3 array def
/asub {/ind2 exch def /ind1 exch def dup dup
  ind1 get exch ind2 get sub exch } bdef
/tri_to_matrix {
  2 0 asub 3 1 asub 4 0 asub 5 1 asub
  dup 0 get exch 1 get 7 -1 roll astore } bdef
/compute_transform {
  dmat dtri tri_to_matrix tmat1 invertmatrix 
  smat stri tri_to_matrix tmat2 concatmatrix } bdef
/ds {stri astore pop} bdef
/dt {dtri astore pop} bdef
/db {2 copy /cols xdef /rows xdef mul dup string
  currentfile 
  3 index 0 eq {/ASCIIHexDecode filter}
  {/ASCII85Decode filter 3 index 2 eq {/RunLengthDecode filter} if }
  ifelse exch readstring pop
  /bmap xdef pop pop} bdef
/it {gs np dtri aload pop moveto lineto lineto cp c
  cols rows 8 compute_transform 
  {bmap} image gr}bdef
/il {newpath moveto lineto stroke}bdef
currentdict end def
%%EndProlog

%%BeginSetup
MathWorks begin

0 cap

end
%%EndSetup

%%Page: 1 1
%%BeginPageSetup
%%PageBoundingBox:    58   402   322   602
MathWorks begin
bpage
%%EndPageSetup

%%BeginObject: obj1
bplot

/dpi2point 4.16667 def
portraitMode 0074 2549 csm

  167    41  1103   831 rc
86 dict begin %Colortable dictionary
/c0 { 0 0 0 sr} bdef
/c1 { 1 1 1 sr} bdef
/c2 { 1 0 0 sr} bdef
/c3 { 0 1 0 sr} bdef
/c4 { 0 0 1 sr} bdef
/c5 { 1 1 0 sr} bdef
/c6 { 1 0 1 sr} bdef
/c7 { 0 1 1 sr} bdef
c0
1 j
1 sg
   0    0 2403 1802 rf
2.08333 w
0 619 786 0 0 -619 312 754 4 MP
PP
-786 0 0 619 786 0 0 -619 312 754 5 MP stroke
1.38889 w
DO
SO
2.08333 w
0 sg
 312  135 mt 1098  135 L
 312  754 mt 1098  754 L
1098  754 mt 1098  135 L
 312  754 mt  312  135 L
 312  754 mt 1098  754 L
 312  754 mt  312  135 L
 312  754 mt  312  746 L
 312  135 mt  312  142 L
%%IncludeResource: font Helvetica
/Helvetica /WindowsLatin1Encoding 41.6667 FMSR

 301  804 mt 
(0) s
 574  754 mt  574  746 L
 574  135 mt  574  142 L
 563  804 mt 
(2) s
 836  754 mt  836  746 L
 836  135 mt  836  142 L
 825  804 mt 
(4) s
1098  754 mt 1098  746 L
1098  135 mt 1098  142 L
1087  804 mt 
(6) s
 312  754 mt  319  754 L
1098  754 mt 1090  754 L
 277  769 mt 
(0) s
 312  676 mt  319  676 L
1098  676 mt 1090  676 L
 243  691 mt 
(0.2) s
 312  599 mt  319  599 L
1098  599 mt 1090  599 L
 243  614 mt 
(0.4) s
 312  521 mt  319  521 L
1098  521 mt 1090  521 L
 243  536 mt 
(0.6) s
 312  444 mt  319  444 L
1098  444 mt 1090  444 L
 243  459 mt 
(0.8) s
 312  367 mt  319  367 L
1098  367 mt 1090  367 L
 277  382 mt 
(1) s
 312  289 mt  319  289 L
1098  289 mt 1090  289 L
 243  304 mt 
(1.2) s
 312  212 mt  319  212 L
1098  212 mt 1090  212 L
 243  227 mt 
(1.4) s
 312  135 mt  319  135 L
1098  135 mt 1090  135 L
 243  150 mt 
(1.6) s
 312  135 mt 1098  135 L
 312  754 mt 1098  754 L
1098  754 mt 1098  135 L
 312  754 mt  312  135 L
gs 312 135 787 620 rc
DO
14 -1 13 0 13 0 13 -1 13 -1 13 0 13 -1 13 0 
13 -1 13 -1 14 0 13 -1 13 -1 13 -1 13 0 13 -1 
13 -1 13 -1 13 -1 13 -1 14 -2 13 -1 13 -1 13 -2 
13 -1 13 -2 13 -1 13 -2 13 -2 13 -2 14 -2 13 -3 
13 -2 13 -3 13 -3 13 -3 13 -4 13 -3 13 -5 13 -4 
14 -5 13 -5 13 -6 13 -6 13 -7 13 -8 13 -9 13 -9 
13 -11 13 -11 14 -13 13 -15 13 -17 13 -18 13 -21 13 -23 
13 -26 13 -30 13 -33 13 -37 312 754 61 MP stroke
SO
13 -39 13 -39 13 -38 13 -39 13 -39 13 -39 312 754 7 MP stroke
DD
14 -2 13 -2 13 -3 13 -2 13 -2 13 -3 13 -2 13 -2 
13 -3 13 -3 14 -2 13 -3 13 -3 13 -3 13 -3 13 -3 
13 -3 13 -3 13 -3 13 -4 14 -3 13 -4 13 -4 13 -4 
13 -3 13 -5 13 -4 13 -4 13 -5 13 -5 14 -5 13 -5 
13 -5 13 -6 13 -5 13 -6 13 -7 13 -6 13 -7 13 -7 
14 -8 13 -8 13 -9 13 -9 13 -9 13 -10 13 -11 13 -11 
13 -13 13 -13 14 -14 13 -15 13 -17 13 -18 13 -21 13 -22 
13 -24 13 -28 13 -31 13 -37 312 754 61 MP stroke
DA
786 0 312 367 2 MP stroke
gr

DA
 214  640 mt  -90 rotate
(recession velocity V/c) s
90 rotate
 325  362 mt 
(speed-of-light) s
 473  104 mt 
(Hubble recession velocity) s
 622  854 mt 
(redshift z) s
1207  132 mt  -270 rotate
(recession distance r in parsec) s
270 rotate
SO
1.38889 w
DO
SO
2.08333 w
 312  754 mt 1098  754 L
1098  754 mt 1098  135 L
 312  754 mt  312  746 L
 301  804 mt 
(0) s
 574  754 mt  574  746 L
 563  804 mt 
(2) s
 836  754 mt  836  746 L
 825  804 mt 
(4) s
1098  754 mt 1098  746 L
1087  804 mt 
(6) s
1098  754 mt 1090  754 L
1110  769 mt 
(0) s
1098  676 mt 1090  676 L
1110  691 mt 
(10) s
1098  599 mt 1090  599 L
1110  614 mt 
(20) s
1098  521 mt 1090  521 L
1110  536 mt 
(30) s
1098  444 mt 1090  444 L
1110  459 mt 
(40) s
1098  367 mt 1090  367 L
1110  382 mt 
(50) s
1098  289 mt 1090  289 L
1110  304 mt 
(60) s
1098  212 mt 1090  212 L
1110  227 mt 
(70) s
1098  135 mt 1090  135 L
1110  150 mt 
(80) s
1 sg
0 151 464 0 0 -151 613 734 4 MP
PP
-464 0 0 151 464 0 0 -151 613 734 5 MP stroke
1.38889 w
DO
SO
2.08333 w
0 sg
 613  583 mt 1077  583 L
 613  734 mt 1077  734 L
1077  734 mt 1077  583 L
 613  734 mt  613  583 L
 613  734 mt 1077  734 L
 613  734 mt  613  583 L
 613  583 mt 1077  583 L
 613  734 mt 1077  734 L
1077  734 mt 1077  583 L
 613  734 mt  613  583 L
 731  626 mt 
(relativistic) s
 731  673 mt 
(non-relativistic) s
 731  720 mt 
(Einstein de-Sitter) s
gs 613 583 465 152 rc
DO
71 0 636 612 2 MP stroke
SO
71 0 636 659 2 MP stroke
DD
71 0 636 706 2 MP stroke
SO
gr


end

eplot
%%EndObject

epage
end

showpage

%%Trailer
%%EOF
