%!PS-Adobe-2.0 EPSF-2.0
%%Title: fig_center-of-mass.dia
%%Creator: Dia v0.90
%%CreationDate: Sun Oct 24 19:39:44 2004
%%For: caf
%%Magnification: 1.0000
%%Orientation: Portrait
%%BoundingBox: 0 0 861 409
%%Pages: 1
%%EndComments
%%BeginProlog
/cp {closepath} bind def
/c {curveto} bind def
/f {fill} bind def
/a {arc} bind def
/ef {eofill} bind def
/ex {exch} bind def
/gr {grestore} bind def
/gs {gsave} bind def
/sa {save} bind def
/rs {restore} bind def
/l {lineto} bind def
/m {moveto} bind def
/rm {rmoveto} bind def
/n {newpath} bind def
/s {stroke} bind def
/sh {show} bind def
/slc {setlinecap} bind def
/slj {setlinejoin} bind def
/slw {setlinewidth} bind def
/srgb {setrgbcolor} bind def
/rot {rotate} bind def
/sc {scale} bind def
/sd {setdash} bind def
/ff {findfont} bind def
/sf {setfont} bind def
/scf {scalefont} bind def
/sw {stringwidth pop} bind def
/tr {translate} bind def

/ellipsedict 8 dict def
ellipsedict /mtrx matrix put
/ellipse
{ ellipsedict begin
   /endangle exch def
   /startangle exch def
   /yrad exch def
   /xrad exch def
   /y exch def
   /x exch def   /savematrix mtrx currentmatrix def
   x y tr xrad yrad sc
   0 0 1 startangle endangle arc
   savematrix setmatrix
   end
} def

/mergeprocs {
dup length
3 -1 roll
dup
length
dup
5 1 roll
3 -1 roll
add
array cvx
dup
3 -1 roll
0 exch
putinterval
dup
4 2 roll
putinterval
} bind def
%%EndProlog

%%BeginSetup
%%EndSetup
28.346000 -28.346000 scale
-0.950000 -37.050000 translate

0.100000 slw
[] 0 sd
[] 0 sd
0.000000 0.000000 0.000000 srgb
n 11.500000 31.000000 10.500000 6.000000 0 360 ellipse cp s
0.100000 slw
[] 0 sd
[] 0 sd
n 22.500000 31.200000 8.500000 5.000000 0 360 ellipse cp s
0.010000 slw
[] 0 sd
[] 0 sd
0 slc
n 23.000000 33.000000 m 14.000000 33.000000 l s
0 slj
n 22.200000 33.200000 m 23.000000 33.000000 l 22.200000 32.800000 l f
0 slj
n 14.800000 32.800000 m 14.000000 33.000000 l 14.800000 33.200000 l f
0.010000 slw
[] 0 sd
[] 0 sd
0 slc
n 14.000000 34.000000 m 14.000000 32.000000 l s
0.010000 slw
[] 0 sd
[] 0 sd
0 slc
n 23.000000 34.000000 m 23.000000 32.000000 l s
17.750100 34.251100 m  [ /xi /xi /xi /xi /xi /xi /xi /xi /xi /xi /xi /xi /xi /xi /xi /xi
 /xi /xi /xi /xi /xi /xi /xi /xi /xi /xi /xi /xi /xi /xi /xi /xi
 /a /c /e /n /t /r /hyphen /o /xi /xi /f /m /s /two /one /xi
 /xi /xi /xi /xi /xi /xi /xi /xi /xi /xi /xi /xi /xi /xi /xi /xi
 /xi /xi /xi /xi /xi /xi /xi /xi /xi /xi /xi /xi /xi /xi /xi /xi
 /xi /xi /xi /xi /xi /xi /xi /xi /xi /xi /xi /xi /xi /xi /xi /xi
 /xi /xi /xi /xi /xi /xi /xi /xi /xi /xi /xi /xi /xi /xi /xi /xi
 /xi /xi /xi /xi /xi /xi /xi /xi /xi /xi /xi /xi /xi /xi /xi /xi
 /xi /xi /xi /xi /xi /xi /xi /xi /xi /xi /xi /xi /xi /xi /xi /xi
 /xi /xi /xi /xi /xi /xi /xi /xi /xi /xi /xi /xi /xi /xi /xi /xi
 /xi /xi /xi /xi /xi /xi /xi /xi /xi /xi /xi /xi /xi /xi /xi /xi
 /xi /xi /xi /xi /xi /xi /xi /xi /xi /xi /xi /xi /xi /xi /xi /xi
 /xi /xi /xi /xi /xi /xi /xi /xi /xi /xi /xi /xi /xi /xi /xi /xi
 /xi /xi /xi /xi /xi /xi /xi /xi /xi /xi /xi /xi /xi /xi /xi /xi
 /xi /xi /xi /xi /xi /xi /xi /xi /xi /xi /xi /xi /xi /xi /xi /xi
 /xi /xi /xi /xi /xi /xi /xi /xi /xi /xi /xi /xi /xi /xi /xi /xi
] /e0 exch def
/Times-Roman_e0 undefinefont
/Times-Roman_e0
  /Times-Roman findfont
  dup length dict begin
  {1 index /FID ne {def} {pop pop} ifelse} forall
  /Encoding e0 def
  currentdict end
definefont pop
/Times-Roman_e0 ff 1.600000 scf sf
( )
 gs 1 -1 sc sh gr
17.700000 28.756100 m /Times-Roman_e0 ff 1.600000 scf sf
( )
 gs 1 -1 sc sh gr
0.010000 slw
[] 0 sd
[] 0 sd
0 slc
n 22.000000 29.000000 m 11.000000 29.000000 l s
0 slj
n 21.200000 29.200000 m 22.000000 29.000000 l 21.200000 28.800000 l f
0 slj
n 11.800000 28.800000 m 11.000000 29.000000 l 11.800000 29.200000 l f
0.010000 slw
[] 0 sd
[] 0 sd
0 slc
n 22.000000 30.000000 m 22.000000 28.000000 l s
0.010000 slw
[] 0 sd
[] 0 sd
0 slc
n 11.000000 30.000000 m 11.000000 28.000000 l s
0.100000 slw
[] 0 sd
[] 0 sd
0 slc
n 18.050000 30.500000 m 18.050000 31.500000 l s
0.100000 slw
[] 0 sd
[] 0 sd
0 slc
n 17.543500 30.993500 m 18.543500 30.993500 l s
0.100000 slw
[] 0 sd
[] 0 sd
0 slc
n 23.050000 30.500000 m 23.050000 31.500000 l s
0.100000 slw
[] 0 sd
[] 0 sd
0 slc
n 22.543500 30.993500 m 23.543500 30.993500 l s
0.100000 slw
[] 0 sd
[] 0 sd
0 slc
n 11.050000 30.500000 m 11.050000 31.500000 l s
0.100000 slw
[] 0 sd
[] 0 sd
0 slc
n 10.543500 30.993500 m 11.543500 30.993500 l s
16.575100 23.849100 m /Times-Roman_e0 ff 1.600000 scf sf
(!"#$"%&'*&+ ,,)
 gs 1 -1 sc sh gr
0.010000 slw
[0.200000] 0 sd
[0.200000] 0 sd
0 slc
n 28.271246 25.974943 11.392660 11.392660 153.863706 189.951634 ellipse s
18.475000 34.614100 m /Times-Roman_e0 ff 1.200000 scf sf
(-)
 gs 1 -1 sc sh gr
18.400000 29.156100 m /Times-Roman_e0 ff 1.200000 scf sf
(.)
 gs 1 -1 sc sh gr
showpage
