%!PS-Adobe-2.0 EPSF-2.0
%%Title: fig_energy.dia
%%Creator: Dia v0.90
%%CreationDate: Tue May 10 16:08:30 2005
%%For: caf
%%Magnification: 1.0000
%%Orientation: Portrait
%%BoundingBox: 0 0 280 176
%%Pages: 1
%%EndComments
%%BeginProlog
/cp {closepath} bind def
/c {curveto} bind def
/f {fill} bind def
/a {arc} bind def
/ef {eofill} bind def
/ex {exch} bind def
/gr {grestore} bind def
/gs {gsave} bind def
/sa {save} bind def
/rs {restore} bind def
/l {lineto} bind def
/m {moveto} bind def
/rm {rmoveto} bind def
/n {newpath} bind def
/s {stroke} bind def
/sh {show} bind def
/slc {setlinecap} bind def
/slj {setlinejoin} bind def
/slw {setlinewidth} bind def
/srgb {setrgbcolor} bind def
/rot {rotate} bind def
/sc {scale} bind def
/sd {setdash} bind def
/ff {findfont} bind def
/sf {setfont} bind def
/scf {scalefont} bind def
/sw {stringwidth pop} bind def
/tr {translate} bind def

/ellipsedict 8 dict def
ellipsedict /mtrx matrix put
/ellipse
{ ellipsedict begin
   /endangle exch def
   /startangle exch def
   /yrad exch def
   /xrad exch def
   /y exch def
   /x exch def   /savematrix mtrx currentmatrix def
   x y tr xrad yrad sc
   0 0 1 startangle endangle arc
   savematrix setmatrix
   end
} def

/mergeprocs {
dup length
3 -1 roll
dup
length
dup
5 1 roll
3 -1 roll
add
array cvx
dup
3 -1 roll
0 exch
putinterval
dup
4 2 roll
putinterval
} bind def
%%EndProlog

%%BeginSetup
%%EndSetup
28.346000 -28.346000 scale
-17.410000 -24.178509 translate

0.010000 slw
[] 0 sd
[] 0 sd
0 slc
0.000000 0.000000 0.000000 srgb
n 26.000000 23.000000 m 26.000000 18.000000 l s
 [ /xi /xi /xi /xi /xi /xi /xi /xi /xi /xi /xi /xi /xi /xi /xi /xi
 /xi /xi /xi /xi /xi /xi /xi /xi /xi /xi /xi /xi /xi /xi /xi /xi
 /m /c /p /E /space /equal /plus /two /xi /xi /four /xi /xi /xi /xi /xi
 /xi /xi /xi /xi /xi /xi /xi /xi /xi /xi /xi /xi /xi /xi /xi /xi
 /xi /xi /xi /xi /xi /xi /xi /xi /xi /xi /xi /xi /xi /xi /xi /xi
 /xi /xi /xi /xi /xi /xi /xi /xi /xi /xi /xi /xi /xi /xi /xi /xi
 /xi /xi /xi /xi /xi /xi /xi /xi /xi /xi /xi /xi /xi /xi /xi /xi
 /xi /xi /xi /xi /xi /xi /xi /xi /xi /xi /xi /xi /xi /xi /xi /xi
 /xi /xi /xi /xi /xi /xi /xi /xi /xi /xi /xi /xi /xi /xi /xi /xi
 /xi /xi /xi /xi /xi /xi /xi /xi /xi /xi /xi /xi /xi /xi /xi /xi
 /xi /xi /xi /xi /xi /xi /xi /xi /xi /xi /xi /xi /xi /xi /xi /xi
 /xi /xi /xi /xi /xi /xi /xi /xi /xi /xi /xi /xi /xi /xi /xi /xi
 /xi /xi /xi /xi /xi /xi /xi /xi /xi /xi /xi /xi /xi /xi /xi /xi
 /xi /xi /xi /xi /xi /xi /xi /xi /xi /xi /xi /xi /xi /xi /xi /xi
 /xi /xi /xi /xi /xi /xi /xi /xi /xi /xi /xi /xi /xi /xi /xi /xi
 /xi /xi /xi /xi /xi /xi /xi /xi /xi /xi /xi /xi /xi /xi /xi /xi
] /e0 exch def
/Times-Roman_e0 undefinefont
/Times-Roman_e0
  /Times-Roman findfont
  dup length dict begin
  {1 index /FID ne {def} {pop pop} ifelse} forall
  /Encoding e0 def
  currentdict end
definefont pop
/Times-Roman_e0 ff 0.800000 scf sf
( !) sw
2 div 23.125000 ex sub 23.975000 m ( !)
 gs 1 -1 sc sh gr
0.010000 slw
[] 0 sd
[] 0 sd
0 slc
n 20.000000 23.000000 m 26.000000 23.000000 l s
0.010000 slw
[] 0 sd
[] 0 sd
0 slc
n 20.000000 23.000000 m 26.000000 18.000000 l s
/Times-Roman_e0 ff 0.800000 scf sf
("!) sw
2 div 26.725000 ex sub 20.750000 m ("!)
 gs 1 -1 sc sh gr
/Times-Roman_e0 ff 0.800000 scf sf
(#$%$ $!$$&$"$!$) sw
2 div 21.150000 ex sub 19.500000 m (#$%$ $!$$&$"$!$)
 gs 1 -1 sc sh gr
/Times-Roman_e0 ff 0.500000 scf sf
(') sw
2 div 23.675000 ex sub 23.650000 m (')
 gs 1 -1 sc sh gr
/Times-Roman_e0 ff 0.500000 scf sf
(') sw
2 div 18.300000 ex sub 19.100000 m (')
 gs 1 -1 sc sh gr
/Times-Roman_e0 ff 0.500000 scf sf
('$$') sw
2 div 23.875000 ex sub 19.075000 m ('$$')
 gs 1 -1 sc sh gr
/Times-Roman_e0 ff 0.500000 scf sf
('$$*) sw
2 div 20.549650 ex sub 19.140765 m ('$$*)
 gs 1 -1 sc sh gr
showpage
