%!PS-Adobe-3.0 EPSF-3.0
%%Creator: MATLAB, The Mathworks, Inc.
%%Title: fig_blackbody.eps
%%CreationDate: 12/01/ 4  01:58:45
%%DocumentNeededFonts: Helvetica
%%DocumentProcessColors: Cyan Magenta Yellow Black
%%LanguageLevel: 2
%%Pages: 1
%%BoundingBox:    57   196   553   600
%%EndComments

%%BeginProlog

% MathWorks dictionary
/MathWorks 160 dict begin

% definition operators
/bdef {bind def} bind def
/ldef {load def} bind def
/xdef {exch def} bdef
/xstore {exch store} bdef

% operator abbreviations
/c  /clip ldef
/cc /concat ldef
/cp /closepath ldef
/gr /grestore ldef
/gs /gsave ldef
/mt /moveto ldef
/np /newpath ldef
/cm /currentmatrix ldef
/sm /setmatrix ldef
/rc {rectclip} bdef
/rf {rectfill} bdef
/rm /rmoveto ldef
/rl /rlineto ldef
/s /show ldef
/sc {setcmykcolor} bdef
/sr /setrgbcolor ldef
/sg /setgray ldef
/w /setlinewidth ldef
/j /setlinejoin ldef
/cap /setlinecap ldef

% page state control
/pgsv () def
/bpage {/pgsv save def} bdef
/epage {pgsv restore} bdef
/bplot /gsave ldef
/eplot {stroke grestore} bdef

% orientation switch
/portraitMode 	0 def
/landscapeMode 	1 def

% coordinate system mappings
/dpi2point 0 def

% font control
/FontSize 0 def
/FMS {
	/FontSize xstore		%save size off stack
	findfont
	[FontSize 0 0 FontSize neg 0 0]
	makefont
	setfont
	}bdef

/ISOLatin1Encoding where
{pop
/WindowsLatin1Encoding 256 array bdef
ISOLatin1Encoding WindowsLatin1Encoding copy pop
/.notdef/.notdef/quotesinglbase/florin/quotedblbase/ellipsis/dagger/daggerdbl
/circumflex/perthousand/Scaron/guilsinglleft/OE/.notdef/.notdef/.notdef
/.notdef/quoteleft/quoteright/quotedblleft/quotedblright/bullet/endash/emdash
/tilde/trademark/scaron/guilsinglright/oe/.notdef/.notdef/Ydieresis
WindowsLatin1Encoding 128 32 getinterval astore pop}
{/WindowsLatin1Encoding StandardEncoding bdef} ifelse

/reencode {
exch dup where
{pop load} {pop StandardEncoding} ifelse
exch
dup 3 1 roll
findfont dup length dict begin
  { 1 index /FID ne {def}{pop pop} ifelse } forall
  /Encoding exch def
  currentdict
end
definefont pop
} bdef

/isroman {
findfont /CharStrings get
/Agrave known
} bdef

/FMSR {
3 1 roll 1 index
dup isroman
{reencode} {pop pop} ifelse
exch FMS
} bdef

/csm {
	1 dpi2point div -1 dpi2point div scale
	neg translate
	landscapeMode eq {90 rotate} if
	} bdef

% line types: solid, dotted, dashed, dotdash
/SO { [] 0 setdash } bdef
/DO { [.5 dpi2point mul 4 dpi2point mul] 0 setdash } bdef
/DA { [6 dpi2point mul] 0 setdash } bdef
/DD { [.5 dpi2point mul 4 dpi2point mul 6 dpi2point mul 4 dpi2point mul] 0 setdash } bdef

% macros for lines and objects
/L {
	lineto
	stroke
	} bdef
/MP {
	3 1 roll moveto
	1 sub {rlineto} repeat
	} bdef
/AP {
	{rlineto} repeat
	} bdef
/PP {
	closepath eofill
	} bdef
/DP {
	closepath stroke
	} bdef
/MR {
	4 -2 roll moveto
	dup  0 exch rlineto
	exch 0 rlineto
	neg  0 exch rlineto
	closepath
	} bdef
/FR {
	MR stroke
	} bdef
/PR {
	MR fill
	} bdef
/L1i {
	{ currentfile picstr readhexstring pop } image
	} bdef

/tMatrix matrix def
/MakeOval {
	newpath
	tMatrix currentmatrix pop
	translate scale
	0 0 1 0 360 arc
	tMatrix setmatrix
	} bdef
/FO {
	MakeOval
	stroke
	} bdef
/PO {
	MakeOval
	fill
	} bdef

/PD {
	currentlinecap 1 setlinecap 3 1 roll 2 copy moveto lineto stroke setlinecap
	} bdef

/FA {
	newpath
	tMatrix currentmatrix pop
	translate scale
	0 0 1 5 -2 roll arc
	tMatrix setmatrix
	stroke
	} bdef
/PA {
	newpath
	tMatrix currentmatrix pop
	translate 0 0 moveto scale
	0 0 1 5 -2 roll arc
	closepath
	tMatrix setmatrix
	fill
	} bdef

/FAn {
	newpath
	tMatrix currentmatrix pop
	translate scale
	0 0 1 5 -2 roll arcn
	tMatrix setmatrix
	stroke
	} bdef
/PAn {
	newpath
	tMatrix currentmatrix pop
	translate 0 0 moveto scale
	0 0 1 5 -2 roll arcn
	closepath
	tMatrix setmatrix
	fill
	} bdef

/MRR {
	/vradius xdef
	/hradius xdef
	/lry xdef
	/lrx xdef
	/uly xdef
	/ulx xdef
	newpath
	tMatrix currentmatrix pop
	ulx hradius add uly vradius add translate
	hradius vradius scale
	0 0 1 180 270 arc 
	tMatrix setmatrix
	lrx hradius sub uly vradius add translate
	hradius vradius scale
	0 0 1 270 360 arc
	tMatrix setmatrix
	lrx hradius sub lry vradius sub translate
	hradius vradius scale
	0 0 1 0 90 arc
	tMatrix setmatrix
	ulx hradius add lry vradius sub translate
	hradius vradius scale
	0 0 1 90 180 arc
	tMatrix setmatrix
	closepath
	} bdef
/FRR {
	MRR stroke } bdef
/PRR {
	MRR fill } bdef

/MlrRR {
	/lry xdef
	/lrx xdef
	/uly xdef
	/ulx xdef
	/rad lry uly sub 2 div def
	newpath
	tMatrix currentmatrix pop
	ulx rad add uly rad add translate
	rad rad scale
	0 0 1 90 270 arc
	tMatrix setmatrix
	lrx rad sub lry rad sub translate
	rad rad scale
	0 0 1 270 90 arc
	tMatrix setmatrix
	closepath
	} bdef
/FlrRR {
	MlrRR stroke } bdef
/PlrRR {
	MlrRR fill } bdef

/MtbRR {
	/lry xdef
	/lrx xdef
	/uly xdef
	/ulx xdef
	/rad lrx ulx sub 2 div def
	newpath
	tMatrix currentmatrix pop
	ulx rad add uly rad add translate
	rad rad scale
	0 0 1 180 360 arc
	tMatrix setmatrix
	lrx rad sub lry rad sub translate
	rad rad scale
	0 0 1 0 180 arc
	tMatrix setmatrix
	closepath
	} bdef
/FtbRR {
	MtbRR stroke } bdef
/PtbRR {
	MtbRR fill } bdef

currentdict end def
%%EndProlog

%%BeginSetup
MathWorks begin

0 cap

end
%%EndSetup

%%Page: 1 1
%%BeginPageSetup
%%PageBoundingBox:    57   196   553   600
MathWorks begin
bpage
%%EndPageSetup

%%BeginObject: obj1
bplot

/dpi2point 12 def
portraitMode 0204 7344 csm

  488   138  5948  4850 rc
85 dict begin %Colortable dictionary
/c0 { 0 0 0 sr} bdef
/c1 { 1 1 1 sr} bdef
/c2 { 1 0 0 sr} bdef
/c3 { 0 1 0 sr} bdef
/c4 { 0 0 1 sr} bdef
/c5 { 1 1 0 sr} bdef
/c6 { 1 0 1 sr} bdef
/c7 { 0 1 1 sr} bdef
1 j
1 sg
   0    0 6913 5185 rf
6 w
0 1782 5356 0 0 -1782 898 2170 4 MP
PP
-5356 0 0 1782 5356 0 0 -1782 898 2170 5 MP stroke
4 w
DO
0 sg
 898 2170 mt  898  388 L
 898  388 mt  898  388 L
1434 2170 mt 1434  388 L
1434  388 mt 1434  388 L
1969 2170 mt 1969  388 L
1969  388 mt 1969  388 L
2505 2170 mt 2505  388 L
2505  388 mt 2505  388 L
3040 2170 mt 3040  388 L
3040  388 mt 3040  388 L
3576 2170 mt 3576  388 L
3576  388 mt 3576  388 L
4112 2170 mt 4112  388 L
4112  388 mt 4112  388 L
4647 2170 mt 4647  388 L
4647  388 mt 4647  388 L
5183 2170 mt 5183  388 L
5183  388 mt 5183  388 L
5718 2170 mt 5718  388 L
5718  388 mt 5718  388 L
6254 2170 mt 6254  388 L
6254  388 mt 6254  388 L
 898 2170 mt 6254 2170 L
6254 2170 mt 6254 2170 L
 898 1814 mt 6254 1814 L
6254 1814 mt 6254 1814 L
 898 1457 mt 6254 1457 L
6254 1457 mt 6254 1457 L
 898 1101 mt 6254 1101 L
6254 1101 mt 6254 1101 L
 898  744 mt 6254  744 L
6254  744 mt 6254  744 L
 898  388 mt 6254  388 L
6254  388 mt 6254  388 L
SO
6 w
 898  388 mt 6254  388 L
 898 2170 mt 6254 2170 L
6254 2170 mt 6254  388 L
 898 2170 mt  898  388 L
 898 2170 mt 6254 2170 L
 898 2170 mt  898  388 L
 898 2170 mt  898 2116 L
 898  388 mt  898  442 L
%%IncludeResource: font Helvetica
/Helvetica /WindowsLatin1Encoding 120 FMSR

 865 2316 mt 
(0) s
1434 2170 mt 1434 2116 L
1434  388 mt 1434  442 L
1334 2316 mt 
(200) s
1969 2170 mt 1969 2116 L
1969  388 mt 1969  442 L
1869 2316 mt 
(400) s
2505 2170 mt 2505 2116 L
2505  388 mt 2505  442 L
2405 2316 mt 
(600) s
3040 2170 mt 3040 2116 L
3040  388 mt 3040  442 L
2940 2316 mt 
(800) s
3576 2170 mt 3576 2116 L
3576  388 mt 3576  442 L
3443 2316 mt 
(1000) s
4112 2170 mt 4112 2116 L
4112  388 mt 4112  442 L
3979 2316 mt 
(1200) s
4647 2170 mt 4647 2116 L
4647  388 mt 4647  442 L
4514 2316 mt 
(1400) s
5183 2170 mt 5183 2116 L
5183  388 mt 5183  442 L
5050 2316 mt 
(1600) s
5718 2170 mt 5718 2116 L
5718  388 mt 5718  442 L
5585 2316 mt 
(1800) s
6254 2170 mt 6254 2116 L
6254  388 mt 6254  442 L
6121 2316 mt 
(2000) s
 898 2170 mt  952 2170 L
6254 2170 mt 6200 2170 L
 797 2214 mt 
(0) s
 898 1814 mt  952 1814 L
6254 1814 mt 6200 1814 L
 697 1858 mt 
(0.5) s
 898 1457 mt  952 1457 L
6254 1457 mt 6200 1457 L
 797 1501 mt 
(1) s
 898 1101 mt  952 1101 L
6254 1101 mt 6200 1101 L
 697 1145 mt 
(1.5) s
 898  744 mt  952  744 L
6254  744 mt 6200  744 L
 797  788 mt 
(2) s
 898  388 mt  952  388 L
6254  388 mt 6200  388 L
 697  432 mt 
(2.5) s
 898  334 mt 
(x 10) s
%%IncludeResource: font Helvetica
/Helvetica /WindowsLatin1Encoding 80 FMSR

1124  260 mt 
(14) s
 898  388 mt 6254  388 L
 898 2170 mt 6254 2170 L
6254 2170 mt 6254  388 L
 898 2170 mt  898  388 L
gs 898 388 5357 1783 rc
54 1 53 0 54 1 53 0 54 1 53 0 54 1 53 0 
54 1 54 0 53 1 54 0 53 1 54 1 53 0 54 1 
54 1 53 1 54 0 53 1 54 1 53 1 54 1 53 1 
54 1 54 1 53 2 54 1 53 1 54 2 53 1 54 2 
53 1 54 2 54 2 53 2 54 2 53 2 54 2 53 3 
54 2 54 3 53 2 54 3 53 3 54 3 53 4 54 3 
53 4 54 4 54 4 53 4 54 5 53 5 54 5 53 5 
54 5 53 6 54 6 54 6 53 7 54 6 53 7 54 7 
53 7 54 7 54 7 53 7 54 7 53 6 54 6 53 6 
54 5 53 3 54 2 54 1 53 -1 54 -4 53 -6 54 -9 
53 -12 54 -15 53 -18 54 -21 54 -23 53 -24 54 -23 53 -22 
54 -19 53 -14 54 -9 54 -4 53 -2 54 -1 53 0 54 0 
53 0 54 0 53 0 54 0 898 2170 101 MP stroke
54 1 53 1 54 0 53 1 54 1 53 0 54 1 53 1 
54 1 54 1 53 1 54 0 53 1 54 2 53 1 54 1 
54 1 53 1 54 2 53 1 54 1 53 2 54 2 53 1 
54 2 54 2 53 2 54 2 53 2 54 3 53 2 54 3 
53 3 54 3 54 3 53 3 54 4 53 3 54 4 53 4 
54 5 54 5 53 5 54 5 53 6 54 6 53 6 54 7 
53 7 54 8 54 8 53 9 54 10 53 10 54 11 53 11 
54 12 53 13 54 14 54 15 53 16 54 17 53 18 54 18 
53 20 54 22 54 22 53 23 54 25 53 25 54 26 53 27 
54 27 53 27 54 27 54 25 53 23 54 19 53 16 54 9 
53 1 54 -8 53 -19 54 -33 54 -47 53 -62 54 -76 53 -87 
54 -91 53 -88 54 -75 54 -56 53 -32 54 -14 53 -4 54 0 
53 0 54 0 53 0 54 0 898 2170 101 MP stroke
54 0 53 1 54 1 53 1 54 1 53 1 54 1 53 1 
54 1 54 1 53 2 54 1 53 1 54 2 53 1 54 2 
54 2 53 1 54 2 53 2 54 2 53 2 54 3 53 2 
54 3 54 2 53 3 54 3 53 4 54 3 53 4 54 3 
53 5 54 4 54 4 53 5 54 6 53 5 54 6 53 6 
54 7 54 7 53 8 54 8 53 9 54 9 53 10 54 11 
53 12 54 12 54 14 53 14 54 15 53 17 54 18 53 19 
54 21 53 23 54 24 54 26 53 29 54 30 53 34 54 35 
53 39 54 42 54 45 53 49 54 52 53 56 54 60 53 65 
54 68 53 72 54 76 54 78 53 81 54 81 53 79 54 75 
53 68 54 55 53 37 54 12 54 -21 53 -62 54 -111 53 -164 
54 -214 53 -256 54 -272 54 -253 53 -198 54 -117 53 -46 54 -9 
53 -1 54 0 53 0 54 0 898 2170 101 MP stroke

gr 
2166 1918 mt 2216 1968 L
2216 1918 mt 2166 1968 L
gs 898 388 5357 1783 rc

gr 
  36   36 2191 1943 FO
gs 898 388 5357 1783 rc

gr 
1907 1452 mt 1957 1502 L
1957 1452 mt 1907 1502 L
gs 898 388 5357 1783 rc

gr 
  36   36 1932 1477 FO
gs 898 388 5357 1783 rc

gr 
1735  421 mt 1785  471 L
1785  421 mt 1735  471 L
gs 898 388 5357 1783 rc

gr 
  36   36 1760  446 FO
gs 898 388 5357 1783 rc

gr 
%%IncludeResource: font Helvetica
/Helvetica /WindowsLatin1Encoding 120 FMSR

3050 2459 mt 
(Wavelenght ) s
%%IncludeResource: font Symbol
/Symbol /WindowsLatin1Encoding 120 FMSR

3706 2459 mt 
(l) s
%%IncludeResource: font Helvetica
/Helvetica /WindowsLatin1Encoding 120 FMSR

3771 2459 mt 
( in nm) s
 642 2034 mt  -90 rotate
(B) s
90 rotate
%%IncludeResource: font Symbol
/Symbol /WindowsLatin1Encoding 96 FMSR

 702 1954 mt  -90 rotate
(l) s
90 rotate
%%IncludeResource: font Helvetica
/Helvetica /WindowsLatin1Encoding 120 FMSR

 642 1902 mt  -90 rotate
(\(T\) in W m) s
90 rotate
%%IncludeResource: font Helvetica
/Helvetica /WindowsLatin1Encoding 96 FMSR

 582 1347 mt  -90 rotate
(-2) s
90 rotate
%%IncludeResource: font Helvetica
/Helvetica /WindowsLatin1Encoding 120 FMSR

 642 1238 mt  -90 rotate
( m) s
90 rotate
%%IncludeResource: font Helvetica
/Helvetica /WindowsLatin1Encoding 96 FMSR

 582 1105 mt  -90 rotate
(-1) s
90 rotate
%%IncludeResource: font Helvetica
/Helvetica /WindowsLatin1Encoding 120 FMSR

 642  996 mt  -90 rotate
( sterad) s
90 rotate
%%IncludeResource: font Helvetica
/Helvetica /WindowsLatin1Encoding 96 FMSR

 582  631 mt  -90 rotate
(-1) s
90 rotate
%%IncludeResource: font Helvetica
/Helvetica /WindowsLatin1Encoding 120 FMSR

1835 1866 mt 
(B) s
%%IncludeResource: font Symbol
/Symbol /WindowsLatin1Encoding 96 FMSR

1915 1926 mt 
(l) s
%%IncludeResource: font Helvetica
/Helvetica /WindowsLatin1Encoding 120 FMSR

1967 1866 mt 
(\(T=6000 K,) s
%%IncludeResource: font Symbol
/Symbol /WindowsLatin1Encoding 120 FMSR

2564 1866 mt 
(l) s
%%IncludeResource: font Helvetica
/Helvetica /WindowsLatin1Encoding 120 FMSR

2629 1866 mt 
(=483 nm\)=0.32E14) s
1568 1403 mt 
(B) s
%%IncludeResource: font Symbol
/Symbol /WindowsLatin1Encoding 96 FMSR

1648 1463 mt 
(l) s
%%IncludeResource: font Helvetica
/Helvetica /WindowsLatin1Encoding 120 FMSR

1700 1403 mt 
(\(T=7500 K,) s
%%IncludeResource: font Symbol
/Symbol /WindowsLatin1Encoding 120 FMSR

2297 1403 mt 
(l) s
%%IncludeResource: font Helvetica
/Helvetica /WindowsLatin1Encoding 120 FMSR

2362 1403 mt 
(=386 nm\)=0.97E14) s
1969  548 mt 
(B) s
%%IncludeResource: font Symbol
/Symbol /WindowsLatin1Encoding 96 FMSR

2049  608 mt 
(l) s
%%IncludeResource: font Helvetica
/Helvetica /WindowsLatin1Encoding 120 FMSR

2101  548 mt 
(\(T=9000 K,) s
%%IncludeResource: font Symbol
/Symbol /WindowsLatin1Encoding 120 FMSR

2698  548 mt 
(l) s
%%IncludeResource: font Helvetica
/Helvetica /WindowsLatin1Encoding 120 FMSR

2763  548 mt 
(=322 nm\)=2.42E14) s
1 sg
0 1782 5356 0 0 -1782 898 4612 4 MP
PP
-5356 0 0 1782 5356 0 0 -1782 898 4612 5 MP stroke
4 w
DO
0 sg
 898 4612 mt  898 2830 L
 898 2830 mt  898 2830 L
1434 4612 mt 1434 2830 L
1434 2830 mt 1434 2830 L
1969 4612 mt 1969 2830 L
1969 2830 mt 1969 2830 L
2505 4612 mt 2505 2830 L
2505 2830 mt 2505 2830 L
3040 4612 mt 3040 2830 L
3040 2830 mt 3040 2830 L
3576 4612 mt 3576 2830 L
3576 2830 mt 3576 2830 L
4112 4612 mt 4112 2830 L
4112 2830 mt 4112 2830 L
4647 4612 mt 4647 2830 L
4647 2830 mt 4647 2830 L
5183 4612 mt 5183 2830 L
5183 2830 mt 5183 2830 L
5718 4612 mt 5718 2830 L
5718 2830 mt 5718 2830 L
6254 4612 mt 6254 2830 L
6254 2830 mt 6254 2830 L
 898 4612 mt 6254 4612 L
6254 4612 mt 6254 4612 L
 898 4357 mt 6254 4357 L
6254 4357 mt 6254 4357 L
 898 4103 mt 6254 4103 L
6254 4103 mt 6254 4103 L
 898 3848 mt 6254 3848 L
6254 3848 mt 6254 3848 L
 898 3594 mt 6254 3594 L
6254 3594 mt 6254 3594 L
 898 3339 mt 6254 3339 L
6254 3339 mt 6254 3339 L
 898 3085 mt 6254 3085 L
6254 3085 mt 6254 3085 L
 898 2830 mt 6254 2830 L
6254 2830 mt 6254 2830 L
SO
6 w
 898 2830 mt 6254 2830 L
 898 4612 mt 6254 4612 L
6254 4612 mt 6254 2830 L
 898 4612 mt  898 2830 L
 898 4612 mt 6254 4612 L
 898 4612 mt  898 2830 L
 898 4612 mt  898 4558 L
 898 2830 mt  898 2884 L
 865 4758 mt 
(0) s
1434 4612 mt 1434 4558 L
1434 2830 mt 1434 2884 L
1351 4758 mt 
(0.2) s
1969 4612 mt 1969 4558 L
1969 2830 mt 1969 2884 L
1886 4758 mt 
(0.4) s
2505 4612 mt 2505 4558 L
2505 2830 mt 2505 2884 L
2422 4758 mt 
(0.6) s
3040 4612 mt 3040 4558 L
3040 2830 mt 3040 2884 L
2957 4758 mt 
(0.8) s
3576 4612 mt 3576 4558 L
3576 2830 mt 3576 2884 L
3543 4758 mt 
(1) s
4112 4612 mt 4112 4558 L
4112 2830 mt 4112 2884 L
4029 4758 mt 
(1.2) s
4647 4612 mt 4647 4558 L
4647 2830 mt 4647 2884 L
4564 4758 mt 
(1.4) s
5183 4612 mt 5183 4558 L
5183 2830 mt 5183 2884 L
5100 4758 mt 
(1.6) s
5718 4612 mt 5718 4558 L
5718 2830 mt 5718 2884 L
5635 4758 mt 
(1.8) s
6254 4612 mt 6254 4558 L
6254 2830 mt 6254 2884 L
6221 4758 mt 
(2) s
5984 4960 mt 
(x 10) s
%%IncludeResource: font Helvetica
/Helvetica /WindowsLatin1Encoding 80 FMSR

6210 4886 mt 
(6) s
 898 4612 mt  952 4612 L
6254 4612 mt 6200 4612 L
%%IncludeResource: font Helvetica
/Helvetica /WindowsLatin1Encoding 120 FMSR

 797 4656 mt 
(0) s
 898 4357 mt  952 4357 L
6254 4357 mt 6200 4357 L
 697 4401 mt 
(0.2) s
 898 4103 mt  952 4103 L
6254 4103 mt 6200 4103 L
 697 4147 mt 
(0.4) s
 898 3848 mt  952 3848 L
6254 3848 mt 6200 3848 L
 697 3892 mt 
(0.6) s
 898 3594 mt  952 3594 L
6254 3594 mt 6200 3594 L
 697 3638 mt 
(0.8) s
 898 3339 mt  952 3339 L
6254 3339 mt 6200 3339 L
 797 3383 mt 
(1) s
 898 3085 mt  952 3085 L
6254 3085 mt 6200 3085 L
 697 3129 mt 
(1.2) s
 898 2830 mt  952 2830 L
6254 2830 mt 6200 2830 L
 697 2874 mt 
(1.4) s
 898 2776 mt 
(x 10) s
%%IncludeResource: font Helvetica
/Helvetica /WindowsLatin1Encoding 80 FMSR

1124 2702 mt 
(-7) s
 898 2830 mt 6254 2830 L
 898 4612 mt 6254 4612 L
6254 4612 mt 6254 2830 L
 898 4612 mt  898 2830 L
gs 898 2830 5357 1783 rc
54 0 53 0 54 0 53 0 54 0 53 0 54 0 53 0 
54 1 54 0 53 0 54 0 53 0 54 0 53 0 54 0 
54 0 53 1 54 0 53 0 54 0 53 1 54 0 53 0 
54 1 54 0 53 1 54 1 53 0 54 1 53 1 54 1 
53 1 54 1 54 2 53 1 54 2 53 2 54 2 53 2 
54 3 54 2 53 3 54 4 53 4 54 4 53 4 54 6 
53 5 54 6 54 7 53 7 54 8 53 8 54 9 53 10 
54 11 53 12 54 12 54 13 53 14 54 15 53 16 54 17 
53 17 54 18 54 19 53 20 54 20 53 21 54 20 53 21 
54 21 53 20 54 19 54 18 53 17 54 15 53 13 54 10 
53 7 54 3 53 -1 54 -5 54 -9 53 -15 54 -20 53 -25 
54 -31 53 -35 54 -40 54 -44 53 -47 54 -48 53 -48 54 -46 
53 -41 54 -34 53 -23 54 -9 898 4612 101 MP stroke
54 1 53 0 54 1 53 0 54 1 53 0 54 1 53 1 
54 1 54 1 53 1 54 1 53 1 54 2 53 1 54 2 
54 2 53 2 54 2 53 3 54 2 53 3 54 3 53 3 
54 4 54 4 53 4 54 5 53 5 54 5 53 6 54 6 
53 7 54 8 54 8 53 8 54 9 53 10 54 11 53 11 
54 12 54 13 53 14 54 15 53 15 54 17 53 18 54 18 
53 20 54 21 54 22 53 23 54 24 53 25 54 26 53 27 
54 28 53 29 54 30 54 31 53 32 54 31 53 33 54 32 
53 33 54 32 54 31 53 31 54 30 53 28 54 27 53 24 
54 22 53 18 54 15 54 12 53 7 54 2 53 -3 54 -8 
53 -15 54 -20 53 -27 54 -34 54 -40 53 -47 54 -53 53 -59 
54 -65 53 -69 54 -72 54 -75 53 -76 54 -74 53 -72 54 -65 
53 -57 54 -46 53 -30 54 -11 898 4612 101 MP stroke
54 3 53 3 54 3 53 4 54 3 53 4 54 4 53 5 
54 5 54 5 53 6 54 6 53 6 54 7 53 8 54 7 
54 9 53 9 54 9 53 11 54 10 53 12 54 12 53 13 
54 14 54 14 53 16 54 16 53 18 54 18 53 19 54 21 
53 21 54 23 54 24 53 25 54 26 53 28 54 28 53 30 
54 32 54 32 53 34 54 36 53 36 54 38 53 39 54 40 
53 42 54 42 54 44 53 44 54 45 53 46 54 46 53 47 
54 47 53 46 54 46 54 46 53 45 54 44 53 42 54 41 
53 38 54 36 54 33 53 29 54 26 53 22 54 17 53 11 
54 7 53 0 54 -6 54 -13 53 -20 54 -28 53 -35 54 -43 
53 -50 54 -59 53 -67 54 -74 54 -82 53 -88 54 -95 53 -100 
54 -104 53 -107 54 -109 54 -108 53 -107 54 -102 53 -96 54 -85 
53 -73 54 -57 53 -38 54 -13 898 4612 101 MP stroke

gr 
1818 4066 mt 1868 4116 L
1868 4066 mt 1818 4116 L
gs 898 2830 5357 1783 rc

gr 
  36   36 1843 4091 FO
gs 898 2830 5357 1783 rc

gr 
2054 3569 mt 2104 3619 L
2104 3569 mt 2054 3619 L
gs 898 2830 5357 1783 rc

gr 
  36   36 2079 3594 FO
gs 898 2830 5357 1783 rc

gr 
2290 2828 mt 2340 2878 L
2340 2828 mt 2290 2878 L
gs 898 2830 5357 1783 rc

gr 
  36   36 2315 2853 FO
gs 898 2830 5357 1783 rc

gr 
%%IncludeResource: font Helvetica
/Helvetica /WindowsLatin1Encoding 120 FMSR

3048 4901 mt 
(Frequency ) s
%%IncludeResource: font Symbol
/Symbol /WindowsLatin1Encoding 120 FMSR

3642 4901 mt 
(n) s
%%IncludeResource: font Helvetica
/Helvetica /WindowsLatin1Encoding 120 FMSR

3704 4901 mt 
( in GHz) s
 642 4499 mt  -90 rotate
(B) s
90 rotate
%%IncludeResource: font Symbol
/Symbol /WindowsLatin1Encoding 96 FMSR

 702 4419 mt  -90 rotate
(n) s
90 rotate
%%IncludeResource: font Helvetica
/Helvetica /WindowsLatin1Encoding 120 FMSR

 642 4369 mt  -90 rotate
(\(T\) in W m) s
90 rotate
%%IncludeResource: font Helvetica
/Helvetica /WindowsLatin1Encoding 96 FMSR

 582 3814 mt  -90 rotate
(-2) s
90 rotate
%%IncludeResource: font Helvetica
/Helvetica /WindowsLatin1Encoding 120 FMSR

 642 3705 mt  -90 rotate
( Hz) s
90 rotate
%%IncludeResource: font Helvetica
/Helvetica /WindowsLatin1Encoding 96 FMSR

 582 3525 mt  -90 rotate
(-1) s
90 rotate
%%IncludeResource: font Helvetica
/Helvetica /WindowsLatin1Encoding 120 FMSR

 642 3416 mt  -90 rotate
( sterad) s
90 rotate
%%IncludeResource: font Helvetica
/Helvetica /WindowsLatin1Encoding 96 FMSR

 582 3051 mt  -90 rotate
(-1) s
90 rotate
%%IncludeResource: font Helvetica
/Helvetica /WindowsLatin1Encoding 120 FMSR

1701 3993 mt 
(B) s
%%IncludeResource: font Symbol
/Symbol /WindowsLatin1Encoding 96 FMSR

1781 4053 mt 
(n) s
%%IncludeResource: font Helvetica
/Helvetica /WindowsLatin1Encoding 120 FMSR

1831 3993 mt 
(\(T=6000 K,) s
%%IncludeResource: font Symbol
/Symbol /WindowsLatin1Encoding 120 FMSR

2428 3993 mt 
(n) s
%%IncludeResource: font Helvetica
/Helvetica /WindowsLatin1Encoding 120 FMSR

2490 3993 mt 
(=353E3 GHz\) = 0.41E-7) s
1835 3483 mt 
(B) s
%%IncludeResource: font Symbol
/Symbol /WindowsLatin1Encoding 96 FMSR

1915 3543 mt 
(n) s
%%IncludeResource: font Helvetica
/Helvetica /WindowsLatin1Encoding 120 FMSR

1965 3483 mt 
(\(T=7500 K,) s
%%IncludeResource: font Symbol
/Symbol /WindowsLatin1Encoding 120 FMSR

2562 3483 mt 
(n) s
%%IncludeResource: font Helvetica
/Helvetica /WindowsLatin1Encoding 120 FMSR

2624 3483 mt 
(=441E3 GHz\) = 0.80E-7) s
1969 3102 mt 
(B) s
%%IncludeResource: font Symbol
/Symbol /WindowsLatin1Encoding 96 FMSR

2049 3162 mt 
(n) s
%%IncludeResource: font Helvetica
/Helvetica /WindowsLatin1Encoding 120 FMSR

2099 3102 mt 
(\(T=9000 K,) s
%%IncludeResource: font Symbol
/Symbol /WindowsLatin1Encoding 120 FMSR

2696 3102 mt 
(n) s
%%IncludeResource: font Helvetica
/Helvetica /WindowsLatin1Encoding 120 FMSR

2758 3102 mt 
(=529E3 GHz\) = 1.38E-7) s

end

eplot
%%EndObject

epage
end

showpage

%%Trailer
%%EOF
