%!PS-Adobe-2.0 EPSF-1.2
%%BoundingBox: 0 0 468 360
%%%%DocumentFonts: /Helvetica
%%Title: Axum PostScript file
%%Creator: TriMetrix, Inc.
%%Pages: 1
%%EndComments
% Copyright 1988-1991 by TriMetrix, Inc. All rights reserved.
/downdict 4 dict def
/sdown
 {downdict begin
  /thestring exch def
  /lineskip exch def
  thestring
   {
    /charcode exch def
    /thechar ( ) dup 0 charcode put def
    0 lineskip neg rmoveto
    gsave
     thechar stringwidth pop 2 div neg 0 rmoveto
     thechar show
    grestore
   } forall
   end
  } def

/updict 4 dict def
/sup
 {updict begin
  /thestring exch def
  /lineskip exch def
  thestring 
   {
    /charcode exch def
    /thechar ( ) dup 0 charcode put def
    0 lineskip rmoveto
    gsave
     thechar stringwidth pop 2 div neg 0 rmoveto
     thechar show
    grestore
   } forall
   end
  } def

/leftdict 4 dict def
/sleft
 {leftdict begin
  /thestring exch def
  thestring
   {
    /charcode exch def
    /thechar ( ) dup 0 charcode put def
    gsave
     thechar stringwidth pop neg 0 rmoveto
     thechar show
    grestore
   } forall

   thechar stringwidth pop neg 0 rmoveto
   end
  } def

/path{newpath moveto{lineto}repeat} bind def 
/cnp{newpath moveto{lineto}repeat closepath} bind def
/clp{moveto{lineto}repeat closepath} bind def
/rps{ 3 1 roll path stroke} bind def
/rcs{ 3 1 roll clp stroke} bind def
/setF { currentscreen 4 -2 roll pop 3 1 roll setscreen} bind def
% required due to WinWord 2.0 bug:
/II { } def

/reencodedict 5 dict def
/reencode
{
   reencodedict begin
   /newencoding exch def
   /newfontname exch def
   /basefontname exch def

   /basefontdict basefontname findfont def
   /newfont basefontdict maxlength dict def

   basefontdict
   {
      exch dup dup /FID ne exch /Encoding ne and
      { exch newfont 3 1 roll put }
      { pop pop }
      ifelse
   }
   forall

   newfont /FontName newfontname put
   newfont /Encoding newencoding put
   newfontname newfont definefont pop
   end
}
def

/axumencoding
[
/.notdef        %   0
/.notdef        %   1
/.notdef        %   2
/.notdef        %   3
/.notdef        %   4
/.notdef        %   5
/.notdef        %   6
/.notdef        %   7
/.notdef        %   8
/.notdef        %   9
/.notdef        %  10
/.notdef        %  11
/.notdef        %  12
/.notdef        %  13
/.notdef        %  14
/.notdef        %  15
/.notdef        %  16
/.notdef        %  17
/.notdef        %  18
/.notdef        %  19
/.notdef        %  20
/.notdef        %  21
/.notdef        %  22
/.notdef        %  23
/.notdef        %  24
/.notdef        %  25
/.notdef        %  26
/.notdef        %  27
/.notdef        %  28
/.notdef        %  29
/.notdef        %  30
/.notdef        %  31
/space          %  32
/exclam         %  33
/quotedbl       %  34
/numbersign     %  35
/dollar         %  36
/percent        %  37
/ampersand      %  38
/quoteright     %  39
/parenleft      %  40
/parenright     %  41
/asterisk       %  42
/plus           %  43
/comma          %  44
/hyphen         %  45
/period         %  46
/slash          %  47
/zero           %  48
/one            %  49
/two            %  50
/three          %  51
/four           %  52
/five           %  53
/six            %  54
/seven          %  55
/eight          %  56
/nine           %  57
/colon          %  58
/semicolon      %  59
/less           %  60
/equal          %  61
/greater        %  62
/question       %  63
/at             %  64
/A              %  65
/B              %  66
/C              %  67
/D              %  68
/E              %  69
/F              %  70
/G              %  71
/H              %  72
/I              %  73
/J              %  74
/K              %  75
/L              %  76
/M              %  77
/N              %  78
/O              %  79
/P              %  80
/Q              %  81
/R              %  82
/S              %  83
/T              %  84
/U              %  85
/V              %  86
/W              %  87
/X              %  88
/Y              %  89
/Z              %  90
/bracketleft    %  91
/backslash      %  92
/bracketright   %  93
/asciicircum    %  94
/underscore     %  95
/quoteleft      %  96
/a              %  97
/b              %  98
/c              %  99
/d              % 100
/e              % 101
/f              % 102
/g              % 103
/h              % 104
/i              % 105
/j              % 106
/k              % 107
/l              % 108
/m              % 109
/n              % 110
/o              % 111
/p              % 112
/q              % 113
/r              % 114
/s              % 115
/t              % 116
/u              % 117
/v              % 118
/w              % 119
/x              % 120
/y              % 121
/z              % 122
/braceleft      % 123
/bar            % 124
/braceright     % 125
/asciitilde     % 126
/.notdef        % 127
/Ccedilla       % 128
/udieresis      % 129
/eacute         % 130
/acircumflex    % 131
/adieresis      % 132
/agrave         % 133
/aring          % 134
/ccedilla       % 135
/ecircumflex    % 136
/edieresis      % 137
/egrave         % 138
/idieresis      % 139
/icircumflex    % 140
/igrave         % 141
/Adieresis      % 142
/Aring          % 143
/Eacute         % 144
/ae             % 145
/AE             % 146
/ocircumflex    % 147
/odieresis      % 148
/ograve         % 149
/ucircumflex    % 150
/ugrave         % 151
/ydieresis      % 152
/Odieresis      % 153
/Udieresis      % 154
/cent           % 155
/sterling       % 156
/yen            % 157
/currency       % 158
/florin         % 159
/aacute         % 160
/iacute         % 161
/oacute         % 162
/uacute         % 163
/ntilde         % 164
/Ntilde         % 165
/ordfeminine    % 166
/ordmasculine   % 167
/questiondown   % 168
/quotedblleft   % 169
/quotedblright  % 170
/Aacute         % 171
/Acircumflex    % 172
/exclamdown     % 173
/Egrave         % 174
/Ecircumflex    % 175
/atilde         % 176
/otilde         % 177
/Edieresis      % 178
/Igrave         % 179
/oe             % 180
/OE             % 181
/Agrave         % 182
/Atilde         % 183
/Otilde         % 184
/section        % 185
/Iacute         % 186
/Icircumflex    % 187
/Idieresis      % 188
/Ograve         % 189
/Oacute         % 190
/Ocircumflex    % 191
/Ugrave         % 192
/Uacute         % 193
/Ucircumflex    % 194
/Ydieresis      % 195
/germandbls     % 196
/guillemotleft  % 197
/guillemotright % 198
/bullet         % 199
/.notdef        % 200
/.notdef        % 201
/.notdef        % 202
/.notdef        % 203
/.notdef        % 204
/.notdef        % 205
/.notdef        % 206
/.notdef        % 207
/.notdef        % 208
/.notdef        % 209
/.notdef        % 210
/.notdef        % 211
/.notdef        % 212
/.notdef        % 213
/.notdef        % 214
/.notdef        % 215
/.notdef        % 216
/.notdef        % 217
/.notdef        % 218
/.notdef        % 219
/.notdef        % 220
/.notdef        % 221
/.notdef        % 222
/.notdef        % 223
/.notdef        % 224
/.notdef        % 225
/.notdef        % 226
/.notdef        % 227
/.notdef        % 228
/.notdef        % 229
/.notdef        % 230
/.notdef        % 231
/.notdef        % 232
/.notdef        % 233
/.notdef        % 234
/.notdef        % 235
/.notdef        % 236
/.notdef        % 237
/.notdef        % 238
/.notdef        % 239
/.notdef        % 240
/.notdef        % 241
/.notdef        % 242
/.notdef        % 243
/.notdef        % 244
/.notdef        % 245
/.notdef        % 246
/.notdef        % 247
/.notdef        % 248
/.notdef        % 249
/.notdef        % 250
/.notdef        % 251
/.notdef        % 252
/.notdef        % 253
/.notdef        % 254
/.notdef        % 255
] 
def

/axumfindfont
{
   /axumfont axumencoding reencode
   /axumfont findfont
}
def


/MainFont /Helvetica axumfindfont 98 scalefont def
MainFont setfont
1 setlinejoin 0 setlinecap 0 setgray
 gsave 72 630 div dup scale
 [] 0 setdash

1 setlinewidth
 959 993
 3334 993 3335 993 3336 993 3336 992
 3337 992 3338 992 3339 992 3339 991
 3340 991 3341 991 3341 990 3342 990
 3342 989 3343 989 3343 988 3344 988
 3344 987 3345 987 3345 986 3346 986
 3346 985 3347 985 3347 984 3348 983
 3348 982 3349 982 3349 981 3350 980
 3350 979 3351 978 3351 977 3352 976
 3352 975 3353 973 3353 972 3354 970
 3355 968 3355 966 3356 964 3357 961
 3358 958 3358 955 3359 952 3360 948
 3361 944 3362 939 3362 933 3363 927
 3363 920 3364 912 3364 903 3364 894
 3363 884 3362 873 3360 861 3358 850
 3355 839 3350 829 3346 821 3340 816
 3334 814 959 814 959 993 63 3 1 roll cnp
 0.87 setgray eofill 0.0 setgray 959 814
 3334 814 3328 816 3323 821 3318 829
 3314 839 3311 850 3308 861 3306 873
 3305 884 3305 894 3305 903 3305 912
 3305 920 3306 927 3306 933 3307 939
 3308 944 3308 948 3309 952 3310 955
 3311 958 3312 961 3312 964 3313 966
 3314 968 3314 970 3315 972 3316 973
 3316 975 3317 976 3317 977 3318 978
 3318 979 3319 980 3319 981 3320 982
 3321 983 3321 984 3322 984 3322 985
 3323 986 3324 987 3325 988 3325 989
 3326 989 3326 990 3327 990 3328 990
 3328 991 3329 991 3330 992 3331 992
 3332 992 3333 993 3334 993 959 993
 959 814 57 3 1 roll cnp
 1.00 setgray eofill 0.0 setgray 0.0 setgray 955 1040 3334 814 1 rps
 955 767 3334 993 1 rps
 3334 993 3334 993 3335 993 3335 993 3335 993 3335 993 3335 993 3335 993 3335 993
 3336 993 3336 993 3336 993 3336 992 3336 992 3336 992 3337 992 3337 992
 3337 992 3337 992 3337 992 3337 992 3338 992 3338 992 3338 992 3338 992
 3338 992 3338 992 3339 992 3339 992 3339 992 3339 991 3339 991 3339 991
 3340 991 3340 991 3340 991 3340 991 3341 991 3341 991 3341 990 3341 990
 3341 990 3342 990 3342 990 3342 990 3342 989 3343 989 3343 989 3343 989
 3343 988 3344 988 3344 988 3344 987 3345 987 3345 987 3345 986 3346 986
 3346 986 3346 985 3347 985 3347 984 3347 984 3348 983 3348 982 3349 982
 3349 981 3350 980 3350 979 3351 978 3351 977 3352 976 3352 975 3353 973
 3353 972 3354 970 3355 968 3355 966 3356 964 3357 961 3358 958 3358 955
 3359 952 3360 948 3361 944 3362 939 3362 933 3363 927 3363 920 3364 912
 3364 903 3364 894 3363 884 3362 873 3360 861 3358 850 3355 839 3350 829
 3346 821 3340 816 3334 814 99 rps
 [20 20] 0 setdash
 3334 814 3328 816 3323 821 3318 829 3314 839 3311 850 3308 861 3306 873 3305 884
 3305 894 3305 903 3305 912 3305 920 3306 927 3306 933 3307 939 3308 944
 3308 948 3309 952 3310 955 3311 958 3312 961 3312 964 3313 966 3314 968
 3314 970 3315 972 3316 973 3316 975 3317 976 3317 977 3318 978 3318 979
 3319 980 3319 981 3320 982 3320 982 3321 983 3321 984 3322 984 3322 985
 3322 985 3323 986 3323 986 3323 986 3324 987 3324 987 3324 987 3325 988
 3325 988 3325 988 3325 989 3326 989 3326 989 3326 989 3326 990 3327 990
 3327 990 3327 990 3327 990 3328 990 3328 991 3328 991 3328 991 3328 991
 3329 991 3329 991 3329 991 3329 991 3329 991 3330 992 3330 992 3330 992
 3330 992 3330 992 3330 992 3331 992 3331 992 3331 992 3331 992 3331 992
 3331 992 3332 992 3332 992 3332 992 3332 992 3332 992 3332 992 3333 993
 3333 993 3333 993 3333 993 3333 993 3333 993 3333 993 3334 993 3334 993
 3334 993 3334 993 3334 993 99 rps

/Times-Roman axumfindfont 124 scalefont setfont
 2179 368 moveto  (Aperture) show 
 655 527 moveto  (Unresolved) show 
 782 409 moveto  (source) show 
 [] 0 setdash
 1201 850 1205 805 1 rps
 1205 805
 1186 848 1215 851 1205 805 3 3 1 roll cnp
 0.00 setgray
gsave eofill grestore  0.0 setgray
 stroke 0.0 setgray 0.0 setgray
8 setlinewidth
 2397 946 2397 1260 1 rps
 2397 859 2397 545 1 rps

1 setlinewidth
 1201 988 1201 987 1201 985 1201 984 1200 982 1200 980 1200 979 1200 977 1200 975
 1200 974 1200 972 1200 970 1200 969 1200 967 1200 965 1199 964 1199 962
 1199 960 1199 959 1199 957 1199 955 1199 954 1199 952 1199 950 1199 949
 1199 947 1199 945 1199 944 1199 942 1199 940 1198 939 1198 937 1198 936
 1198 934 1198 932 1198 931 1198 929 1198 927 1198 926 1198 924 1198 922
 1198 921 1198 919 1198 917 1198 916 1198 914 1198 912 1198 911 1198 909
 1198 907 1198 906 1198 905 1198 903 1198 902 1198 900 1198 898 1198 897
 1198 895 1198 893 1198 892 1198 890 1198 888 1198 887 1198 885 1198 884
 1198 882 1198 880 1198 879 1198 877 1198 875 1198 874 1198 872 1199 870
 1199 869 1199 867 1199 865 1199 864 1199 862 1199 860 1199 859 1199 857
 1199 855 1199 854 1199 852 1199 850 1199 849 1199 847 1200 845 1200 844
 1200 842 1200 840 1200 839 1200 837 1200 835 1200 834 1200 832 1200 831
 1201 829 1201 827 1201 826 1201 824 100 rps
 1050 905 1050 911 1049 917 1048 923 1047 929 1045 934 1043 940 1041 945 1038 951
 1035 956 1032 961 1028 966 1024 970 1020 974 1016 978 1011 982 1006 985
 1001 988 995 991 990 993 984 995 979 997 973 998 967 999 961 1000
 955 1000 950 1000 944 999 938 998 932 997 927 995 921 993 916 991
 910 988 905 985 900 982 895 978 891 974 887 970 883 966 879 961
 876 956 873 951 870 945 868 940 866 934 864 929 863 923 862 917
 861 911 861 905 861 900 862 894 863 888 864 882 866 877 868 871
 870 866 873 860 876 855 879 850 883 845 887 841 891 837 895 833
 900 829 905 826 910 823 915 820 921 818 927 816 932 814 938 813
 944 812 950 811 955 811 961 811 967 812 973 813 979 814 984 816
 990 818 995 820 1001 823 1006 826 1011 829 1015 833 1020 837 1024 841
 1028 845 1032 850 1035 855 1038 860 1041 865 1043 871 1045 877 1047 882
 1048 888 1049 894 1050 900 99 rcs


/Symbol findfont 124 scalefont setfont
 1255 873 moveto  (q) show 

/Times-Roman axumfindfont 95 scalefont setfont
 1319 845 moveto  (min) show 

/Times-Roman axumfindfont 124 scalefont setfont
 3380 1151 moveto  (Airy disk) show 
 1201 955 1205 1000 1 rps
 1205 1000
 1215 953 1186 956 1205 1000 3 3 1 roll cnp
 0.00 setgray
gsave eofill grestore  0.0 setgray
 stroke 0.0 setgray 0.0 setgray 3412 1119 3335 914 1 rps
 grestore showpage
%Trailer
%EOF
