%!PS-Adobe-2.0 EPSF-1.2
%%BoundingBox: 0 0 468 360
%%%%DocumentFonts: /Helvetica
%%Title: Axum PostScript file
%%Creator: TriMetrix, Inc.
%%Pages: 1
%%EndComments
% Copyright 1988-1991 by TriMetrix, Inc. All rights reserved.
/downdict 4 dict def
/sdown
 {downdict begin
  /thestring exch def
  /lineskip exch def
  thestring
   {
    /charcode exch def
    /thechar ( ) dup 0 charcode put def
    0 lineskip neg rmoveto
    gsave
     thechar stringwidth pop 2 div neg 0 rmoveto
     thechar show
    grestore
   } forall
   end
  } def

/updict 4 dict def
/sup
 {updict begin
  /thestring exch def
  /lineskip exch def
  thestring 
   {
    /charcode exch def
    /thechar ( ) dup 0 charcode put def
    0 lineskip rmoveto
    gsave
     thechar stringwidth pop 2 div neg 0 rmoveto
     thechar show
    grestore
   } forall
   end
  } def

/leftdict 4 dict def
/sleft
 {leftdict begin
  /thestring exch def
  thestring
   {
    /charcode exch def
    /thechar ( ) dup 0 charcode put def
    gsave
     thechar stringwidth pop neg 0 rmoveto
     thechar show
    grestore
   } forall

   thechar stringwidth pop neg 0 rmoveto
   end
  } def

/path{newpath moveto{lineto}repeat} bind def 
/cnp{newpath moveto{lineto}repeat closepath} bind def
/clp{moveto{lineto}repeat closepath} bind def
/rps{ 3 1 roll path stroke} bind def
/rcs{ 3 1 roll clp stroke} bind def
/setF { currentscreen 4 -2 roll pop 3 1 roll setscreen} bind def
% required due to WinWord 2.0 bug:
/II { } def

/reencodedict 5 dict def
/reencode
{
   reencodedict begin
   /newencoding exch def
   /newfontname exch def
   /basefontname exch def

   /basefontdict basefontname findfont def
   /newfont basefontdict maxlength dict def

   basefontdict
   {
      exch dup dup /FID ne exch /Encoding ne and
      { exch newfont 3 1 roll put }
      { pop pop }
      ifelse
   }
   forall

   newfont /FontName newfontname put
   newfont /Encoding newencoding put
   newfontname newfont definefont pop
   end
}
def

/axumencoding
[
/.notdef        %   0
/.notdef        %   1
/.notdef        %   2
/.notdef        %   3
/.notdef        %   4
/.notdef        %   5
/.notdef        %   6
/.notdef        %   7
/.notdef        %   8
/.notdef        %   9
/.notdef        %  10
/.notdef        %  11
/.notdef        %  12
/.notdef        %  13
/.notdef        %  14
/.notdef        %  15
/.notdef        %  16
/.notdef        %  17
/.notdef        %  18
/.notdef        %  19
/.notdef        %  20
/.notdef        %  21
/.notdef        %  22
/.notdef        %  23
/.notdef        %  24
/.notdef        %  25
/.notdef        %  26
/.notdef        %  27
/.notdef        %  28
/.notdef        %  29
/.notdef        %  30
/.notdef        %  31
/space          %  32
/exclam         %  33
/quotedbl       %  34
/numbersign     %  35
/dollar         %  36
/percent        %  37
/ampersand      %  38
/quoteright     %  39
/parenleft      %  40
/parenright     %  41
/asterisk       %  42
/plus           %  43
/comma          %  44
/hyphen         %  45
/period         %  46
/slash          %  47
/zero           %  48
/one            %  49
/two            %  50
/three          %  51
/four           %  52
/five           %  53
/six            %  54
/seven          %  55
/eight          %  56
/nine           %  57
/colon          %  58
/semicolon      %  59
/less           %  60
/equal          %  61
/greater        %  62
/question       %  63
/at             %  64
/A              %  65
/B              %  66
/C              %  67
/D              %  68
/E              %  69
/F              %  70
/G              %  71
/H              %  72
/I              %  73
/J              %  74
/K              %  75
/L              %  76
/M              %  77
/N              %  78
/O              %  79
/P              %  80
/Q              %  81
/R              %  82
/S              %  83
/T              %  84
/U              %  85
/V              %  86
/W              %  87
/X              %  88
/Y              %  89
/Z              %  90
/bracketleft    %  91
/backslash      %  92
/bracketright   %  93
/asciicircum    %  94
/underscore     %  95
/quoteleft      %  96
/a              %  97
/b              %  98
/c              %  99
/d              % 100
/e              % 101
/f              % 102
/g              % 103
/h              % 104
/i              % 105
/j              % 106
/k              % 107
/l              % 108
/m              % 109
/n              % 110
/o              % 111
/p              % 112
/q              % 113
/r              % 114
/s              % 115
/t              % 116
/u              % 117
/v              % 118
/w              % 119
/x              % 120
/y              % 121
/z              % 122
/braceleft      % 123
/bar            % 124
/braceright     % 125
/asciitilde     % 126
/.notdef        % 127
/Ccedilla       % 128
/udieresis      % 129
/eacute         % 130
/acircumflex    % 131
/adieresis      % 132
/agrave         % 133
/aring          % 134
/ccedilla       % 135
/ecircumflex    % 136
/edieresis      % 137
/egrave         % 138
/idieresis      % 139
/icircumflex    % 140
/igrave         % 141
/Adieresis      % 142
/Aring          % 143
/Eacute         % 144
/ae             % 145
/AE             % 146
/ocircumflex    % 147
/odieresis      % 148
/ograve         % 149
/ucircumflex    % 150
/ugrave         % 151
/ydieresis      % 152
/Odieresis      % 153
/Udieresis      % 154
/cent           % 155
/sterling       % 156
/yen            % 157
/currency       % 158
/florin         % 159
/aacute         % 160
/iacute         % 161
/oacute         % 162
/uacute         % 163
/ntilde         % 164
/Ntilde         % 165
/ordfeminine    % 166
/ordmasculine   % 167
/questiondown   % 168
/quotedblleft   % 169
/quotedblright  % 170
/Aacute         % 171
/Acircumflex    % 172
/exclamdown     % 173
/Egrave         % 174
/Ecircumflex    % 175
/atilde         % 176
/otilde         % 177
/Edieresis      % 178
/Igrave         % 179
/oe             % 180
/OE             % 181
/Agrave         % 182
/Atilde         % 183
/Otilde         % 184
/section        % 185
/Iacute         % 186
/Icircumflex    % 187
/Idieresis      % 188
/Ograve         % 189
/Oacute         % 190
/Ocircumflex    % 191
/Ugrave         % 192
/Uacute         % 193
/Ucircumflex    % 194
/Ydieresis      % 195
/germandbls     % 196
/guillemotleft  % 197
/guillemotright % 198
/bullet         % 199
/.notdef        % 200
/.notdef        % 201
/.notdef        % 202
/.notdef        % 203
/.notdef        % 204
/.notdef        % 205
/.notdef        % 206
/.notdef        % 207
/.notdef        % 208
/.notdef        % 209
/.notdef        % 210
/.notdef        % 211
/.notdef        % 212
/.notdef        % 213
/.notdef        % 214
/.notdef        % 215
/.notdef        % 216
/.notdef        % 217
/.notdef        % 218
/.notdef        % 219
/.notdef        % 220
/.notdef        % 221
/.notdef        % 222
/.notdef        % 223
/.notdef        % 224
/.notdef        % 225
/.notdef        % 226
/.notdef        % 227
/.notdef        % 228
/.notdef        % 229
/.notdef        % 230
/.notdef        % 231
/.notdef        % 232
/.notdef        % 233
/.notdef        % 234
/.notdef        % 235
/.notdef        % 236
/.notdef        % 237
/.notdef        % 238
/.notdef        % 239
/.notdef        % 240
/.notdef        % 241
/.notdef        % 242
/.notdef        % 243
/.notdef        % 244
/.notdef        % 245
/.notdef        % 246
/.notdef        % 247
/.notdef        % 248
/.notdef        % 249
/.notdef        % 250
/.notdef        % 251
/.notdef        % 252
/.notdef        % 253
/.notdef        % 254
/.notdef        % 255
] 
def

/axumfindfont
{
   /axumfont axumencoding reencode
   /axumfont findfont
}
def


/MainFont /Helvetica axumfindfont 98 scalefont def
MainFont setfont
1 setlinejoin 0 setlinecap 0 setgray
 gsave 72 630 div dup scale
 [] 0 setdash

1 setlinewidth
 731 1438
 3582 1438 3583 1438 3584 1438 3585 1438
 3586 1438 3586 1437 3587 1437 3588 1437
 3588 1436 3589 1436 3590 1435 3591 1435
 3591 1434 3592 1433 3593 1432 3594 1431
 3594 1430 3595 1430 3595 1429 3596 1429
 3596 1428 3596 1427 3597 1426 3598 1425
 3598 1424 3599 1423 3599 1422 3600 1420
 3601 1419 3601 1417 3602 1416 3603 1414
 3603 1412 3604 1409 3605 1407 3605 1404
 3606 1401 3607 1397 3608 1394 3609 1389
 3609 1384 3610 1379 3611 1373 3611 1366
 3612 1358 3612 1349 3612 1340 3611 1329
 3610 1318 3608 1307 3606 1295 3602 1284
 3598 1275 3593 1267 3588 1262 3582 1260
 731 1260 731 1438 58 3 1 roll cnp
 0.87 setgray eofill 0.0 setgray 731 1260
 3582 1260 3576 1262 3571 1267 3566 1275
 3562 1284 3558 1295 3556 1307 3554 1318
 3553 1329 3553 1340 3552 1349 3552 1358
 3553 1366 3553 1373 3554 1379 3555 1384
 3556 1389 3556 1394 3557 1397 3558 1401
 3559 1404 3559 1407 3560 1409 3561 1412
 3562 1414 3562 1416 3563 1417 3564 1419
 3564 1420 3565 1422 3565 1423 3566 1424
 3566 1425 3567 1426 3568 1427 3568 1428
 3569 1429 3569 1430 3570 1430 3570 1431
 3571 1432 3572 1433 3573 1434 3573 1435
 3574 1435 3575 1436 3576 1436 3576 1437
 3577 1437 3578 1437 3578 1438 3579 1438
 3580 1438 3581 1438 3582 1438 731 1438
 731 1260 57 3 1 roll cnp
 1.00 setgray eofill 0.0 setgray 0.0 setgray 1184 1483 3582 1260 1 rps
 1184 1216 3582 1438 1 rps
 1184 1216 1175 1218 1167 1226 1159 1237 1153 1252 1148 1268 1145 1286 1142 1303 1140 1319
 1140 1335 1139 1349 1139 1362 1140 1374 1141 1384 1142 1393 1143 1402 1144 1409
 1145 1416 1146 1422 1148 1427 1149 1432 1150 1436 1151 1440 1152 1443 1153 1446
 1154 1449 1155 1451 1156 1454 1157 1456 1158 1458 1159 1459 1159 1461 1160 1462
 1161 1464 1162 1465 1162 1466 1163 1467 1164 1468 1164 1469 1165 1470 1165 1471
 1166 1472 1166 1472 1167 1473 1167 1474 1168 1474 1168 1475 1169 1475 1169 1476
 1170 1476 1170 1476 1170 1477 1171 1477 1171 1478 1172 1478 1172 1478 1172 1478
 1173 1479 1173 1479 1173 1479 1174 1480 1174 1480 1174 1480 1175 1480 1175 1480
 1175 1480 1176 1481 1176 1481 1176 1481 1176 1481 1177 1481 1177 1481 1177 1482
 1178 1482 1178 1482 1178 1482 1178 1482 1179 1482 1179 1482 1179 1482 1179 1482
 1180 1482 1180 1482 1180 1482 1180 1483 1181 1483 1181 1483 1181 1483 1181 1483
 1182 1483 1182 1483 1182 1483 1182 1483 1182 1483 1183 1483 1183 1483 1183 1483
 1183 1483 1184 1483 1184 1483 99 rps
 [20 20] 0 setdash
 3582 1438 3582 1438 1 rcs

 3582 1438 3583 1438 3583 1438 3583 1438 3583 1438 3583 1438 3583 1438 3583 1438 3584 1438
 3584 1438 3584 1438 3584 1438 3584 1438 3584 1438 3585 1438 3585 1438 3585 1438
 3585 1438 3585 1438 3585 1438 3586 1438 3586 1438 3586 1438 3586 1438 3586 1437
 3586 1437 3587 1437 3587 1437 3587 1437 3587 1437 3587 1437 3588 1437 3588 1437
 3588 1437 3588 1436 3588 1436 3589 1436 3589 1436 3589 1436 3589 1436 3589 1436
 3590 1435 3590 1435 3590 1435 3590 1435 3591 1435 3591 1434 3591 1434 3591 1434
 3592 1433 3592 1433 3592 1433 3593 1432 3593 1432 3593 1432 3594 1431 3594 1431
 3594 1430 3595 1430 3595 1429 3596 1429 3596 1428 3596 1427 3597 1426 3597 1426
 3598 1425 3598 1424 3599 1423 3599 1422 3600 1420 3601 1419 3601 1417 3602 1416
 3603 1414 3603 1412 3604 1409 3605 1407 3605 1404 3606 1401 3607 1397 3608 1394
 3609 1389 3609 1384 3610 1379 3611 1373 3611 1366 3612 1358 3612 1349 3612 1340
 3611 1329 3610 1318 3608 1307 3606 1295 3602 1284 3598 1275 3593 1267 3588 1262
 3582 1260 97 rps
 3582 1260 3576 1262 3571 1267 3566 1275 3562 1284 3558 1295 3556 1307 3554 1318 3553 1329
 3553 1340 3552 1349 3552 1358 3553 1366 3553 1373 3554 1379 3555 1384 3556 1389
 3556 1394 3557 1397 3558 1401 3559 1404 3559 1407 3560 1409 3561 1412 3562 1414
 3562 1416 3563 1417 3564 1419 3564 1420 3565 1422 3565 1423 3566 1424 3566 1425
 3567 1426 3567 1426 3568 1427 3568 1428 3569 1429 3569 1429 3569 1430 3570 1430
 3570 1431 3570 1431 3571 1432 3571 1432 3571 1432 3572 1433 3572 1433 3572 1433
 3573 1434 3573 1434 3573 1434 3573 1435 3574 1435 3574 1435 3574 1435 3574 1435
 3575 1436 3575 1436 3575 1436 3575 1436 3576 1436 3576 1436 3576 1436 3576 1437
 3576 1437 3577 1437 3577 1437 3577 1437 3577 1437 3577 1437 3578 1437 3578 1437
 3578 1437 3578 1438 3578 1438 3578 1438 3579 1438 3579 1438 3579 1438 3579 1438
 3579 1438 3579 1438 3580 1438 3580 1438 3580 1438 3580 1438 3580 1438 3580 1438
 3581 1438 3581 1438 3581 1438 3581 1438 3581 1438 3581 1438 3581 1438 3582 1438
 3582 1438 3582 1438 3582 1438 99 rps
 [] 0 setdash
 3582 1579 3582 1579 3583 1579 3583 1579 3584 1579 3584 1579 3584 1579 3585 1579 3585 1579
 3586 1579 3586 1579 3586 1579 3587 1579 3587 1579 3588 1579 3588 1579 3588 1579
 3589 1578 3589 1578 3590 1578 3590 1578 3591 1578 3591 1578 3591 1578 3592 1578
 3592 1577 3593 1577 3593 1577 3594 1577 3594 1576 3595 1576 3595 1576 3596 1576
 3596 1575 3597 1575 3597 1575 3598 1575 3598 1574 3599 1574 3599 1573 3600 1573
 3600 1573 3601 1572 3602 1572 3602 1571 3603 1571 3604 1570 3604 1570 3605 1569
 3606 1568 3606 1568 3607 1567 3608 1566 3609 1565 3609 1564 3610 1563 3611 1562
 3612 1561 3613 1560 3614 1559 3615 1557 3616 1556 3617 1554 3618 1552 3619 1551
 3620 1549 3622 1546 3623 1544 3624 1542 3626 1539 3627 1536 3628 1533 3630 1529
 3632 1525 3633 1521 3635 1516 3637 1511 3639 1505 3641 1498 3643 1491 3645 1483
 3647 1474 3649 1464 3651 1452 3653 1440 3655 1425 3656 1409 3657 1391 3658 1371
 3659 1349 3658 1325 3657 1298 3654 1269 3650 1240 3643 1210 3635 1182 3624 1157
 3611 1137 3597 1124 3582 1119 99 rps
 [20 20] 0 setdash
 3582 1119 3567 1124 3553 1137 3540 1157 3529 1182 3521 1210 3515 1240 3510 1269 3507 1298
 3506 1325 3505 1349 3506 1371 3507 1391 3508 1409 3510 1425 3512 1440 3514 1452
 3516 1464 3518 1474 3520 1483 3522 1491 3524 1498 3525 1505 3527 1511 3529 1516
 3531 1521 3533 1525 3534 1529 3536 1533 3537 1536 3539 1539 3540 1542 3541 1544
 3543 1546 3544 1549 3545 1551 3546 1552 3547 1554 3548 1556 3549 1557 3550 1559
 3551 1560 3552 1561 3553 1562 3554 1563 3555 1564 3555 1565 3556 1566 3557 1567
 3558 1568 3558 1568 3559 1569 3560 1570 3561 1570 3561 1571 3562 1571 3562 1572
 3563 1572 3564 1573 3564 1573 3565 1573 3565 1574 3566 1574 3566 1575 3567 1575
 3568 1575 3568 1575 3569 1576 3569 1576 3570 1576 3570 1576 3570 1577 3571 1577
 3571 1577 3572 1577 3572 1578 3573 1578 3573 1578 3574 1578 3574 1578 3574 1578
 3575 1578 3575 1578 3576 1579 3576 1579 3577 1579 3577 1579 3577 1579 3578 1579
 3578 1579 3579 1579 3579 1579 3579 1579 3580 1579 3580 1579 3581 1579 3581 1579
 3581 1579 3582 1579 3582 1579 99 rps

/Symbol findfont 124 scalefont setfont
 609 1305 moveto  (q) show 

/Times-Roman axumfindfont 124 scalefont setfont
 2425 814 moveto  (Aperture) show 
 523 723 moveto  (Resolved) show 
 582 605 moveto  (source) show 
 [] 0 setdash
 1442 1324 1451 1251 1 rps
 1451 1251
 1430 1293 1460 1297 1451 1251 3 3 1 roll cnp
 0.00 setgray
gsave eofill grestore  0.0 setgray
 stroke 0.0 setgray 0.0 setgray 3580 1578 846 905 1 rps
 3580 1119 846 1792 1 rps

8 setlinewidth
 2643 1392 2643 1706 1 rps
 2643 1305 2643 991 1 rps

1 setlinewidth
 1200 1346 1199 1375 1196 1403 1192 1431 1186 1459 1178 1486 1168 1513 1157 1539 1144 1565
 1129 1589 1113 1613 1096 1635 1077 1657 1057 1677 1035 1696 1013 1713 989 1729
 965 1744 939 1757 913 1768 886 1778 859 1786 831 1792 803 1796 775 1799
 746 1800 719 1799 690 1796 662 1792 634 1786 607 1778 580 1768 554 1757
 528 1744 504 1729 480 1713 458 1696 436 1677 416 1657 397 1636 380 1613
 364 1589 349 1565 336 1540 325 1513 315 1487 307 1459 301 1431 297 1403
 294 1375 293 1346 294 1319 297 1290 301 1262 307 1234 315 1207 325 1180
 336 1154 349 1129 364 1104 380 1080 397 1058 416 1036 436 1016 457 997
 480 980 503 964 528 949 553 936 580 925 606 915 634 907 662 901
 690 897 718 894 746 893 774 894 802 897 831 901 858 907 886 915
 913 925 939 936 964 949 989 963 1012 979 1035 997 1056 1016 1077 1036
 1096 1057 1113 1080 1129 1103 1144 1128 1157 1153 1168 1179 1178 1206 1186 1234
 1192 1261 1196 1290 1199 1318 99 rcs

 780 1740 778 1733 776 1725 775 1717 773 1709 772 1702 770 1694 769 1686 767 1678
 766 1670 765 1663 763 1655 762 1647 761 1639 760 1631 758 1623 757 1616
 756 1608 755 1600 754 1592 753 1584 752 1576 751 1568 750 1561 749 1553
 748 1545 748 1537 747 1529 746 1521 745 1513 745 1505 744 1498 743 1490
 743 1482 742 1474 742 1466 741 1458 741 1450 740 1442 740 1434 740 1426
 739 1418 739 1410 739 1403 739 1395 738 1387 738 1379 738 1371 738 1363
 738 1355 738 1347 738 1340 738 1332 738 1324 738 1316 738 1309 739 1301
 739 1293 739 1285 739 1277 740 1269 740 1261 740 1253 741 1245 741 1237
 742 1229 742 1221 743 1214 743 1206 744 1198 745 1190 745 1182 746 1174
 747 1166 747 1158 748 1150 749 1143 750 1135 751 1127 752 1119 753 1111
 754 1103 755 1095 756 1087 757 1080 758 1072 759 1064 760 1056 762 1048
 763 1040 764 1033 766 1025 767 1017 768 1009 770 1001 771 994 773 986
 774 978 776 970 777 963 779 955 100 rps
 1446 1429 1446 1428 1446 1426 1446 1425 1445 1423 1445 1421 1445 1420 1445 1418 1445 1416
 1445 1415 1445 1413 1445 1411 1445 1410 1445 1408 1445 1406 1444 1405 1444 1403
 1444 1401 1444 1400 1444 1398 1444 1396 1444 1395 1444 1393 1444 1391 1444 1390
 1444 1388 1444 1386 1444 1385 1444 1383 1444 1381 1443 1380 1443 1378 1443 1377
 1443 1375 1443 1373 1443 1372 1443 1370 1443 1368 1443 1367 1443 1365 1443 1363
 1443 1362 1443 1360 1443 1358 1443 1357 1443 1355 1443 1353 1443 1352 1443 1350
 1443 1348 1443 1347 1443 1346 1443 1344 1443 1343 1443 1341 1443 1339 1443 1338
 1443 1336 1443 1334 1443 1333 1443 1331 1443 1329 1443 1328 1443 1326 1443 1325
 1443 1323 1443 1321 1443 1320 1443 1318 1443 1316 1443 1315 1443 1313 1444 1311
 1444 1310 1444 1308 1444 1306 1444 1305 1444 1303 1444 1301 1444 1300 1444 1298
 1444 1296 1444 1295 1444 1293 1444 1291 1444 1290 1444 1288 1445 1286 1445 1285
 1445 1283 1445 1281 1445 1280 1445 1278 1445 1276 1445 1275 1445 1273 1445 1272
 1446 1270 1446 1268 1446 1267 1446 1265 100 rps

/Symbol findfont 124 scalefont setfont
 1506 1319 moveto  (q) show 

/Times-Roman axumfindfont 95 scalefont setfont
 1570 1291 moveto  (min) show 

/Symbol findfont 124 scalefont setfont
 3157 1783 moveto  (W) show 

/Times-Roman axumfindfont 95 scalefont setfont
 3252 1755 moveto  (min) show 
 773 991 782 923 1 rps
 782 923
 747 1009 792 1015 782 923 3 3 1 roll cnp
 0.00 setgray
gsave eofill grestore  0.0 setgray
 stroke 0.0 setgray 0.0 setgray 773 1706 809 1774 1 rps
 809 1774
 786 1683 747 1704 809 1774 3 3 1 roll cnp
 0.00 setgray
gsave eofill grestore  0.0 setgray
 stroke 0.0 setgray 0.0 setgray 1442 1374 1451 1446 1 rps
 1451 1446
 1460 1399 1430 1403 1451 1446 3 3 1 roll cnp
 0.00 setgray
gsave eofill grestore  0.0 setgray
 stroke 0.0 setgray 0.0 setgray 3271 1706 3366 1346 1 rps
 grestore showpage
%Trailer
%EOF
