%!PS-Adobe-2.0 EPSF-1.2
%%BoundingBox: 0 0 468 360
%%%%DocumentFonts: /Helvetica
%%Title: Axum PostScript file
%%Creator: TriMetrix, Inc.
%%Pages: 1
%%EndComments
% Copyright 1988-1991 by TriMetrix, Inc. All rights reserved.
/downdict 4 dict def
/sdown
 {downdict begin
  /thestring exch def
  /lineskip exch def
  thestring
   {
    /charcode exch def
    /thechar ( ) dup 0 charcode put def
    0 lineskip neg rmoveto
    gsave
     thechar stringwidth pop 2 div neg 0 rmoveto
     thechar show
    grestore
   } forall
   end
  } def

/updict 4 dict def
/sup
 {updict begin
  /thestring exch def
  /lineskip exch def
  thestring 
   {
    /charcode exch def
    /thechar ( ) dup 0 charcode put def
    0 lineskip rmoveto
    gsave
     thechar stringwidth pop 2 div neg 0 rmoveto
     thechar show
    grestore
   } forall
   end
  } def

/leftdict 4 dict def
/sleft
 {leftdict begin
  /thestring exch def
  thestring
   {
    /charcode exch def
    /thechar ( ) dup 0 charcode put def
    gsave
     thechar stringwidth pop neg 0 rmoveto
     thechar show
    grestore
   } forall

   thechar stringwidth pop neg 0 rmoveto
   end
  } def

/path{newpath moveto{lineto}repeat} bind def 
/cnp{newpath moveto{lineto}repeat closepath} bind def
/clp{moveto{lineto}repeat closepath} bind def
/rps{ 3 1 roll path stroke} bind def
/rcs{ 3 1 roll clp stroke} bind def
/setF { currentscreen 4 -2 roll pop 3 1 roll setscreen} bind def
% required due to WinWord 2.0 bug:
/II { } def

/reencodedict 5 dict def
/reencode
{
   reencodedict begin
   /newencoding exch def
   /newfontname exch def
   /basefontname exch def

   /basefontdict basefontname findfont def
   /newfont basefontdict maxlength dict def

   basefontdict
   {
      exch dup dup /FID ne exch /Encoding ne and
      { exch newfont 3 1 roll put }
      { pop pop }
      ifelse
   }
   forall

   newfont /FontName newfontname put
   newfont /Encoding newencoding put
   newfontname newfont definefont pop
   end
}
def

/axumencoding
[
/.notdef        %   0
/.notdef        %   1
/.notdef        %   2
/.notdef        %   3
/.notdef        %   4
/.notdef        %   5
/.notdef        %   6
/.notdef        %   7
/.notdef        %   8
/.notdef        %   9
/.notdef        %  10
/.notdef        %  11
/.notdef        %  12
/.notdef        %  13
/.notdef        %  14
/.notdef        %  15
/.notdef        %  16
/.notdef        %  17
/.notdef        %  18
/.notdef        %  19
/.notdef        %  20
/.notdef        %  21
/.notdef        %  22
/.notdef        %  23
/.notdef        %  24
/.notdef        %  25
/.notdef        %  26
/.notdef        %  27
/.notdef        %  28
/.notdef        %  29
/.notdef        %  30
/.notdef        %  31
/space          %  32
/exclam         %  33
/quotedbl       %  34
/numbersign     %  35
/dollar         %  36
/percent        %  37
/ampersand      %  38
/quoteright     %  39
/parenleft      %  40
/parenright     %  41
/asterisk       %  42
/plus           %  43
/comma          %  44
/hyphen         %  45
/period         %  46
/slash          %  47
/zero           %  48
/one            %  49
/two            %  50
/three          %  51
/four           %  52
/five           %  53
/six            %  54
/seven          %  55
/eight          %  56
/nine           %  57
/colon          %  58
/semicolon      %  59
/less           %  60
/equal          %  61
/greater        %  62
/question       %  63
/at             %  64
/A              %  65
/B              %  66
/C              %  67
/D              %  68
/E              %  69
/F              %  70
/G              %  71
/H              %  72
/I              %  73
/J              %  74
/K              %  75
/L              %  76
/M              %  77
/N              %  78
/O              %  79
/P              %  80
/Q              %  81
/R              %  82
/S              %  83
/T              %  84
/U              %  85
/V              %  86
/W              %  87
/X              %  88
/Y              %  89
/Z              %  90
/bracketleft    %  91
/backslash      %  92
/bracketright   %  93
/asciicircum    %  94
/underscore     %  95
/quoteleft      %  96
/a              %  97
/b              %  98
/c              %  99
/d              % 100
/e              % 101
/f              % 102
/g              % 103
/h              % 104
/i              % 105
/j              % 106
/k              % 107
/l              % 108
/m              % 109
/n              % 110
/o              % 111
/p              % 112
/q              % 113
/r              % 114
/s              % 115
/t              % 116
/u              % 117
/v              % 118
/w              % 119
/x              % 120
/y              % 121
/z              % 122
/braceleft      % 123
/bar            % 124
/braceright     % 125
/asciitilde     % 126
/.notdef        % 127
/Ccedilla       % 128
/udieresis      % 129
/eacute         % 130
/acircumflex    % 131
/adieresis      % 132
/agrave         % 133
/aring          % 134
/ccedilla       % 135
/ecircumflex    % 136
/edieresis      % 137
/egrave         % 138
/idieresis      % 139
/icircumflex    % 140
/igrave         % 141
/Adieresis      % 142
/Aring          % 143
/Eacute         % 144
/ae             % 145
/AE             % 146
/ocircumflex    % 147
/odieresis      % 148
/ograve         % 149
/ucircumflex    % 150
/ugrave         % 151
/ydieresis      % 152
/Odieresis      % 153
/Udieresis      % 154
/cent           % 155
/sterling       % 156
/yen            % 157
/currency       % 158
/florin         % 159
/aacute         % 160
/iacute         % 161
/oacute         % 162
/uacute         % 163
/ntilde         % 164
/Ntilde         % 165
/ordfeminine    % 166
/ordmasculine   % 167
/questiondown   % 168
/quotedblleft   % 169
/quotedblright  % 170
/Aacute         % 171
/Acircumflex    % 172
/exclamdown     % 173
/Egrave         % 174
/Ecircumflex    % 175
/atilde         % 176
/otilde         % 177
/Edieresis      % 178
/Igrave         % 179
/oe             % 180
/OE             % 181
/Agrave         % 182
/Atilde         % 183
/Otilde         % 184
/section        % 185
/Iacute         % 186
/Icircumflex    % 187
/Idieresis      % 188
/Ograve         % 189
/Oacute         % 190
/Ocircumflex    % 191
/Ugrave         % 192
/Uacute         % 193
/Ucircumflex    % 194
/Ydieresis      % 195
/germandbls     % 196
/guillemotleft  % 197
/guillemotright % 198
/bullet         % 199
/.notdef        % 200
/.notdef        % 201
/.notdef        % 202
/.notdef        % 203
/.notdef        % 204
/.notdef        % 205
/.notdef        % 206
/.notdef        % 207
/.notdef        % 208
/.notdef        % 209
/.notdef        % 210
/.notdef        % 211
/.notdef        % 212
/.notdef        % 213
/.notdef        % 214
/.notdef        % 215
/.notdef        % 216
/.notdef        % 217
/.notdef        % 218
/.notdef        % 219
/.notdef        % 220
/.notdef        % 221
/.notdef        % 222
/.notdef        % 223
/.notdef        % 224
/.notdef        % 225
/.notdef        % 226
/.notdef        % 227
/.notdef        % 228
/.notdef        % 229
/.notdef        % 230
/.notdef        % 231
/.notdef        % 232
/.notdef        % 233
/.notdef        % 234
/.notdef        % 235
/.notdef        % 236
/.notdef        % 237
/.notdef        % 238
/.notdef        % 239
/.notdef        % 240
/.notdef        % 241
/.notdef        % 242
/.notdef        % 243
/.notdef        % 244
/.notdef        % 245
/.notdef        % 246
/.notdef        % 247
/.notdef        % 248
/.notdef        % 249
/.notdef        % 250
/.notdef        % 251
/.notdef        % 252
/.notdef        % 253
/.notdef        % 254
/.notdef        % 255
] 
def

/axumfindfont
{
   /axumfont axumencoding reencode
   /axumfont findfont
}
def


/MainFont /Helvetica axumfindfont 98 scalefont def
MainFont setfont
1 setlinejoin 0 setlinecap 0 setgray
 gsave 72 630 div dup scale
 0.0 setgray [] 0 setdash

1 setlinewidth
 2886 1551 2886 1572 2885 1592 2884 1613 2883 1633 2881 1654 2879 1674 2876 1694 2872 1715
 2869 1735 2865 1755 2860 1775 2855 1795 2850 1815 2844 1834 2838 1854 2831 1873
 2824 1892 2817 1911 2809 1930 2801 1949 2792 1968 2783 1986 2774 2004 2764 2022
 2754 2040 2743 2058 2732 2075 2721 2092 2709 2109 2697 2125 2685 2142 2672 2158
 2659 2174 2646 2189 2632 2204 2618 2219 2603 2234 2589 2248 2574 2262 2559 2276
 2543 2289 2527 2302 2511 2315 2495 2328 2478 2340 2461 2351 2444 2362 2427 2373
 2409 2384 2392 2394 2374 2404 2355 2413 2337 2422 2318 2431 2300 2439 2281 2447
 2262 2454 2242 2461 2223 2468 2203 2474 2184 2480 2164 2485 2144 2490 2124 2495
 2104 2499 2084 2503 2064 2506 2043 2509 2023 2511 2003 2513 1982 2514 1962 2516
 1941 2516 1921 2516 1900 2516 1880 2515 1859 2514 1839 2513 1818 2511 1798 2508
 1778 2506 1758 2502 1737 2499 1717 2495 1697 2490 1678 2485 1658 2480 1638 2474
 1619 2468 1599 2461 1580 2454 1561 2446 1542 2439 1523 2430 1505 2422 1486 2413
 1468 2403 1450 2393 1432 2383 1415 2373 1397 2362 101 rps
 1397 2362 1380 2350 1364 2339 1347 2327 1331 2314 1315 2302 1299 2288 1283 2275 1268 2261
 1253 2247 1238 2233 1224 2218 1210 2203 1196 2188 1183 2173 1170 2157 1157 2141
 1145 2124 1133 2108 1121 2091 1110 2074 1099 2056 1089 2039 1079 2021 1069 2003
 1059 1985 1050 1966 1042 1948 1034 1929 1026 1910 1018 1891 1011 1872 1005 1852
 999 1833 993 1813 987 1793 982 1773 978 1753 974 1733 970 1713 967 1693
 964 1673 962 1652 960 1632 958 1611 957 1591 957 1570 957 1550 957 1530
 958 1509 959 1489 960 1468 962 1448 965 1427 968 1407 971 1387 974 1367
 979 1347 983 1327 988 1307 994 1287 999 1267 1006 1248 1012 1228 1019 1209
 1027 1190 1035 1171 1043 1153 1052 1134 1061 1116 1070 1097 1080 1079 1090 1062
 1101 1044 1112 1027 1123 1010 1135 993 1147 976 1159 960 1172 944 1185 928
 1198 913 1212 897 1226 883 1241 868 1255 854 1270 840 1285 826 1301 813
 1317 800 1333 787 1349 775 1366 763 1383 751 1400 740 1417 729 1435 718
 1453 708 1471 698 1489 689 1507 680 1526 671 101 rps
 1526 671 1545 663 1564 655 1583 648 1602 641 1621 634 1641 628 1661 623 1680 617
 1700 612 1720 608 1740 604 1761 600 1781 597 1801 594 1821 592 1842 590
 1862 588 1883 587 1903 587 1924 587 1944 587 1965 588 1985 589 2006 590
 2026 592 2046 595 2067 598 2087 601 2107 605 2127 609 2147 613 2167 618
 2187 624 2206 630 2226 636 2245 643 2264 650 2284 657 2302 665 2321 673
 2340 682 2358 691 2376 701 2394 710 2412 721 2430 731 2447 742 2464 754
 2481 765 2497 777 2514 790 2530 802 2545 816 2561 829 2576 843 2591 857
 2606 871 2620 886 2634 901 2648 916 2661 932 2674 947 2687 964 2699 980
 2711 997 2722 1013 2734 1031 2745 1048 2755 1066 2765 1083 2775 1101 2784 1120
 2793 1138 2802 1157 2810 1175 2818 1194 2825 1213 2832 1233 2839 1252 2845 1272
 2851 1291 2856 1311 2861 1331 2865 1351 2869 1371 2873 1391 2876 1412 2879 1432
 2881 1452 2883 1473 2885 1493 2886 1514 2886 1534 2886 1555 2886 1575 2885 1595
 2884 1616 97 rps
 2790 1652 2776 1659 2762 1666 2746 1672 2731 1679 2714 1685 2696 1691 2678 1698 2659 1704
 2639 1709 2619 1715 2598 1720 2576 1726 2554 1731 2531 1736 2508 1740 2484 1745
 2460 1749 2434 1754 2408 1758 2383 1762 2357 1766 2330 1769 2302 1772 2275 1775
 2247 1778 2219 1780 2190 1782 2162 1784 2133 1786 2104 1788 2076 1789 2045 1790
 2016 1791 1986 1792 1957 1792 1927 1792 1898 1792 1869 1792 1839 1791 1810 1790
 1780 1789 1751 1788 1722 1787 1693 1785 1664 1783 1636 1781 1608 1778 1580 1776
 1552 1773 1525 1770 1498 1766 1472 1763 1446 1759 1419 1755 1394 1751 1370 1746
 1346 1741 1322 1737 1300 1732 1277 1727 1255 1722 1234 1716 1213 1710 1194 1705
 1175 1699 1156 1693 1139 1687 1121 1680 1105 1674 1090 1667 1076 1660 1062 1654
 1049 1647 1037 1640 1025 1632 1015 1625 1006 1617 997 1610 989 1602 982 1594
 977 1587 972 1579 968 1571 965 1564 963 1556 961 1548 962 1542 962 1534
 964 1526 966 1518 970 1510 974 1503 980 1495 987 1486 994 1479 1002 1471
 1011 1464 1021 1456 1032 1449 1045 1442 1058 1435 101 rps
 1058 1435 1071 1428 1086 1421 1101 1414 1117 1408 1134 1401 1152 1395 1171 1388 1191 1382
 1211 1376 1232 1371 1253 1365 1276 1359 1299 1353 1323 1348 1347 1344 1372 1339
 1397 1335 1424 1330 1450 1326 1477 1323 1504 1319 1532 1316 1561 1312 1589 1310
 1618 1307 1647 1305 1677 1302 1708 1301 1737 1299 1767 1298 1798 1296 1829 1295
 1860 1295 1891 1294 1921 1294 1951 1294 1982 1295 2013 1295 2043 1296 2075 1297
 2105 1298 2135 1300 2164 1302 2195 1304 2224 1306 2253 1309 2282 1312 2310 1315
 2339 1318 2366 1322 2393 1325 2419 1329 2445 1334 2472 1338 2496 1343 2520 1347
 2544 1352 2567 1358 2590 1364 2612 1369 2633 1375 2653 1381 2673 1387 2691 1393
 2711 1400 2727 1406 2744 1413 2759 1420 2774 1426 2788 1433 2801 1440 2813 1448
 2824 1455 2835 1462 2845 1470 2853 1477 2861 1485 2867 1493 2873 1501 2877 1509
 2881 1516 2884 1524 2886 1532 2887 1540 2887 1548 2886 1554 2885 1562 2882 1570
 2878 1578 2873 1585 2868 1593 2861 1600 2853 1608 2845 1615 2835 1624 2825 1631
 2814 1638 2802 1645 2790 1652 99 rps
 [80 20] 0 setdash
 2225 885 2244 906 2263 927 2282 949 2300 971 2318 995 2337 1019 2354 1042 2370 1067
 2387 1092 2402 1119 2418 1144 2433 1171 2448 1197 2462 1224 2475 1253 2488 1281
 2500 1309 2512 1337 2523 1366 2534 1395 2543 1423 2553 1452 2562 1481 2569 1511
 2576 1540 2584 1568 2590 1597 2596 1627 2600 1656 2604 1685 2608 1713 2610 1741
 2612 1770 2614 1799 2614 1826 2614 1854 2613 1882 2612 1909 2609 1935 2607 1961
 2604 1986 2599 2013 2595 2037 2589 2061 2583 2085 2575 2108 2568 2130 2560 2153
 2551 2175 2542 2195 2532 2215 2521 2234 2510 2252 2499 2272 2486 2289 2474 2305
 2461 2320 2446 2336 2431 2350 2417 2363 2401 2375 2386 2387 2370 2398 2353 2409
 2336 2418 2318 2426 2300 2433 2282 2440 2264 2445 2245 2450 2226 2454 2207 2457
 2186 2459 2166 2460 2147 2461 2127 2460 2106 2459 2086 2456 2064 2453 2043 2449
 2022 2444 2001 2437 1981 2431 1960 2424 1938 2415 1917 2405 1896 2394 1875 2383
 1854 2372 1833 2359 1813 2346 1791 2332 1770 2317 1750 2301 1730 2285 1710 2268
 1690 2249 1670 2231 1651 2212 1632 2193 1613 2172 101 rps
 1613 2172 1595 2151 1577 2129 1559 2107 1541 2084 1524 2061 1507 2038 1491 2014 1476 1989
 1460 1964 1445 1939 1431 1913 1416 1887 1403 1860 1390 1833 1378 1806 1366 1779
 1354 1752 1344 1723 1333 1696 1324 1668 1315 1640 1306 1611 1298 1583 1290 1555
 1284 1527 1277 1500 1272 1470 1267 1442 1263 1414 1260 1387 1257 1358 1254 1330
 1253 1303 1252 1276 1252 1249 1252 1222 1253 1195 1255 1169 1257 1144 1260 1118
 1264 1092 1268 1068 1273 1044 1279 1021 1285 998 1292 974 1300 952 1308 930
 1316 910 1325 890 1336 870 1346 852 1357 832 1368 814 1381 797 1393 782
 1406 766 1421 751 1435 737 1450 724 1464 711 1480 700 1497 689 1513 678
 1530 670 1547 662 1566 654 1584 648 1603 642 1621 637 1640 634 1660 631
 1681 629 1700 627 1720 627 1741 628 1761 629 1782 632 1803 635 1825 639
 1846 645 1867 651 1889 658 1911 666 1931 675 1953 684 1975 695 1996 706
 2018 719 2039 732 2060 746 2082 761 2103 776 2123 793 2143 809 2164 827
 2184 845 2205 865 2225 885 99 rps
 [40 20] 0 setdash
 2790 1652 2777 1670 2764 1687 2750 1705 2736 1722 2720 1739 2702 1757 2686 1774 2668 1790
 2649 1806 2630 1822 2610 1838 2590 1853 2568 1868 2546 1884 2524 1899 2501 1913
 2477 1926 2453 1940 2428 1953 2403 1966 2378 1977 2352 1989 2326 2001 2298 2012
 2272 2023 2244 2032 2216 2042 2188 2051 2160 2060 2131 2068 2103 2075 2074 2082
 2044 2089 2015 2094 1986 2100 1957 2105 1927 2110 1899 2113 1870 2117 1841 2119
 1812 2121 1782 2123 1753 2125 1724 2125 1696 2125 1667 2124 1639 2123 1611 2121
 1584 2119 1557 2116 1529 2113 1503 2109 1477 2104 1451 2099 1426 2094 1400 2088
 1376 2082 1353 2074 1330 2066 1307 2058 1284 2050 1262 2040 1241 2031 1221 2021
 1202 2010 1183 1998 1166 1987 1147 1975 1130 1962 1114 1950 1100 1937 1085 1923
 1072 1909 1059 1894 1047 1880 1036 1864 1025 1849 1016 1833 1008 1817 1000 1801
 994 1784 988 1768 983 1751 979 1732 976 1715 974 1698 974 1680 973 1662
 974 1644 976 1626 979 1607 982 1589 986 1570 992 1552 998 1534 1006 1516
 1014 1498 1023 1478 1034 1460 1045 1442 1057 1423 101 rps
 1057 1423 1069 1405 1083 1387 1097 1370 1112 1352 1129 1334 1145 1316 1164 1299 1183 1283
 1201 1266 1221 1250 1242 1233 1263 1217 1285 1202 1308 1187 1331 1172 1356 1158
 1380 1144 1405 1130 1431 1117 1457 1104 1484 1091 1511 1079 1537 1068 1566 1057
 1594 1047 1623 1037 1651 1028 1681 1019 1711 1010 1740 1002 1770 995 1799 989
 1830 983 1860 977 1890 971 1920 966 1950 963 1980 959 2011 956 2041 954
 2071 953 2101 952 2130 952 2159 952 2188 953 2218 954 2246 956 2275 959
 2303 962 2330 966 2357 970 2384 975 2410 982 2435 987 2461 994 2485 1001
 2509 1009 2532 1017 2555 1026 2577 1035 2600 1045 2620 1055 2640 1066 2659 1077
 2678 1089 2695 1101 2713 1114 2729 1127 2745 1140 2759 1154 2773 1168 2785 1182
 2797 1198 2809 1212 2819 1228 2828 1244 2836 1260 2845 1277 2852 1293 2857 1310
 2862 1327 2865 1344 2869 1362 2871 1380 2872 1398 2872 1416 2871 1434 2869 1452
 2866 1470 2863 1488 2859 1507 2853 1525 2846 1544 2840 1561 2830 1579 2821 1597
 2812 1615 2801 1634 2790 1652 99 rps
 [] 0 setdash
 2788 1641
 2792 1641 2796 1643 2799 1646 2801 1650
 2801 1654 2799 1658 2796 1661 2792 1663
 2788 1663 2784 1661 2781 1658 2779 1654
 2779 1650 2781 1646 2784 1643 2788 1641
 16 3 1 roll cnp
 0.00 setgray
gsave eofill grestore  0.0 setgray
 stroke 0.0 setgray 1922 2471
 1926 2471 1930 2473 1933 2476 1935 2480
 1935 2484 1933 2488 1930 2491 1926 2493
 1922 2493 1918 2491 1915 2488 1913 2484
 1913 2480 1915 2476 1918 2473 1922 2471
 16 3 1 roll cnp
 0.00 setgray
gsave eofill grestore  0.0 setgray
 stroke 0.0 setgray 1922 612
 1926 612 1930 614 1933 617 1935 621
 1935 625 1933 629 1930 632 1926 634
 1922 634 1918 632 1915 629 1913 625
 1913 621 1915 617 1918 614 1922 612
 16 3 1 roll cnp
 0.00 setgray
gsave eofill grestore  0.0 setgray
 stroke 0.0 setgray 2223 874
 2227 874 2231 876 2234 879 2236 883
 2236 887 2234 891 2231 894 2227 896
 2223 896 2219 894 2216 891 2214 887
 2214 883 2216 879 2219 876 2223 874
 16 3 1 roll cnp
 0.00 setgray
gsave eofill grestore  0.0 setgray
 stroke 0.0 setgray 2514 1335
 2518 1335 2522 1337 2525 1340 2527 1344
 2527 1348 2525 1352 2522 1355 2518 1357
 2514 1357 2510 1355 2507 1352 2505 1348
 2505 1344 2507 1340 2510 1337 2514 1335
 16 3 1 roll cnp
 0.00 setgray
gsave eofill grestore  0.0 setgray
 stroke 0.0 setgray 1233 1834
 1237 1834 1241 1836 1244 1839 1246 1843
 1246 1847 1244 1851 1241 1854 1237 1856
 1233 1856 1229 1854 1226 1851 1224 1847
 1224 1843 1226 1839 1229 1836 1233 1834
 16 3 1 roll cnp
 0.00 setgray
gsave eofill grestore  0.0 setgray
 stroke 0.0 setgray 2594 1247
 2598 1247 2602 1249 2605 1252 2607 1256
 2607 1260 2605 1264 2602 1267 2598 1269
 2594 1269 2590 1267 2587 1264 2585 1260
 2585 1256 2587 1252 2590 1249 2594 1247
 16 3 1 roll cnp
 0.00 setgray
gsave eofill grestore  0.0 setgray
 stroke 0.0 setgray 2086 2309
 2090 2309 2094 2311 2097 2314 2099 2318
 2099 2322 2097 2326 2094 2329 2090 2331
 2086 2331 2082 2329 2079 2326 2077 2322
 2077 2318 2079 2314 2082 2311 2086 2309
 16 3 1 roll cnp
 0.00 setgray
gsave eofill grestore  0.0 setgray
 stroke 0.0 setgray 1763 782
 1767 782 1771 784 1774 787 1776 791
 1776 795 1774 799 1771 802 1767 804
 1763 804 1759 802 1756 799 1754 795
 1754 791 1756 787 1759 784 1763 782
 16 3 1 roll cnp
 0.00 setgray
gsave eofill grestore  0.0 setgray
 stroke 0.0 setgray 1922 1537
 1926 1537 1930 1539 1933 1542 1935 1546
 1935 1550 1933 1554 1930 1557 1926 1559
 1922 1559 1918 1557 1915 1554 1913 1550
 1913 1546 1915 1542 1918 1539 1922 1537
 16 3 1 roll cnp
 0.00 setgray
gsave eofill grestore  0.0 setgray
 stroke 0.0 setgray 0.0 setgray 1924 2482 1924 1548 1 rps
 [20 20] 0 setdash
 1924 1548 1924 623 1 rps
 [] 0 setdash
 1235 1845 1924 1548 1 rps
 [20 20] 0 setdash
 1924 1548 2596 1258 1 rps
 [] 0 setdash
 2088 2320 1924 1548 1 rps
 [20 20] 0 setdash
 1765 793 1924 1548 1 rps

/Times-Roman axumfindfont 111 scalefont setfont
 2610 1393 moveto  20 rotate (62.6) show  -20 rotate

/Times-Roman axumfindfont 82 scalefont setfont
 2774 1516 moveto  20 rotate (o) show  -20 rotate

/Times-Roman axumfindfont 124 scalefont setfont
 2054 2581 moveto  (NCP) show 
 2417 2475 moveto  (NEP) show 
 610 1824 moveto  (NGP) show 
 3009 1700 moveto  (Vernal  equinox) show 
 3004 1090 moveto  (Galactic) show 
 3004 975 moveto  (ascending node) show 
 2601 596 moveto  (Galactic center) show 
 1977 1531 moveto  (Observer) show 
 2917 2108 moveto  (Galactic equator) show 
 3027 1319 moveto  (Celestial equator) show 
 513 2150 moveto  (Ecliptic) show 
 [] 0 setdash
 1945 2502 2032 2603 1 rps
 2119 2333 2394 2511 1 rps
 1202 1842 880 1869 1 rps
 2247 866 2577 655 1 rps
 2541 1324 2990 1136 1 rps
 2806 1659 2995 1732 1 rps
 2605 2099 2898 2145 1 rps
 2766 1407 3013 1366 1 rps
 1270 2058 927 2173 1 rps
 2601 1366 2601 1367 2601 1368 2601 1369 2601 1370 2601 1371 2601 1372 2601 1372 2601 1373
 2600 1374 2600 1375 2600 1376 2600 1377 2600 1378 2600 1379 2599 1380 2599 1381
 2599 1382 2599 1382 2598 1383 2598 1384 2598 1385 2598 1386 2597 1387 2597 1388
 2597 1389 2596 1389 2596 1390 2595 1391 2595 1392 2595 1393 2594 1394 2594 1394
 2593 1395 2593 1396 2592 1397 2592 1398 2591 1398 2591 1399 2590 1400 2590 1401
 2589 1401 2589 1402 2588 1403 2587 1404 2587 1404 2586 1405 2586 1406 2585 1406
 2584 1407 2584 1408 2583 1408 2582 1409 2582 1410 2580 1410 2579 1411 2579 1411
 2578 1412 2577 1413 2576 1413 2576 1414 2575 1414 2574 1415 2573 1415 2573 1416
 2572 1416 2571 1417 2570 1417 2569 1418 2569 1418 2568 1419 2567 1419 2566 1419
 2565 1420 2564 1420 2564 1421 2563 1421 2562 1421 2561 1422 2560 1422 2559 1422
 2558 1422 2557 1423 2557 1423 2556 1423 2555 1423 2554 1424 2553 1424 2552 1424
 2551 1424 2550 1424 2549 1424 2548 1425 2547 1425 2547 1425 2546 1425 2545 1425
 2544 1425 2543 1425 2542 1425 2541 1425 100 rps
 grestore showpage
%Trailer
%EOF
