%!PS-Adobe-2.0 EPSF-1.2
%%BoundingBox: 0 0 468 360
%%%%DocumentFonts: /Helvetica
%%Title: Axum PostScript file
%%Creator: TriMetrix, Inc.
%%Pages: 1
%%EndComments
% Copyright 1988-1991 by TriMetrix, Inc. All rights reserved.
/downdict 4 dict def
/sdown
 {downdict begin
  /thestring exch def
  /lineskip exch def
  thestring
   {
    /charcode exch def
    /thechar ( ) dup 0 charcode put def
    0 lineskip neg rmoveto
    gsave
     thechar stringwidth pop 2 div neg 0 rmoveto
     thechar show
    grestore
   } forall
   end
  } def

/updict 4 dict def
/sup
 {updict begin
  /thestring exch def
  /lineskip exch def
  thestring 
   {
    /charcode exch def
    /thechar ( ) dup 0 charcode put def
    0 lineskip rmoveto
    gsave
     thechar stringwidth pop 2 div neg 0 rmoveto
     thechar show
    grestore
   } forall
   end
  } def

/leftdict 4 dict def
/sleft
 {leftdict begin
  /thestring exch def
  thestring
   {
    /charcode exch def
    /thechar ( ) dup 0 charcode put def
    gsave
     thechar stringwidth pop neg 0 rmoveto
     thechar show
    grestore
   } forall

   thechar stringwidth pop neg 0 rmoveto
   end
  } def

/path{newpath moveto{lineto}repeat} bind def 
/cnp{newpath moveto{lineto}repeat closepath} bind def
/clp{moveto{lineto}repeat closepath} bind def
/rps{ 3 1 roll path stroke} bind def
/rcs{ 3 1 roll clp stroke} bind def
/setF { currentscreen 4 -2 roll pop 3 1 roll setscreen} bind def
% required due to WinWord 2.0 bug:
/II { } def

/reencodedict 5 dict def
/reencode
{
   reencodedict begin
   /newencoding exch def
   /newfontname exch def
   /basefontname exch def

   /basefontdict basefontname findfont def
   /newfont basefontdict maxlength dict def

   basefontdict
   {
      exch dup dup /FID ne exch /Encoding ne and
      { exch newfont 3 1 roll put }
      { pop pop }
      ifelse
   }
   forall

   newfont /FontName newfontname put
   newfont /Encoding newencoding put
   newfontname newfont definefont pop
   end
}
def

/axumencoding
[
/.notdef        %   0
/.notdef        %   1
/.notdef        %   2
/.notdef        %   3
/.notdef        %   4
/.notdef        %   5
/.notdef        %   6
/.notdef        %   7
/.notdef        %   8
/.notdef        %   9
/.notdef        %  10
/.notdef        %  11
/.notdef        %  12
/.notdef        %  13
/.notdef        %  14
/.notdef        %  15
/.notdef        %  16
/.notdef        %  17
/.notdef        %  18
/.notdef        %  19
/.notdef        %  20
/.notdef        %  21
/.notdef        %  22
/.notdef        %  23
/.notdef        %  24
/.notdef        %  25
/.notdef        %  26
/.notdef        %  27
/.notdef        %  28
/.notdef        %  29
/.notdef        %  30
/.notdef        %  31
/space          %  32
/exclam         %  33
/quotedbl       %  34
/numbersign     %  35
/dollar         %  36
/percent        %  37
/ampersand      %  38
/quoteright     %  39
/parenleft      %  40
/parenright     %  41
/asterisk       %  42
/plus           %  43
/comma          %  44
/hyphen         %  45
/period         %  46
/slash          %  47
/zero           %  48
/one            %  49
/two            %  50
/three          %  51
/four           %  52
/five           %  53
/six            %  54
/seven          %  55
/eight          %  56
/nine           %  57
/colon          %  58
/semicolon      %  59
/less           %  60
/equal          %  61
/greater        %  62
/question       %  63
/at             %  64
/A              %  65
/B              %  66
/C              %  67
/D              %  68
/E              %  69
/F              %  70
/G              %  71
/H              %  72
/I              %  73
/J              %  74
/K              %  75
/L              %  76
/M              %  77
/N              %  78
/O              %  79
/P              %  80
/Q              %  81
/R              %  82
/S              %  83
/T              %  84
/U              %  85
/V              %  86
/W              %  87
/X              %  88
/Y              %  89
/Z              %  90
/bracketleft    %  91
/backslash      %  92
/bracketright   %  93
/asciicircum    %  94
/underscore     %  95
/quoteleft      %  96
/a              %  97
/b              %  98
/c              %  99
/d              % 100
/e              % 101
/f              % 102
/g              % 103
/h              % 104
/i              % 105
/j              % 106
/k              % 107
/l              % 108
/m              % 109
/n              % 110
/o              % 111
/p              % 112
/q              % 113
/r              % 114
/s              % 115
/t              % 116
/u              % 117
/v              % 118
/w              % 119
/x              % 120
/y              % 121
/z              % 122
/braceleft      % 123
/bar            % 124
/braceright     % 125
/asciitilde     % 126
/.notdef        % 127
/Ccedilla       % 128
/udieresis      % 129
/eacute         % 130
/acircumflex    % 131
/adieresis      % 132
/agrave         % 133
/aring          % 134
/ccedilla       % 135
/ecircumflex    % 136
/edieresis      % 137
/egrave         % 138
/idieresis      % 139
/icircumflex    % 140
/igrave         % 141
/Adieresis      % 142
/Aring          % 143
/Eacute         % 144
/ae             % 145
/AE             % 146
/ocircumflex    % 147
/odieresis      % 148
/ograve         % 149
/ucircumflex    % 150
/ugrave         % 151
/ydieresis      % 152
/Odieresis      % 153
/Udieresis      % 154
/cent           % 155
/sterling       % 156
/yen            % 157
/currency       % 158
/florin         % 159
/aacute         % 160
/iacute         % 161
/oacute         % 162
/uacute         % 163
/ntilde         % 164
/Ntilde         % 165
/ordfeminine    % 166
/ordmasculine   % 167
/questiondown   % 168
/quotedblleft   % 169
/quotedblright  % 170
/Aacute         % 171
/Acircumflex    % 172
/exclamdown     % 173
/Egrave         % 174
/Ecircumflex    % 175
/atilde         % 176
/otilde         % 177
/Edieresis      % 178
/Igrave         % 179
/oe             % 180
/OE             % 181
/Agrave         % 182
/Atilde         % 183
/Otilde         % 184
/section        % 185
/Iacute         % 186
/Icircumflex    % 187
/Idieresis      % 188
/Ograve         % 189
/Oacute         % 190
/Ocircumflex    % 191
/Ugrave         % 192
/Uacute         % 193
/Ucircumflex    % 194
/Ydieresis      % 195
/germandbls     % 196
/guillemotleft  % 197
/guillemotright % 198
/bullet         % 199
/.notdef        % 200
/.notdef        % 201
/.notdef        % 202
/.notdef        % 203
/.notdef        % 204
/.notdef        % 205
/.notdef        % 206
/.notdef        % 207
/.notdef        % 208
/.notdef        % 209
/.notdef        % 210
/.notdef        % 211
/.notdef        % 212
/.notdef        % 213
/.notdef        % 214
/.notdef        % 215
/.notdef        % 216
/.notdef        % 217
/.notdef        % 218
/.notdef        % 219
/.notdef        % 220
/.notdef        % 221
/.notdef        % 222
/.notdef        % 223
/.notdef        % 224
/.notdef        % 225
/.notdef        % 226
/.notdef        % 227
/.notdef        % 228
/.notdef        % 229
/.notdef        % 230
/.notdef        % 231
/.notdef        % 232
/.notdef        % 233
/.notdef        % 234
/.notdef        % 235
/.notdef        % 236
/.notdef        % 237
/.notdef        % 238
/.notdef        % 239
/.notdef        % 240
/.notdef        % 241
/.notdef        % 242
/.notdef        % 243
/.notdef        % 244
/.notdef        % 245
/.notdef        % 246
/.notdef        % 247
/.notdef        % 248
/.notdef        % 249
/.notdef        % 250
/.notdef        % 251
/.notdef        % 252
/.notdef        % 253
/.notdef        % 254
/.notdef        % 255
] 
def

/axumfindfont
{
   /axumfont axumencoding reencode
   /axumfont findfont
}
def


/MainFont /Helvetica axumfindfont 98 scalefont def
MainFont setfont
1 setlinejoin 0 setlinecap 0 setgray
 gsave 72 630 div dup scale
 [] 0 setdash

1 setlinewidth
 3486 1557
 3485 1571 3483 1585 3479 1599 3474 1612
 3467 1626 3458 1640 3448 1653 3437 1666
 3424 1680 3409 1693 3393 1706 3376 1719
 3357 1731 3336 1744 3314 1756 3291 1769
 3267 1780 3241 1792 3214 1805 3186 1816
 3156 1827 3126 1838 3094 1848 3059 1858
 3025 1868 2990 1878 2954 1887 2916 1896
 2878 1904 2838 1912 2797 1920 2756 1928
 2714 1935 2672 1942 2628 1948 2584 1954
 2538 1960 2493 1965 2447 1970 2401 1974
 2354 1978 2305 1982 2258 1985 2210 1987
 2161 1990 2113 1991 2064 1993 2014 1994
 1965 1994 1916 1994 1867 1994 1818 1993
 1769 1992 1720 1991 1671 1989 1623 1986
 1575 1983 1527 1980 1480 1976 1433 1972
 1387 1967 1341 1962 1296 1957 1251 1951
 1207 1945 1164 1938 1122 1931 1080 1924
 1039 1916 999 1908 960 1900 922 1891
 885 1882 849 1873 815 1863 781 1853
 747 1843 716 1832 686 1821 657 1810
 629 1799 603 1786 578 1775 554 1762
 532 1750 510 1738 490 1725 472 1712
 455 1699 440 1686 427 1673 414 1660
 404 1646 394 1633 387 1619 380 1606
 376 1592 373 1578 371 1564 371 1551
 373 1536 376 1522 380 1508 387 1495
 394 1481 404 1468 414 1454 427 1441
 440 1428 455 1415 472 1402 490 1389
 510 1376 532 1364 554 1352 578 1339
 603 1328 629 1316 657 1305 686 1294
 716 1282 747 1271 781 1261 815 1251
 849 1241 885 1232 922 1223 960 1214
 999 1206 1040 1198 1080 1190 1122 1183
 1164 1176 1207 1169 1251 1163 1296 1157
 1341 1152 1387 1147 1433 1142 1480 1138
 1527 1134 1575 1131 1623 1128 1672 1125
 1720 1123 1769 1122 1818 1121 1867 1120
 1916 1120 1965 1120 2014 1120 2064 1121
 2113 1123 2161 1124 2210 1127 2258 1129
 2305 1132 2354 1136 2401 1140 2447 1144
 2493 1149 2538 1154 2584 1160 2628 1166
 2672 1172 2714 1179 2756 1186 2797 1194
 2839 1202 2878 1210 2916 1218 2954 1227
 2990 1236 3025 1246 3059 1256 3094 1266
 3126 1276 3156 1288 3186 1299 3214 1310
 3241 1322 3267 1334 3291 1345 3314 1358
 3336 1370 3357 1383 3376 1395 3393 1408
 3409 1421 3424 1434 3437 1448 3448 1461
 3458 1474 3467 1488 3474 1502 3479 1515
 3483 1529 3485 1544 3486 1558 3486 1557
 200 3 1 roll cnp
 0.93 setgray eofill 0.0 setgray
 newpath
 371 1401 moveto 371 1401 lineto
 371 1394 lineto 372 1388 lineto
 373 1381 lineto 374 1374 lineto
 376 1367 lineto 378 1360 lineto
 380 1353 lineto 383 1346 lineto
 387 1340 lineto 390 1333 lineto
 394 1326 lineto 399 1319 lineto
 404 1312 lineto 409 1306 lineto
 414 1299 lineto 420 1292 lineto
 427 1286 lineto 433 1278 lineto
 440 1272 lineto 448 1265 lineto
 455 1258 lineto 464 1252 lineto
 472 1245 lineto 481 1239 lineto
 490 1233 lineto 500 1226 lineto
 510 1220 lineto 521 1214 lineto
 532 1208 lineto 543 1201 lineto
 554 1195 lineto 566 1189 lineto
 578 1183 lineto 590 1177 lineto
 603 1172 lineto 616 1166 lineto
 629 1160 lineto 643 1154 lineto
 657 1149 lineto 671 1143 lineto
 686 1137 lineto 701 1132 lineto
 716 1127 lineto 731 1121 lineto
 747 1116 lineto 763 1111 lineto
 781 1106 lineto 798 1101 lineto
 815 1096 lineto 832 1091 lineto
 849 1086 lineto 867 1081 lineto
 885 1077 lineto 903 1072 lineto
 922 1068 lineto 941 1063 lineto
 960 1059 lineto 979 1055 lineto
 999 1050 lineto 1019 1046 lineto
 1040 1042 lineto 1060 1039 lineto
 1080 1035 lineto 1101 1031 lineto
 1122 1026 lineto 1143 1023 lineto
 1164 1019 lineto 1185 1016 lineto
 1207 1013 lineto 1229 1010 lineto
 1251 1007 lineto 1273 1004 lineto
 1296 1001 lineto 1319 998 lineto
 1341 996 lineto 1364 993 lineto
 1387 991 lineto 1410 988 lineto
 1433 986 lineto 1456 984 lineto
 1480 982 lineto 1503 980 lineto
 1527 978 lineto 1552 976 lineto
 1575 975 lineto 1599 973 lineto
 1623 972 lineto 1647 971 lineto
 1672 969 lineto 1696 968 lineto
 1720 967 lineto 1744 966 lineto
 1769 966 lineto 1793 965 lineto
 1818 964 lineto 1843 964 lineto
 1867 964 lineto 1892 963 lineto
 1916 963 lineto 1941 963 lineto
 1965 963 lineto 1990 964 lineto
 2014 964 lineto 2039 964 lineto
 2064 965 lineto 2088 966 lineto
 2113 966 lineto 2137 967 lineto
 2161 968 lineto 2186 969 lineto
 2210 971 lineto 2234 972 lineto
 2258 973 lineto 2282 975 lineto
 2305 976 lineto 2330 978 lineto
 2354 980 lineto 2377 982 lineto
 2401 984 lineto 2424 986 lineto
 2447 988 lineto 2470 991 lineto
 2493 993 lineto 2516 996 lineto
 2538 998 lineto 2561 1001 lineto
 2584 1004 lineto 2606 1007 lineto
 2628 1010 lineto 2650 1013 lineto
 2672 1016 lineto 2693 1019 lineto
 2714 1023 lineto 2735 1026 lineto
 2756 1031 lineto 2777 1035 lineto
 2797 1039 lineto 2818 1042 lineto
 2839 1046 lineto 2858 1050 lineto
 2878 1055 lineto 2897 1059 lineto
 2916 1063 lineto 2935 1068 lineto
 2954 1072 lineto 2972 1077 lineto
 2990 1081 lineto 3008 1086 lineto
 3025 1091 lineto 3043 1096 lineto
 3059 1101 lineto 3076 1106 lineto
 3094 1111 lineto 3110 1116 lineto
 3126 1121 lineto 3141 1127 lineto
 3156 1132 lineto 3171 1137 lineto
 3186 1143 lineto 3200 1149 lineto
 3214 1154 lineto 3228 1160 lineto
 3241 1166 lineto 3254 1172 lineto
 3267 1177 lineto 3279 1183 lineto
 3291 1189 lineto 3303 1195 lineto
 3314 1201 lineto 3325 1208 lineto
 3336 1214 lineto 3347 1220 lineto
 3357 1226 lineto 3367 1233 lineto
 3376 1239 lineto 3385 1245 lineto
 3393 1252 lineto 3402 1258 lineto
 3409 1265 lineto 3417 1272 lineto
 3424 1278 lineto 3430 1286 lineto
 3437 1292 lineto 3443 1299 lineto
 3448 1306 lineto 3453 1313 lineto
 3458 1319 lineto 3463 1326 lineto
 3467 1333 lineto 3470 1340 lineto
 3474 1346 lineto 3477 1353 lineto
 3479 1360 lineto 3481 1367 lineto
 3483 1374 lineto 3484 1381 lineto
 3485 1388 lineto 3486 1394 lineto
 3486 1401 lineto 3486 1558 lineto
 3485 1544 lineto 3483 1529 lineto
 3479 1515 lineto 3474 1501 lineto
 3467 1488 lineto 3458 1474 lineto
 3448 1460 lineto 3436 1447 lineto
 3423 1434 lineto 3409 1420 lineto
 3392 1407 lineto 3375 1394 lineto
 3356 1382 lineto 3334 1369 lineto
 3313 1357 lineto 3289 1345 lineto
 3265 1333 lineto 3239 1321 lineto
 3211 1309 lineto 3183 1298 lineto
 3153 1287 lineto 3122 1275 lineto
 3090 1265 lineto 3055 1255 lineto
 3021 1245 lineto 2985 1235 lineto
 2949 1226 lineto 2911 1217 lineto
 2872 1209 lineto 2832 1200 lineto
 2791 1192 lineto 2749 1185 lineto
 2707 1178 lineto 2664 1171 lineto
 2620 1165 lineto 2576 1159 lineto
 2530 1153 lineto 2484 1148 lineto
 2438 1143 lineto 2391 1139 lineto
 2344 1135 lineto 2295 1132 lineto
 2247 1129 lineto 2199 1126 lineto
 2150 1124 lineto 2101 1122 lineto
 2051 1121 lineto 2002 1120 lineto
 1953 1120 lineto 1904 1120 lineto
 1855 1120 lineto 1806 1121 lineto
 1756 1122 lineto 1707 1124 lineto
 1658 1126 lineto 1610 1129 lineto
 1562 1132 lineto 1513 1135 lineto
 1466 1139 lineto 1419 1143 lineto
 1373 1148 lineto 1327 1153 lineto
 1281 1159 lineto 1237 1165 lineto
 1193 1171 lineto 1150 1178 lineto
 1108 1185 lineto 1066 1192 lineto
 1025 1200 lineto 985 1209 lineto
 946 1217 lineto 908 1226 lineto
 872 1235 lineto 836 1245 lineto
 802 1255 lineto 767 1265 lineto
 735 1275 lineto 704 1287 lineto
 674 1298 lineto 646 1309 lineto
 618 1321 lineto 592 1333 lineto
 568 1345 lineto 544 1357 lineto
 523 1369 lineto 501 1382 lineto
 482 1394 lineto 465 1407 lineto
 448 1420 lineto 434 1434 lineto
 421 1447 lineto 409 1460 lineto
 399 1474 lineto 390 1488 lineto
 383 1501 lineto 378 1515 lineto
 374 1529 lineto 372 1544 lineto
 371 1557 lineto 371 1401 lineto
 closepath
 0.87 setgray eofill 0.0 setgray 0.0 setgray 3486 1557 3485 1571 3483 1585 3479 1599 3474 1612 3467 1626 3458 1640 3448 1653 3437 1666
 3424 1680 3409 1693 3393 1706 3376 1719 3357 1731 3336 1744 3314 1756 3291 1769
 3267 1780 3241 1792 3214 1805 3186 1816 3156 1827 3126 1838 3094 1848 3059 1858
 3025 1868 2990 1878 2954 1887 2916 1896 2878 1904 2838 1912 2797 1920 2756 1928
 2714 1935 2672 1942 2628 1948 2584 1954 2538 1960 2493 1965 2447 1970 2401 1974
 2354 1978 2305 1982 2258 1985 2210 1987 2161 1990 2113 1991 2064 1993 2014 1994
 1965 1994 1916 1994 1867 1994 1818 1993 1769 1992 1720 1991 1671 1989 1623 1986
 1575 1983 1527 1980 1480 1976 1433 1972 1387 1967 1341 1962 1296 1957 1251 1951
 1207 1945 1164 1938 1122 1931 1080 1924 1039 1916 999 1908 960 1900 922 1891
 885 1882 849 1873 815 1863 781 1853 747 1843 716 1832 686 1821 657 1810
 629 1799 603 1786 578 1775 554 1762 532 1750 510 1738 490 1725 472 1712
 455 1699 440 1686 427 1673 414 1660 404 1646 394 1633 387 1619 380 1606
 376 1592 373 1578 371 1564 371 1551 373 1536 101 rps
 373 1536 376 1522 380 1508 387 1495 394 1481 404 1468 414 1454 427 1441 440 1428
 455 1415 472 1402 490 1389 510 1376 532 1364 554 1352 578 1339 603 1328
 629 1316 657 1305 686 1294 716 1282 747 1271 781 1261 815 1251 849 1241
 885 1232 922 1223 960 1214 999 1206 1040 1198 1080 1190 1122 1183 1164 1176
 1207 1169 1251 1163 1296 1157 1341 1152 1387 1147 1433 1142 1480 1138 1527 1134
 1575 1131 1623 1128 1672 1125 1720 1123 1769 1122 1818 1121 1867 1120 1916 1120
 1965 1120 2014 1120 2064 1121 2113 1123 2161 1124 2210 1127 2258 1129 2305 1132
 2354 1136 2401 1140 2447 1144 2493 1149 2538 1154 2584 1160 2628 1166 2672 1172
 2714 1179 2756 1186 2797 1194 2839 1202 2878 1210 2916 1218 2954 1227 2990 1236
 3025 1246 3059 1256 3094 1266 3126 1276 3156 1288 3186 1299 3214 1310 3241 1322
 3267 1334 3291 1345 3314 1358 3336 1370 3357 1383 3376 1395 3393 1408 3409 1421
 3424 1434 3437 1448 3448 1461 3458 1474 3467 1488 3474 1502 3479 1515 3483 1529
 3485 1544 3486 1558 98 rps
 371 1557 371 1401 371 1394 372 1388 373 1381 374 1374 376 1367 378 1360 380 1353
 383 1346 387 1340 390 1333 394 1326 399 1319 404 1312 409 1306 414 1299
 420 1292 427 1286 433 1278 440 1272 448 1265 455 1258 464 1252 472 1245
 481 1239 490 1233 500 1226 510 1220 521 1214 532 1208 543 1201 554 1195
 566 1189 578 1183 590 1177 603 1172 616 1166 629 1160 643 1154 657 1149
 671 1143 686 1137 701 1132 716 1127 731 1121 747 1116 763 1111 781 1106
 798 1101 815 1096 832 1091 849 1086 867 1081 885 1077 903 1072 922 1068
 941 1063 960 1059 979 1055 999 1050 1019 1046 1040 1042 1060 1039 1080 1035
 1101 1031 1122 1026 1143 1023 1164 1019 1185 1016 1207 1013 1229 1010 1251 1007
 1273 1004 1296 1001 1319 998 1341 996 1364 993 1387 991 1410 988 1433 986
 1456 984 1480 982 1503 980 1527 978 1552 976 1575 975 1599 973 1623 972
 1647 971 1672 969 1696 968 1720 967 1744 966 1769 966 1793 965 1818 964
 1843 964 1867 964 1892 963 1916 963 1941 963 101 rps
 1941 963 1965 963 1990 964 2014 964 2039 964 2064 965 2088 966 2113 966 2137 967
 2161 968 2186 969 2210 971 2234 972 2258 973 2282 975 2305 976 2330 978
 2354 980 2377 982 2401 984 2424 986 2447 988 2470 991 2493 993 2516 996
 2538 998 2561 1001 2584 1004 2606 1007 2628 1010 2650 1013 2672 1016 2693 1019
 2714 1023 2735 1026 2756 1031 2777 1035 2797 1039 2818 1042 2839 1046 2858 1050
 2878 1055 2897 1059 2916 1063 2935 1068 2954 1072 2972 1077 2990 1081 3008 1086
 3025 1091 3043 1096 3059 1101 3076 1106 3094 1111 3110 1116 3126 1121 3141 1127
 3156 1132 3171 1137 3186 1143 3200 1149 3214 1154 3228 1160 3241 1166 3254 1172
 3267 1177 3279 1183 3291 1189 3303 1195 3314 1201 3325 1208 3336 1214 3347 1220
 3357 1226 3367 1233 3376 1239 3385 1245 3393 1252 3402 1258 3409 1265 3417 1272
 3424 1278 3430 1286 3437 1292 3443 1299 3448 1306 3453 1313 3458 1319 3463 1326
 3467 1333 3470 1340 3474 1346 3477 1353 3479 1360 3481 1367 3483 1374 3484 1381
 3485 1388 3486 1394 3486 1401 3486 1557 100 rps
 1556 1845 1563 1846 1570 1847 1578 1847 1585 1848 1592 1849 1600 1849 1607 1850 1614 1851
 1622 1851 1629 1852 1636 1853 1644 1853 1651 1854 1658 1854 1666 1855 1673 1855
 1681 1856 1688 1856 1696 1857 1703 1857 1711 1858 1718 1858 1726 1858 1733 1859
 1741 1859 1748 1860 1756 1860 1763 1860 1771 1861 1779 1861 1786 1861 1794 1861
 1802 1862 1810 1862 1818 1862 1825 1862 1833 1863 1841 1863 1848 1863 1856 1863
 1863 1863 1871 1863 1879 1863 1886 1863 1894 1864 1902 1864 1909 1864 1917 1864
 1925 1864 1932 1864 1940 1864 1948 1864 1955 1864 1963 1864 1971 1863 1978 1863
 1986 1863 1994 1863 2001 1863 2009 1863 2016 1863 2024 1863 2032 1862 2039 1862
 2047 1862 2056 1862 2063 1861 2071 1861 2078 1861 2086 1861 2094 1860 2101 1860
 2109 1860 2116 1859 2124 1859 2131 1858 2139 1858 2146 1858 2154 1857 2161 1857
 2169 1856 2176 1856 2184 1855 2191 1855 2199 1854 2206 1854 2213 1853 2221 1853
 2228 1852 2235 1851 2243 1851 2250 1850 2257 1849 2265 1849 2272 1848 2279 1847
 2287 1847 2294 1846 2301 1845 99 rps
 835 1557 835 2803 1 rps
 835 2803
 857 2713 812 2713 835 2803 3 3 1 roll cnp
 0.00 setgray
gsave eofill grestore  0.0 setgray
 stroke 0.0 setgray 1925 1546
 1929 1546 1933 1548 1936 1551 1938 1555
 1938 1559 1936 1563 1933 1566 1929 1568
 1925 1568 1921 1566 1918 1563 1916 1559
 1916 1555 1918 1551 1921 1548 1925 1546
 16 3 1 roll cnp
 0.00 setgray
gsave eofill grestore  0.0 setgray
 stroke 0.0 setgray 1148 2167
 1152 2167 1156 2169 1159 2172 1161 2176
 1161 2180 1159 2184 1156 2187 1152 2189
 1148 2189 1144 2187 1141 2184 1139 2180
 1139 2176 1141 2172 1144 2169 1148 2167
 16 3 1 roll cnp
 0.00 setgray
gsave eofill grestore  0.0 setgray
 stroke 0.0 setgray 833 1546
 837 1546 841 1548 844 1551 846 1555
 846 1559 844 1563 841 1566 837 1568
 833 1568 829 1566 826 1563 824 1559
 824 1555 826 1551 829 1548 833 1546
 16 3 1 roll cnp
 0.00 setgray
gsave eofill grestore  0.0 setgray
 stroke 0.0 setgray 0.0 setgray 1927 1557 835 1557 1 rps
 835 1557 1150 1712 1 rps
 1150 1712 1150 2178 1 rps
 835 1557 1150 2178 1 rps

/Times-Roman axumfindfont 124 scalefont setfont
 1186 2187 moveto  (Star) show 
 1958 1520 moveto  (Galactic center) show 
 903 2721 moveto  (To NGP) show 
 1689 1886 moveto  (Rotation) show 
 743 1433 moveto  (Sun) show 

/Times-Italic axumfindfont 128 scalefont setfont
 999 1716 moveto  (b) show 
 2255 1849 2301 1845 1 rps
 2301 1845
 2209 1830 2213 1875 2301 1845 3 3 1 roll cnp
 0.00 setgray
gsave eofill grestore  0.0 setgray
 stroke 0.0 setgray 0.0 setgray 1058 1557 1058 1558 1058 1559 1058 1560 1058 1561 1058 1562 1058 1563 1058 1564 1058 1565
 1058 1566 1058 1567 1058 1568 1057 1569 1057 1570 1057 1571 1057 1572 1057 1573
 1057 1574 1057 1575 1057 1576 1056 1577 1056 1578 1056 1579 1056 1580 1056 1581
 1056 1582 1055 1583 1055 1584 1055 1585 1055 1586 1055 1587 1054 1588 1054 1589
 1054 1590 1054 1591 1053 1592 1053 1593 1053 1594 1052 1595 1052 1596 1052 1597
 1051 1598 1051 1599 1051 1600 1051 1601 1050 1602 1050 1603 1049 1604 1049 1604
 1049 1605 1048 1606 1048 1607 1048 1608 1047 1609 1047 1610 1046 1611 1046 1612
 1046 1613 1045 1614 1045 1615 1044 1616 1044 1616 1043 1617 1043 1618 1042 1619
 1042 1620 1041 1621 1041 1622 1040 1623 1040 1624 1039 1624 1039 1625 1038 1626
 1038 1627 1037 1628 1037 1629 1036 1630 1036 1630 1035 1631 1034 1632 1034 1633
 1033 1634 1033 1635 1032 1635 1031 1636 1031 1637 1030 1638 1030 1639 1029 1639
 1028 1640 1028 1641 1026 1642 1025 1642 1025 1643 1024 1644 1023 1645 1023 1645
 1022 1646 1021 1647 1021 1648 1020 1648 100 rps
 980 1630 980 1631 980 1633 980 1634 980 1636 980 1637 980 1638 980 1640 980 1641
 980 1642 980 1644 979 1645 979 1647 979 1648 979 1649 979 1651 979 1652
 979 1653 979 1655 978 1656 978 1657 978 1659 978 1660 978 1662 978 1663
 977 1664 977 1666 977 1667 977 1668 976 1670 976 1671 976 1672 976 1674
 975 1675 975 1677 975 1678 975 1679 974 1681 974 1682 974 1683 973 1685
 973 1686 973 1687 972 1689 972 1690 972 1691 971 1693 971 1694 970 1695
 970 1697 970 1698 969 1699 969 1700 968 1702 968 1703 967 1704 967 1706
 967 1707 966 1708 966 1710 965 1711 965 1712 964 1713 964 1715 963 1716
 963 1717 962 1719 961 1720 961 1721 960 1722 960 1724 959 1725 959 1726
 958 1727 957 1729 957 1730 956 1731 956 1732 955 1733 954 1735 954 1736
 953 1737 952 1738 952 1740 951 1741 950 1742 950 1743 949 1744 948 1746
 948 1747 947 1748 946 1749 946 1750 945 1751 944 1753 943 1754 943 1755
 942 1756 941 1757 940 1758 939 1759 100 rps

5 setlinewidth
 1101 1604 1109 1616 1122 1637 1126 1645 1130 1657 1130 1665 1126 1669 1117 1665 1113 1657
 1109 1641 1105 1612 1105 1587 1109 1583 1113 1583 1122 1587 1126 1591 1134 1604
 16 rps
 grestore showpage
%Trailer
%EOF
