%!PS-Adobe-2.0 EPSF-1.2
%%BoundingBox: 0 0 468 360
%%%%DocumentFonts: /Helvetica
%%Title: Axum PostScript file
%%Creator: TriMetrix, Inc.
%%Pages: 1
%%EndComments
% Copyright 1988-1991 by TriMetrix, Inc. All rights reserved.
/downdict 4 dict def
/sdown
 {downdict begin
  /thestring exch def
  /lineskip exch def
  thestring
   {
    /charcode exch def
    /thechar ( ) dup 0 charcode put def
    0 lineskip neg rmoveto
    gsave
     thechar stringwidth pop 2 div neg 0 rmoveto
     thechar show
    grestore
   } forall
   end
  } def

/updict 4 dict def
/sup
 {updict begin
  /thestring exch def
  /lineskip exch def
  thestring 
   {
    /charcode exch def
    /thechar ( ) dup 0 charcode put def
    0 lineskip rmoveto
    gsave
     thechar stringwidth pop 2 div neg 0 rmoveto
     thechar show
    grestore
   } forall
   end
  } def

/leftdict 4 dict def
/sleft
 {leftdict begin
  /thestring exch def
  thestring
   {
    /charcode exch def
    /thechar ( ) dup 0 charcode put def
    gsave
     thechar stringwidth pop neg 0 rmoveto
     thechar show
    grestore
   } forall

   thechar stringwidth pop neg 0 rmoveto
   end
  } def

/path{newpath moveto{lineto}repeat} bind def 
/cnp{newpath moveto{lineto}repeat closepath} bind def
/clp{moveto{lineto}repeat closepath} bind def
/rps{ 3 1 roll path stroke} bind def
/rcs{ 3 1 roll clp stroke} bind def
/setF { currentscreen 4 -2 roll pop 3 1 roll setscreen} bind def
% required due to WinWord 2.0 bug:
/II { } def

/reencodedict 5 dict def
/reencode
{
   reencodedict begin
   /newencoding exch def
   /newfontname exch def
   /basefontname exch def

   /basefontdict basefontname findfont def
   /newfont basefontdict maxlength dict def

   basefontdict
   {
      exch dup dup /FID ne exch /Encoding ne and
      { exch newfont 3 1 roll put }
      { pop pop }
      ifelse
   }
   forall

   newfont /FontName newfontname put
   newfont /Encoding newencoding put
   newfontname newfont definefont pop
   end
}
def

/axumencoding
[
/.notdef        %   0
/.notdef        %   1
/.notdef        %   2
/.notdef        %   3
/.notdef        %   4
/.notdef        %   5
/.notdef        %   6
/.notdef        %   7
/.notdef        %   8
/.notdef        %   9
/.notdef        %  10
/.notdef        %  11
/.notdef        %  12
/.notdef        %  13
/.notdef        %  14
/.notdef        %  15
/.notdef        %  16
/.notdef        %  17
/.notdef        %  18
/.notdef        %  19
/.notdef        %  20
/.notdef        %  21
/.notdef        %  22
/.notdef        %  23
/.notdef        %  24
/.notdef        %  25
/.notdef        %  26
/.notdef        %  27
/.notdef        %  28
/.notdef        %  29
/.notdef        %  30
/.notdef        %  31
/space          %  32
/exclam         %  33
/quotedbl       %  34
/numbersign     %  35
/dollar         %  36
/percent        %  37
/ampersand      %  38
/quoteright     %  39
/parenleft      %  40
/parenright     %  41
/asterisk       %  42
/plus           %  43
/comma          %  44
/hyphen         %  45
/period         %  46
/slash          %  47
/zero           %  48
/one            %  49
/two            %  50
/three          %  51
/four           %  52
/five           %  53
/six            %  54
/seven          %  55
/eight          %  56
/nine           %  57
/colon          %  58
/semicolon      %  59
/less           %  60
/equal          %  61
/greater        %  62
/question       %  63
/at             %  64
/A              %  65
/B              %  66
/C              %  67
/D              %  68
/E              %  69
/F              %  70
/G              %  71
/H              %  72
/I              %  73
/J              %  74
/K              %  75
/L              %  76
/M              %  77
/N              %  78
/O              %  79
/P              %  80
/Q              %  81
/R              %  82
/S              %  83
/T              %  84
/U              %  85
/V              %  86
/W              %  87
/X              %  88
/Y              %  89
/Z              %  90
/bracketleft    %  91
/backslash      %  92
/bracketright   %  93
/asciicircum    %  94
/underscore     %  95
/quoteleft      %  96
/a              %  97
/b              %  98
/c              %  99
/d              % 100
/e              % 101
/f              % 102
/g              % 103
/h              % 104
/i              % 105
/j              % 106
/k              % 107
/l              % 108
/m              % 109
/n              % 110
/o              % 111
/p              % 112
/q              % 113
/r              % 114
/s              % 115
/t              % 116
/u              % 117
/v              % 118
/w              % 119
/x              % 120
/y              % 121
/z              % 122
/braceleft      % 123
/bar            % 124
/braceright     % 125
/asciitilde     % 126
/.notdef        % 127
/Ccedilla       % 128
/udieresis      % 129
/eacute         % 130
/acircumflex    % 131
/adieresis      % 132
/agrave         % 133
/aring          % 134
/ccedilla       % 135
/ecircumflex    % 136
/edieresis      % 137
/egrave         % 138
/idieresis      % 139
/icircumflex    % 140
/igrave         % 141
/Adieresis      % 142
/Aring          % 143
/Eacute         % 144
/ae             % 145
/AE             % 146
/ocircumflex    % 147
/odieresis      % 148
/ograve         % 149
/ucircumflex    % 150
/ugrave         % 151
/ydieresis      % 152
/Odieresis      % 153
/Udieresis      % 154
/cent           % 155
/sterling       % 156
/yen            % 157
/currency       % 158
/florin         % 159
/aacute         % 160
/iacute         % 161
/oacute         % 162
/uacute         % 163
/ntilde         % 164
/Ntilde         % 165
/ordfeminine    % 166
/ordmasculine   % 167
/questiondown   % 168
/quotedblleft   % 169
/quotedblright  % 170
/Aacute         % 171
/Acircumflex    % 172
/exclamdown     % 173
/Egrave         % 174
/Ecircumflex    % 175
/atilde         % 176
/otilde         % 177
/Edieresis      % 178
/Igrave         % 179
/oe             % 180
/OE             % 181
/Agrave         % 182
/Atilde         % 183
/Otilde         % 184
/section        % 185
/Iacute         % 186
/Icircumflex    % 187
/Idieresis      % 188
/Ograve         % 189
/Oacute         % 190
/Ocircumflex    % 191
/Ugrave         % 192
/Uacute         % 193
/Ucircumflex    % 194
/Ydieresis      % 195
/germandbls     % 196
/guillemotleft  % 197
/guillemotright % 198
/bullet         % 199
/.notdef        % 200
/.notdef        % 201
/.notdef        % 202
/.notdef        % 203
/.notdef        % 204
/.notdef        % 205
/.notdef        % 206
/.notdef        % 207
/.notdef        % 208
/.notdef        % 209
/.notdef        % 210
/.notdef        % 211
/.notdef        % 212
/.notdef        % 213
/.notdef        % 214
/.notdef        % 215
/.notdef        % 216
/.notdef        % 217
/.notdef        % 218
/.notdef        % 219
/.notdef        % 220
/.notdef        % 221
/.notdef        % 222
/.notdef        % 223
/.notdef        % 224
/.notdef        % 225
/.notdef        % 226
/.notdef        % 227
/.notdef        % 228
/.notdef        % 229
/.notdef        % 230
/.notdef        % 231
/.notdef        % 232
/.notdef        % 233
/.notdef        % 234
/.notdef        % 235
/.notdef        % 236
/.notdef        % 237
/.notdef        % 238
/.notdef        % 239
/.notdef        % 240
/.notdef        % 241
/.notdef        % 242
/.notdef        % 243
/.notdef        % 244
/.notdef        % 245
/.notdef        % 246
/.notdef        % 247
/.notdef        % 248
/.notdef        % 249
/.notdef        % 250
/.notdef        % 251
/.notdef        % 252
/.notdef        % 253
/.notdef        % 254
/.notdef        % 255
] 
def

/axumfindfont
{
   /axumfont axumencoding reencode
   /axumfont findfont
}
def


/MainFont /Helvetica axumfindfont 98 scalefont def
MainFont setfont
1 setlinejoin 0 setlinecap 0 setgray
 gsave 72 630 div dup scale
 0.0 setgray
/Times-Italic axumfindfont 128 scalefont setfont
 2716 732 moveto  (d) show 

/Times-Italic axumfindfont 95 scalefont setfont
 2779 704 moveto  (L) show 

/Times-Italic axumfindfont 128 scalefont setfont
 1961 518 moveto  (d) show 

/Times-Italic axumfindfont 95 scalefont setfont
 2024 490 moveto  (S) show 

/Times-Italic axumfindfont 128 scalefont setfont
 1892 950 moveto  (L) show 
 382 2247 moveto  (S) show 

/Symbol findfont 124 scalefont setfont
 3002 950 moveto  (b) show 
 2598 1110 moveto  (q) show 
 1510 2133 moveto  (a) show 

/Times-Italic axumfindfont 128 scalefont setfont
 1847 1378 moveto  (r) show 

/Times-Roman axumfindfont 95 scalefont setfont
 1896 1350 moveto  (o) show 

/Times-Italic axumfindfont 128 scalefont setfont
 3599 864 moveto  (O) show 
 [] 0 setdash

1 setlinewidth
 532 2183 2047 1965 1 rps
 2047 1965
 1954 1955 1961 2000 2047 1965 3 3 1 roll cnp
 0.00 setgray
gsave eofill grestore  0.0 setgray
 stroke 0.0 setgray 0.0 setgray 2047 1965 3558 887 1 rps
 3558 887
 3471 920 3497 957 3558 887 3 3 1 roll cnp
 0.00 setgray
gsave eofill grestore  0.0 setgray
 stroke 0.0 setgray 0.0 setgray 2047 778 2693 778 1 rps
 2047 778
 2137 800 2137 755 2047 778 3 3 1 roll cnp
 0.00 setgray
gsave eofill grestore  0.0 setgray
 stroke 0.0 setgray 0.0 setgray 2911 778 3558 778 1 rps
 3558 778
 3468 755 3468 800 3558 778 3 3 1 roll cnp
 0.00 setgray
gsave eofill grestore  0.0 setgray
 stroke 0.0 setgray 0.0 setgray 532 559 1938 559 1 rps
 532 559
 622 581 622 536 532 559 3 3 1 roll cnp
 0.00 setgray
gsave eofill grestore  0.0 setgray
 stroke 0.0 setgray 0.0 setgray 2156 559 3558 559 1 rps
 3558 559
 3468 536 3468 581 3558 559 3 3 1 roll cnp
 0.00 setgray
gsave eofill grestore  0.0 setgray
 stroke 0.0 setgray 526 2149
 538 2149 552 2156 559 2163 566 2177
 566 2189 559 2203 552 2210 538 2217
 526 2217 512 2210 505 2203 498 2189
 498 2177 505 2163 512 2156 526 2149
 16 3 1 roll cnp
 0.00 setgray
gsave eofill grestore  0.0 setgray
 stroke 0.0 setgray 2038 842
 2056 842 2074 851 2083 860 2092 878
 2092 896 2083 914 2074 923 2056 932
 2038 932 2020 923 2011 914 2002 896
 2002 878 2011 860 2020 851 2038 842
 16 3 1 roll cnp
 0.00 setgray
gsave eofill grestore  0.0 setgray
 stroke 0.0 setgray 0.0 setgray 532 2183 3558 887 1 rps
 2047 887 3558 887 1 rps
 [20 20] 0 setdash
 2047 1965 1287 2507 1 rps
 2047 887 2047 1965 1 rps
 532 2183 532 559 1 rps
 [] 0 setdash
 2047 973 2133 973 1 rps
 2133 973 2133 887 1 rps
 3161 1056 3161 1054 3160 1053 3159 1051 3159 1050 3158 1048 3157 1046 3157 1045 3156 1043
 3156 1042 3155 1040 3154 1038 3154 1037 3153 1035 3153 1033 3152 1032 3151 1030
 3151 1029 3150 1027 3150 1025 3149 1024 3149 1022 3148 1020 3148 1019 3147 1017
 3147 1015 3146 1014 3145 1012 3145 1010 3144 1009 3144 1007 3144 1005 3143 1004
 3143 1002 3142 1000 3142 999 3141 997 3141 995 3140 994 3140 992 3140 990
 3139 989 3139 987 3138 985 3138 984 3138 982 3137 980 3137 978 3136 977
 3136 975 3136 973 3135 972 3135 970 3135 968 3134 967 3134 965 3134 963
 3133 961 3133 960 3133 958 3133 956 3132 955 3132 953 3132 951 3132 949
 3131 948 3131 946 3131 944 3131 943 3130 941 3130 939 3130 937 3130 936
 3130 934 3129 932 3129 931 3129 929 3129 927 3129 925 3129 924 3128 922
 3128 920 3128 918 3128 917 3128 915 3128 913 3128 912 3128 910 3128 908
 3127 906 3127 905 3127 903 3127 901 3127 899 3127 898 3127 896 3127 894
 3127 892 3127 891 3127 889 3127 887 100 rps
 2856 1389 2853 1385 2850 1380 2847 1376 2844 1371 2841 1367 2838 1363 2835 1358 2832 1354
 2829 1349 2826 1345 2823 1340 2820 1335 2818 1331 2815 1326 2812 1322 2810 1317
 2807 1312 2804 1308 2802 1303 2799 1298 2797 1294 2794 1289 2792 1284 2789 1279
 2787 1275 2784 1270 2782 1265 2780 1260 2777 1255 2775 1250 2773 1246 2771 1241
 2769 1236 2766 1231 2764 1226 2762 1221 2760 1216 2758 1211 2756 1206 2754 1201
 2752 1196 2750 1191 2748 1186 2747 1181 2745 1176 2743 1171 2741 1166 2740 1161
 2738 1156 2736 1151 2735 1146 2733 1141 2732 1136 2730 1130 2728 1125 2727 1120
 2726 1115 2724 1110 2723 1105 2722 1099 2720 1094 2719 1089 2718 1084 2717 1079
 2715 1073 2714 1068 2713 1063 2712 1058 2711 1052 2710 1047 2709 1042 2708 1037
 2707 1031 2706 1026 2705 1021 2705 1015 2704 1010 2703 1005 2702 1000 2702 994
 2701 989 2700 984 2700 978 2699 973 2699 968 2698 962 2698 957 2697 952
 2697 946 2697 941 2696 936 2696 930 2696 925 2696 920 2695 914 2695 909
 2695 904 2695 898 2695 893 2695 888 100 rps
 1696 2216 1695 2214 1694 2213 1693 2211 1692 2209 1691 2208 1689 2206 1688 2204 1687 2203
 1686 2201 1685 2199 1684 2197 1683 2196 1682 2194 1681 2192 1680 2190 1678 2189
 1677 2187 1676 2185 1675 2183 1674 2182 1673 2180 1672 2178 1671 2176 1670 2175
 1669 2173 1668 2171 1667 2169 1666 2167 1665 2166 1664 2164 1664 2162 1663 2160
 1662 2158 1661 2157 1660 2155 1659 2153 1658 2151 1657 2149 1656 2147 1655 2145
 1655 2144 1654 2142 1653 2140 1652 2138 1651 2136 1651 2134 1650 2132 1649 2130
 1648 2129 1647 2127 1647 2125 1646 2123 1645 2121 1644 2119 1644 2117 1643 2115
 1642 2113 1642 2111 1641 2109 1640 2108 1640 2106 1639 2104 1638 2102 1638 2100
 1637 2098 1636 2096 1636 2094 1635 2092 1635 2090 1634 2088 1633 2086 1633 2084
 1632 2082 1632 2080 1631 2078 1631 2076 1630 2074 1630 2072 1629 2070 1629 2068
 1628 2066 1628 2064 1627 2062 1627 2060 1626 2058 1626 2056 1625 2054 1625 2052
 1625 2050 1624 2048 1624 2046 1623 2044 1623 2042 1623 2040 1622 2038 1622 2036
 1622 2034 1621 2032 1621 2030 1621 2028 100 rps
 grestore showpage
%Trailer
%EOF
