%!PS-Adobe-2.0 EPSF-1.2
%%BoundingBox: 0 0 468 360
%%%%DocumentFonts: /Helvetica
%%Title: Axum PostScript file
%%Creator: TriMetrix, Inc.
%%Pages: 1
%%EndComments
% Copyright 1988-1991 by TriMetrix, Inc. All rights reserved.
/downdict 4 dict def
/sdown
 {downdict begin
  /thestring exch def
  /lineskip exch def
  thestring
   {
    /charcode exch def
    /thechar ( ) dup 0 charcode put def
    0 lineskip neg rmoveto
    gsave
     thechar stringwidth pop 2 div neg 0 rmoveto
     thechar show
    grestore
   } forall
   end
  } def

/updict 4 dict def
/sup
 {updict begin
  /thestring exch def
  /lineskip exch def
  thestring 
   {
    /charcode exch def
    /thechar ( ) dup 0 charcode put def
    0 lineskip rmoveto
    gsave
     thechar stringwidth pop 2 div neg 0 rmoveto
     thechar show
    grestore
   } forall
   end
  } def

/leftdict 4 dict def
/sleft
 {leftdict begin
  /thestring exch def
  thestring
   {
    /charcode exch def
    /thechar ( ) dup 0 charcode put def
    gsave
     thechar stringwidth pop neg 0 rmoveto
     thechar show
    grestore
   } forall

   thechar stringwidth pop neg 0 rmoveto
   end
  } def

/path{newpath moveto{lineto}repeat} bind def 
/cnp{newpath moveto{lineto}repeat closepath} bind def
/clp{moveto{lineto}repeat closepath} bind def
/rps{ 3 1 roll path stroke} bind def
/rcs{ 3 1 roll clp stroke} bind def
/setF { currentscreen 4 -2 roll pop 3 1 roll setscreen} bind def
% required due to WinWord 2.0 bug:
/II { } def

/reencodedict 5 dict def
/reencode
{
   reencodedict begin
   /newencoding exch def
   /newfontname exch def
   /basefontname exch def

   /basefontdict basefontname findfont def
   /newfont basefontdict maxlength dict def

   basefontdict
   {
      exch dup dup /FID ne exch /Encoding ne and
      { exch newfont 3 1 roll put }
      { pop pop }
      ifelse
   }
   forall

   newfont /FontName newfontname put
   newfont /Encoding newencoding put
   newfontname newfont definefont pop
   end
}
def

/axumencoding
[
/.notdef        %   0
/.notdef        %   1
/.notdef        %   2
/.notdef        %   3
/.notdef        %   4
/.notdef        %   5
/.notdef        %   6
/.notdef        %   7
/.notdef        %   8
/.notdef        %   9
/.notdef        %  10
/.notdef        %  11
/.notdef        %  12
/.notdef        %  13
/.notdef        %  14
/.notdef        %  15
/.notdef        %  16
/.notdef        %  17
/.notdef        %  18
/.notdef        %  19
/.notdef        %  20
/.notdef        %  21
/.notdef        %  22
/.notdef        %  23
/.notdef        %  24
/.notdef        %  25
/.notdef        %  26
/.notdef        %  27
/.notdef        %  28
/.notdef        %  29
/.notdef        %  30
/.notdef        %  31
/space          %  32
/exclam         %  33
/quotedbl       %  34
/numbersign     %  35
/dollar         %  36
/percent        %  37
/ampersand      %  38
/quoteright     %  39
/parenleft      %  40
/parenright     %  41
/asterisk       %  42
/plus           %  43
/comma          %  44
/hyphen         %  45
/period         %  46
/slash          %  47
/zero           %  48
/one            %  49
/two            %  50
/three          %  51
/four           %  52
/five           %  53
/six            %  54
/seven          %  55
/eight          %  56
/nine           %  57
/colon          %  58
/semicolon      %  59
/less           %  60
/equal          %  61
/greater        %  62
/question       %  63
/at             %  64
/A              %  65
/B              %  66
/C              %  67
/D              %  68
/E              %  69
/F              %  70
/G              %  71
/H              %  72
/I              %  73
/J              %  74
/K              %  75
/L              %  76
/M              %  77
/N              %  78
/O              %  79
/P              %  80
/Q              %  81
/R              %  82
/S              %  83
/T              %  84
/U              %  85
/V              %  86
/W              %  87
/X              %  88
/Y              %  89
/Z              %  90
/bracketleft    %  91
/backslash      %  92
/bracketright   %  93
/asciicircum    %  94
/underscore     %  95
/quoteleft      %  96
/a              %  97
/b              %  98
/c              %  99
/d              % 100
/e              % 101
/f              % 102
/g              % 103
/h              % 104
/i              % 105
/j              % 106
/k              % 107
/l              % 108
/m              % 109
/n              % 110
/o              % 111
/p              % 112
/q              % 113
/r              % 114
/s              % 115
/t              % 116
/u              % 117
/v              % 118
/w              % 119
/x              % 120
/y              % 121
/z              % 122
/braceleft      % 123
/bar            % 124
/braceright     % 125
/asciitilde     % 126
/.notdef        % 127
/Ccedilla       % 128
/udieresis      % 129
/eacute         % 130
/acircumflex    % 131
/adieresis      % 132
/agrave         % 133
/aring          % 134
/ccedilla       % 135
/ecircumflex    % 136
/edieresis      % 137
/egrave         % 138
/idieresis      % 139
/icircumflex    % 140
/igrave         % 141
/Adieresis      % 142
/Aring          % 143
/Eacute         % 144
/ae             % 145
/AE             % 146
/ocircumflex    % 147
/odieresis      % 148
/ograve         % 149
/ucircumflex    % 150
/ugrave         % 151
/ydieresis      % 152
/Odieresis      % 153
/Udieresis      % 154
/cent           % 155
/sterling       % 156
/yen            % 157
/currency       % 158
/florin         % 159
/aacute         % 160
/iacute         % 161
/oacute         % 162
/uacute         % 163
/ntilde         % 164
/Ntilde         % 165
/ordfeminine    % 166
/ordmasculine   % 167
/questiondown   % 168
/quotedblleft   % 169
/quotedblright  % 170
/Aacute         % 171
/Acircumflex    % 172
/exclamdown     % 173
/Egrave         % 174
/Ecircumflex    % 175
/atilde         % 176
/otilde         % 177
/Edieresis      % 178
/Igrave         % 179
/oe             % 180
/OE             % 181
/Agrave         % 182
/Atilde         % 183
/Otilde         % 184
/section        % 185
/Iacute         % 186
/Icircumflex    % 187
/Idieresis      % 188
/Ograve         % 189
/Oacute         % 190
/Ocircumflex    % 191
/Ugrave         % 192
/Uacute         % 193
/Ucircumflex    % 194
/Ydieresis      % 195
/germandbls     % 196
/guillemotleft  % 197
/guillemotright % 198
/bullet         % 199
/.notdef        % 200
/.notdef        % 201
/.notdef        % 202
/.notdef        % 203
/.notdef        % 204
/.notdef        % 205
/.notdef        % 206
/.notdef        % 207
/.notdef        % 208
/.notdef        % 209
/.notdef        % 210
/.notdef        % 211
/.notdef        % 212
/.notdef        % 213
/.notdef        % 214
/.notdef        % 215
/.notdef        % 216
/.notdef        % 217
/.notdef        % 218
/.notdef        % 219
/.notdef        % 220
/.notdef        % 221
/.notdef        % 222
/.notdef        % 223
/.notdef        % 224
/.notdef        % 225
/.notdef        % 226
/.notdef        % 227
/.notdef        % 228
/.notdef        % 229
/.notdef        % 230
/.notdef        % 231
/.notdef        % 232
/.notdef        % 233
/.notdef        % 234
/.notdef        % 235
/.notdef        % 236
/.notdef        % 237
/.notdef        % 238
/.notdef        % 239
/.notdef        % 240
/.notdef        % 241
/.notdef        % 242
/.notdef        % 243
/.notdef        % 244
/.notdef        % 245
/.notdef        % 246
/.notdef        % 247
/.notdef        % 248
/.notdef        % 249
/.notdef        % 250
/.notdef        % 251
/.notdef        % 252
/.notdef        % 253
/.notdef        % 254
/.notdef        % 255
] 
def

/axumfindfont
{
   /axumfont axumencoding reencode
   /axumfont findfont
}
def


/MainFont /Helvetica axumfindfont 98 scalefont def
MainFont setfont
1 setlinejoin 0 setlinecap 0 setgray
 gsave 72 630 div dup scale
 0.0 setgray [] 0 setdash

1 setlinewidth
 2214 2623 2208 2625 2203 2626 2197 2627 2191 2629 2186 2630 2180 2632 2174 2633 2169 2634
 2163 2635 2157 2637 2152 2638 2146 2639 2140 2640 2135 2641 2129 2642 2123 2643
 2117 2644 2112 2645 2106 2646 2100 2647 2095 2648 2089 2649 2083 2650 2077 2650
 2072 2651 2066 2652 2060 2653 2053 2653 2047 2654 2042 2655 2036 2655 2030 2656
 2024 2656 2018 2657 2013 2657 2007 2658 2001 2658 1995 2658 1989 2659 1984 2659
 1978 2659 1972 2660 1966 2660 1960 2660 1955 2660 1949 2660 1943 2660 1937 2660
 1931 2660 1926 2660 1920 2660 1914 2660 1908 2660 1902 2660 1897 2660 1891 2660
 1885 2660 1879 2659 1873 2659 1868 2659 1862 2658 1856 2658 1850 2658 1844 2657
 1839 2657 1833 2656 1827 2656 1821 2655 1815 2655 1810 2654 1804 2653 1797 2653
 1791 2652 1785 2651 1780 2650 1774 2650 1768 2649 1762 2648 1757 2647 1751 2646
 1745 2645 1740 2644 1734 2643 1728 2642 1722 2641 1717 2640 1711 2639 1705 2638
 1700 2637 1694 2635 1688 2634 1683 2633 1677 2632 1671 2630 1666 2629 1660 2627
 1654 2626 1649 2625 1643 2623 99 rps
 1927 260 305 3068 1 rps
 305 3068
 369 3001 330 2978 305 3068 3 3 1 roll cnp
 0.00 setgray
gsave eofill grestore  0.0 setgray
 stroke 0.0 setgray 1923 1534
 1931 1534 1940 1538 1945 1544 1949 1553
 1949 1561 1945 1570 1940 1575 1931 1579
 1923 1579 1914 1575 1909 1570 1905 1561
 1905 1553 1909 1544 1914 1538 1923 1534
 16 3 1 roll cnp
 0.00 setgray
gsave eofill grestore  0.0 setgray
 stroke 0.0 setgray 1925 248
 1929 248 1933 250 1936 253 1938 258
 1938 262 1936 266 1933 269 1929 271
 1925 271 1921 269 1918 266 1916 262
 1916 258 1918 253 1921 250 1925 248
 16 3 1 roll cnp
 0.00 setgray
gsave eofill grestore  0.0 setgray
 stroke 0.0 setgray 0.0 setgray 1921 225 1933 225 1947 232 1954 239 1961 253 1961 266 1954 280 1947 287 1933 294
 1921 294 1907 287 1900 280 1893 266 1893 253 1900 239 1907 232 15 rcs

 1794 461
 1803 461 1812 465 1817 470 1821 479
 1821 487 1817 496 1812 501 1803 505
 1794 505 1785 501 1780 496 1776 487
 1776 479 1780 470 1785 465 1794 461
 16 3 1 roll cnp
 0.00 setgray
gsave eofill grestore  0.0 setgray
 stroke 0.0 setgray 1361 1210
 1369 1210 1378 1214 1383 1219 1387 1228
 1387 1236 1383 1245 1378 1250 1369 1254
 1361 1254 1352 1250 1347 1245 1343 1236
 1343 1228 1347 1219 1352 1214 1361 1210
 16 3 1 roll cnp
 0.00 setgray
gsave eofill grestore  0.0 setgray
 stroke 0.0 setgray 949 1923
 957 1923 966 1927 971 1932 975 1941
 975 1949 971 1958 966 1963 957 1967
 949 1967 940 1963 935 1958 931 1949
 931 1941 935 1932 940 1927 949 1923
 16 3 1 roll cnp
 0.00 setgray
gsave eofill grestore  0.0 setgray
 stroke 0.0 setgray 562 2595
 570 2595 579 2599 584 2604 588 2613
 588 2621 584 2630 579 2635 570 2639
 562 2639 553 2635 548 2630 544 2621
 544 2613 548 2604 553 2599 562 2595
 16 3 1 roll cnp
 0.00 setgray
gsave eofill grestore  0.0 setgray
 stroke 0.0 setgray 0.0 setgray [80 20] 0 setdash
 1927 1557 1927 260 1 rps
 1927 1557 1365 1232 1 rps
 [] 0 setdash
 1479 1297 1543 1182 1 rps
 1543 1182 1429 1118 1 rps
 3224 1557 3221 1638 3214 1719 3201 1800 3183 1879 3161 1957 3133 2034 3101 2109 3063 2181
 3022 2251 2976 2319 2927 2383 2873 2444 2815 2502 2754 2555 2690 2606 2622 2652
 2552 2693 2479 2730 2405 2762 2329 2790 2250 2812 2170 2831 2090 2844 2008 2851
 1927 2854 1847 2851 1765 2844 1685 2831 1606 2813 1527 2790 1451 2762 1376 2730
 1304 2693 1233 2652 1166 2607 1102 2556 1041 2502 983 2445 929 2384 879 2320
 833 2252 792 2182 754 2110 722 2034 694 1958 672 1880 654 1801 641 1720
 634 1639 631 1558 634 1477 641 1396 654 1316 671 1235 694 1158 721 1081
 754 1006 791 933 833 863 878 796 928 731 982 670 1040 613 1101 559
 1165 508 1232 463 1303 421 1375 384 1449 352 1526 325 1605 302 1684 284
 1764 271 1846 264 1927 261 2007 263 2089 271 2169 284 2248 301 2327 324
 2403 351 2478 383 2550 420 2621 461 2688 507 2753 558 2813 611 2872 669
 2926 729 2975 794 3021 862 3063 931 3100 1004 3133 1079 3160 1155 3183 1233
 3201 1313 3214 1394 3221 1474 3224 1556 100 rps
 1927 647 1926 647 1924 647 1922 647 1920 647 1918 647 1916 647 1914 647 1912 647
 1910 647 1908 646 1906 646 1904 646 1902 646 1900 646 1898 646 1896 646
 1894 645 1892 645 1890 645 1888 645 1886 645 1884 644 1882 644 1880 644
 1878 644 1876 643 1874 643 1872 643 1870 643 1868 642 1866 642 1864 642
 1862 641 1860 641 1858 641 1856 640 1854 640 1852 639 1850 639 1848 639
 1846 638 1844 638 1842 637 1840 637 1838 636 1836 636 1834 635 1832 635
 1830 634 1828 634 1826 633 1824 633 1822 632 1820 632 1818 631 1817 631
 1815 630 1813 629 1811 629 1809 628 1807 628 1805 627 1803 626 1801 626
 1799 625 1796 624 1794 624 1793 623 1791 622 1789 621 1787 621 1785 620
 1783 619 1781 618 1779 618 1778 617 1776 616 1774 615 1772 615 1770 614
 1768 613 1766 612 1765 611 1763 610 1761 609 1759 609 1757 608 1756 607
 1754 606 1752 605 1750 604 1748 603 1747 602 1745 601 1743 600 1741 599
 1739 598 1738 597 1736 596 1734 595 100 rps

/Times-Roman axumfindfont 196 scalefont setfont
 1981 1501 moveto  (Galactic center) show 
 1780 59 moveto  (Sun) show 

/Times-Italic axumfindfont 196 scalefont setfont
 374 2552 moveto  (A) show 
 776 1877 moveto  (B) show 
 1159 1168 moveto  (C) show 
 1589 419 moveto  (D) show 

/Times-Roman axumfindfont 196 scalefont setfont
 611 2900 moveto  (Line of sight) show 
 1580 2434 moveto  (Rotation) show 
 2836 2790 moveto  (Solar circle) show 

/Times-Italic axumfindfont 196 scalefont setfont
 1963 958 moveto  (R) show 

/Times-Italic axumfindfont 147 scalefont setfont
 2085 914 moveto  (0) show 

/Times-Italic axumfindfont 196 scalefont setfont
 1474 1370 moveto  30 rotate (R) show  -30 rotate

/Times-Roman axumfindfont 147 scalefont setfont
 1602 1392 moveto  30 rotate (min) show  -30 rotate

/Times-Italic axumfindfont 196 scalefont setfont
 1370 872 moveto  300 rotate (d) show  -300 rotate
 2164 2635 2219 2621 1 rps
 2219 2621
 2126 2621 2137 2665 2219 2621 3 3 1 roll cnp
 0.00 setgray
gsave eofill grestore  0.0 setgray
 stroke 0.0 setgray 0.0 setgray 2744 2608 2850 2753 1 rps
 501 2790 593 2882 1 rps

5 setlinewidth
 1775 697 1782 718 1792 752 1795 765 1796 784 1793 796 1785 800 1775 791 1772 778
 1773 753 1778 711 1787 675 1795 671 1801 673 1811 682 1815 689 1822 710
 16 rps
 grestore showpage
%Trailer
%EOF
