%!PS-Adobe-2.0 EPSF-1.2
%%BoundingBox: 0 0 468 360
%%%%DocumentFonts: /Helvetica
%%Title: Axum PostScript file
%%Creator: TriMetrix, Inc.
%%Pages: 1
%%EndComments
% Copyright 1988-1991 by TriMetrix, Inc. All rights reserved.
/downdict 4 dict def
/sdown
 {downdict begin
  /thestring exch def
  /lineskip exch def
  thestring
   {
    /charcode exch def
    /thechar ( ) dup 0 charcode put def
    0 lineskip neg rmoveto
    gsave
     thechar stringwidth pop 2 div neg 0 rmoveto
     thechar show
    grestore
   } forall
   end
  } def

/updict 4 dict def
/sup
 {updict begin
  /thestring exch def
  /lineskip exch def
  thestring 
   {
    /charcode exch def
    /thechar ( ) dup 0 charcode put def
    0 lineskip rmoveto
    gsave
     thechar stringwidth pop 2 div neg 0 rmoveto
     thechar show
    grestore
   } forall
   end
  } def

/leftdict 4 dict def
/sleft
 {leftdict begin
  /thestring exch def
  thestring
   {
    /charcode exch def
    /thechar ( ) dup 0 charcode put def
    gsave
     thechar stringwidth pop neg 0 rmoveto
     thechar show
    grestore
   } forall

   thechar stringwidth pop neg 0 rmoveto
   end
  } def

/path{newpath moveto{lineto}repeat} bind def 
/cnp{newpath moveto{lineto}repeat closepath} bind def
/clp{moveto{lineto}repeat closepath} bind def
/rps{ 3 1 roll path stroke} bind def
/rcs{ 3 1 roll clp stroke} bind def
/setF { currentscreen 4 -2 roll pop 3 1 roll setscreen} bind def
% required due to WinWord 2.0 bug:
/II { } def

/reencodedict 5 dict def
/reencode
{
   reencodedict begin
   /newencoding exch def
   /newfontname exch def
   /basefontname exch def

   /basefontdict basefontname findfont def
   /newfont basefontdict maxlength dict def

   basefontdict
   {
      exch dup dup /FID ne exch /Encoding ne and
      { exch newfont 3 1 roll put }
      { pop pop }
      ifelse
   }
   forall

   newfont /FontName newfontname put
   newfont /Encoding newencoding put
   newfontname newfont definefont pop
   end
}
def

/axumencoding
[
/.notdef        %   0
/.notdef        %   1
/.notdef        %   2
/.notdef        %   3
/.notdef        %   4
/.notdef        %   5
/.notdef        %   6
/.notdef        %   7
/.notdef        %   8
/.notdef        %   9
/.notdef        %  10
/.notdef        %  11
/.notdef        %  12
/.notdef        %  13
/.notdef        %  14
/.notdef        %  15
/.notdef        %  16
/.notdef        %  17
/.notdef        %  18
/.notdef        %  19
/.notdef        %  20
/.notdef        %  21
/.notdef        %  22
/.notdef        %  23
/.notdef        %  24
/.notdef        %  25
/.notdef        %  26
/.notdef        %  27
/.notdef        %  28
/.notdef        %  29
/.notdef        %  30
/.notdef        %  31
/space          %  32
/exclam         %  33
/quotedbl       %  34
/numbersign     %  35
/dollar         %  36
/percent        %  37
/ampersand      %  38
/quoteright     %  39
/parenleft      %  40
/parenright     %  41
/asterisk       %  42
/plus           %  43
/comma          %  44
/hyphen         %  45
/period         %  46
/slash          %  47
/zero           %  48
/one            %  49
/two            %  50
/three          %  51
/four           %  52
/five           %  53
/six            %  54
/seven          %  55
/eight          %  56
/nine           %  57
/colon          %  58
/semicolon      %  59
/less           %  60
/equal          %  61
/greater        %  62
/question       %  63
/at             %  64
/A              %  65
/B              %  66
/C              %  67
/D              %  68
/E              %  69
/F              %  70
/G              %  71
/H              %  72
/I              %  73
/J              %  74
/K              %  75
/L              %  76
/M              %  77
/N              %  78
/O              %  79
/P              %  80
/Q              %  81
/R              %  82
/S              %  83
/T              %  84
/U              %  85
/V              %  86
/W              %  87
/X              %  88
/Y              %  89
/Z              %  90
/bracketleft    %  91
/backslash      %  92
/bracketright   %  93
/asciicircum    %  94
/underscore     %  95
/quoteleft      %  96
/a              %  97
/b              %  98
/c              %  99
/d              % 100
/e              % 101
/f              % 102
/g              % 103
/h              % 104
/i              % 105
/j              % 106
/k              % 107
/l              % 108
/m              % 109
/n              % 110
/o              % 111
/p              % 112
/q              % 113
/r              % 114
/s              % 115
/t              % 116
/u              % 117
/v              % 118
/w              % 119
/x              % 120
/y              % 121
/z              % 122
/braceleft      % 123
/bar            % 124
/braceright     % 125
/asciitilde     % 126
/.notdef        % 127
/Ccedilla       % 128
/udieresis      % 129
/eacute         % 130
/acircumflex    % 131
/adieresis      % 132
/agrave         % 133
/aring          % 134
/ccedilla       % 135
/ecircumflex    % 136
/edieresis      % 137
/egrave         % 138
/idieresis      % 139
/icircumflex    % 140
/igrave         % 141
/Adieresis      % 142
/Aring          % 143
/Eacute         % 144
/ae             % 145
/AE             % 146
/ocircumflex    % 147
/odieresis      % 148
/ograve         % 149
/ucircumflex    % 150
/ugrave         % 151
/ydieresis      % 152
/Odieresis      % 153
/Udieresis      % 154
/cent           % 155
/sterling       % 156
/yen            % 157
/currency       % 158
/florin         % 159
/aacute         % 160
/iacute         % 161
/oacute         % 162
/uacute         % 163
/ntilde         % 164
/Ntilde         % 165
/ordfeminine    % 166
/ordmasculine   % 167
/questiondown   % 168
/quotedblleft   % 169
/quotedblright  % 170
/Aacute         % 171
/Acircumflex    % 172
/exclamdown     % 173
/Egrave         % 174
/Ecircumflex    % 175
/atilde         % 176
/otilde         % 177
/Edieresis      % 178
/Igrave         % 179
/oe             % 180
/OE             % 181
/Agrave         % 182
/Atilde         % 183
/Otilde         % 184
/section        % 185
/Iacute         % 186
/Icircumflex    % 187
/Idieresis      % 188
/Ograve         % 189
/Oacute         % 190
/Ocircumflex    % 191
/Ugrave         % 192
/Uacute         % 193
/Ucircumflex    % 194
/Ydieresis      % 195
/germandbls     % 196
/guillemotleft  % 197
/guillemotright % 198
/bullet         % 199
/.notdef        % 200
/.notdef        % 201
/.notdef        % 202
/.notdef        % 203
/.notdef        % 204
/.notdef        % 205
/.notdef        % 206
/.notdef        % 207
/.notdef        % 208
/.notdef        % 209
/.notdef        % 210
/.notdef        % 211
/.notdef        % 212
/.notdef        % 213
/.notdef        % 214
/.notdef        % 215
/.notdef        % 216
/.notdef        % 217
/.notdef        % 218
/.notdef        % 219
/.notdef        % 220
/.notdef        % 221
/.notdef        % 222
/.notdef        % 223
/.notdef        % 224
/.notdef        % 225
/.notdef        % 226
/.notdef        % 227
/.notdef        % 228
/.notdef        % 229
/.notdef        % 230
/.notdef        % 231
/.notdef        % 232
/.notdef        % 233
/.notdef        % 234
/.notdef        % 235
/.notdef        % 236
/.notdef        % 237
/.notdef        % 238
/.notdef        % 239
/.notdef        % 240
/.notdef        % 241
/.notdef        % 242
/.notdef        % 243
/.notdef        % 244
/.notdef        % 245
/.notdef        % 246
/.notdef        % 247
/.notdef        % 248
/.notdef        % 249
/.notdef        % 250
/.notdef        % 251
/.notdef        % 252
/.notdef        % 253
/.notdef        % 254
/.notdef        % 255
] 
def

/axumfindfont
{
   /axumfont axumencoding reencode
   /axumfont findfont
}
def


/MainFont /Helvetica axumfindfont 98 scalefont def
MainFont setfont
1 setlinejoin 0 setlinecap 0 setgray
 gsave 72 630 div dup scale
 0.0 setgray [] 0 setdash

1 setlinewidth
 776 523 3679 523 1 rps
 776 523 3679 523 1 rps
 772 2449 3683 2449 1 rps
 775 522 3680 522 1 rps
 775 522 3679 522 1 rps
 772 2450 3683 2450 1 rps
 774 521 3681 521 1 rps
 774 521 3679 521 1 rps
 772 2451 3683 2451 1 rps
 773 520 3682 520 1 rps
 773 520 3679 520 1 rps
 772 2452 3683 2452 1 rps
 772 519 3683 519 1 rps
 772 519 3679 519 1 rps
 772 2453 3683 2453 1 rps
 776 523 776 559 1 rps
 776 2449 776 2413 1 rps
 1139 523 1139 541 1 rps
 1139 2449 1139 2431 1 rps
 1502 523 1502 559 1 rps
 1502 2449 1502 2413 1 rps
 1865 523 1865 541 1 rps
 1865 2449 1865 2431 1 rps
 2227 523 2227 559 1 rps
 2227 2449 2227 2413 1 rps
 2590 523 2590 541 1 rps
 2590 2449 2590 2431 1 rps
 2953 523 2953 559 1 rps
 2953 2449 2953 2413 1 rps
 3316 523 3316 541 1 rps
 3316 2449 3316 2431 1 rps
 3679 523 3679 559 1 rps
 3679 2449 3679 2413 1 rps

/Symbol findfont 193 scalefont setfont
 575 341 moveto  (-) show 

/Times-Roman axumfindfont 196 scalefont setfont
 681 341 moveto  (100) show 

/Symbol findfont 193 scalefont setfont
 1351 341 moveto  (-) show 

/Times-Roman axumfindfont 196 scalefont setfont
 1457 341 moveto  (50) show 
 2178 341 moveto  (0) show 
 2855 341 moveto  (50) show 
 3531 341 moveto  (100) show 
 776 523 776 2449 1 rps
 775 522 775 2450 1 rps
 774 521 774 2451 1 rps
 773 520 773 2452 1 rps
 772 519 772 2453 1 rps
 3679 523 3679 2449 1 rps
 3680 522 3680 2450 1 rps
 3681 521 3681 2451 1 rps
 3682 520 3682 2452 1 rps
 3683 519 3683 2453 1 rps
 776 523 812 523 1 rps
 3679 523 3643 523 1 rps
 776 960 794 960 1 rps
 3679 960 3661 960 1 rps
 776 1398 812 1398 1 rps
 3679 1398 3643 1398 1 rps
 776 1835 794 1835 1 rps
 3679 1835 3661 1835 1 rps
 776 2274 812 2274 1 rps
 3679 2274 3643 2274 1 rps
 476 459 moveto  (0.0) show 
 476 1334 moveto  (0.5) show 
 476 2210 moveto  (1.0) show 
 776 541 791 543 805 545 820 546 834 548 849 551 864 553 878 556 893 558
 907 561 922 565 936 568 951 572 966 576 980 581 995 586 1009 591
 1024 597 1039 604 1053 612 1068 621 1082 632 1097 644 1112 657 1126 673
 1141 690 1155 711 1170 734 1184 760 1199 790 1214 823 1228 859 1243 900
 1257 944 1272 992 1287 1043 1301 1098 1316 1154 1330 1213 1345 1273 1360 1333
 1374 1392 1389 1450 1403 1504 1418 1555 1432 1601 1447 1640 1462 1674 1476 1699
 1491 1717 1505 1727 1520 1728 1535 1721 1549 1707 1564 1685 1578 1657 1593 1623
 1608 1584 1622 1542 1637 1496 1651 1450 1666 1402 1680 1355 1695 1309 1710 1265
 1724 1223 1739 1183 1753 1147 1768 1115 1783 1085 1797 1060 1812 1038 1826 1019
 1841 1004 1856 993 1870 985 1885 981 1899 981 1914 984 1928 992 1943 1004
 1958 1020 1972 1042 1987 1069 2001 1102 2016 1141 2031 1186 2045 1236 2060 1293
 2074 1356 2089 1424 2104 1497 2118 1573 2133 1653 2147 1733 2162 1813 2176 1892
 2191 1967 2206 2037 2220 2100 2235 2154 2249 2200 101 rps
 2249 2200 2264 2234 2279 2257 2293 2270 2308 2271 2322 2263 2337 2247 2352 2224 2366 2198
 2381 2171 2395 2145 2410 2124 2424 2110 2439 2104 2454 2107 2468 2119 2483 2138
 2497 2163 2512 2189 2527 2212 2541 2229 2556 2236 2570 2228 2585 2204 2600 2161
 2614 2101 2629 2025 2643 1934 2658 1834 2672 1729 2687 1624 2702 1522 2716 1428
 2731 1346 2745 1278 2760 1224 2775 1187 2789 1164 2804 1157 2818 1162 2833 1179
 2847 1206 2862 1240 2877 1281 2891 1326 2906 1374 2920 1424 2935 1474 2950 1523
 2964 1571 2979 1616 2993 1658 3008 1697 3023 1730 3037 1758 3052 1781 3066 1798
 3081 1809 3095 1813 3110 1811 3125 1802 3139 1787 3154 1766 3168 1739 3183 1707
 3198 1670 3212 1628 3227 1583 3241 1534 3256 1483 3271 1429 3285 1375 3300 1319
 3314 1264 3329 1209 3343 1155 3358 1102 3373 1051 3387 1002 3402 955 3416 911
 3431 870 3446 831 3460 795 3475 763 3489 733 3504 706 3519 682 3533 660
 3548 640 3562 623 3577 608 3591 595 3606 583 3621 574 3635 565 3650 558
 3664 552 3679 547 98 rps
 1271 85 moveto  (Radial velocity \(km s) show 

/Symbol findfont 144 scalefont setfont
 2964 161 moveto  (-) show 

/Times-Roman axumfindfont 147 scalefont setfont
 3044 161 moveto  (1) show 

/Times-Roman axumfindfont 196 scalefont setfont
 3118 85 moveto  (\)) show 
 321 792 moveto  90 rotate (Relative intensity) show  -90 rotate

/Times-Italic axumfindfont 196 scalefont setfont
 1305 1678 moveto  (A) show 
 2106 2193 moveto  (B) show 
 2625 2193 moveto  (D) show 
 3185 1779 moveto  (C) show 
 grestore showpage
%Trailer
%EOF
