%!PS-Adobe-2.0 EPSF-1.2
%%BoundingBox: 0 0 468 360
%%%%DocumentFonts: /Helvetica
%%Title: Axum PostScript file
%%Creator: TriMetrix, Inc.
%%Pages: 1
%%EndComments
% Copyright 1988-1991 by TriMetrix, Inc. All rights reserved.
/downdict 4 dict def
/sdown
 {downdict begin
  /thestring exch def
  /lineskip exch def
  thestring
   {
    /charcode exch def
    /thechar ( ) dup 0 charcode put def
    0 lineskip neg rmoveto
    gsave
     thechar stringwidth pop 2 div neg 0 rmoveto
     thechar show
    grestore
   } forall
   end
  } def

/updict 4 dict def
/sup
 {updict begin
  /thestring exch def
  /lineskip exch def
  thestring 
   {
    /charcode exch def
    /thechar ( ) dup 0 charcode put def
    0 lineskip rmoveto
    gsave
     thechar stringwidth pop 2 div neg 0 rmoveto
     thechar show
    grestore
   } forall
   end
  } def

/leftdict 4 dict def
/sleft
 {leftdict begin
  /thestring exch def
  thestring
   {
    /charcode exch def
    /thechar ( ) dup 0 charcode put def
    gsave
     thechar stringwidth pop neg 0 rmoveto
     thechar show
    grestore
   } forall

   thechar stringwidth pop neg 0 rmoveto
   end
  } def

/path{newpath moveto{lineto}repeat} bind def 
/cnp{newpath moveto{lineto}repeat closepath} bind def
/clp{moveto{lineto}repeat closepath} bind def
/rps{ 3 1 roll path stroke} bind def
/rcs{ 3 1 roll clp stroke} bind def
/setF { currentscreen 4 -2 roll pop 3 1 roll setscreen} bind def
% required due to WinWord 2.0 bug:
/II { } def

/reencodedict 5 dict def
/reencode
{
   reencodedict begin
   /newencoding exch def
   /newfontname exch def
   /basefontname exch def

   /basefontdict basefontname findfont def
   /newfont basefontdict maxlength dict def

   basefontdict
   {
      exch dup dup /FID ne exch /Encoding ne and
      { exch newfont 3 1 roll put }
      { pop pop }
      ifelse
   }
   forall

   newfont /FontName newfontname put
   newfont /Encoding newencoding put
   newfontname newfont definefont pop
   end
}
def

/axumencoding
[
/.notdef        %   0
/.notdef        %   1
/.notdef        %   2
/.notdef        %   3
/.notdef        %   4
/.notdef        %   5
/.notdef        %   6
/.notdef        %   7
/.notdef        %   8
/.notdef        %   9
/.notdef        %  10
/.notdef        %  11
/.notdef        %  12
/.notdef        %  13
/.notdef        %  14
/.notdef        %  15
/.notdef        %  16
/.notdef        %  17
/.notdef        %  18
/.notdef        %  19
/.notdef        %  20
/.notdef        %  21
/.notdef        %  22
/.notdef        %  23
/.notdef        %  24
/.notdef        %  25
/.notdef        %  26
/.notdef        %  27
/.notdef        %  28
/.notdef        %  29
/.notdef        %  30
/.notdef        %  31
/space          %  32
/exclam         %  33
/quotedbl       %  34
/numbersign     %  35
/dollar         %  36
/percent        %  37
/ampersand      %  38
/quoteright     %  39
/parenleft      %  40
/parenright     %  41
/asterisk       %  42
/plus           %  43
/comma          %  44
/hyphen         %  45
/period         %  46
/slash          %  47
/zero           %  48
/one            %  49
/two            %  50
/three          %  51
/four           %  52
/five           %  53
/six            %  54
/seven          %  55
/eight          %  56
/nine           %  57
/colon          %  58
/semicolon      %  59
/less           %  60
/equal          %  61
/greater        %  62
/question       %  63
/at             %  64
/A              %  65
/B              %  66
/C              %  67
/D              %  68
/E              %  69
/F              %  70
/G              %  71
/H              %  72
/I              %  73
/J              %  74
/K              %  75
/L              %  76
/M              %  77
/N              %  78
/O              %  79
/P              %  80
/Q              %  81
/R              %  82
/S              %  83
/T              %  84
/U              %  85
/V              %  86
/W              %  87
/X              %  88
/Y              %  89
/Z              %  90
/bracketleft    %  91
/backslash      %  92
/bracketright   %  93
/asciicircum    %  94
/underscore     %  95
/quoteleft      %  96
/a              %  97
/b              %  98
/c              %  99
/d              % 100
/e              % 101
/f              % 102
/g              % 103
/h              % 104
/i              % 105
/j              % 106
/k              % 107
/l              % 108
/m              % 109
/n              % 110
/o              % 111
/p              % 112
/q              % 113
/r              % 114
/s              % 115
/t              % 116
/u              % 117
/v              % 118
/w              % 119
/x              % 120
/y              % 121
/z              % 122
/braceleft      % 123
/bar            % 124
/braceright     % 125
/asciitilde     % 126
/.notdef        % 127
/Ccedilla       % 128
/udieresis      % 129
/eacute         % 130
/acircumflex    % 131
/adieresis      % 132
/agrave         % 133
/aring          % 134
/ccedilla       % 135
/ecircumflex    % 136
/edieresis      % 137
/egrave         % 138
/idieresis      % 139
/icircumflex    % 140
/igrave         % 141
/Adieresis      % 142
/Aring          % 143
/Eacute         % 144
/ae             % 145
/AE             % 146
/ocircumflex    % 147
/odieresis      % 148
/ograve         % 149
/ucircumflex    % 150
/ugrave         % 151
/ydieresis      % 152
/Odieresis      % 153
/Udieresis      % 154
/cent           % 155
/sterling       % 156
/yen            % 157
/currency       % 158
/florin         % 159
/aacute         % 160
/iacute         % 161
/oacute         % 162
/uacute         % 163
/ntilde         % 164
/Ntilde         % 165
/ordfeminine    % 166
/ordmasculine   % 167
/questiondown   % 168
/quotedblleft   % 169
/quotedblright  % 170
/Aacute         % 171
/Acircumflex    % 172
/exclamdown     % 173
/Egrave         % 174
/Ecircumflex    % 175
/atilde         % 176
/otilde         % 177
/Edieresis      % 178
/Igrave         % 179
/oe             % 180
/OE             % 181
/Agrave         % 182
/Atilde         % 183
/Otilde         % 184
/section        % 185
/Iacute         % 186
/Icircumflex    % 187
/Idieresis      % 188
/Ograve         % 189
/Oacute         % 190
/Ocircumflex    % 191
/Ugrave         % 192
/Uacute         % 193
/Ucircumflex    % 194
/Ydieresis      % 195
/germandbls     % 196
/guillemotleft  % 197
/guillemotright % 198
/bullet         % 199
/.notdef        % 200
/.notdef        % 201
/.notdef        % 202
/.notdef        % 203
/.notdef        % 204
/.notdef        % 205
/.notdef        % 206
/.notdef        % 207
/.notdef        % 208
/.notdef        % 209
/.notdef        % 210
/.notdef        % 211
/.notdef        % 212
/.notdef        % 213
/.notdef        % 214
/.notdef        % 215
/.notdef        % 216
/.notdef        % 217
/.notdef        % 218
/.notdef        % 219
/.notdef        % 220
/.notdef        % 221
/.notdef        % 222
/.notdef        % 223
/.notdef        % 224
/.notdef        % 225
/.notdef        % 226
/.notdef        % 227
/.notdef        % 228
/.notdef        % 229
/.notdef        % 230
/.notdef        % 231
/.notdef        % 232
/.notdef        % 233
/.notdef        % 234
/.notdef        % 235
/.notdef        % 236
/.notdef        % 237
/.notdef        % 238
/.notdef        % 239
/.notdef        % 240
/.notdef        % 241
/.notdef        % 242
/.notdef        % 243
/.notdef        % 244
/.notdef        % 245
/.notdef        % 246
/.notdef        % 247
/.notdef        % 248
/.notdef        % 249
/.notdef        % 250
/.notdef        % 251
/.notdef        % 252
/.notdef        % 253
/.notdef        % 254
/.notdef        % 255
] 
def

/axumfindfont
{
   /axumfont axumencoding reencode
   /axumfont findfont
}
def


/MainFont /Helvetica axumfindfont 98 scalefont def
MainFont setfont
1 setlinejoin 0 setlinecap 0 setgray
 gsave 72 630 div dup scale
 0.0 setgray [] 0 setdash

1 setlinewidth
 614 476 3583 476 1 rps
 614 476 3583 476 1 rps
 610 2750 3587 2750 1 rps
 613 475 3584 475 1 rps
 613 475 3583 475 1 rps
 610 2751 3587 2751 1 rps
 612 474 3585 474 1 rps
 612 474 3583 474 1 rps
 610 2752 3587 2752 1 rps
 611 473 3586 473 1 rps
 611 473 3583 473 1 rps
 610 2753 3587 2753 1 rps
 610 472 3587 472 1 rps
 610 472 3583 472 1 rps
 610 2754 3587 2754 1 rps
 614 476 614 512 1 rps
 614 2750 614 2714 1 rps
 911 476 911 494 1 rps
 911 2750 911 2732 1 rps
 1208 476 1208 512 1 rps
 1208 2750 1208 2714 1 rps
 1505 476 1505 494 1 rps
 1505 2750 1505 2732 1 rps
 1802 476 1802 512 1 rps
 1802 2750 1802 2714 1 rps
 2099 476 2099 494 1 rps
 2099 2750 2099 2732 1 rps
 2395 476 2395 512 1 rps
 2395 2750 2395 2714 1 rps
 2692 476 2692 494 1 rps
 2692 2750 2692 2732 1 rps
 2989 476 2989 512 1 rps
 2989 2750 2989 2714 1 rps
 3286 476 3286 494 1 rps
 3286 2750 3286 2732 1 rps
 3583 476 3583 512 1 rps
 3583 2750 3583 2714 1 rps

/Times-Roman axumfindfont 124 scalefont setfont
 536 341 moveto  (0.0) show 
 1130 341 moveto  (0.5) show 
 1724 341 moveto  (1.0) show 
 2317 341 moveto  (1.5) show 
 2911 341 moveto  (2.0) show 
 3505 341 moveto  (2.5) show 
 614 476 614 2750 1 rps
 613 475 613 2751 1 rps
 612 474 612 2752 1 rps
 611 473 611 2753 1 rps
 610 472 610 2754 1 rps
 3583 476 3583 2750 1 rps
 3584 475 3584 2751 1 rps
 3585 474 3585 2752 1 rps
 3586 473 3586 2753 1 rps
 3587 472 3587 2754 1 rps
 614 476 650 476 1 rps
 614 589 632 589 1 rps
 614 703 650 703 1 rps
 614 816 632 816 1 rps
 614 931 650 931 1 rps
 614 1044 632 1044 1 rps
 614 1158 650 1158 1 rps
 614 1271 632 1271 1 rps
 614 1386 650 1386 1 rps
 614 1499 632 1499 1 rps
 614 1613 650 1613 1 rps
 614 1726 632 1726 1 rps
 614 1840 650 1840 1 rps
 614 1953 632 1953 1 rps
 614 2068 650 2068 1 rps
 614 2181 632 2181 1 rps
 614 2295 650 2295 1 rps
 614 2408 632 2408 1 rps
 614 2523 650 2523 1 rps
 614 2636 632 2636 1 rps
 614 2750 650 2750 1 rps
 404 436 moveto  (0.6) show 
 404 663 moveto  (0.8) show 
 404 891 moveto  (1.0) show 
 404 1118 moveto  (1.2) show 
 404 1346 moveto  (1.4) show 
 404 1573 moveto  (1.6) show 
 404 1800 moveto  (1.8) show 
 404 2028 moveto  (2.0) show 
 404 2255 moveto  (2.2) show 
 404 2483 moveto  (2.4) show 
 404 2710 moveto  (2.6) show 
 644 2708 673 2335 703 2121 733 1973 762 1860 792 1769 822 1694 852 1629 881 1573
 911 1523 941 1478 970 1438 1000 1401 1030 1368 1059 1337 1089 1308 1119 1281
 1148 1257 1178 1233 1208 1211 1237 1190 1267 1170 1297 1152 1327 1134 1356 1117
 1386 1101 1416 1086 1445 1071 1475 1057 1505 1043 1534 1030 1564 1017 1594 1005
 1623 993 1653 982 1683 971 1713 961 1742 950 1772 940 1802 931 1831 921
 1861 912 1891 904 1920 895 1950 887 1980 879 2009 871 2039 863 2069 855
 2098 848 2128 841 2158 834 2188 827 2217 821 2247 814 2277 808 2306 801
 2336 795 2366 789 2395 783 2425 778 2455 772 2484 767 2514 761 2544 756
 2574 751 2603 746 2633 741 2663 736 2692 731 2722 726 2752 721 2781 717
 2811 712 2841 708 2870 704 2900 699 2930 695 2960 691 2989 687 3019 683
 3049 679 3078 675 3108 671 3138 667 3167 664 3197 660 3227 656 3256 653
 3286 649 3316 646 3345 642 3375 639 3405 636 3435 632 3464 629 3494 626
 3524 623 3553 619 3583 616 99 rps
 3583 476 3583 2750 1 rps
 3584 475 3584 2751 1 rps
 3585 474 3585 2752 1 rps
 3586 473 3586 2753 1 rps
 3587 472 3587 2754 1 rps
 3583 552 3547 552 1 rps
 3583 741 3565 741 1 rps
 3583 931 3547 931 1 rps
 3583 1120 3565 1120 1 rps
 3583 1310 3547 1310 1 rps
 3583 1499 3565 1499 1 rps
 3583 1690 3547 1690 1 rps
 3583 1879 3565 1879 1 rps
 3583 2069 3547 2069 1 rps
 3583 2258 3565 2258 1 rps
 3583 2448 3547 2448 1 rps
 3583 2637 3565 2637 1 rps
 3633 512 moveto  (4) show 
 3633 891 moveto  (6) show 
 3633 1270 moveto  (8) show 
 3633 1650 moveto  (10) show 
 3633 2029 moveto  (12) show 
 3633 2408 moveto  (14) show 

/Symbol findfont 124 scalefont setfont
 2027 159 moveto  (W) show 

/Times-Roman axumfindfont 95 scalefont setfont
 2122 131 moveto  (0) show 

/Times-Italic axumfindfont 128 scalefont setfont
 293 1406 moveto  90 rotate (d) show  -90 rotate

/Times-Italic axumfindfont 95 scalefont setfont
 321 1469 moveto  90 rotate (h) show  -90 rotate

/Times-Roman axumfindfont 95 scalefont setfont
 321 1517 moveto  90 rotate (,0) show  -90 rotate

/Times-Italic axumfindfont 128 scalefont setfont
 292 1589 moveto  90 rotate (H) show  -90 rotate

/Times-Roman axumfindfont 95 scalefont setfont
 320 1681 moveto  90 rotate (0) show  -90 rotate

/Times-Roman axumfindfont 124 scalefont setfont
 292 1729 moveto  90 rotate (/2) show  -90 rotate

/Times-Italic axumfindfont 128 scalefont setfont
 292 1827 moveto  90 rotate (c) show  -90 rotate

/Times-Italic axumfindfont 141 scalefont setfont
 3949 1105 moveto  90 rotate (d) show  -90 rotate

/Times-Italic axumfindfont 105 scalefont setfont
 3980 1175 moveto  90 rotate (h) show  -90 rotate

/Times-Roman axumfindfont 105 scalefont setfont
 3980 1229 moveto  90 rotate (,0) show  -90 rotate

/Times-Roman axumfindfont 137 scalefont setfont
 3948 1308 moveto  90 rotate ( \(Gpc\) for ) show  -90 rotate

/Times-Italic axumfindfont 141 scalefont setfont
 3948 1903 moveto  90 rotate (h) show  -90 rotate

/Times-Roman axumfindfont 137 scalefont setfont
 3948 1974 moveto  90 rotate ( = 1) show  -90 rotate
 grestore showpage
%Trailer
%EOF
