%!PS-Adobe-2.0 EPSF-1.2
%%BoundingBox: 0 0 468 360
%%%%DocumentFonts: /Helvetica
%%Title: Axum PostScript file
%%Creator: TriMetrix, Inc.
%%Pages: 1
%%EndComments
% Copyright 1988-1991 by TriMetrix, Inc. All rights reserved.
/downdict 4 dict def
/sdown
 {downdict begin
  /thestring exch def
  /lineskip exch def
  thestring
   {
    /charcode exch def
    /thechar ( ) dup 0 charcode put def
    0 lineskip neg rmoveto
    gsave
     thechar stringwidth pop 2 div neg 0 rmoveto
     thechar show
    grestore
   } forall
   end
  } def

/updict 4 dict def
/sup
 {updict begin
  /thestring exch def
  /lineskip exch def
  thestring 
   {
    /charcode exch def
    /thechar ( ) dup 0 charcode put def
    0 lineskip rmoveto
    gsave
     thechar stringwidth pop 2 div neg 0 rmoveto
     thechar show
    grestore
   } forall
   end
  } def

/leftdict 4 dict def
/sleft
 {leftdict begin
  /thestring exch def
  thestring
   {
    /charcode exch def
    /thechar ( ) dup 0 charcode put def
    gsave
     thechar stringwidth pop neg 0 rmoveto
     thechar show
    grestore
   } forall

   thechar stringwidth pop neg 0 rmoveto
   end
  } def

/path{newpath moveto{lineto}repeat} bind def 
/cnp{newpath moveto{lineto}repeat closepath} bind def
/clp{moveto{lineto}repeat closepath} bind def
/rps{ 3 1 roll path stroke} bind def
/rcs{ 3 1 roll clp stroke} bind def
/setF { currentscreen 4 -2 roll pop 3 1 roll setscreen} bind def
% required due to WinWord 2.0 bug:
/II { } def

/reencodedict 5 dict def
/reencode
{
   reencodedict begin
   /newencoding exch def
   /newfontname exch def
   /basefontname exch def

   /basefontdict basefontname findfont def
   /newfont basefontdict maxlength dict def

   basefontdict
   {
      exch dup dup /FID ne exch /Encoding ne and
      { exch newfont 3 1 roll put }
      { pop pop }
      ifelse
   }
   forall

   newfont /FontName newfontname put
   newfont /Encoding newencoding put
   newfontname newfont definefont pop
   end
}
def

/axumencoding
[
/.notdef        %   0
/.notdef        %   1
/.notdef        %   2
/.notdef        %   3
/.notdef        %   4
/.notdef        %   5
/.notdef        %   6
/.notdef        %   7
/.notdef        %   8
/.notdef        %   9
/.notdef        %  10
/.notdef        %  11
/.notdef        %  12
/.notdef        %  13
/.notdef        %  14
/.notdef        %  15
/.notdef        %  16
/.notdef        %  17
/.notdef        %  18
/.notdef        %  19
/.notdef        %  20
/.notdef        %  21
/.notdef        %  22
/.notdef        %  23
/.notdef        %  24
/.notdef        %  25
/.notdef        %  26
/.notdef        %  27
/.notdef        %  28
/.notdef        %  29
/.notdef        %  30
/.notdef        %  31
/space          %  32
/exclam         %  33
/quotedbl       %  34
/numbersign     %  35
/dollar         %  36
/percent        %  37
/ampersand      %  38
/quoteright     %  39
/parenleft      %  40
/parenright     %  41
/asterisk       %  42
/plus           %  43
/comma          %  44
/hyphen         %  45
/period         %  46
/slash          %  47
/zero           %  48
/one            %  49
/two            %  50
/three          %  51
/four           %  52
/five           %  53
/six            %  54
/seven          %  55
/eight          %  56
/nine           %  57
/colon          %  58
/semicolon      %  59
/less           %  60
/equal          %  61
/greater        %  62
/question       %  63
/at             %  64
/A              %  65
/B              %  66
/C              %  67
/D              %  68
/E              %  69
/F              %  70
/G              %  71
/H              %  72
/I              %  73
/J              %  74
/K              %  75
/L              %  76
/M              %  77
/N              %  78
/O              %  79
/P              %  80
/Q              %  81
/R              %  82
/S              %  83
/T              %  84
/U              %  85
/V              %  86
/W              %  87
/X              %  88
/Y              %  89
/Z              %  90
/bracketleft    %  91
/backslash      %  92
/bracketright   %  93
/asciicircum    %  94
/underscore     %  95
/quoteleft      %  96
/a              %  97
/b              %  98
/c              %  99
/d              % 100
/e              % 101
/f              % 102
/g              % 103
/h              % 104
/i              % 105
/j              % 106
/k              % 107
/l              % 108
/m              % 109
/n              % 110
/o              % 111
/p              % 112
/q              % 113
/r              % 114
/s              % 115
/t              % 116
/u              % 117
/v              % 118
/w              % 119
/x              % 120
/y              % 121
/z              % 122
/braceleft      % 123
/bar            % 124
/braceright     % 125
/asciitilde     % 126
/.notdef        % 127
/Ccedilla       % 128
/udieresis      % 129
/eacute         % 130
/acircumflex    % 131
/adieresis      % 132
/agrave         % 133
/aring          % 134
/ccedilla       % 135
/ecircumflex    % 136
/edieresis      % 137
/egrave         % 138
/idieresis      % 139
/icircumflex    % 140
/igrave         % 141
/Adieresis      % 142
/Aring          % 143
/Eacute         % 144
/ae             % 145
/AE             % 146
/ocircumflex    % 147
/odieresis      % 148
/ograve         % 149
/ucircumflex    % 150
/ugrave         % 151
/ydieresis      % 152
/Odieresis      % 153
/Udieresis      % 154
/cent           % 155
/sterling       % 156
/yen            % 157
/currency       % 158
/florin         % 159
/aacute         % 160
/iacute         % 161
/oacute         % 162
/uacute         % 163
/ntilde         % 164
/Ntilde         % 165
/ordfeminine    % 166
/ordmasculine   % 167
/questiondown   % 168
/quotedblleft   % 169
/quotedblright  % 170
/Aacute         % 171
/Acircumflex    % 172
/exclamdown     % 173
/Egrave         % 174
/Ecircumflex    % 175
/atilde         % 176
/otilde         % 177
/Edieresis      % 178
/Igrave         % 179
/oe             % 180
/OE             % 181
/Agrave         % 182
/Atilde         % 183
/Otilde         % 184
/section        % 185
/Iacute         % 186
/Icircumflex    % 187
/Idieresis      % 188
/Ograve         % 189
/Oacute         % 190
/Ocircumflex    % 191
/Ugrave         % 192
/Uacute         % 193
/Ucircumflex    % 194
/Ydieresis      % 195
/germandbls     % 196
/guillemotleft  % 197
/guillemotright % 198
/bullet         % 199
/.notdef        % 200
/.notdef        % 201
/.notdef        % 202
/.notdef        % 203
/.notdef        % 204
/.notdef        % 205
/.notdef        % 206
/.notdef        % 207
/.notdef        % 208
/.notdef        % 209
/.notdef        % 210
/.notdef        % 211
/.notdef        % 212
/.notdef        % 213
/.notdef        % 214
/.notdef        % 215
/.notdef        % 216
/.notdef        % 217
/.notdef        % 218
/.notdef        % 219
/.notdef        % 220
/.notdef        % 221
/.notdef        % 222
/.notdef        % 223
/.notdef        % 224
/.notdef        % 225
/.notdef        % 226
/.notdef        % 227
/.notdef        % 228
/.notdef        % 229
/.notdef        % 230
/.notdef        % 231
/.notdef        % 232
/.notdef        % 233
/.notdef        % 234
/.notdef        % 235
/.notdef        % 236
/.notdef        % 237
/.notdef        % 238
/.notdef        % 239
/.notdef        % 240
/.notdef        % 241
/.notdef        % 242
/.notdef        % 243
/.notdef        % 244
/.notdef        % 245
/.notdef        % 246
/.notdef        % 247
/.notdef        % 248
/.notdef        % 249
/.notdef        % 250
/.notdef        % 251
/.notdef        % 252
/.notdef        % 253
/.notdef        % 254
/.notdef        % 255
] 
def

/axumfindfont
{
   /axumfont axumencoding reencode
   /axumfont findfont
}
def


/MainFont /Helvetica axumfindfont 98 scalefont def
MainFont setfont
1 setlinejoin 0 setlinecap 0 setgray
 gsave 72 630 div dup scale
 0.0 setgray [] 0 setdash

1 setlinewidth
 360 1934 368 1934 377 1937 385 1942 391 1951 393 1959 393 1967 391 1975 385 1984
 377 1989 368 1992 360 1992 352 1989 344 1984 338 1975 335 1967 335 1959
 338 1951 344 1942 352 1937 19 rcs

 363 1959 366 1959 368 1962 368 1964 366 1967 363 1967 360 1964 360 1962 7 rcs

 363 1962 366 1962 366 1964 363 1964 3 rcs

 1666 1838 1674 1838 1683 1841 1691 1846 1697 1855 1699 1863 1699 1871 1697 1879 1691 1888
 1683 1893 1674 1896 1666 1896 1658 1893 1650 1888 1644 1879 1641 1871 1641 1863
 1644 1855 1650 1846 1658 1841 19 rcs

 1669 1863 1672 1863 1674 1866 1674 1868 1672 1871 1669 1871 1666 1868 1666 1866 7 rcs

 1669 1866 1672 1866 1672 1868 1669 1868 3 rcs

 1566 1037 1574 1037 1583 1040 1591 1045 1597 1054 1599 1062 1599 1070 1597 1078 1591 1087
 1583 1092 1574 1095 1566 1095 1558 1092 1550 1087 1544 1078 1541 1070 1541 1062
 1544 1054 1550 1045 1558 1040 19 rcs

 1569 1062 1572 1062 1574 1065 1574 1067 1572 1070 1569 1070 1566 1067 1566 1065 7 rcs

 1569 1065 1572 1065 1572 1067 1569 1067 3 rcs

 2080 2507 2088 2507 2097 2510 2105 2515 2111 2524 2113 2532 2113 2540 2111 2548 2105 2557
 2097 2562 2088 2565 2080 2565 2072 2562 2064 2557 2058 2548 2055 2540 2055 2532
 2058 2524 2064 2515 2072 2510 19 rcs

 2083 2532 2086 2532 2088 2535 2088 2537 2086 2540 2083 2540 2080 2537 2080 2535 7 rcs

 2083 2535 2086 2535 2086 2537 2083 2537 3 rcs

 660 572 3867 572 1 rps
 656 2847 3871 2847 1 rps
 660 571 3867 571 1 rps
 656 2848 3871 2848 1 rps
 660 570 3867 570 1 rps
 656 2849 3871 2849 1 rps
 660 569 3867 569 1 rps
 656 2850 3871 2850 1 rps
 660 568 3867 568 1 rps
 656 2851 3871 2851 1 rps
 660 573 660 2847 1 rps
 659 573 659 2847 1 rps
 658 573 658 2847 1 rps
 657 573 657 2847 1 rps
 656 573 656 2847 1 rps
 3867 573 3867 2847 1 rps
 3868 573 3868 2847 1 rps
 3869 573 3869 2847 1 rps
 3870 573 3870 2847 1 rps
 3871 573 3871 2847 1 rps
 660 573 696 573 1 rps
 660 676 678 676 1 rps
 660 780 696 780 1 rps
 660 883 678 883 1 rps
 660 986 696 986 1 rps
 660 1089 678 1089 1 rps
 660 1193 696 1193 1 rps
 660 1296 678 1296 1 rps
 660 1400 696 1400 1 rps
 660 1503 678 1503 1 rps
 660 1607 696 1607 1 rps
 660 1710 678 1710 1 rps
 660 1813 696 1813 1 rps
 660 1916 678 1916 1 rps
 660 2020 696 2020 1 rps
 660 2123 678 2123 1 rps
 660 2227 696 2227 1 rps
 660 2330 678 2330 1 rps
 660 2434 696 2434 1 rps
 660 2537 678 2537 1 rps
 660 2640 696 2640 1 rps
 660 2743 678 2743 1 rps
 660 2847 696 2847 1 rps

/Symbol findfont 124 scalefont setfont
 476 533 moveto  (-) show 

/Times-Roman axumfindfont 124 scalefont setfont
 544 533 moveto  (4) show 

/Symbol findfont 124 scalefont setfont
 476 740 moveto  (-) show 

/Times-Roman axumfindfont 124 scalefont setfont
 544 740 moveto  (3) show 

/Symbol findfont 124 scalefont setfont
 476 946 moveto  (-) show 

/Times-Roman axumfindfont 124 scalefont setfont
 544 946 moveto  (2) show 

/Symbol findfont 124 scalefont setfont
 476 1153 moveto  (-) show 

/Times-Roman axumfindfont 124 scalefont setfont
 544 1153 moveto  (1) show 
 544 1360 moveto  (0) show 
 544 1567 moveto  (1) show 
 544 1773 moveto  (2) show 
 544 1980 moveto  (3) show 
 544 2187 moveto  (4) show 
 544 2394 moveto  (5) show 
 544 2600 moveto  (6) show 
 544 2807 moveto  (7) show 
 774 2608
 778 2608 782 2610 785 2613 787 2617
 787 2621 785 2625 782 2628 778 2630
 774 2630 770 2628 767 2625 765 2621
 765 2617 767 2613 770 2610 774 2608
 16 3 1 roll cnp
 0.00 setgray
gsave eofill grestore  0.0 setgray
 stroke 0.0 setgray 856 2551
 860 2551 864 2553 867 2556 869 2560
 869 2564 867 2568 864 2571 860 2573
 856 2573 852 2571 849 2568 847 2564
 847 2560 849 2556 852 2553 856 2551
 16 3 1 roll cnp
 0.00 setgray
gsave eofill grestore  0.0 setgray
 stroke 0.0 setgray 931 2508
 935 2508 939 2510 942 2513 944 2517
 944 2521 942 2525 939 2528 935 2530
 931 2530 927 2528 924 2525 922 2521
 922 2517 924 2513 927 2510 931 2508
 16 3 1 roll cnp
 0.00 setgray
gsave eofill grestore  0.0 setgray
 stroke 0.0 setgray 991 2470
 995 2470 999 2472 1002 2475 1004 2479
 1004 2483 1002 2487 999 2490 995 2492
 991 2492 987 2490 984 2487 982 2483
 982 2479 984 2475 987 2472 991 2470
 16 3 1 roll cnp
 0.00 setgray
gsave eofill grestore  0.0 setgray
 stroke 0.0 setgray 1072 2420
 1076 2420 1080 2422 1083 2425 1085 2429
 1085 2433 1083 2437 1080 2440 1076 2442
 1072 2442 1068 2440 1065 2437 1063 2433
 1063 2429 1065 2425 1068 2422 1072 2420
 16 3 1 roll cnp
 0.00 setgray
gsave eofill grestore  0.0 setgray
 stroke 0.0 setgray 1167 2364
 1171 2364 1175 2366 1178 2369 1180 2373
 1180 2377 1178 2381 1175 2384 1171 2386
 1167 2386 1163 2384 1160 2381 1158 2377
 1158 2373 1160 2369 1163 2366 1167 2364
 16 3 1 roll cnp
 0.00 setgray
gsave eofill grestore  0.0 setgray
 stroke 0.0 setgray 1333 2258
 1337 2258 1341 2260 1344 2263 1346 2267
 1346 2271 1344 2275 1341 2278 1337 2280
 1333 2280 1329 2278 1326 2275 1324 2271
 1324 2267 1326 2263 1329 2260 1333 2258
 16 3 1 roll cnp
 0.00 setgray
gsave eofill grestore  0.0 setgray
 stroke 0.0 setgray 1476 2165
 1480 2165 1484 2167 1487 2170 1489 2174
 1489 2178 1487 2182 1484 2185 1480 2187
 1476 2187 1472 2185 1469 2182 1467 2178
 1467 2174 1469 2170 1472 2167 1476 2165
 16 3 1 roll cnp
 0.00 setgray
gsave eofill grestore  0.0 setgray
 stroke 0.0 setgray 1638 2067
 1642 2067 1646 2069 1649 2072 1651 2076
 1651 2080 1649 2084 1646 2087 1642 2089
 1638 2089 1634 2087 1631 2084 1629 2080
 1629 2076 1631 2072 1634 2069 1638 2067
 16 3 1 roll cnp
 0.00 setgray
gsave eofill grestore  0.0 setgray
 stroke 0.0 setgray 1831 1992
 1835 1992 1839 1994 1842 1997 1844 2001
 1844 2005 1842 2009 1839 2012 1835 2014
 1831 2014 1827 2012 1824 2009 1822 2005
 1822 2001 1824 1997 1827 1994 1831 1992
 16 3 1 roll cnp
 0.00 setgray
gsave eofill grestore  0.0 setgray
 stroke 0.0 setgray 1926 1947
 1930 1947 1934 1949 1937 1952 1939 1956
 1939 1960 1937 1964 1934 1967 1930 1969
 1926 1969 1922 1967 1919 1964 1917 1960
 1917 1956 1919 1952 1922 1949 1926 1947
 16 3 1 roll cnp
 0.00 setgray
gsave eofill grestore  0.0 setgray
 stroke 0.0 setgray 2000 1907
 2004 1907 2008 1909 2011 1912 2013 1916
 2013 1920 2011 1924 2008 1927 2004 1929
 2000 1929 1996 1927 1993 1924 1991 1920
 1991 1916 1993 1912 1996 1909 2000 1907
 16 3 1 roll cnp
 0.00 setgray
gsave eofill grestore  0.0 setgray
 stroke 0.0 setgray 2088 1855
 2092 1855 2096 1857 2099 1860 2101 1864
 2101 1868 2099 1872 2096 1875 2092 1877
 2088 1877 2084 1875 2081 1872 2079 1868
 2079 1864 2081 1860 2084 1857 2088 1855
 16 3 1 roll cnp
 0.00 setgray
gsave eofill grestore  0.0 setgray
 stroke 0.0 setgray 2213 1798
 2217 1798 2221 1800 2224 1803 2226 1807
 2226 1811 2224 1815 2221 1818 2217 1820
 2213 1820 2209 1818 2206 1815 2204 1811
 2204 1807 2206 1803 2209 1800 2213 1798
 16 3 1 roll cnp
 0.00 setgray
gsave eofill grestore  0.0 setgray
 stroke 0.0 setgray 2311 1747
 2315 1747 2319 1749 2322 1752 2324 1756
 2324 1760 2322 1764 2319 1767 2315 1769
 2311 1769 2307 1767 2304 1764 2302 1760
 2302 1756 2304 1752 2307 1749 2311 1747
 16 3 1 roll cnp
 0.00 setgray
gsave eofill grestore  0.0 setgray
 stroke 0.0 setgray 2341 1708
 2345 1708 2349 1710 2352 1713 2354 1717
 2354 1721 2352 1725 2349 1728 2345 1730
 2341 1730 2337 1728 2334 1725 2332 1721
 2332 1717 2334 1713 2337 1710 2341 1708
 16 3 1 roll cnp
 0.00 setgray
gsave eofill grestore  0.0 setgray
 stroke 0.0 setgray 2370 1681
 2374 1681 2378 1683 2381 1686 2383 1690
 2383 1694 2381 1698 2378 1701 2374 1703
 2370 1703 2366 1701 2363 1698 2361 1694
 2361 1690 2363 1686 2366 1683 2370 1681
 16 3 1 roll cnp
 0.00 setgray
gsave eofill grestore  0.0 setgray
 stroke 0.0 setgray 2398 1662
 2402 1662 2406 1664 2409 1667 2411 1671
 2411 1675 2409 1679 2406 1682 2402 1684
 2398 1684 2394 1682 2391 1679 2389 1675
 2389 1671 2391 1667 2394 1664 2398 1662
 16 3 1 roll cnp
 0.00 setgray
gsave eofill grestore  0.0 setgray
 stroke 0.0 setgray 2459 1626
 2463 1626 2467 1628 2470 1631 2472 1635
 2472 1639 2470 1643 2467 1646 2463 1648
 2459 1648 2455 1646 2452 1643 2450 1639
 2450 1635 2452 1631 2455 1628 2459 1626
 16 3 1 roll cnp
 0.00 setgray
gsave eofill grestore  0.0 setgray
 stroke 0.0 setgray 2503 1600
 2507 1600 2511 1602 2514 1605 2516 1609
 2516 1613 2514 1617 2511 1620 2507 1622
 2503 1622 2499 1620 2496 1617 2494 1613
 2494 1609 2496 1605 2499 1602 2503 1600
 16 3 1 roll cnp
 0.00 setgray
gsave eofill grestore  0.0 setgray
 stroke 0.0 setgray 2538 1582
 2542 1582 2546 1584 2549 1587 2551 1591
 2551 1595 2549 1599 2546 1602 2542 1604
 2538 1604 2534 1602 2531 1599 2529 1595
 2529 1591 2531 1587 2534 1584 2538 1582
 16 3 1 roll cnp
 0.00 setgray
gsave eofill grestore  0.0 setgray
 stroke 0.0 setgray 2589 1557
 2593 1557 2597 1559 2600 1562 2602 1566
 2602 1570 2600 1574 2597 1577 2593 1579
 2589 1579 2585 1577 2582 1574 2580 1570
 2580 1566 2582 1562 2585 1559 2589 1557
 16 3 1 roll cnp
 0.00 setgray
gsave eofill grestore  0.0 setgray
 stroke 0.0 setgray 2633 1493
 2637 1493 2641 1495 2644 1498 2646 1502
 2646 1506 2644 1510 2641 1513 2637 1515
 2633 1515 2629 1513 2626 1510 2624 1506
 2624 1502 2626 1498 2629 1495 2633 1493
 16 3 1 roll cnp
 0.00 setgray
gsave eofill grestore  0.0 setgray
 stroke 0.0 setgray 2700 1484
 2704 1484 2708 1486 2711 1489 2713 1493
 2713 1497 2711 1501 2708 1504 2704 1506
 2700 1506 2696 1504 2693 1501 2691 1497
 2691 1493 2693 1489 2696 1486 2700 1484
 16 3 1 roll cnp
 0.00 setgray
gsave eofill grestore  0.0 setgray
 stroke 0.0 setgray 2738 1456
 2742 1456 2746 1458 2749 1461 2751 1465
 2751 1469 2749 1473 2746 1476 2742 1478
 2738 1478 2734 1476 2731 1473 2729 1469
 2729 1465 2731 1461 2734 1458 2738 1456
 16 3 1 roll cnp
 0.00 setgray
gsave eofill grestore  0.0 setgray
 stroke 0.0 setgray 2765 1425
 2769 1425 2773 1427 2776 1430 2778 1434
 2778 1438 2776 1442 2773 1445 2769 1447
 2765 1447 2761 1445 2758 1442 2756 1438
 2756 1434 2758 1430 2761 1427 2765 1425
 16 3 1 roll cnp
 0.00 setgray
gsave eofill grestore  0.0 setgray
 stroke 0.0 setgray 2794 1397
 2798 1397 2802 1399 2805 1402 2807 1406
 2807 1410 2805 1414 2802 1417 2798 1419
 2794 1419 2790 1417 2787 1414 2785 1410
 2785 1406 2787 1402 2790 1399 2794 1397
 16 3 1 roll cnp
 0.00 setgray
gsave eofill grestore  0.0 setgray
 stroke 0.0 setgray 2809 1368
 2813 1368 2817 1370 2820 1373 2822 1377
 2822 1381 2820 1385 2817 1388 2813 1390
 2809 1390 2805 1388 2802 1385 2800 1381
 2800 1377 2802 1373 2805 1370 2809 1368
 16 3 1 roll cnp
 0.00 setgray
gsave eofill grestore  0.0 setgray
 stroke 0.0 setgray 2845 1352
 2849 1352 2853 1354 2856 1357 2858 1361
 2858 1365 2856 1369 2853 1372 2849 1374
 2845 1374 2841 1372 2838 1369 2836 1365
 2836 1361 2838 1357 2841 1354 2845 1352
 16 3 1 roll cnp
 0.00 setgray
gsave eofill grestore  0.0 setgray
 stroke 0.0 setgray 2903 1311
 2907 1311 2911 1313 2914 1316 2916 1320
 2916 1324 2914 1328 2911 1331 2907 1333
 2903 1333 2899 1331 2896 1328 2894 1324
 2894 1320 2896 1316 2899 1313 2903 1311
 16 3 1 roll cnp
 0.00 setgray
gsave eofill grestore  0.0 setgray
 stroke 0.0 setgray 2936 1300
 2940 1300 2944 1302 2947 1305 2949 1309
 2949 1313 2947 1317 2944 1320 2940 1322
 2936 1322 2932 1320 2929 1317 2927 1313
 2927 1309 2929 1305 2932 1302 2936 1300
 16 3 1 roll cnp
 0.00 setgray
gsave eofill grestore  0.0 setgray
 stroke 0.0 setgray 2972 1278
 2976 1278 2980 1280 2983 1283 2985 1287
 2985 1291 2983 1295 2980 1298 2976 1300
 2972 1300 2968 1298 2965 1295 2963 1291
 2963 1287 2965 1283 2968 1280 2972 1278
 16 3 1 roll cnp
 0.00 setgray
gsave eofill grestore  0.0 setgray
 stroke 0.0 setgray 3007 1268
 3011 1268 3015 1270 3018 1273 3020 1277
 3020 1281 3018 1285 3015 1288 3011 1290
 3007 1290 3003 1288 3000 1285 2998 1281
 2998 1277 3000 1273 3003 1270 3007 1268
 16 3 1 roll cnp
 0.00 setgray
gsave eofill grestore  0.0 setgray
 stroke 0.0 setgray 3037 1240
 3041 1240 3045 1242 3048 1245 3050 1249
 3050 1253 3048 1257 3045 1260 3041 1262
 3037 1262 3033 1260 3030 1257 3028 1253
 3028 1249 3030 1245 3033 1242 3037 1240
 16 3 1 roll cnp
 0.00 setgray
gsave eofill grestore  0.0 setgray
 stroke 0.0 setgray 3091 1219
 3095 1219 3099 1221 3102 1224 3104 1228
 3104 1232 3102 1236 3099 1239 3095 1241
 3091 1241 3087 1239 3084 1236 3082 1232
 3082 1228 3084 1224 3087 1221 3091 1219
 16 3 1 roll cnp
 0.00 setgray
gsave eofill grestore  0.0 setgray
 stroke 0.0 setgray 3160 1182
 3164 1182 3168 1184 3171 1187 3173 1191
 3173 1195 3171 1199 3168 1202 3164 1204
 3160 1204 3156 1202 3153 1199 3151 1195
 3151 1191 3153 1187 3156 1184 3160 1182
 16 3 1 roll cnp
 0.00 setgray
gsave eofill grestore  0.0 setgray
 stroke 0.0 setgray 3213 1159
 3217 1159 3221 1161 3224 1164 3226 1168
 3226 1172 3224 1176 3221 1179 3217 1181
 3213 1181 3209 1179 3206 1176 3204 1172
 3204 1168 3206 1164 3209 1161 3213 1159
 16 3 1 roll cnp
 0.00 setgray
gsave eofill grestore  0.0 setgray
 stroke 0.0 setgray 3247 1138
 3251 1138 3255 1140 3258 1143 3260 1147
 3260 1151 3258 1155 3255 1158 3251 1160
 3247 1160 3243 1158 3240 1155 3238 1151
 3238 1147 3240 1143 3243 1140 3247 1138
 16 3 1 roll cnp
 0.00 setgray
gsave eofill grestore  0.0 setgray
 stroke 0.0 setgray 3285 1110
 3289 1110 3293 1112 3296 1115 3298 1119
 3298 1123 3296 1127 3293 1130 3289 1132
 3285 1132 3281 1130 3278 1127 3276 1123
 3276 1119 3278 1115 3281 1112 3285 1110
 16 3 1 roll cnp
 0.00 setgray
gsave eofill grestore  0.0 setgray
 stroke 0.0 setgray 3316 1090
 3320 1090 3324 1092 3327 1095 3329 1099
 3329 1103 3327 1107 3324 1110 3320 1112
 3316 1112 3312 1110 3309 1107 3307 1103
 3307 1099 3309 1095 3312 1092 3316 1090
 16 3 1 roll cnp
 0.00 setgray
gsave eofill grestore  0.0 setgray
 stroke 0.0 setgray 3345 1033
 3349 1033 3353 1035 3356 1038 3358 1042
 3358 1046 3356 1050 3353 1053 3349 1055
 3345 1055 3341 1053 3338 1050 3336 1046
 3336 1042 3338 1038 3341 1035 3345 1033
 16 3 1 roll cnp
 0.00 setgray
gsave eofill grestore  0.0 setgray
 stroke 0.0 setgray 3384 984
 3388 984 3392 986 3395 989 3397 993
 3397 997 3395 1001 3392 1004 3388 1006
 3384 1006 3380 1004 3377 1001 3375 997
 3375 993 3377 989 3380 986 3384 984
 16 3 1 roll cnp
 0.00 setgray
gsave eofill grestore  0.0 setgray
 stroke 0.0 setgray 3445 918
 3449 918 3453 920 3456 923 3458 927
 3458 931 3456 935 3453 938 3449 940
 3445 940 3441 938 3438 935 3436 931
 3436 927 3438 923 3441 920 3445 918
 16 3 1 roll cnp
 0.00 setgray
gsave eofill grestore  0.0 setgray
 stroke 0.0 setgray 3481 879
 3485 879 3489 881 3492 884 3494 888
 3494 892 3492 896 3489 899 3485 901
 3481 901 3477 899 3474 896 3472 892
 3472 888 3474 884 3477 881 3481 879
 16 3 1 roll cnp
 0.00 setgray
gsave eofill grestore  0.0 setgray
 stroke 0.0 setgray 3588 785
 3592 785 3596 787 3599 790 3601 794
 3601 798 3599 802 3596 805 3592 807
 3588 807 3584 805 3581 802 3579 798
 3579 794 3581 790 3584 787 3588 785
 16 3 1 roll cnp
 0.00 setgray
gsave eofill grestore  0.0 setgray
 stroke 0.0 setgray 0.0 setgray 3867 573 3867 2847 1 rps
 3868 573 3868 2847 1 rps
 3869 573 3869 2847 1 rps
 3870 573 3870 2847 1 rps
 3871 573 3871 2847 1 rps
 3867 573 3831 573 1 rps
 3867 676 3849 676 1 rps
 3867 780 3831 780 1 rps
 3867 883 3849 883 1 rps
 3867 986 3831 986 1 rps
 3867 1089 3849 1089 1 rps
 3867 1193 3831 1193 1 rps
 3867 1296 3849 1296 1 rps
 3867 1400 3831 1400 1 rps
 3867 1503 3849 1503 1 rps
 3867 1607 3831 1607 1 rps
 3867 1710 3849 1710 1 rps
 3867 1813 3831 1813 1 rps
 3867 1916 3849 1916 1 rps
 3867 2020 3831 2020 1 rps
 3867 2123 3849 2123 1 rps
 3867 2227 3831 2227 1 rps
 3867 2330 3849 2330 1 rps
 3867 2434 3831 2434 1 rps
 3867 2537 3849 2537 1 rps
 3867 2640 3831 2640 1 rps
 3867 2743 3849 2743 1 rps
 3867 2847 3831 2847 1 rps

/Times-Roman axumfindfont 124 scalefont setfont
 745 2715 moveto  (O5) show 
 888 2658 moveto  ( ) show 
 963 2615 moveto  ( ) show 
 1023 2577 moveto  ( ) show 
 1104 2527 moveto  ( ) show 
 1142 2471 moveto  (B0) show 
 1365 2365 moveto  ( ) show 
 1508 2272 moveto  ( ) show 
 1670 2174 moveto  ( ) show 
 1863 2099 moveto  ( ) show 
 1958 2054 moveto  ( ) show 
 2032 2014 moveto  ( ) show 
 2120 1962 moveto  ( ) show 
 2245 1905 moveto  ( ) show 
 2282 1854 moveto  (A0) show 
 2373 1815 moveto  ( ) show 
 2402 1788 moveto  ( ) show 
 2430 1769 moveto  ( ) show 
 2491 1733 moveto  ( ) show 
 2535 1707 moveto  ( ) show 
 2570 1689 moveto  ( ) show 
 2571 1664 moveto  (F0) show 
 2665 1600 moveto  ( ) show 
 2732 1591 moveto  ( ) show 
 2770 1563 moveto  ( ) show 
 2736 1532 moveto  (G0) show 
 2826 1504 moveto  ( ) show 
 2841 1475 moveto  ( ) show 
 2877 1459 moveto  ( ) show 
 2874 1418 moveto  (K0) show 
 2968 1407 moveto  ( ) show 
 3004 1385 moveto  ( ) show 
 3039 1375 moveto  ( ) show 
 3069 1347 moveto  ( ) show 
 3123 1326 moveto  ( ) show 
 3192 1289 moveto  ( ) show 
 3174 1266 moveto  (M0) show 
 3279 1245 moveto  ( ) show 
 3317 1217 moveto  ( ) show 
 3348 1197 moveto  ( ) show 
 3377 1140 moveto  ( ) show 
 3416 1091 moveto  ( ) show 
 3477 1025 moveto  ( ) show 
 3513 986 moveto  ( ) show 
 3620 892 moveto  ( ) show 
 882 572 882 616 1 rps
 1169 572 1169 616 1 rps
 1573 572 1573 616 1 rps
 2264 572 2264 616 1 rps
 2369 572 2369 616 1 rps
 2486 572 2486 616 1 rps
 2619 572 2619 616 1 rps
 2772 572 2772 616 1 rps
 2954 572 2954 616 1 rps
 3176 572 3176 616 1 rps
 3463 572 3463 616 1 rps
 3867 572 3867 616 1 rps
 882 2804 882 2848 1 rps
 1169 2804 1169 2848 1 rps
 1573 2804 1573 2848 1 rps
 2264 2804 2264 2848 1 rps
 2369 2804 2369 2848 1 rps
 2486 2804 2486 2848 1 rps
 2619 2804 2619 2848 1 rps
 2772 2804 2772 2848 1 rps
 2954 2804 2954 2848 1 rps
 3176 2804 3176 2848 1 rps
 3463 2804 3463 2848 1 rps
 3867 2804 3867 2848 1 rps

/Times-Italic axumfindfont 128 scalefont setfont
 2104 277 moveto  (T) show 

/Times-Italic axumfindfont 95 scalefont setfont
 2175 249 moveto  (e) show 

/Times-Roman axumfindfont 124 scalefont setfont
 2217 277 moveto  ( \(K\)) show 
 368 1387 moveto  90 rotate (Log) show  -90 rotate

/Times-Roman axumfindfont 95 scalefont setfont
 396 1589 moveto  90 rotate (10) show  -90 rotate

/Times-Roman axumfindfont 124 scalefont setfont
 367 1684 moveto  90 rotate ( \() show  -90 rotate

/Times-Italic axumfindfont 128 scalefont setfont
 367 1758 moveto  90 rotate (L) show  -90 rotate

/Times-Roman axumfindfont 124 scalefont setfont
 367 1829 moveto  90 rotate (/) show  -90 rotate

/Times-Italic axumfindfont 128 scalefont setfont
 367 1864 moveto  90 rotate (L) show  -90 rotate

/Symbol findfont 91 scalefont setfont
 395 1935 moveto  90 rotate (  ) show  -90 rotate

/Times-Roman axumfindfont 124 scalefont setfont
 367 1982 moveto  90 rotate (\)) show  -90 rotate
 709 441 moveto  (40,000) show 
 1405 441 moveto  (20,000) show 
 2092 441 moveto  (10,000) show 
 2657 441 moveto  (6000) show 
 3348 441 moveto  (3000) show 
 3066 2521 moveto  (Supergiants) show 
 3066 1802 moveto  (Giants) show 
 1874 951 moveto  340 rotate (White dwarfs) show  -340 rotate
 1228 1192 moveto  340 rotate (0.01 R) show  -340 rotate
 1465 1938 moveto  340 rotate (1 R) show  -340 rotate
 1765 2653 moveto  340 rotate (100 R) show  -340 rotate
 659 573 3867 573 1 rps
 782 2639 787 2694 1 rps
 1173 2402 1178 2452 1 rps
 2315 1779 2320 1838 1 rps
 2598 1588 2602 1656 1 rps
 2775 1460 2784 1515 1 rps
 2907 1347 2911 1406 1 rps
 3216 1192 3221 1251 1 rps
 [40 20] 0 setdash
 1087 2844 3867 1847 1 rps
 659 2175 3867 1019 1 rps
 659 1347 2811 573 1 rps
 grestore showpage
%Trailer
%EOF
