%!PS-Adobe-2.0 EPSF-1.2
%%BoundingBox: 0 0 468 360
%%%%DocumentFonts: /Helvetica
%%Title: Axum PostScript file
%%Creator: TriMetrix, Inc.
%%Pages: 1
%%EndComments
% Copyright 1988-1991 by TriMetrix, Inc. All rights reserved.
/downdict 4 dict def
/sdown
 {downdict begin
  /thestring exch def
  /lineskip exch def
  thestring
   {
    /charcode exch def
    /thechar ( ) dup 0 charcode put def
    0 lineskip neg rmoveto
    gsave
     thechar stringwidth pop 2 div neg 0 rmoveto
     thechar show
    grestore
   } forall
   end
  } def

/updict 4 dict def
/sup
 {updict begin
  /thestring exch def
  /lineskip exch def
  thestring 
   {
    /charcode exch def
    /thechar ( ) dup 0 charcode put def
    0 lineskip rmoveto
    gsave
     thechar stringwidth pop 2 div neg 0 rmoveto
     thechar show
    grestore
   } forall
   end
  } def

/leftdict 4 dict def
/sleft
 {leftdict begin
  /thestring exch def
  thestring
   {
    /charcode exch def
    /thechar ( ) dup 0 charcode put def
    gsave
     thechar stringwidth pop neg 0 rmoveto
     thechar show
    grestore
   } forall

   thechar stringwidth pop neg 0 rmoveto
   end
  } def

/path{newpath moveto{lineto}repeat} bind def 
/cnp{newpath moveto{lineto}repeat closepath} bind def
/clp{moveto{lineto}repeat closepath} bind def
/rps{ 3 1 roll path stroke} bind def
/rcs{ 3 1 roll clp stroke} bind def
/setF { currentscreen 4 -2 roll pop 3 1 roll setscreen} bind def
% required due to WinWord 2.0 bug:
/II { } def

/reencodedict 5 dict def
/reencode
{
   reencodedict begin
   /newencoding exch def
   /newfontname exch def
   /basefontname exch def

   /basefontdict basefontname findfont def
   /newfont basefontdict maxlength dict def

   basefontdict
   {
      exch dup dup /FID ne exch /Encoding ne and
      { exch newfont 3 1 roll put }
      { pop pop }
      ifelse
   }
   forall

   newfont /FontName newfontname put
   newfont /Encoding newencoding put
   newfontname newfont definefont pop
   end
}
def

/axumencoding
[
/.notdef        %   0
/.notdef        %   1
/.notdef        %   2
/.notdef        %   3
/.notdef        %   4
/.notdef        %   5
/.notdef        %   6
/.notdef        %   7
/.notdef        %   8
/.notdef        %   9
/.notdef        %  10
/.notdef        %  11
/.notdef        %  12
/.notdef        %  13
/.notdef        %  14
/.notdef        %  15
/.notdef        %  16
/.notdef        %  17
/.notdef        %  18
/.notdef        %  19
/.notdef        %  20
/.notdef        %  21
/.notdef        %  22
/.notdef        %  23
/.notdef        %  24
/.notdef        %  25
/.notdef        %  26
/.notdef        %  27
/.notdef        %  28
/.notdef        %  29
/.notdef        %  30
/.notdef        %  31
/space          %  32
/exclam         %  33
/quotedbl       %  34
/numbersign     %  35
/dollar         %  36
/percent        %  37
/ampersand      %  38
/quoteright     %  39
/parenleft      %  40
/parenright     %  41
/asterisk       %  42
/plus           %  43
/comma          %  44
/hyphen         %  45
/period         %  46
/slash          %  47
/zero           %  48
/one            %  49
/two            %  50
/three          %  51
/four           %  52
/five           %  53
/six            %  54
/seven          %  55
/eight          %  56
/nine           %  57
/colon          %  58
/semicolon      %  59
/less           %  60
/equal          %  61
/greater        %  62
/question       %  63
/at             %  64
/A              %  65
/B              %  66
/C              %  67
/D              %  68
/E              %  69
/F              %  70
/G              %  71
/H              %  72
/I              %  73
/J              %  74
/K              %  75
/L              %  76
/M              %  77
/N              %  78
/O              %  79
/P              %  80
/Q              %  81
/R              %  82
/S              %  83
/T              %  84
/U              %  85
/V              %  86
/W              %  87
/X              %  88
/Y              %  89
/Z              %  90
/bracketleft    %  91
/backslash      %  92
/bracketright   %  93
/asciicircum    %  94
/underscore     %  95
/quoteleft      %  96
/a              %  97
/b              %  98
/c              %  99
/d              % 100
/e              % 101
/f              % 102
/g              % 103
/h              % 104
/i              % 105
/j              % 106
/k              % 107
/l              % 108
/m              % 109
/n              % 110
/o              % 111
/p              % 112
/q              % 113
/r              % 114
/s              % 115
/t              % 116
/u              % 117
/v              % 118
/w              % 119
/x              % 120
/y              % 121
/z              % 122
/braceleft      % 123
/bar            % 124
/braceright     % 125
/asciitilde     % 126
/.notdef        % 127
/Ccedilla       % 128
/udieresis      % 129
/eacute         % 130
/acircumflex    % 131
/adieresis      % 132
/agrave         % 133
/aring          % 134
/ccedilla       % 135
/ecircumflex    % 136
/edieresis      % 137
/egrave         % 138
/idieresis      % 139
/icircumflex    % 140
/igrave         % 141
/Adieresis      % 142
/Aring          % 143
/Eacute         % 144
/ae             % 145
/AE             % 146
/ocircumflex    % 147
/odieresis      % 148
/ograve         % 149
/ucircumflex    % 150
/ugrave         % 151
/ydieresis      % 152
/Odieresis      % 153
/Udieresis      % 154
/cent           % 155
/sterling       % 156
/yen            % 157
/currency       % 158
/florin         % 159
/aacute         % 160
/iacute         % 161
/oacute         % 162
/uacute         % 163
/ntilde         % 164
/Ntilde         % 165
/ordfeminine    % 166
/ordmasculine   % 167
/questiondown   % 168
/quotedblleft   % 169
/quotedblright  % 170
/Aacute         % 171
/Acircumflex    % 172
/exclamdown     % 173
/Egrave         % 174
/Ecircumflex    % 175
/atilde         % 176
/otilde         % 177
/Edieresis      % 178
/Igrave         % 179
/oe             % 180
/OE             % 181
/Agrave         % 182
/Atilde         % 183
/Otilde         % 184
/section        % 185
/Iacute         % 186
/Icircumflex    % 187
/Idieresis      % 188
/Ograve         % 189
/Oacute         % 190
/Ocircumflex    % 191
/Ugrave         % 192
/Uacute         % 193
/Ucircumflex    % 194
/Ydieresis      % 195
/germandbls     % 196
/guillemotleft  % 197
/guillemotright % 198
/bullet         % 199
/.notdef        % 200
/.notdef        % 201
/.notdef        % 202
/.notdef        % 203
/.notdef        % 204
/.notdef        % 205
/.notdef        % 206
/.notdef        % 207
/.notdef        % 208
/.notdef        % 209
/.notdef        % 210
/.notdef        % 211
/.notdef        % 212
/.notdef        % 213
/.notdef        % 214
/.notdef        % 215
/.notdef        % 216
/.notdef        % 217
/.notdef        % 218
/.notdef        % 219
/.notdef        % 220
/.notdef        % 221
/.notdef        % 222
/.notdef        % 223
/.notdef        % 224
/.notdef        % 225
/.notdef        % 226
/.notdef        % 227
/.notdef        % 228
/.notdef        % 229
/.notdef        % 230
/.notdef        % 231
/.notdef        % 232
/.notdef        % 233
/.notdef        % 234
/.notdef        % 235
/.notdef        % 236
/.notdef        % 237
/.notdef        % 238
/.notdef        % 239
/.notdef        % 240
/.notdef        % 241
/.notdef        % 242
/.notdef        % 243
/.notdef        % 244
/.notdef        % 245
/.notdef        % 246
/.notdef        % 247
/.notdef        % 248
/.notdef        % 249
/.notdef        % 250
/.notdef        % 251
/.notdef        % 252
/.notdef        % 253
/.notdef        % 254
/.notdef        % 255
] 
def

/axumfindfont
{
   /axumfont axumencoding reencode
   /axumfont findfont
}
def


/MainFont /Helvetica axumfindfont 98 scalefont def
MainFont setfont
1 setlinejoin 0 setlinecap 0 setgray
 gsave 72 630 div dup scale
 [] 0 setdash

1 setlinewidth
 2506 2232
 2506 2233 2506 2234 2505 2235 2505 2236
 2505 2237 2505 2239 2505 2240 2505 2241
 2504 2242 2504 2243 2504 2244 2503 2246
 2503 2247 2503 2248 2502 2249 2502 2251
 2501 2252 2500 2253 2500 2255 2499 2256
 2498 2257 2497 2259 2496 2260 2495 2262
 2494 2264 2493 2265 2491 2267 2490 2269
 2488 2270 2486 2272 2484 2274 2482 2276
 2480 2279 2477 2281 2474 2283 2471 2286
 2467 2288 2463 2291 2459 2294 2454 2297
 2448 2300 2441 2304 2434 2307 2425 2311
 2416 2315 2405 2320 2392 2325 2377 2330
 2359 2335 2338 2340 2313 2346 2284 2352
 2248 2358 2206 2363 2155 2368 2094 2370
 2023 2370 1941 2366 1852 2354 1762 2335
 1684 2305 1631 2267 1617 2225 1645 2183
 1708 2147 1792 2121 1882 2105 1969 2096
 2048 2093 2116 2094 2173 2098 2221 2102
 2261 2108 2294 2114 2322 2119 2345 2125
 2365 2131 2382 2136 2396 2141 2409 2145
 2419 2150 2428 2154 2437 2158 2444 2161
 2450 2165 2455 2168 2460 2171 2465 2174
 2468 2176 2472 2179 2475 2181 2478 2184
 2480 2186 2483 2188 2485 2190 2487 2192
 2489 2194 2490 2196 2492 2197 2493 2199
 2494 2201 2495 2202 2496 2204 2497 2205
 2498 2207 2499 2208 2500 2210 2501 2211
 2501 2212 2502 2214 2502 2215 2503 2216
 2503 2217 2504 2219 2504 2220 2504 2221
 2504 2222 2505 2223 2505 2224 2505 2226
 2505 2227 2505 2228 2505 2229 2506 2230
 2506 2231 2506 2232 126 3 1 roll cnp
 0.87 setgray eofill 0.0 setgray 2506 1343
 2506 1344 2506 1345 2505 1346 2505 1347
 2505 1348 2505 1349 2505 1351 2505 1352
 2504 1353 2504 1354 2504 1355 2503 1356
 2503 1358 2503 1359 2502 1360 2502 1361
 2501 1363 2500 1364 2500 1365 2499 1367
 2498 1368 2497 1370 2496 1371 2495 1373
 2494 1374 2493 1376 2491 1378 2490 1379
 2488 1381 2486 1383 2484 1385 2482 1387
 2480 1389 2477 1392 2474 1394 2471 1397
 2467 1399 2463 1402 2459 1405 2454 1408
 2448 1411 2441 1415 2434 1418 2425 1422
 2416 1426 2405 1431 2392 1435 2377 1440
 2359 1446 2338 1451 2313 1457 2284 1463
 2248 1469 2206 1474 2155 1478 2094 1481
 2023 1481 1941 1476 1852 1465 1762 1446
 1684 1416 1631 1378 1617 1335 1645 1294
 1708 1258 1792 1232 1882 1216 1969 1207
 2048 1204 2116 1205 2173 1208 2221 1213
 2261 1219 2294 1225 2322 1230 2345 1236
 2365 1241 2382 1247 2396 1252 2409 1256
 2419 1261 2428 1265 2437 1268 2444 1272
 2450 1275 2455 1279 2460 1282 2465 1284
 2468 1287 2472 1290 2475 1292 2478 1295
 2480 1297 2483 1299 2485 1301 2487 1303
 2489 1305 2490 1307 2492 1308 2493 1310
 2494 1312 2495 1313 2496 1315 2497 1316
 2498 1318 2499 1319 2500 1320 2501 1322
 2501 1323 2502 1324 2502 1326 2503 1327
 2503 1328 2504 1329 2504 1331 2504 1332
 2504 1333 2505 1334 2505 1335 2505 1336
 2505 1338 2505 1339 2505 1340 2506 1341
 2506 1342 2506 1343 126 3 1 roll cnp
 0.93 setgray eofill 0.0 setgray 0.0 setgray 2506 2232 2506 2233 2506 2234 2505 2235 2505 2236 2505 2237 2505 2239 2505 2240 2505 2241
 2504 2242 2504 2243 2504 2244 2503 2246 2503 2247 2503 2248 2502 2249 2502 2251
 2501 2252 2500 2253 2500 2255 2499 2256 2498 2257 2497 2259 2496 2260 2495 2262
 2494 2264 2493 2265 2491 2267 2490 2269 2488 2270 2486 2272 2484 2274 2482 2276
 2480 2279 2477 2281 2474 2283 2471 2286 2467 2288 2463 2291 2459 2294 2454 2297
 2448 2300 2441 2304 2434 2307 2425 2311 2416 2315 2405 2320 2392 2325 2377 2330
 2359 2335 2338 2340 2313 2346 2284 2352 2248 2358 2206 2363 2155 2368 2094 2370
 2023 2370 1941 2366 1852 2354 1762 2335 1684 2305 1631 2267 1617 2225 1645 2183
 1708 2147 1792 2121 1882 2105 1969 2096 2048 2093 2116 2094 2173 2098 2221 2102
 2261 2108 2294 2114 2322 2119 2345 2125 2365 2131 2382 2136 2396 2141 2409 2145
 2419 2150 2428 2154 2437 2158 2444 2161 2450 2165 2455 2168 2460 2171 2465 2174
 2468 2176 2472 2179 2475 2181 2478 2184 2480 2186 2483 2188 2485 2190 2487 2192
 2489 2194 2490 2196 2492 2197 2493 2199 2494 2201 101 rps
 2494 2201 2495 2202 2496 2204 2497 2205 2498 2207 2499 2208 2500 2210 2501 2211 2501 2212
 2502 2214 2502 2215 2503 2216 2503 2217 2504 2219 2504 2220 2504 2221 2504 2222
 2505 2223 2505 2224 2505 2226 2505 2227 2505 2228 2505 2229 2506 2230 2506 2231
 24 rps
 1616 1343 1645 1294 1708 1258 1792 1232 1882 1216 1969 1207 2048 1204 2116 1205 2173 1208
 2221 1213 2261 1219 2294 1225 2322 1230 2345 1236 2365 1241 2382 1247 2396 1252
 2409 1256 2419 1261 2428 1265 2437 1268 2444 1272 2450 1275 2455 1279 2460 1282
 2465 1284 2468 1287 2472 1290 2475 1292 2478 1295 2480 1297 2483 1299 2485 1301
 2487 1303 2489 1305 2490 1307 2492 1308 2493 1310 2494 1312 2495 1313 2496 1315
 2497 1316 2498 1318 2499 1319 2500 1320 2501 1322 2501 1323 2502 1324 2502 1326
 2503 1327 2503 1328 2504 1329 2504 1331 2504 1332 2504 1333 2505 1334 2505 1335
 2505 1336 2505 1338 2505 1339 2505 1340 2506 1341 2506 1342 62 rps
 [40 20] 0 setdash
 2506 1343 2506 1344 2506 1345 2505 1346 2505 1347 2505 1348 2505 1349 2505 1351 2505 1352
 2504 1353 2504 1354 2504 1355 2503 1356 2503 1358 2503 1359 2502 1360 2502 1361
 2501 1363 2500 1364 2500 1365 2499 1367 2498 1368 2497 1370 2496 1371 2495 1373
 2494 1374 2493 1376 2491 1378 2490 1379 2488 1381 2486 1383 2484 1385 2482 1387
 2480 1389 2477 1392 2474 1394 2471 1397 2467 1399 2463 1402 2459 1405 2454 1408
 2448 1411 2441 1415 2434 1418 2425 1422 2416 1426 2405 1431 2392 1435 2377 1440
 2359 1446 2338 1451 2313 1457 2284 1463 2248 1469 2206 1474 2155 1478 2094 1481
 2023 1481 1941 1476 1852 1465 1762 1446 1684 1416 1631 1378 1617 1335 1616 1343
 64 rps
 [] 0 setdash
 2061 395 2061 1283 1 rps
 2061 1283
 2076 1215 2045 1215 2061 1283 3 3 1 roll cnp
 0.00 setgray
gsave eofill grestore  0.0 setgray
 stroke 0.0 setgray 0.0 setgray 2061 2898 2061 2229 1 rps
 2061 2229
 2045 2297 2076 2297 2061 2229 3 3 1 roll cnp
 0.00 setgray
gsave eofill grestore  0.0 setgray
 stroke 0.0 setgray 0.0 setgray 2725 1342 2725 2229 1 rps
 2725 2229
 2740 2161 2709 2161 2725 2229 3 3 1 roll cnp
 0.00 setgray
gsave eofill grestore  0.0 setgray
 stroke 0.0 setgray 2725 1342
 2709 1410 2740 1410 2725 1342 3 3 1 roll cnp
 0.00 setgray
gsave eofill grestore  0.0 setgray
 stroke 0.0 setgray 0.0 setgray 1615 1342 1615 2229 1 rps
 2507 1342 2507 2229 1 rps
 3582 1074 3553 1084 3524 1094 3494 1105 3465 1114 3436 1124 3406 1134 3376 1143 3347 1152
 3317 1161 3287 1170 3257 1178 3227 1186 3198 1194 3167 1202 3137 1210 3107 1217
 3077 1224 3047 1231 3017 1238 2986 1245 2956 1251 2926 1257 2895 1263 2865 1269
 2834 1274 2803 1280 2773 1285 2742 1289 2712 1294 2681 1299 2650 1303 2619 1307
 2589 1311 2558 1314 2527 1318 2496 1321 2465 1324 2434 1326 2403 1329 2372 1331
 2341 1333 2310 1335 2279 1337 2248 1338 2217 1339 2186 1340 2155 1341 2124 1342
 2093 1342 2062 1342 2032 1342 2001 1342 1970 1341 1939 1340 1908 1339 1877 1338
 1846 1337 1815 1335 1784 1333 1753 1331 1722 1329 1691 1327 1661 1324 1630 1321
 1599 1318 1568 1314 1537 1311 1506 1307 1476 1303 1445 1299 1414 1295 1383 1290
 1353 1285 1322 1280 1292 1275 1261 1269 1231 1264 1200 1258 1170 1252 1139 1245
 1109 1239 1079 1232 1048 1225 1018 1218 988 1210 958 1203 928 1195 898 1187
 868 1179 838 1170 808 1162 779 1153 749 1144 719 1134 690 1125 660 1115
 631 1105 602 1095 572 1085 543 1074 100 rps

/Times-Italic axumfindfont 128 scalefont setfont
 2766 1751 moveto  (dr) show 

/Times-Bold axumfindfont 121 scalefont setfont
 2138 541 moveto  (F) show 

/Times-Italic axumfindfont 95 scalefont setfont
 2213 513 moveto  (P,b) show 

/Times-Bold axumfindfont 121 scalefont setfont
 2129 2679 moveto  (F) show 

/Times-Italic axumfindfont 95 scalefont setfont
 2204 2651 moveto  (P,t) show 

/Times-Italic axumfindfont 128 scalefont setfont
 1551 2411 moveto  (A) show 
 1551 1023 moveto  (A) show 
 1979 1719 moveto  (dm) show 
 1642 1096 1883 1301 1 rps
 1642 2429 1883 2238 1 rps
 grestore showpage
%Trailer
%EOF
