%!PS-Adobe-2.0 EPSF-1.2
%%BoundingBox: 0 0 468 360
%%%%DocumentFonts: /Helvetica
%%Title: Axum PostScript file
%%Creator: TriMetrix, Inc.
%%Pages: 1
%%EndComments
% Copyright 1988-1991 by TriMetrix, Inc. All rights reserved.
/downdict 4 dict def
/sdown
 {downdict begin
  /thestring exch def
  /lineskip exch def
  thestring
   {
    /charcode exch def
    /thechar ( ) dup 0 charcode put def
    0 lineskip neg rmoveto
    gsave
     thechar stringwidth pop 2 div neg 0 rmoveto
     thechar show
    grestore
   } forall
   end
  } def

/updict 4 dict def
/sup
 {updict begin
  /thestring exch def
  /lineskip exch def
  thestring 
   {
    /charcode exch def
    /thechar ( ) dup 0 charcode put def
    0 lineskip rmoveto
    gsave
     thechar stringwidth pop 2 div neg 0 rmoveto
     thechar show
    grestore
   } forall
   end
  } def

/leftdict 4 dict def
/sleft
 {leftdict begin
  /thestring exch def
  thestring
   {
    /charcode exch def
    /thechar ( ) dup 0 charcode put def
    gsave
     thechar stringwidth pop neg 0 rmoveto
     thechar show
    grestore
   } forall

   thechar stringwidth pop neg 0 rmoveto
   end
  } def

/path{newpath moveto{lineto}repeat} bind def 
/cnp{newpath moveto{lineto}repeat closepath} bind def
/clp{moveto{lineto}repeat closepath} bind def
/rps{ 3 1 roll path stroke} bind def
/rcs{ 3 1 roll clp stroke} bind def
/setF { currentscreen 4 -2 roll pop 3 1 roll setscreen} bind def
% required due to WinWord 2.0 bug:
/II { } def

/reencodedict 5 dict def
/reencode
{
   reencodedict begin
   /newencoding exch def
   /newfontname exch def
   /basefontname exch def

   /basefontdict basefontname findfont def
   /newfont basefontdict maxlength dict def

   basefontdict
   {
      exch dup dup /FID ne exch /Encoding ne and
      { exch newfont 3 1 roll put }
      { pop pop }
      ifelse
   }
   forall

   newfont /FontName newfontname put
   newfont /Encoding newencoding put
   newfontname newfont definefont pop
   end
}
def

/axumencoding
[
/.notdef        %   0
/.notdef        %   1
/.notdef        %   2
/.notdef        %   3
/.notdef        %   4
/.notdef        %   5
/.notdef        %   6
/.notdef        %   7
/.notdef        %   8
/.notdef        %   9
/.notdef        %  10
/.notdef        %  11
/.notdef        %  12
/.notdef        %  13
/.notdef        %  14
/.notdef        %  15
/.notdef        %  16
/.notdef        %  17
/.notdef        %  18
/.notdef        %  19
/.notdef        %  20
/.notdef        %  21
/.notdef        %  22
/.notdef        %  23
/.notdef        %  24
/.notdef        %  25
/.notdef        %  26
/.notdef        %  27
/.notdef        %  28
/.notdef        %  29
/.notdef        %  30
/.notdef        %  31
/space          %  32
/exclam         %  33
/quotedbl       %  34
/numbersign     %  35
/dollar         %  36
/percent        %  37
/ampersand      %  38
/quoteright     %  39
/parenleft      %  40
/parenright     %  41
/asterisk       %  42
/plus           %  43
/comma          %  44
/hyphen         %  45
/period         %  46
/slash          %  47
/zero           %  48
/one            %  49
/two            %  50
/three          %  51
/four           %  52
/five           %  53
/six            %  54
/seven          %  55
/eight          %  56
/nine           %  57
/colon          %  58
/semicolon      %  59
/less           %  60
/equal          %  61
/greater        %  62
/question       %  63
/at             %  64
/A              %  65
/B              %  66
/C              %  67
/D              %  68
/E              %  69
/F              %  70
/G              %  71
/H              %  72
/I              %  73
/J              %  74
/K              %  75
/L              %  76
/M              %  77
/N              %  78
/O              %  79
/P              %  80
/Q              %  81
/R              %  82
/S              %  83
/T              %  84
/U              %  85
/V              %  86
/W              %  87
/X              %  88
/Y              %  89
/Z              %  90
/bracketleft    %  91
/backslash      %  92
/bracketright   %  93
/asciicircum    %  94
/underscore     %  95
/quoteleft      %  96
/a              %  97
/b              %  98
/c              %  99
/d              % 100
/e              % 101
/f              % 102
/g              % 103
/h              % 104
/i              % 105
/j              % 106
/k              % 107
/l              % 108
/m              % 109
/n              % 110
/o              % 111
/p              % 112
/q              % 113
/r              % 114
/s              % 115
/t              % 116
/u              % 117
/v              % 118
/w              % 119
/x              % 120
/y              % 121
/z              % 122
/braceleft      % 123
/bar            % 124
/braceright     % 125
/asciitilde     % 126
/.notdef        % 127
/Ccedilla       % 128
/udieresis      % 129
/eacute         % 130
/acircumflex    % 131
/adieresis      % 132
/agrave         % 133
/aring          % 134
/ccedilla       % 135
/ecircumflex    % 136
/edieresis      % 137
/egrave         % 138
/idieresis      % 139
/icircumflex    % 140
/igrave         % 141
/Adieresis      % 142
/Aring          % 143
/Eacute         % 144
/ae             % 145
/AE             % 146
/ocircumflex    % 147
/odieresis      % 148
/ograve         % 149
/ucircumflex    % 150
/ugrave         % 151
/ydieresis      % 152
/Odieresis      % 153
/Udieresis      % 154
/cent           % 155
/sterling       % 156
/yen            % 157
/currency       % 158
/florin         % 159
/aacute         % 160
/iacute         % 161
/oacute         % 162
/uacute         % 163
/ntilde         % 164
/Ntilde         % 165
/ordfeminine    % 166
/ordmasculine   % 167
/questiondown   % 168
/quotedblleft   % 169
/quotedblright  % 170
/Aacute         % 171
/Acircumflex    % 172
/exclamdown     % 173
/Egrave         % 174
/Ecircumflex    % 175
/atilde         % 176
/otilde         % 177
/Edieresis      % 178
/Igrave         % 179
/oe             % 180
/OE             % 181
/Agrave         % 182
/Atilde         % 183
/Otilde         % 184
/section        % 185
/Iacute         % 186
/Icircumflex    % 187
/Idieresis      % 188
/Ograve         % 189
/Oacute         % 190
/Ocircumflex    % 191
/Ugrave         % 192
/Uacute         % 193
/Ucircumflex    % 194
/Ydieresis      % 195
/germandbls     % 196
/guillemotleft  % 197
/guillemotright % 198
/bullet         % 199
/.notdef        % 200
/.notdef        % 201
/.notdef        % 202
/.notdef        % 203
/.notdef        % 204
/.notdef        % 205
/.notdef        % 206
/.notdef        % 207
/.notdef        % 208
/.notdef        % 209
/.notdef        % 210
/.notdef        % 211
/.notdef        % 212
/.notdef        % 213
/.notdef        % 214
/.notdef        % 215
/.notdef        % 216
/.notdef        % 217
/.notdef        % 218
/.notdef        % 219
/.notdef        % 220
/.notdef        % 221
/.notdef        % 222
/.notdef        % 223
/.notdef        % 224
/.notdef        % 225
/.notdef        % 226
/.notdef        % 227
/.notdef        % 228
/.notdef        % 229
/.notdef        % 230
/.notdef        % 231
/.notdef        % 232
/.notdef        % 233
/.notdef        % 234
/.notdef        % 235
/.notdef        % 236
/.notdef        % 237
/.notdef        % 238
/.notdef        % 239
/.notdef        % 240
/.notdef        % 241
/.notdef        % 242
/.notdef        % 243
/.notdef        % 244
/.notdef        % 245
/.notdef        % 246
/.notdef        % 247
/.notdef        % 248
/.notdef        % 249
/.notdef        % 250
/.notdef        % 251
/.notdef        % 252
/.notdef        % 253
/.notdef        % 254
/.notdef        % 255
] 
def

/axumfindfont
{
   /axumfont axumencoding reencode
   /axumfont findfont
}
def


/MainFont /Helvetica axumfindfont 98 scalefont def
MainFont setfont
1 setlinejoin 0 setlinecap 0 setgray
 gsave 72 630 div dup scale
 [] 0 setdash

1 setlinewidth
 704 13
 704 587 705 587 705 588 706 588
 706 589 707 589 707 590 708 590
 709 590 709 591 710 591 710 592
 711 592 712 592 712 593 713 593
 714 593 715 593 715 594 716 594
 717 594 718 594 718 595 719 595
 720 595 721 595 722 595 723 595
 723 596 724 596 725 596 726 596
 727 596 728 596 729 596 730 596
 731 596 732 596 733 596 734 596
 735 596 736 596 737 596 738 596
 739 595 740 595 741 595 742 595
 743 595 744 595 745 595 746 594
 747 594 748 594 749 594 750 594
 751 593 752 593 753 593 754 593
 755 592 756 592 757 592 758 591
 759 591 760 591 761 591 761 590
 762 590 763 590 764 590 765 589
 766 589 767 589 768 588 769 588
 770 587 771 587 772 587 773 586
 775 586 776 585 777 585 778 584
 779 584 781 583 782 583 783 582
 785 581 786 581 788 580 789 579
 791 579 792 578 794 577 796 576
 797 575 799 575 801 574 803 573
 805 572 807 571 809 569 811 568
 813 567 815 566 817 564 820 563
 822 562 825 560 827 559 830 557
 832 555 835 554 838 552 841 550
 844 548 847 546 850 543 854 541
 857 539 860 536 864 534 868 531
 872 528 876 525 880 522 884 518
 888 515 893 511 897 507 902 504
 907 499 912 495 917 490 922 486
 928 481 933 476 939 470 945 465
 951 459 957 453 963 446 969 440
 976 433 982 426 989 418 996 411
 1002 403 1009 395 1016 386 1022 378
 1029 369 1036 360 1042 351 1048 342
 1054 332 1060 323 1065 313 1071 304
 1075 295 1080 285 1083 276 1086 267
 1089 259 1091 251 1092 243 1093 235
 1093 229 1092 222 1090 217 1088 212
 1084 208 1080 204 1076 202 1070 200
 1064 199 1058 198 1051 199 1043 200
 1035 201 1027 204 1018 207 1009 210
 999 214 990 219 981 224 971 229
 962 235 952 241 943 247 934 253
 925 260 916 266 907 273 899 280
 891 287 883 293 875 300 868 307
 860 313 854 320 847 326 840 332
 834 338 828 344 823 350 817 356
 812 362 807 367 802 372 797 378
 793 383 789 387 785 392 781 397
 777 401 774 406 770 410 767 414
 764 418 761 422 758 426 756 429
 753 433 751 436 748 440 746 443
 744 446 742 449 740 452 738 455
 736 458 735 461 733 463 731 466
 730 468 728 471 727 473 726 475
 724 477 723 480 723 13 704 13
 244 3 1 roll cnp
 0.93 setgray eofill 0.0 setgray 723 13
 723 480 722 482 721 484 720 486
 719 488 718 489 717 491 716 493
 715 495 714 497 713 498 713 500
 712 501 711 503 711 504 710 506
 709 507 709 509 708 510 707 511
 707 512 706 514 706 515 705 516
 705 517 705 518 704 520 704 521
 703 522 703 523 703 524 702 525
 702 526 702 527 701 528 701 529
 700 530 700 531 700 532 700 533
 699 534 699 535 699 536 699 537
 698 537 698 538 698 539 698 540
 698 541 697 541 697 542 697 543
 697 544 697 545 697 546 696 546
 696 547 696 548 696 549 696 550
 696 551 696 552 696 553 695 554
 695 555 695 556 695 557 695 558
 695 559 695 560 695 561 695 562
 695 563 695 564 695 565 695 566
 695 567 696 567 696 568 696 569
 696 570 696 571 696 572 696 573
 697 573 697 574 697 575 697 576
 698 576 698 577 698 578 698 579
 699 579 699 580 699 581 700 581
 700 582 701 582 701 583 701 584
 702 584 702 585 703 585 703 586
 704 586 704 587 704 13 723 13
 108 3 1 roll cnp
 0.93 setgray eofill 0.0 setgray 1093 13
 1093 235 1093 229 1092 222 1090 217
 1088 212 1084 208 1080 204 1076 202
 1070 200 1064 199 1058 198 1051 199
 1043 200 1035 201 1027 204 1018 207
 1009 210 999 214 990 219 981 224
 971 229 962 235 952 241 943 247
 934 253 925 260 916 266 907 273
 899 280 891 287 883 293 875 300
 868 307 860 313 854 320 847 326
 840 332 834 338 828 344 823 350
 817 356 812 362 807 367 802 372
 797 378 793 383 789 387 785 392
 781 397 777 401 774 406 770 410
 767 414 764 418 761 422 758 426
 756 429 753 433 751 436 748 440
 746 443 744 446 742 449 740 452
 738 455 736 458 735 461 733 463
 731 466 730 468 728 471 727 473
 726 475 724 477 723 480 722 482
 721 484 720 486 719 488 718 489
 717 491 716 493 715 495 714 497
 713 498 713 500 712 501 711 503
 711 504 710 506 709 507 709 509
 708 510 707 511 707 512 706 514
 706 515 705 516 705 517 705 518
 704 520 704 521 703 522 703 523
 703 524 702 525 702 526 702 527
 701 528 701 529 700 530 700 531
 700 532 700 533 699 534 699 535
 699 536 699 537 698 537 698 538
 698 539 698 540 698 541 697 541
 697 542 697 543 697 544 697 545
 697 546 696 546 696 547 696 548
 696 549 696 550 696 551 696 552
 696 553 695 554 695 555 695 556
 695 557 695 558 695 559 695 560
 695 561 695 13 1093 13 147 3 1 roll cnp
 1.00 setgray eofill 0.0 setgray 0.0 setgray 704 587 704 587 1 rcs

 704 587 704 587 705 587 705 587 705 587 705 588 705 588 705 588 705 588
 705 588 705 588 705 588 706 588 706 588 706 588 706 588 706 589
 706 589 706 589 706 589 706 589 706 589 707 589 707 589 707 589
 707 589 707 589 707 589 707 590 707 590 707 590 708 590 708 590
 708 590 708 590 708 590 708 590 708 590 708 590 709 590 709 590
 709 591 709 591 709 591 709 591 709 591 709 591 710 591 710 591
 710 591 710 591 710 591 710 591 710 591 710 592 711 592 711 592
 711 592 711 592 711 592 711 592 711 592 712 592 712 592 712 592
 712 592 712 592 712 592 712 593 713 593 713 593 713 593 713 593
 713 593 713 593 713 593 714 593 714 593 714 593 714 593 714 593
 714 593 715 593 715 593 715 594 715 594 715 594 715 594 716 594
 716 594 716 594 716 594 716 594 716 594 717 594 717 594 717 594
 717 594 717 594 718 594 718 594 718 594 101 rps
 718 594 718 595 718 595 719 595 719 595 719 595 719 595 719 595 720 595
 720 595 720 595 720 595 720 595 721 595 721 595 721 595 721 595
 722 595 722 595 722 595 722 595 722 595 723 595 723 595 723 595
 723 596 724 596 724 596 724 596 724 596 725 596 725 596 725 596
 726 596 726 596 726 596 726 596 727 596 727 596 727 596 728 596
 728 596 728 596 728 596 729 596 729 596 729 596 730 596 730 596
 730 596 731 596 731 596 731 596 732 596 732 596 732 596 733 596
 733 596 734 596 734 596 734 596 735 596 735 596 736 596 736 596
 736 596 737 596 737 596 738 596 738 596 739 595 739 595 740 595
 740 595 741 595 741 595 741 595 742 595 743 595 743 595 744 595
 744 595 745 595 745 595 746 594 746 594 747 594 748 594 748 594
 749 594 749 594 750 594 751 593 751 593 752 593 753 593 754 593
 754 593 755 592 756 592 756 592 757 592 101 rps
 757 592 758 591 759 591 760 591 761 591 761 590 762 590 763 590 764 590
 765 589 766 589 767 589 768 588 769 588 770 587 771 587 772 587
 773 586 775 586 776 585 777 585 778 584 779 584 781 583 782 583
 783 582 785 581 786 581 788 580 789 579 791 579 792 578 794 577
 796 576 797 575 799 575 801 574 803 573 805 572 807 571 809 569
 811 568 813 567 815 566 817 564 820 563 822 562 825 560 827 559
 830 557 832 555 835 554 838 552 841 550 844 548 847 546 850 543
 854 541 857 539 860 536 864 534 868 531 872 528 876 525 880 522
 884 518 888 515 893 511 897 507 902 504 907 499 912 495 917 490
 922 486 928 481 933 476 939 470 945 465 951 459 957 453 963 446
 969 440 976 433 982 426 989 418 996 411 1002 403 1009 395 1016 386
 1022 378 1029 369 1036 360 1042 351 1048 342 1054 332 1060 323 1065 313
 1071 304 1075 295 1080 285 1083 276 1086 267 101 rps
 1086 267 1089 259 1091 251 1092 243 1093 235 1093 229 1092 222 1090 217 1088 212
 1084 208 1080 204 1076 202 1070 200 1064 199 1058 198 1051 199 1043 200
 1035 201 1027 204 1018 207 1009 210 999 214 990 219 981 224 971 229
 962 235 952 241 943 247 934 253 925 260 916 266 907 273 899 280
 891 287 883 293 875 300 868 307 860 313 854 320 847 326 840 332
 834 338 828 344 823 350 817 356 812 362 807 367 802 372 797 378
 793 383 789 387 785 392 781 397 777 401 774 406 770 410 767 414
 764 418 761 422 758 426 756 429 753 433 751 436 748 440 746 443
 744 446 742 449 740 452 738 455 736 458 735 461 733 463 731 466
 730 468 728 471 727 473 726 475 724 477 723 480 722 482 79 rps
 722 482 721 484 720 486 719 488 718 489 717 491 716 493 715 495 714 497
 713 498 713 500 712 501 711 503 711 504 710 506 709 507 709 509
 708 510 707 511 707 512 706 514 706 515 705 516 705 517 705 518
 704 520 704 521 703 522 703 523 703 524 702 525 702 526 702 527
 701 528 701 528 701 529 700 530 700 531 700 532 700 533 699 534
 699 534 699 535 699 536 699 537 698 537 698 538 698 539 698 539
 698 540 698 541 697 541 697 542 697 543 697 543 697 544 697 544
 697 545 697 546 696 546 696 547 696 547 696 548 696 548 696 549
 696 549 696 550 696 550 696 551 696 551 696 552 696 552 696 553
 696 553 695 554 695 554 695 554 695 555 695 555 695 556 695 556
 695 557 695 557 695 557 695 558 695 558 695 558 695 559 695 559
 695 560 695 560 695 560 695 561 695 561 695 561 695 562 695 562
 695 562 695 563 695 563 695 563 695 563 101 rps
 695 563 695 564 695 564 695 564 695 565 695 565 695 565 695 565 695 566
 695 566 695 566 695 567 695 567 695 567 696 567 696 568 696 568
 696 568 696 568 696 569 696 569 696 569 696 569 696 569 696 570
 696 570 696 570 696 570 696 571 696 571 696 571 696 571 696 571
 696 572 696 572 696 572 696 572 696 572 696 573 697 573 697 573
 697 573 697 573 697 574 697 574 697 574 697 574 697 574 697 575
 697 575 697 575 697 575 697 575 697 575 697 576 697 576 697 576
 698 576 698 576 698 576 698 577 698 577 698 577 698 577 698 577
 698 577 698 578 698 578 698 578 698 578 698 578 698 578 698 579
 699 579 699 579 699 579 699 579 699 579 699 579 699 580 699 580
 699 580 699 580 699 580 699 580 699 580 699 580 699 581 700 581
 700 581 700 581 700 581 700 581 700 581 700 582 700 582 700 582
 700 582 700 582 700 582 700 582 701 582 101 rps
 701 582 701 582 701 583 701 583 701 583 701 583 701 583 701 583 701 583
 701 583 701 584 701 584 701 584 702 584 702 584 702 584 702 584
 702 584 702 584 702 585 702 585 702 585 702 585 702 585 703 585
 703 585 703 585 703 585 703 585 703 586 703 586 703 586 703 586
 703 586 703 586 703 586 704 586 704 586 704 586 704 587 704 587
 704 587 704 587 1 add 42 rps
 2117 2476 2117 2476 2118 2476 2118 2476 2118 2476 2118 2477 2119 2477 2119 2477 2119 2477
 2119 2477 2119 2478 2120 2478 2120 2478 2120 2478 2120 2478 2121 2479 2121 2479
 2121 2479 2121 2479 2122 2479 2122 2480 2122 2480 2122 2480 2122 2480 2123 2480
 2123 2481 2123 2481 2123 2481 2124 2481 2124 2481 2124 2481 2124 2482 2125 2482
 2125 2482 2125 2482 2125 2482 2126 2483 2126 2483 2126 2483 2127 2483 2127 2483
 2127 2483 2127 2484 2128 2484 2128 2484 2128 2484 2128 2484 2129 2484 2129 2485
 2129 2485 2130 2485 2130 2485 2130 2485 2130 2485 2131 2486 2131 2486 2131 2486
 2132 2486 2132 2486 2132 2486 2133 2487 2133 2487 2133 2487 2133 2487 2134 2487
 2134 2487 2134 2488 2135 2488 2135 2488 2135 2488 2136 2488 2136 2488 2136 2488
 2137 2489 2137 2489 2137 2489 2138 2489 2138 2489 2138 2489 2139 2489 2139 2490
 2139 2490 2140 2490 2140 2490 2141 2490 2141 2490 2141 2490 2142 2491 2142 2491
 2142 2491 2143 2491 2143 2491 2144 2491 2144 2491 2144 2491 2145 2492 2145 2492
 2146 2492 2146 2492 2146 2492 2147 2492 2147 2492 101 rps
 2147 2492 2148 2492 2148 2493 2149 2493 2149 2493 2149 2493 2150 2493 2150 2493 2151 2493
 2151 2493 2152 2493 2152 2494 2153 2494 2153 2494 2154 2494 2154 2494 2155 2494
 2155 2494 2156 2494 2156 2494 2157 2494 2157 2494 2158 2495 2158 2495 2159 2495
 2159 2495 2160 2495 2161 2495 2161 2495 2162 2495 2162 2495 2163 2495 2163 2495
 2164 2495 2165 2495 2165 2495 2166 2495 2167 2496 2167 2496 2168 2496 2168 2496
 2169 2496 2170 2496 2170 2496 2171 2496 2172 2496 2173 2496 2173 2496 2174 2496
 2175 2496 2176 2496 2176 2496 2177 2496 2178 2496 2179 2496 2179 2496 2180 2496
 2181 2496 2182 2496 2183 2496 2184 2496 2184 2496 2185 2496 2186 2496 2187 2496
 2188 2495 2189 2495 2190 2495 2191 2495 2192 2495 2193 2495 2194 2495 2195 2495
 2196 2495 2197 2495 2198 2494 2199 2494 2200 2494 2201 2494 2202 2494 2204 2494
 2205 2493 2206 2493 2207 2493 2208 2493 2210 2493 2211 2492 2212 2492 2214 2492
 2215 2492 2216 2491 2218 2491 2219 2491 2221 2490 2222 2490 2224 2490 2225 2489
 2227 2489 2228 2489 2230 2488 2232 2488 2233 2487 101 rps
 2233 2487 2235 2487 2237 2486 2239 2486 2240 2485 2242 2485 2244 2484 2246 2483 2248 2483
 2250 2482 2252 2482 2254 2481 2256 2480 2259 2479 2261 2479 2263 2478 2266 2477
 2268 2476 2271 2475 2273 2474 2276 2473 2278 2472 2281 2471 2284 2470 2287 2468
 2290 2467 2293 2466 2296 2465 2299 2463 2302 2462 2305 2460 2309 2459 2312 2457
 2316 2455 2319 2453 2323 2452 2327 2450 2331 2448 2335 2446 2339 2443 2344 2441
 2348 2439 2353 2436 2357 2434 2362 2431 2367 2428 2372 2425 2377 2422 2383 2419
 2388 2415 2394 2412 2400 2408 2406 2405 2412 2401 2418 2396 2425 2392 2432 2387
 2439 2383 2446 2378 2453 2373 2461 2367 2469 2361 2477 2355 2486 2349 2494 2343
 2503 2336 2512 2329 2522 2321 2531 2314 2542 2305 2552 2297 2563 2288 2573 2279
 2585 2269 2596 2259 2608 2248 2620 2237 2633 2225 2646 2213 2659 2200 2672 2187
 2686 2174 2700 2159 2714 2144 2729 2129 2743 2113 2758 2096 2773 2079 2788 2061
 2803 2043 2818 2024 2833 2005 2848 1985 2863 1965 2877 1945 2891 1924 2905 1903
 2918 1881 2930 1860 2942 1839 2952 1818 2962 1797 101 rps
 2962 1797 2970 1776 2977 1756 2983 1737 2988 1719 2991 1701 2992 1685 2991 1669 2989 1656
 2986 1643 2980 1632 2973 1623 2964 1615 2953 1609 2941 1604 2928 1602 2913 1601
 2897 1602 2880 1604 2862 1608 2843 1613 2823 1620 2802 1628 2782 1637 2761 1648
 2739 1659 2718 1671 2697 1684 2676 1697 2655 1711 2634 1725 2614 1740 2594 1755
 2575 1770 2556 1785 2537 1800 2519 1815 2502 1830 2485 1845 2469 1859 2453 1874
 2438 1888 2424 1902 2410 1916 2396 1930 2384 1943 2371 1956 2360 1968 2348 1981
 2338 1993 2327 2004 2317 2016 2308 2027 2299 2038 2290 2048 2282 2058 2274 2068
 2266 2078 2259 2087 2252 2096 2246 2105 2239 2113 2233 2121 2227 2129 2222 2137
 2217 2144 2212 2152 2207 2159 2202 2166 2198 2172 2194 2179 2190 2185 2186 2191
 2182 2197 2178 2203 2175 2208 2172 2214 2169 2219 2166 2224 2163 2229 2160 2234
 2157 2239 81 rps
 2157 2239 2155 2243 2152 2248 2150 2252 2148 2256 2146 2260 2144 2264 2142 2268 2140 2272
 2138 2276 2136 2279 2135 2283 2133 2286 2132 2290 2130 2293 2129 2296 2127 2299
 2126 2302 2125 2305 2123 2308 2122 2311 2121 2314 2120 2316 2119 2319 2118 2321
 2117 2324 2116 2326 2115 2329 2115 2331 2114 2333 2113 2336 2112 2338 2111 2340
 2111 2342 2110 2344 2109 2346 2109 2348 2108 2350 2108 2352 2107 2354 2107 2355
 2106 2357 2106 2359 2105 2361 2105 2362 2104 2364 2104 2366 2104 2367 2103 2369
 2103 2370 2102 2372 2102 2373 2102 2375 2102 2376 2101 2377 2101 2379 2101 2380
 2100 2381 2100 2383 2100 2384 2100 2385 2100 2386 2099 2388 2099 2389 2099 2390
 2099 2391 2099 2392 2099 2393 2098 2394 2098 2396 2098 2397 2098 2398 2098 2399
 2098 2400 2098 2401 2098 2402 2098 2403 2097 2404 2097 2405 2097 2405 2097 2406
 2097 2407 2097 2408 2097 2409 2097 2410 2097 2411 2097 2412 2097 2412 2097 2413
 2097 2414 2097 2415 2097 2416 2097 2416 2097 2417 2097 2418 2097 2419 2097 2419
 2097 2420 2097 2421 2097 2421 2097 2422 2097 2423 101 rps
 2097 2423 2097 2423 2097 2424 2097 2425 2097 2425 2097 2426 2097 2427 2097 2427 2097 2428
 2097 2429 2098 2429 2098 2430 2098 2430 2098 2431 2098 2431 2098 2432 2098 2433
 2098 2433 2098 2434 2098 2434 2098 2435 2098 2435 2098 2436 2098 2436 2099 2437
 2099 2437 2099 2438 2099 2438 2099 2439 2099 2439 2099 2440 2099 2440 2099 2441
 2099 2441 2100 2442 2100 2442 2100 2443 2100 2443 2100 2444 2100 2444 2100 2444
 2100 2445 2100 2445 2101 2446 2101 2446 2101 2447 2101 2447 2101 2447 2101 2448
 2101 2448 2101 2449 2102 2449 2102 2449 2102 2450 2102 2450 2102 2451 2102 2451
 2102 2451 2102 2452 2103 2452 2103 2452 2103 2453 2103 2453 2103 2454 2103 2454
 2103 2454 2104 2455 2104 2455 2104 2455 2104 2456 2104 2456 2104 2456 2104 2457
 2105 2457 2105 2457 2105 2458 2105 2458 2105 2458 2105 2459 2105 2459 2106 2459
 2106 2460 2106 2460 2106 2460 2106 2460 2106 2461 2107 2461 2107 2461 2107 2462
 2107 2462 2107 2462 2107 2463 2108 2463 2108 2463 2108 2463 2108 2464 2108 2464
 2108 2464 2109 2465 2109 2465 2109 2465 2109 2465 101 rps
 2109 2465 2109 2466 2109 2466 2110 2466 2110 2466 2110 2467 2110 2467 2110 2467 2110 2467
 2111 2468 2111 2468 2111 2468 2111 2469 2111 2469 2112 2469 2112 2469 2112 2470
 2112 2470 2112 2470 2113 2470 2113 2470 2113 2471 2113 2471 2113 2471 2113 2471
 2114 2472 2114 2472 2114 2472 2114 2472 2114 2473 2115 2473 2115 2473 2115 2473
 2115 2473 2115 2474 2116 2474 2116 2474 2116 2474 2116 2475 2117 2475 2117 2475
 2117 2475 2117 2475 1 add 42 rps
 2117 2476 2117 2476 2118 2476 2118 2476 2118 2476 2118 2477 2119 2477 2119 2477 2119 2477
 2119 2477 2119 2478 2120 2478 2120 2478 2120 2478 2120 2478 2121 2479 2121 2479
 2121 2479 2121 2479 2122 2479 2122 2480 2122 2480 2122 2480 2122 2480 2123 2480
 2123 2481 2123 2481 2123 2481 2124 2481 2124 2481 2124 2481 2124 2482 2125 2482
 2125 2482 2125 2482 2125 2482 2126 2483 2126 2483 2126 2483 2127 2483 2127 2483
 2127 2483 2127 2484 2128 2484 2128 2484 2128 2484 2128 2484 2129 2484 2129 2485
 2129 2485 2130 2485 2130 2485 2130 2485 2130 2485 2131 2486 2131 2486 2131 2486
 2132 2486 2132 2486 2132 2486 2133 2487 2133 2487 2133 2487 2133 2487 2134 2487
 2134 2487 2134 2488 2135 2488 2135 2488 2135 2488 2136 2488 2136 2488 2136 2488
 2137 2489 2137 2489 2137 2489 2138 2489 2138 2489 2138 2489 2139 2489 2139 2490
 2139 2490 2140 2490 2140 2490 2141 2490 2141 2490 2141 2490 2142 2491 2142 2491
 2142 2491 2143 2491 2143 2491 2144 2491 2144 2491 2144 2491 2145 2492 2145 2492
 2146 2492 2146 2492 2146 2492 2147 2492 2147 2492 101 rps
 2147 2492 2148 2492 2148 2493 2149 2493 2149 2493 2149 2493 2150 2493 2150 2493 2151 2493
 2151 2493 2152 2493 2152 2494 2153 2494 2153 2494 2154 2494 2154 2494 2155 2494
 2155 2494 2156 2494 2156 2494 2157 2494 2157 2494 2158 2495 2158 2495 2159 2495
 2159 2495 2160 2495 2161 2495 2161 2495 2162 2495 2162 2495 2163 2495 2163 2495
 2164 2495 2165 2495 2165 2495 2166 2495 2167 2496 2167 2496 2168 2496 2168 2496
 2169 2496 2170 2496 2170 2496 2171 2496 2172 2496 2173 2496 2173 2496 2174 2496
 2175 2496 2176 2496 2176 2496 2177 2496 2178 2496 2179 2496 2179 2496 2180 2496
 2181 2496 2182 2496 2183 2496 2184 2496 2184 2496 2185 2496 2186 2496 2187 2496
 2188 2495 2189 2495 2190 2495 2191 2495 2192 2495 2193 2495 2194 2495 2195 2495
 2196 2495 2197 2495 2198 2494 2199 2494 2200 2494 2201 2494 2202 2494 2204 2494
 2205 2493 2206 2493 2207 2493 2208 2493 2210 2493 2211 2492 2212 2492 2214 2492
 2215 2492 2216 2491 2218 2491 2219 2491 2221 2490 2222 2490 2224 2490 2225 2489
 2227 2489 2228 2489 2230 2488 2232 2488 2233 2487 101 rps
 2233 2487 2235 2487 2237 2486 2239 2486 2240 2485 2242 2485 2244 2484 2246 2483 2248 2483
 2250 2482 2252 2482 2254 2481 2256 2480 2259 2479 2261 2479 2263 2478 2266 2477
 2268 2476 2271 2475 2273 2474 2276 2473 2278 2472 2281 2471 2284 2470 2287 2468
 2290 2467 2293 2466 2296 2465 2299 2463 2302 2462 2305 2460 2309 2459 2312 2457
 2316 2455 2319 2453 2323 2452 2327 2450 2331 2448 2335 2446 2339 2443 2344 2441
 2348 2439 2353 2436 2357 2434 2362 2431 2367 2428 2372 2425 2377 2422 2383 2419
 2388 2415 2394 2412 2400 2408 2406 2405 2412 2401 2418 2396 2425 2392 2432 2387
 2439 2383 2446 2378 2453 2373 2461 2367 2469 2361 2477 2355 2486 2349 2494 2343
 2503 2336 2512 2329 2522 2321 2531 2314 2542 2305 2552 2297 2563 2288 2573 2279
 2585 2269 2596 2259 2608 2248 2620 2237 2633 2225 2646 2213 2659 2200 2672 2187
 2686 2174 2700 2159 2714 2144 2729 2129 2743 2113 2758 2096 2773 2079 2788 2061
 2803 2043 2818 2024 2833 2005 2848 1985 2863 1965 2877 1945 2891 1924 2905 1903
 2918 1881 2930 1860 2942 1839 2952 1818 2962 1797 101 rps
 2962 1797 2970 1776 2977 1756 2983 1737 2988 1719 2991 1701 2992 1685 2991 1669 2989 1656
 2986 1643 2980 1632 2973 1623 2964 1615 2953 1609 2941 1604 2928 1602 2913 1601
 2897 1602 2880 1604 2862 1608 2843 1613 2823 1620 2802 1628 2782 1637 2761 1648
 2739 1659 2718 1671 2697 1684 2676 1697 2655 1711 2634 1725 2614 1740 2594 1755
 2575 1770 2556 1785 2537 1800 2519 1815 2502 1830 2485 1845 2469 1859 2453 1874
 2438 1888 2424 1902 2410 1916 2396 1930 2384 1943 2371 1956 2360 1968 2348 1981
 2338 1993 2327 2004 2317 2016 2308 2027 2299 2038 2290 2048 2282 2058 2274 2068
 2266 2078 2259 2087 2252 2096 2246 2105 2239 2113 2233 2121 2227 2129 2222 2137
 2217 2144 2212 2152 2207 2159 2202 2166 2198 2172 2194 2179 2190 2185 2186 2191
 2182 2197 2178 2203 2175 2208 2172 2214 2169 2219 2166 2224 2163 2229 2160 2234
 2157 2239 81 rps
 2157 2239 2155 2243 2152 2248 2150 2252 2148 2256 2146 2260 2144 2264 2142 2268 2140 2272
 2138 2276 2136 2279 2135 2283 2133 2286 2132 2290 2130 2293 2129 2296 2127 2299
 2126 2302 2125 2305 2123 2308 2122 2311 2121 2314 2120 2316 2119 2319 2118 2321
 2117 2324 2116 2326 2115 2329 2115 2331 2114 2333 2113 2336 2112 2338 2111 2340
 2111 2342 2110 2344 2109 2346 2109 2348 2108 2350 2108 2352 2107 2354 2107 2355
 2106 2357 2106 2359 2105 2361 2105 2362 2104 2364 2104 2366 2104 2367 2103 2369
 2103 2370 2102 2372 2102 2373 2102 2375 2102 2376 2101 2377 2101 2379 2101 2380
 2100 2381 2100 2383 2100 2384 2100 2385 2100 2386 2099 2388 2099 2389 2099 2390
 2099 2391 2099 2392 2099 2393 2098 2394 2098 2396 2098 2397 2098 2398 2098 2399
 2098 2400 2098 2401 2098 2402 2098 2403 2097 2404 2097 2405 2097 2405 2097 2406
 2097 2407 2097 2408 2097 2409 2097 2410 2097 2411 2097 2412 2097 2412 2097 2413
 2097 2414 2097 2415 2097 2416 2097 2416 2097 2417 2097 2418 2097 2419 2097 2419
 2097 2420 2097 2421 2097 2421 2097 2422 2097 2423 101 rps
 2097 2423 2097 2423 2097 2424 2097 2425 2097 2425 2097 2426 2097 2427 2097 2427 2097 2428
 2097 2429 2098 2429 2098 2430 2098 2430 2098 2431 2098 2431 2098 2432 2098 2433
 2098 2433 2098 2434 2098 2434 2098 2435 2098 2435 2098 2436 2098 2436 2099 2437
 2099 2437 2099 2438 2099 2438 2099 2439 2099 2439 2099 2440 2099 2440 2099 2441
 2099 2441 2100 2442 2100 2442 2100 2443 2100 2443 2100 2444 2100 2444 2100 2444
 2100 2445 2100 2445 2101 2446 2101 2446 2101 2447 2101 2447 2101 2447 2101 2448
 2101 2448 2101 2449 2102 2449 2102 2449 2102 2450 2102 2450 2102 2451 2102 2451
 2102 2451 2102 2452 2103 2452 2103 2452 2103 2453 2103 2453 2103 2454 2103 2454
 2103 2454 2104 2455 2104 2455 2104 2455 2104 2456 2104 2456 2104 2456 2104 2457
 2105 2457 2105 2457 2105 2458 2105 2458 2105 2458 2105 2459 2105 2459 2106 2459
 2106 2460 2106 2460 2106 2460 2106 2460 2106 2461 2107 2461 2107 2461 2107 2462
 2107 2462 2107 2462 2107 2463 2108 2463 2108 2463 2108 2463 2108 2464 2108 2464
 2108 2464 2109 2465 2109 2465 2109 2465 2109 2465 101 rps
 2109 2465 2109 2466 2109 2466 2110 2466 2110 2466 2110 2467 2110 2467 2110 2467 2110 2467
 2111 2468 2111 2468 2111 2468 2111 2469 2111 2469 2112 2469 2112 2469 2112 2470
 2112 2470 2112 2470 2113 2470 2113 2470 2113 2471 2113 2471 2113 2471 2113 2471
 2114 2472 2114 2472 2114 2472 2114 2472 2114 2473 2115 2473 2115 2473 2115 2473
 2115 2473 2115 2474 2116 2474 2116 2474 2116 2474 2116 2475 2117 2475 2117 2475
 2117 2475 2117 2475 42 rps
 [80 20] 0 setdash
 891 395 2129 1346 1 rps
 [] 0 setdash
 2129 1346
 2071 1273 2043 1309 2129 1346 3 3 1 roll cnp
 0.00 setgray
gsave eofill grestore  0.0 setgray
 stroke 0.0 setgray 0.0 setgray [80 20] 0 setdash
 891 395 1842 1633 1 rps
 [] 0 setdash
 1842 1633
 1805 1547 1769 1575 1842 1633 3 3 1 roll cnp
 0.00 setgray
gsave eofill grestore  0.0 setgray
 stroke 0.0 setgray 0.0 setgray 891 395 2113 2473 1 rps
 891 395 2970 1617 1 rps

/Times-Italic axumfindfont 213 scalefont setfont
 727 818 moveto  (d) show 

/Symbol findfont 206 scalefont setfont
 833 818 moveto  (s) show 
 818 787 818 455 1 rps
 grestore showpage
%Trailer
%EOF
