%!PS-Adobe-2.0 EPSF-1.2
%%BoundingBox: 0 0 468 360
%%%%DocumentFonts: /Helvetica
%%Title: Axum PostScript file
%%Creator: TriMetrix, Inc.
%%Pages: 1
%%EndComments
% Copyright 1988-1991 by TriMetrix, Inc. All rights reserved.
/downdict 4 dict def
/sdown
 {downdict begin
  /thestring exch def
  /lineskip exch def
  thestring
   {
    /charcode exch def
    /thechar ( ) dup 0 charcode put def
    0 lineskip neg rmoveto
    gsave
     thechar stringwidth pop 2 div neg 0 rmoveto
     thechar show
    grestore
   } forall
   end
  } def

/updict 4 dict def
/sup
 {updict begin
  /thestring exch def
  /lineskip exch def
  thestring 
   {
    /charcode exch def
    /thechar ( ) dup 0 charcode put def
    0 lineskip rmoveto
    gsave
     thechar stringwidth pop 2 div neg 0 rmoveto
     thechar show
    grestore
   } forall
   end
  } def

/leftdict 4 dict def
/sleft
 {leftdict begin
  /thestring exch def
  thestring
   {
    /charcode exch def
    /thechar ( ) dup 0 charcode put def
    gsave
     thechar stringwidth pop neg 0 rmoveto
     thechar show
    grestore
   } forall

   thechar stringwidth pop neg 0 rmoveto
   end
  } def

/path{newpath moveto{lineto}repeat} bind def 
/cnp{newpath moveto{lineto}repeat closepath} bind def
/clp{moveto{lineto}repeat closepath} bind def
/rps{ 3 1 roll path stroke} bind def
/rcs{ 3 1 roll clp stroke} bind def
/setF { currentscreen 4 -2 roll pop 3 1 roll setscreen} bind def
% required due to WinWord 2.0 bug:
/II { } def

/reencodedict 5 dict def
/reencode
{
   reencodedict begin
   /newencoding exch def
   /newfontname exch def
   /basefontname exch def

   /basefontdict basefontname findfont def
   /newfont basefontdict maxlength dict def

   basefontdict
   {
      exch dup dup /FID ne exch /Encoding ne and
      { exch newfont 3 1 roll put }
      { pop pop }
      ifelse
   }
   forall

   newfont /FontName newfontname put
   newfont /Encoding newencoding put
   newfontname newfont definefont pop
   end
}
def

/axumencoding
[
/.notdef        %   0
/.notdef        %   1
/.notdef        %   2
/.notdef        %   3
/.notdef        %   4
/.notdef        %   5
/.notdef        %   6
/.notdef        %   7
/.notdef        %   8
/.notdef        %   9
/.notdef        %  10
/.notdef        %  11
/.notdef        %  12
/.notdef        %  13
/.notdef        %  14
/.notdef        %  15
/.notdef        %  16
/.notdef        %  17
/.notdef        %  18
/.notdef        %  19
/.notdef        %  20
/.notdef        %  21
/.notdef        %  22
/.notdef        %  23
/.notdef        %  24
/.notdef        %  25
/.notdef        %  26
/.notdef        %  27
/.notdef        %  28
/.notdef        %  29
/.notdef        %  30
/.notdef        %  31
/space          %  32
/exclam         %  33
/quotedbl       %  34
/numbersign     %  35
/dollar         %  36
/percent        %  37
/ampersand      %  38
/quoteright     %  39
/parenleft      %  40
/parenright     %  41
/asterisk       %  42
/plus           %  43
/comma          %  44
/hyphen         %  45
/period         %  46
/slash          %  47
/zero           %  48
/one            %  49
/two            %  50
/three          %  51
/four           %  52
/five           %  53
/six            %  54
/seven          %  55
/eight          %  56
/nine           %  57
/colon          %  58
/semicolon      %  59
/less           %  60
/equal          %  61
/greater        %  62
/question       %  63
/at             %  64
/A              %  65
/B              %  66
/C              %  67
/D              %  68
/E              %  69
/F              %  70
/G              %  71
/H              %  72
/I              %  73
/J              %  74
/K              %  75
/L              %  76
/M              %  77
/N              %  78
/O              %  79
/P              %  80
/Q              %  81
/R              %  82
/S              %  83
/T              %  84
/U              %  85
/V              %  86
/W              %  87
/X              %  88
/Y              %  89
/Z              %  90
/bracketleft    %  91
/backslash      %  92
/bracketright   %  93
/asciicircum    %  94
/underscore     %  95
/quoteleft      %  96
/a              %  97
/b              %  98
/c              %  99
/d              % 100
/e              % 101
/f              % 102
/g              % 103
/h              % 104
/i              % 105
/j              % 106
/k              % 107
/l              % 108
/m              % 109
/n              % 110
/o              % 111
/p              % 112
/q              % 113
/r              % 114
/s              % 115
/t              % 116
/u              % 117
/v              % 118
/w              % 119
/x              % 120
/y              % 121
/z              % 122
/braceleft      % 123
/bar            % 124
/braceright     % 125
/asciitilde     % 126
/.notdef        % 127
/Ccedilla       % 128
/udieresis      % 129
/eacute         % 130
/acircumflex    % 131
/adieresis      % 132
/agrave         % 133
/aring          % 134
/ccedilla       % 135
/ecircumflex    % 136
/edieresis      % 137
/egrave         % 138
/idieresis      % 139
/icircumflex    % 140
/igrave         % 141
/Adieresis      % 142
/Aring          % 143
/Eacute         % 144
/ae             % 145
/AE             % 146
/ocircumflex    % 147
/odieresis      % 148
/ograve         % 149
/ucircumflex    % 150
/ugrave         % 151
/ydieresis      % 152
/Odieresis      % 153
/Udieresis      % 154
/cent           % 155
/sterling       % 156
/yen            % 157
/currency       % 158
/florin         % 159
/aacute         % 160
/iacute         % 161
/oacute         % 162
/uacute         % 163
/ntilde         % 164
/Ntilde         % 165
/ordfeminine    % 166
/ordmasculine   % 167
/questiondown   % 168
/quotedblleft   % 169
/quotedblright  % 170
/Aacute         % 171
/Acircumflex    % 172
/exclamdown     % 173
/Egrave         % 174
/Ecircumflex    % 175
/atilde         % 176
/otilde         % 177
/Edieresis      % 178
/Igrave         % 179
/oe             % 180
/OE             % 181
/Agrave         % 182
/Atilde         % 183
/Otilde         % 184
/section        % 185
/Iacute         % 186
/Icircumflex    % 187
/Idieresis      % 188
/Ograve         % 189
/Oacute         % 190
/Ocircumflex    % 191
/Ugrave         % 192
/Uacute         % 193
/Ucircumflex    % 194
/Ydieresis      % 195
/germandbls     % 196
/guillemotleft  % 197
/guillemotright % 198
/bullet         % 199
/.notdef        % 200
/.notdef        % 201
/.notdef        % 202
/.notdef        % 203
/.notdef        % 204
/.notdef        % 205
/.notdef        % 206
/.notdef        % 207
/.notdef        % 208
/.notdef        % 209
/.notdef        % 210
/.notdef        % 211
/.notdef        % 212
/.notdef        % 213
/.notdef        % 214
/.notdef        % 215
/.notdef        % 216
/.notdef        % 217
/.notdef        % 218
/.notdef        % 219
/.notdef        % 220
/.notdef        % 221
/.notdef        % 222
/.notdef        % 223
/.notdef        % 224
/.notdef        % 225
/.notdef        % 226
/.notdef        % 227
/.notdef        % 228
/.notdef        % 229
/.notdef        % 230
/.notdef        % 231
/.notdef        % 232
/.notdef        % 233
/.notdef        % 234
/.notdef        % 235
/.notdef        % 236
/.notdef        % 237
/.notdef        % 238
/.notdef        % 239
/.notdef        % 240
/.notdef        % 241
/.notdef        % 242
/.notdef        % 243
/.notdef        % 244
/.notdef        % 245
/.notdef        % 246
/.notdef        % 247
/.notdef        % 248
/.notdef        % 249
/.notdef        % 250
/.notdef        % 251
/.notdef        % 252
/.notdef        % 253
/.notdef        % 254
/.notdef        % 255
] 
def

/axumfindfont
{
   /axumfont axumencoding reencode
   /axumfont findfont
}
def


/MainFont /Helvetica axumfindfont 98 scalefont def
MainFont setfont
1 setlinejoin 0 setlinecap 0 setgray
 gsave 72 630 div dup scale
 [] 0 setdash

1 setlinewidth
 1546 1344
 181 576 2569 576 3934 1344 1546 1344
 4 3 1 roll cnp
 0.93 setgray eofill 0.0 setgray 1716 1088
 2408 1883 2787 1700 1716 1088 3 3 1 roll cnp
 1.00 setgray eofill 0.0 setgray 3934 1956
 2640 1956 2638 1955 2636 1954 2634 1953
 2632 1953 2630 1952 2628 1951 2626 1950
 2624 1949 2622 1949 2620 1948 2617 1947
 2615 1946 2613 1945 2611 1944 2609 1944
 2607 1943 2605 1942 2602 1941 2600 1940
 2598 1940 2596 1939 2594 1938 2592 1937
 2589 1936 2587 1936 2585 1935 2583 1934
 2580 1933 2578 1933 2576 1932 2574 1931
 2572 1930 2569 1929 2567 1929 2565 1928
 2562 1927 2560 1926 2558 1926 2556 1925
 2553 1924 2551 1923 2549 1923 2546 1922
 2544 1921 2542 1920 2539 1920 2537 1919
 2535 1918 2532 1917 2530 1917 2528 1916
 2525 1915 2523 1914 2521 1914 2518 1913
 2516 1912 2513 1912 2511 1911 2509 1910
 2506 1909 2504 1909 2501 1908 2499 1907
 2497 1907 2494 1906 2492 1905 2489 1904
 2487 1904 2484 1903 2482 1902 2479 1902
 2477 1901 2474 1900 2472 1900 2469 1899
 2467 1898 2464 1898 2462 1897 2459 1896
 2457 1896 2454 1895 2452 1894 2449 1894
 2447 1893 2444 1892 2442 1892 2439 1891
 2437 1890 2434 1890 2432 1889 2429 1888
 2426 1888 2424 1887 2421 1886 2419 1886
 2416 1885 2413 1884 2411 1884 2408 1883
 2409 1881 2411 1878 2412 1875 2413 1873
 2414 1870 2415 1868 2417 1865 2418 1862
 2419 1860 2420 1857 2421 1855 2423 1852
 2424 1849 2425 1847 2426 1844 2427 1841
 2429 1839 2430 1836 2431 1834 2432 1831
 2433 1828 2435 1826 2436 1823 2437 1820
 2438 1818 2439 1815 2440 1812 2441 1810
 2443 1807 2444 1804 2445 1802 2446 1799
 2447 1796 2448 1794 2450 1791 2451 1788
 2452 1786 2453 1783 2454 1780 2455 1778
 2456 1775 2457 1772 2459 1770 2460 1767
 2461 1764 2462 1761 2463 1759 2464 1756
 2465 1753 2466 1751 2468 1748 2469 1745
 2470 1743 2471 1740 2472 1737 2473 1734
 2474 1732 2475 1729 2476 1726 2477 1723
 2478 1721 2480 1718 2481 1715 2482 1713
 2483 1710 2484 1707 2485 1704 2486 1702
 2487 1699 2488 1696 2489 1693 2490 1691
 2491 1688 2492 1685 2493 1682 2494 1680
 2495 1677 2497 1674 2498 1671 2499 1669
 2500 1666 2501 1663 2502 1660 2503 1657
 2504 1655 2505 1652 2506 1649 2507 1646
 2508 1644 2509 1641 2510 1638 2511 1635
 2512 1632 2513 1630 2514 1627 2515 1624
 2516 1621 2517 1618 2518 1616 3934 1616
 3934 1956 201 3 1 roll cnp
 0.87 setgray eofill 0.0 setgray 3934 1616
 2518 1616 2521 1616 2524 1617 2527 1618
 2530 1619 2533 1619 2536 1620 2539 1621
 2542 1622 2545 1622 2548 1623 2551 1624
 2554 1625 2557 1625 2560 1626 2563 1627
 2566 1628 2568 1628 2571 1629 2574 1630
 2577 1631 2580 1631 2583 1632 2586 1633
 2589 1634 2592 1635 2595 1635 2597 1636
 2600 1637 2603 1638 2606 1639 2609 1639
 2612 1640 2615 1641 2617 1642 2620 1643
 2623 1644 2626 1644 2629 1645 2631 1646
 2634 1647 2637 1648 2640 1648 2643 1649
 2645 1650 2648 1651 2651 1652 2654 1653
 2656 1654 2659 1654 2662 1655 2664 1656
 2667 1657 2670 1658 2673 1659 2675 1660
 2678 1660 2681 1661 2683 1662 2686 1663
 2689 1664 2691 1665 2694 1666 2697 1667
 2699 1667 2702 1668 2704 1669 2707 1670
 2710 1671 2712 1672 2715 1673 2717 1674
 2720 1675 2723 1676 2725 1676 2728 1677
 2730 1678 2733 1679 2735 1680 2738 1681
 2740 1682 2743 1683 2745 1684 2748 1685
 2750 1686 2753 1687 2755 1688 2758 1688
 2760 1689 2763 1690 2765 1691 2768 1692
 2770 1693 2772 1694 2775 1695 2777 1696
 2780 1697 2782 1698 2784 1699 2787 1700
 2785 1703 2784 1705 2783 1708 2781 1711
 2780 1713 2779 1716 2777 1719 2776 1721
 2775 1724 2773 1727 2772 1729 2771 1732
 2769 1735 2768 1737 2767 1740 2765 1743
 2764 1745 2762 1748 2761 1751 2760 1753
 2758 1756 2757 1759 2756 1761 2754 1764
 2753 1767 2751 1769 2750 1772 2748 1775
 2747 1777 2746 1780 2744 1783 2743 1785
 2741 1788 2740 1790 2739 1793 2737 1796
 2736 1798 2734 1801 2733 1803 2731 1806
 2730 1809 2728 1811 2727 1814 2725 1817
 2724 1819 2723 1822 2721 1824 2720 1827
 2718 1830 2717 1832 2715 1835 2714 1837
 2712 1840 2711 1842 2709 1845 2708 1848
 2706 1850 2705 1853 2703 1855 2702 1858
 2700 1860 2699 1863 2697 1866 2696 1868
 2694 1871 2693 1873 2691 1876 2689 1878
 2688 1881 2686 1883 2685 1886 2683 1888
 2682 1891 2680 1894 2679 1896 2677 1899
 2676 1901 2674 1904 2672 1906 2671 1909
 2669 1911 2668 1914 2666 1916 2664 1919
 2663 1921 2661 1924 2660 1926 2658 1929
 2657 1931 2655 1934 2653 1936 2652 1939
 2650 1941 2648 1944 2647 1946 2645 1949
 2644 1951 2642 1954 2640 1956 3934 1956
 3934 1616 201 3 1 roll cnp
 1.00 setgray eofill 0.0 setgray 0.0 setgray 2640 1956 2638 1955 2636 1954 2634 1953 2632 1953 2630 1952 2628 1951 2626 1950 2624 1949
 2622 1949 2620 1948 2617 1947 2615 1946 2613 1945 2611 1944 2609 1944 2607 1943
 2605 1942 2602 1941 2600 1940 2598 1940 2596 1939 2594 1938 2592 1937 2589 1936
 2587 1936 2585 1935 2583 1934 2580 1933 2578 1933 2576 1932 2574 1931 2572 1930
 2569 1929 2567 1929 2565 1928 2562 1927 2560 1926 2558 1926 2556 1925 2553 1924
 2551 1923 2549 1923 2546 1922 2544 1921 2542 1920 2539 1920 2537 1919 2535 1918
 2532 1917 2530 1917 2528 1916 2525 1915 2523 1914 2521 1914 2518 1913 2516 1912
 2513 1912 2511 1911 2509 1910 2506 1909 2504 1909 2501 1908 2499 1907 2497 1907
 2494 1906 2492 1905 2489 1904 2487 1904 2484 1903 2482 1902 2479 1902 2477 1901
 2474 1900 2472 1900 2469 1899 2467 1898 2464 1898 2462 1897 2459 1896 2457 1896
 2454 1895 2452 1894 2449 1894 2447 1893 2444 1892 2442 1892 2439 1891 2437 1890
 2434 1890 2432 1889 2429 1888 2426 1888 2424 1887 2421 1886 2419 1886 2416 1885
 2413 1884 2411 1884 2408 1883 2408 1883 2409 1881 101 rps
 2409 1881 2411 1878 2412 1875 2413 1873 2414 1870 2415 1868 2417 1865 2418 1862 2419 1860
 2420 1857 2421 1855 2423 1852 2424 1849 2425 1847 2426 1844 2427 1841 2429 1839
 2430 1836 2431 1834 2432 1831 2433 1828 2435 1826 2436 1823 2437 1820 2438 1818
 2439 1815 2440 1812 2441 1810 2443 1807 2444 1804 2445 1802 2446 1799 2447 1796
 2448 1794 2450 1791 2451 1788 2452 1786 2453 1783 2454 1780 2455 1778 2456 1775
 2457 1772 2459 1770 2460 1767 2461 1764 2462 1761 2463 1759 2464 1756 2465 1753
 2466 1751 2468 1748 2469 1745 2470 1743 2471 1740 2472 1737 2473 1734 2474 1732
 2475 1729 2476 1726 2477 1723 2478 1721 2480 1718 2481 1715 2482 1713 2483 1710
 2484 1707 2485 1704 2486 1702 2487 1699 2488 1696 2489 1693 2490 1691 2491 1688
 2492 1685 2493 1682 2494 1680 2495 1677 2497 1674 2498 1671 2499 1669 2500 1666
 2501 1663 2502 1660 2503 1657 2504 1655 2505 1652 2506 1649 2507 1646 2508 1644
 2509 1641 2510 1638 2511 1635 2512 1632 2513 1630 2514 1627 2515 1624 2516 1621
 2517 1618 2518 1616 98 rps
 2518 1616 2521 1616 2524 1617 2527 1618 2530 1619 2533 1619 2536 1620 2539 1621 2542 1622
 2545 1622 2548 1623 2551 1624 2554 1625 2557 1625 2560 1626 2563 1627 2566 1628
 2568 1628 2571 1629 2574 1630 2577 1631 2580 1631 2583 1632 2586 1633 2589 1634
 2592 1635 2595 1635 2597 1636 2600 1637 2603 1638 2606 1639 2609 1639 2612 1640
 2615 1641 2617 1642 2620 1643 2623 1644 2626 1644 2629 1645 2631 1646 2634 1647
 2637 1648 2640 1648 2643 1649 2645 1650 2648 1651 2651 1652 2654 1653 2656 1654
 2659 1654 2662 1655 2664 1656 2667 1657 2670 1658 2673 1659 2675 1660 2678 1660
 2681 1661 2683 1662 2686 1663 2689 1664 2691 1665 2694 1666 2697 1667 2699 1667
 2702 1668 2704 1669 2707 1670 2710 1671 2712 1672 2715 1673 2717 1674 2720 1675
 2723 1676 2725 1676 2728 1677 2730 1678 2733 1679 2735 1680 2738 1681 2740 1682
 2743 1683 2745 1684 2748 1685 2750 1686 2753 1687 2755 1688 2758 1688 2760 1689
 2763 1690 2765 1691 2768 1692 2770 1693 2772 1694 2775 1695 2777 1696 2780 1697
 2782 1698 2784 1699 2787 1700 2787 1700 2785 1703 101 rps
 2785 1703 2784 1705 2783 1708 2781 1711 2780 1713 2779 1716 2777 1719 2776 1721 2775 1724
 2773 1727 2772 1729 2771 1732 2769 1735 2768 1737 2767 1740 2765 1743 2764 1745
 2762 1748 2761 1751 2760 1753 2758 1756 2757 1759 2756 1761 2754 1764 2753 1767
 2751 1769 2750 1772 2748 1775 2747 1777 2746 1780 2744 1783 2743 1785 2741 1788
 2740 1790 2739 1793 2737 1796 2736 1798 2734 1801 2733 1803 2731 1806 2730 1809
 2728 1811 2727 1814 2725 1817 2724 1819 2723 1822 2721 1824 2720 1827 2718 1830
 2717 1832 2715 1835 2714 1837 2712 1840 2711 1842 2709 1845 2708 1848 2706 1850
 2705 1853 2703 1855 2702 1858 2700 1860 2699 1863 2697 1866 2696 1868 2694 1871
 2693 1873 2691 1876 2689 1878 2688 1881 2686 1883 2685 1886 2683 1888 2682 1891
 2680 1894 2679 1896 2677 1899 2676 1901 2674 1904 2672 1906 2671 1909 2669 1911
 2668 1914 2666 1916 2664 1919 2663 1921 2661 1924 2660 1926 2658 1929 2657 1931
 2655 1934 2653 1936 2652 1939 2650 1941 2648 1944 2647 1946 2645 1949 2644 1951
 2642 1954 2640 1956 98 rps
 2640 1956 1716 2221 2408 1883 1716 1088 2518 696 1716 1088 2518 1616 1716 1088 2787 781
 1716 1088 2787 1700 10 rps
 2518 1616 2518 696 1 rps
 2787 1700 2787 781 1 rps
 [20 20] 0 setdash
 2640 1956 1716 1088 1 rps
 [] 0 setdash
 1546 987 1549 986 1553 985 1556 985 1559 984 1563 984 1566 983 1570 982 1573 982
 1577 981 1581 981 1584 980 1588 980 1591 979 1595 979 1599 978 1602 978
 1606 977 1610 977 1614 977 1617 976 1621 976 1625 975 1629 975 1632 975
 1636 974 1640 974 1644 974 1648 974 1651 973 1655 973 1659 973 1663 973
 1667 972 1671 972 1675 972 1679 972 1682 972 1686 972 1690 971 1694 971
 1698 971 1702 971 1706 971 1710 971 1714 971 1718 971 1721 971 1725 971
 1729 971 1733 971 1737 971 1741 971 1745 972 1749 972 1753 972 1757 972
 1760 972 1764 972 1768 972 1772 973 1776 973 1780 973 1784 973 1787 974
 1791 974 1795 974 1799 975 1803 975 1806 975 1810 976 1814 976 1818 976
 1821 977 1825 977 1829 978 1832 978 1836 979 1840 979 1843 980 1847 980
 1851 981 1854 981 1858 982 1861 982 1865 983 1868 983 1872 984 1875 985
 1879 985 1882 986 1886 987 1889 987 1892 988 1896 989 1899 989 1902 990
 1906 991 1909 991 1912 992 99 rps
 2010 944 2011 945 2012 945 2013 945 2014 946 2015 946 2016 946 2018 946 2019 947
 2020 947 2021 947 2022 947 2023 948 2024 948 2025 948 2026 949 2027 949
 2028 949 2029 949 2031 950 2032 950 2033 950 2034 951 2035 951 2036 951
 2037 951 2038 952 2039 952 2040 952 2041 953 2042 953 2043 953 2044 953
 2045 954 2046 954 2047 954 2048 955 2049 955 2050 955 2051 956 2052 956
 2053 956 2055 956 2056 957 2057 957 2058 957 2059 958 2060 958 2061 958
 2062 959 2063 959 2064 959 2065 960 2066 960 2067 960 2068 961 2069 961
 2069 961 2070 961 2071 962 2072 962 2073 962 2074 963 2075 963 2076 963
 2077 964 2078 964 2079 964 2080 965 2081 965 2082 965 2083 966 2084 966
 2085 966 2086 967 2087 967 2088 967 2089 968 2089 968 2090 968 2091 969
 2092 969 2093 969 2094 970 2095 970 2096 970 2097 971 2098 971 2099 971
 2100 972 2100 972 2101 973 2102 973 2103 973 2104 974 2105 974 2106 974
 2107 975 2107 975 2108 975 99 rps
 1716 1408 1718 1408 1719 1407 1721 1406 1723 1405 1724 1404 1726 1403 1727 1403 1729 1402
 1730 1401 1732 1400 1733 1399 1735 1398 1736 1397 1738 1396 1740 1395 1741 1394
 1743 1393 1744 1392 1746 1390 1747 1389 1749 1388 1750 1387 1752 1386 1753 1384
 1755 1383 1756 1382 1758 1381 1759 1379 1761 1378 1762 1377 1764 1375 1765 1374
 1767 1373 1768 1371 1770 1370 1771 1368 1773 1367 1774 1366 1776 1364 1777 1363
 1779 1361 1780 1359 1782 1358 1783 1356 1785 1355 1786 1353 1788 1352 1789 1350
 1790 1348 1792 1347 1793 1345 1795 1343 1796 1341 1798 1340 1799 1338 1800 1336
 1802 1334 1803 1333 1805 1331 1806 1329 1807 1327 1809 1325 1810 1323 1811 1321
 1813 1320 1814 1318 1816 1316 1817 1314 1818 1312 1819 1310 1821 1308 1822 1306
 1823 1304 1825 1302 1826 1300 1827 1298 1829 1296 1830 1293 1831 1291 1832 1289
 1834 1287 1835 1285 1836 1283 1837 1281 1839 1279 1840 1276 1841 1274 1842 1272
 1843 1270 1844 1267 1846 1265 1847 1263 1848 1261 1849 1258 1850 1256 1851 1254
 1852 1252 1854 1249 1855 1247 99 rps
 1924 1326 1924 1326 1925 1325 1925 1324 1925 1323 1926 1323 1926 1322 1926 1321 1927 1320
 1927 1319 1928 1319 1928 1318 1928 1317 1929 1316 1929 1315 1929 1315 1930 1314
 1930 1313 1930 1312 1931 1312 1931 1311 1931 1310 1932 1309 1932 1308 1932 1308
 1933 1307 1933 1306 1934 1305 1934 1304 1934 1304 1935 1303 1935 1302 1935 1301
 1936 1300 1936 1300 1936 1299 1937 1298 1937 1297 1937 1296 1938 1296 1938 1295
 1938 1294 1939 1293 1939 1292 1939 1292 1940 1291 1940 1290 1940 1289 1941 1288
 1941 1287 1941 1287 1942 1286 1942 1285 1942 1284 1943 1283 1943 1283 1943 1282
 1944 1281 1944 1280 1944 1279 1945 1279 1945 1278 1945 1277 1946 1276 1946 1275
 1946 1274 1947 1274 1947 1273 1947 1272 1948 1271 1948 1270 1948 1269 1948 1269
 1949 1268 1949 1267 1949 1266 1950 1265 1950 1265 1950 1264 1951 1263 1951 1262
 1951 1261 1952 1260 1952 1260 1952 1259 1953 1258 1953 1257 1953 1256 1953 1255
 1954 1255 1954 1254 1954 1253 1955 1252 1955 1251 1955 1250 1956 1250 1956 1249
 1956 1248 1956 1247 1957 1246 99 rps
 2776 1929 2773 1940 2770 1950 2767 1961 2765 1971 2763 1980 2761 1989 2759 1997 2759 2004
 2758 2010 2758 2015 2759 2018 2760 2021 2762 2022 2764 2022 2768 2021 2771 2019
 2775 2015 2780 2011 2785 2006 2790 2000 2796 1993 2802 1986 2809 1978 2815 1970
 2822 1962 2828 1954 2834 1946 2841 1938 2847 1931 2852 1925 2857 1919 2862 1914
 2867 1910 2871 1907 2874 1906 2877 1905 2879 1906 2880 1908 2881 1911 2882 1915
 2882 1920 2881 1927 2880 1934 2878 1943 2876 1952 2874 1962 2871 1972 2868 1982
 2865 1993 2863 2004 2860 2015 2857 2026 2854 2036 2852 2046 2850 2055 2848 2063
 2847 2071 2847 2077 2846 2083 2847 2087 2848 2090 2849 2092 2851 2092 2854 2092
 2858 2090 2861 2087 2866 2083 2871 2079 2876 2073 2882 2066 2888 2059 2894 2052
 2900 2044 2907 2036 2913 2028 2919 2020 2926 2012 2932 2005 2938 1998 2943 1992
 2948 1987 2953 1982 2957 1979 2961 1977 2964 1975 2966 1976 2968 1977 2969 1979
 2970 1983 2970 1988 2970 1994 2969 2001 2967 2008 2965 2017 2963 2027 2961 2037
 2958 2047 2955 2058 2952 2069 99 rps

/Symbol findfont 124 scalefont setfont
 1697 864 moveto  (f) show 
 1801 1396 moveto  (q) show 

/Times-Italic axumfindfont 128 scalefont setfont
 2347 791 moveto  (d) show 

/Symbol findfont 124 scalefont setfont
 2410 791 moveto  (f) show 

/Times-Italic axumfindfont 128 scalefont setfont
 2229 1446 moveto  40 rotate (d) show  -40 rotate

/Symbol findfont 124 scalefont setfont
 2277 1487 moveto  40 rotate (q) show  -40 rotate
 2707 2161 moveto  40 rotate (l) show  -40 rotate

/Times-Italic axumfindfont 128 scalefont setfont
 1251 823 moveto  (x) show 
 3130 1055 moveto  (y) show 
 1788 2575 moveto  (z) show 
 2871 1660 moveto  (d) show 

/Symbol findfont 124 scalefont setfont
 2934 1660 moveto  (W) show 

/Times-Roman axumfindfont 124 scalefont setfont
 3030 1660 moveto  ( = sin) show 

/Symbol findfont 124 scalefont setfont
 3311 1660 moveto  (q ) show 

/Times-Italic axumfindfont 128 scalefont setfont
 3406 1660 moveto  (d) show 

/Symbol findfont 124 scalefont setfont
 3470 1660 moveto  (q ) show 

/Times-Italic axumfindfont 128 scalefont setfont
 3566 1660 moveto  (d) show 

/Symbol findfont 124 scalefont setfont
 3629 1660 moveto  (f) show 

/Times-Italic axumfindfont 128 scalefont setfont
 3107 2179 moveto  (I) show 

/Symbol findfont 91 scalefont setfont
 3149 2151 moveto  (l) show 

/Times-Italic axumfindfont 128 scalefont setfont
 468 636 moveto  (dA) show 
 1715 1087 1715 2620 1 rps
 1737 2530 1715 2620 1 rps
 1692 2530 1715 2620 1 rps
 2802 1087 3080 1087 1 rps
 2990 1064 3080 1087 1 rps
 2990 1109 3080 1087 1 rps
 2734 2083 2825 2147 1 rps
 2825 2147
 2803 2118 2790 2136 2825 2147 3 3 1 roll cnp
 0.00 setgray
gsave eofill grestore  0.0 setgray
 stroke 0.0 setgray 2734 2083
 2755 2111 2768 2093 2734 2083 3 3 1 roll cnp
 0.00 setgray
gsave eofill grestore  0.0 setgray
 stroke 0.0 setgray 0.0 setgray 1715 1087 1374 887 1 rps
 1440 951 1374 887 1 rps
 1463 913 1374 887 1 rps
 2598 1788 3039 2138 1 rps
 3039 2138
 2982 2064 2954 2099 3039 2138 3 3 1 roll cnp
 0.00 setgray
gsave eofill grestore  0.0 setgray
 stroke 0.0 setgray 0.0 setgray 1820 978 1910 991 1 rps
 1910 991
 1824 955 1817 1000 1910 991 3 3 1 roll cnp
 0.00 setgray
gsave eofill grestore  0.0 setgray
 stroke 0.0 setgray 0.0 setgray 1715 1087 2502 1087 1 rps
 2534 1087 2770 1087 1 rps

8 setlinewidth
 1628 1342 1546 1342 1 rps
 1546 1342 181 577 1 rps
 181 577 2566 577 1 rps
 2566 577 3931 1342 1 rps
 3931 1342 2866 1342 1 rps

1 setlinewidth
 1833 1283 1856 1246 1 rps
 1856 1246
 1789 1310 1827 1334 1856 1246 3 3 1 roll cnp
 0.00 setgray
gsave eofill grestore  0.0 setgray
 stroke 0.0 setgray grestore showpage
%Trailer
%EOF
