%!PS-Adobe-2.0 EPSF-1.2
%%BoundingBox: 0 0 468 360
%%%%DocumentFonts: /Helvetica
%%Title: Axum PostScript file
%%Creator: TriMetrix, Inc.
%%Pages: 1
%%EndComments
% Copyright 1988-1991 by TriMetrix, Inc. All rights reserved.
/downdict 4 dict def
/sdown
 {downdict begin
  /thestring exch def
  /lineskip exch def
  thestring
   {
    /charcode exch def
    /thechar ( ) dup 0 charcode put def
    0 lineskip neg rmoveto
    gsave
     thechar stringwidth pop 2 div neg 0 rmoveto
     thechar show
    grestore
   } forall
   end
  } def

/updict 4 dict def
/sup
 {updict begin
  /thestring exch def
  /lineskip exch def
  thestring 
   {
    /charcode exch def
    /thechar ( ) dup 0 charcode put def
    0 lineskip rmoveto
    gsave
     thechar stringwidth pop 2 div neg 0 rmoveto
     thechar show
    grestore
   } forall
   end
  } def

/leftdict 4 dict def
/sleft
 {leftdict begin
  /thestring exch def
  thestring
   {
    /charcode exch def
    /thechar ( ) dup 0 charcode put def
    gsave
     thechar stringwidth pop neg 0 rmoveto
     thechar show
    grestore
   } forall

   thechar stringwidth pop neg 0 rmoveto
   end
  } def

/path{newpath moveto{lineto}repeat} bind def 
/cnp{newpath moveto{lineto}repeat closepath} bind def
/clp{moveto{lineto}repeat closepath} bind def
/rps{ 3 1 roll path stroke} bind def
/rcs{ 3 1 roll clp stroke} bind def
/setF { currentscreen 4 -2 roll pop 3 1 roll setscreen} bind def
% required due to WinWord 2.0 bug:
/II { } def

/reencodedict 5 dict def
/reencode
{
   reencodedict begin
   /newencoding exch def
   /newfontname exch def
   /basefontname exch def

   /basefontdict basefontname findfont def
   /newfont basefontdict maxlength dict def

   basefontdict
   {
      exch dup dup /FID ne exch /Encoding ne and
      { exch newfont 3 1 roll put }
      { pop pop }
      ifelse
   }
   forall

   newfont /FontName newfontname put
   newfont /Encoding newencoding put
   newfontname newfont definefont pop
   end
}
def

/axumencoding
[
/.notdef        %   0
/.notdef        %   1
/.notdef        %   2
/.notdef        %   3
/.notdef        %   4
/.notdef        %   5
/.notdef        %   6
/.notdef        %   7
/.notdef        %   8
/.notdef        %   9
/.notdef        %  10
/.notdef        %  11
/.notdef        %  12
/.notdef        %  13
/.notdef        %  14
/.notdef        %  15
/.notdef        %  16
/.notdef        %  17
/.notdef        %  18
/.notdef        %  19
/.notdef        %  20
/.notdef        %  21
/.notdef        %  22
/.notdef        %  23
/.notdef        %  24
/.notdef        %  25
/.notdef        %  26
/.notdef        %  27
/.notdef        %  28
/.notdef        %  29
/.notdef        %  30
/.notdef        %  31
/space          %  32
/exclam         %  33
/quotedbl       %  34
/numbersign     %  35
/dollar         %  36
/percent        %  37
/ampersand      %  38
/quoteright     %  39
/parenleft      %  40
/parenright     %  41
/asterisk       %  42
/plus           %  43
/comma          %  44
/hyphen         %  45
/period         %  46
/slash          %  47
/zero           %  48
/one            %  49
/two            %  50
/three          %  51
/four           %  52
/five           %  53
/six            %  54
/seven          %  55
/eight          %  56
/nine           %  57
/colon          %  58
/semicolon      %  59
/less           %  60
/equal          %  61
/greater        %  62
/question       %  63
/at             %  64
/A              %  65
/B              %  66
/C              %  67
/D              %  68
/E              %  69
/F              %  70
/G              %  71
/H              %  72
/I              %  73
/J              %  74
/K              %  75
/L              %  76
/M              %  77
/N              %  78
/O              %  79
/P              %  80
/Q              %  81
/R              %  82
/S              %  83
/T              %  84
/U              %  85
/V              %  86
/W              %  87
/X              %  88
/Y              %  89
/Z              %  90
/bracketleft    %  91
/backslash      %  92
/bracketright   %  93
/asciicircum    %  94
/underscore     %  95
/quoteleft      %  96
/a              %  97
/b              %  98
/c              %  99
/d              % 100
/e              % 101
/f              % 102
/g              % 103
/h              % 104
/i              % 105
/j              % 106
/k              % 107
/l              % 108
/m              % 109
/n              % 110
/o              % 111
/p              % 112
/q              % 113
/r              % 114
/s              % 115
/t              % 116
/u              % 117
/v              % 118
/w              % 119
/x              % 120
/y              % 121
/z              % 122
/braceleft      % 123
/bar            % 124
/braceright     % 125
/asciitilde     % 126
/.notdef        % 127
/Ccedilla       % 128
/udieresis      % 129
/eacute         % 130
/acircumflex    % 131
/adieresis      % 132
/agrave         % 133
/aring          % 134
/ccedilla       % 135
/ecircumflex    % 136
/edieresis      % 137
/egrave         % 138
/idieresis      % 139
/icircumflex    % 140
/igrave         % 141
/Adieresis      % 142
/Aring          % 143
/Eacute         % 144
/ae             % 145
/AE             % 146
/ocircumflex    % 147
/odieresis      % 148
/ograve         % 149
/ucircumflex    % 150
/ugrave         % 151
/ydieresis      % 152
/Odieresis      % 153
/Udieresis      % 154
/cent           % 155
/sterling       % 156
/yen            % 157
/currency       % 158
/florin         % 159
/aacute         % 160
/iacute         % 161
/oacute         % 162
/uacute         % 163
/ntilde         % 164
/Ntilde         % 165
/ordfeminine    % 166
/ordmasculine   % 167
/questiondown   % 168
/quotedblleft   % 169
/quotedblright  % 170
/Aacute         % 171
/Acircumflex    % 172
/exclamdown     % 173
/Egrave         % 174
/Ecircumflex    % 175
/atilde         % 176
/otilde         % 177
/Edieresis      % 178
/Igrave         % 179
/oe             % 180
/OE             % 181
/Agrave         % 182
/Atilde         % 183
/Otilde         % 184
/section        % 185
/Iacute         % 186
/Icircumflex    % 187
/Idieresis      % 188
/Ograve         % 189
/Oacute         % 190
/Ocircumflex    % 191
/Ugrave         % 192
/Uacute         % 193
/Ucircumflex    % 194
/Ydieresis      % 195
/germandbls     % 196
/guillemotleft  % 197
/guillemotright % 198
/bullet         % 199
/.notdef        % 200
/.notdef        % 201
/.notdef        % 202
/.notdef        % 203
/.notdef        % 204
/.notdef        % 205
/.notdef        % 206
/.notdef        % 207
/.notdef        % 208
/.notdef        % 209
/.notdef        % 210
/.notdef        % 211
/.notdef        % 212
/.notdef        % 213
/.notdef        % 214
/.notdef        % 215
/.notdef        % 216
/.notdef        % 217
/.notdef        % 218
/.notdef        % 219
/.notdef        % 220
/.notdef        % 221
/.notdef        % 222
/.notdef        % 223
/.notdef        % 224
/.notdef        % 225
/.notdef        % 226
/.notdef        % 227
/.notdef        % 228
/.notdef        % 229
/.notdef        % 230
/.notdef        % 231
/.notdef        % 232
/.notdef        % 233
/.notdef        % 234
/.notdef        % 235
/.notdef        % 236
/.notdef        % 237
/.notdef        % 238
/.notdef        % 239
/.notdef        % 240
/.notdef        % 241
/.notdef        % 242
/.notdef        % 243
/.notdef        % 244
/.notdef        % 245
/.notdef        % 246
/.notdef        % 247
/.notdef        % 248
/.notdef        % 249
/.notdef        % 250
/.notdef        % 251
/.notdef        % 252
/.notdef        % 253
/.notdef        % 254
/.notdef        % 255
] 
def

/axumfindfont
{
   /axumfont axumencoding reencode
   /axumfont findfont
}
def


/MainFont /Helvetica axumfindfont 98 scalefont def
MainFont setfont
1 setlinejoin 0 setlinecap 0 setgray
 gsave 72 630 div dup scale
 0.0 setgray [] 0 setdash

1 setlinewidth
 500 476 1865 476 1 rps
 500 475 1865 475 1 rps
 500 474 1865 474 1 rps
 500 473 1865 473 1 rps
 500 472 1865 472 1 rps
 500 476 500 512 1 rps
 670 476 670 494 1 rps
 841 476 841 512 1 rps
 1011 476 1011 494 1 rps
 1182 476 1182 512 1 rps
 1352 476 1352 494 1 rps
 1524 476 1524 512 1 rps
 1694 476 1694 494 1 rps
 1865 476 1865 512 1 rps

/Times-Roman axumfindfont 124 scalefont setfont
 469 341 moveto  (0) show 
 810 341 moveto  (1) show 
 1151 341 moveto  (2) show 
 1493 341 moveto  (3) show 
 1834 341 moveto  (4) show 
 1865 2068
 500 2068 500 476 1865 476 1865 2068
 4 3 1 roll cnp
 0.93 setgray eofill 0.0 setgray 0.0 setgray
/Times-Italic axumfindfont 128 scalefont setfont
 1155 205 moveto  (s) show 
 204 1128 moveto  (I) show 

/Symbol findfont 91 scalefont setfont
 246 1100 moveto  (l) show 

/Times-Roman axumfindfont 95 scalefont setfont
 297 1100 moveto  (,o) show 

/Times-Italic axumfindfont 128 scalefont setfont
 1137 1128 moveto  (I) show 

/Symbol findfont 91 scalefont setfont
 1179 1100 moveto  (l) show 
 841 1269 1524 1269 1 rps
 1524 1269
 1411 1235 1411 1302 1524 1269 3 3 1 roll cnp
 0.00 setgray
gsave eofill grestore  0.0 setgray
 stroke 0.0 setgray 0.0 setgray 159 1269 500 1269 1 rps
 500 1269
 387 1235 387 1302 500 1269 3 3 1 roll cnp
 0.00 setgray
gsave eofill grestore  0.0 setgray
 stroke 0.0 setgray 0.0 setgray
10 setlinewidth
 1865 2065 500 2065 1 rps
 500 2065 500 477 1 rps
 500 477 1865 477 1 rps

1 setlinewidth
 2298 490 3889 490 1 rps
 2298 490 3889 490 1 rps
 2295 2080 3892 2080 1 rps
 2297 490 3889 490 1 rps
 2297 490 3889 490 1 rps
 2295 2081 3892 2081 1 rps
 2297 489 3890 489 1 rps
 2297 489 3889 489 1 rps
 2295 2082 3892 2082 1 rps
 2296 488 3891 488 1 rps
 2296 488 3889 488 1 rps
 2295 2082 3892 2082 1 rps
 2295 487 3892 487 1 rps
 2295 487 3889 487 1 rps
 2295 2083 3892 2083 1 rps
 2298 490 2298 515 1 rps
 2298 2080 2298 2055 1 rps
 2404 490 2404 503 1 rps
 2404 2080 2404 2068 1 rps
 2510 490 2510 503 1 rps
 2510 2080 2510 2068 1 rps
 2615 490 2615 503 1 rps
 2615 2080 2615 2068 1 rps
 2722 490 2722 503 1 rps
 2722 2080 2722 2068 1 rps
 2828 490 2828 515 1 rps
 2828 2080 2828 2055 1 rps
 2934 490 2934 503 1 rps
 2934 2080 2934 2068 1 rps
 3040 490 3040 503 1 rps
 3040 2080 3040 2068 1 rps
 3145 490 3145 503 1 rps
 3145 2080 3145 2068 1 rps
 3252 490 3252 503 1 rps
 3252 2080 3252 2068 1 rps
 3359 490 3359 515 1 rps
 3359 2080 3359 2055 1 rps
 3464 490 3464 503 1 rps
 3464 2080 3464 2068 1 rps
 3571 490 3571 503 1 rps
 3571 2080 3571 2068 1 rps
 3676 490 3676 503 1 rps
 3676 2080 3676 2068 1 rps
 3782 490 3782 503 1 rps
 3782 2080 3782 2068 1 rps
 3889 490 3889 515 1 rps
 3889 2080 3889 2055 1 rps

/Times-Roman axumfindfont 124 scalefont setfont
 2267 370 moveto  (0) show 
 2797 370 moveto  (1) show 
 3327 370 moveto  (2) show 
 3857 370 moveto  (3) show 
 2298 490 2298 2080 1 rps
 2297 490 2297 2081 1 rps
 2297 489 2297 2082 1 rps
 2296 488 2296 2082 1 rps
 2295 487 2295 2083 1 rps
 3889 490 3889 2080 1 rps
 3889 490 3889 2081 1 rps
 3890 489 3890 2082 1 rps
 3891 488 3891 2082 1 rps
 3892 487 3892 2083 1 rps
 2298 490 2323 490 1 rps
 3889 490 3864 490 1 rps
 2298 622 2311 622 1 rps
 3889 622 3876 622 1 rps
 2298 755 2311 755 1 rps
 3889 755 3876 755 1 rps
 2298 887 2311 887 1 rps
 3889 887 3876 887 1 rps
 2298 1020 2311 1020 1 rps
 3889 1020 3876 1020 1 rps
 2298 1152 2323 1152 1 rps
 3889 1152 3864 1152 1 rps
 2298 1285 2311 1285 1 rps
 3889 1285 3876 1285 1 rps
 2298 1417 2311 1417 1 rps
 3889 1417 3876 1417 1 rps
 2298 1550 2311 1550 1 rps
 3889 1550 3876 1550 1 rps
 2298 1682 2311 1682 1 rps
 3889 1682 3876 1682 1 rps
 2298 1815 2323 1815 1 rps
 3889 1815 3864 1815 1 rps
 2298 1947 2311 1947 1 rps
 3889 1947 3876 1947 1 rps
 2298 2080 2311 2080 1 rps
 3889 2080 3876 2080 1 rps
 2197 449 moveto  (0) show 
 2197 1111 moveto  (1) show 
 2197 1774 moveto  (2) show 
 2298 1152 2304 1159 2309 1166 2314 1173 2319 1179 2325 1185 2329 1192 2335 1198 2341 1203
 2346 1210 2351 1216 2356 1222 2362 1228 2367 1233 2372 1239 2378 1245 2383 1251
 2388 1257 2393 1262 2399 1267 2404 1273 2409 1278 2415 1284 2420 1289 2425 1294
 2431 1299 2436 1304 2441 1310 2446 1315 2452 1319 2457 1324 2462 1329 2468 1334
 2473 1339 2478 1344 2483 1348 2489 1353 2494 1358 2499 1362 2505 1366 2510 1371
 2515 1375 2520 1380 2526 1385 2532 1389 2536 1393 2542 1397 2547 1401 2553 1405
 2558 1410 2563 1413 2569 1417 2574 1422 2579 1425 2584 1429 2590 1433 2595 1437
 2600 1440 2606 1444 2611 1448 2616 1452 2622 1455 2627 1459 2632 1462 2637 1466
 2643 1469 2648 1473 2653 1476 2659 1480 2664 1483 2669 1486 2674 1489 2680 1493
 2685 1496 2690 1499 2696 1502 2701 1505 2706 1508 2711 1512 2717 1515 2722 1517
 2727 1520 2733 1524 2738 1526 2743 1529 2749 1532 2754 1535 2760 1538 2764 1540
 2770 1543 2775 1546 2780 1549 2786 1551 2791 1554 2797 1557 2801 1559 2807 1561
 2813 1564 2818 1566 2823 1569 2828 1571 2834 1574 101 rps
 2834 1574 2839 1576 2844 1579 2850 1581 2855 1583 2860 1586 2865 1588 2871 1590 2876 1592
 2881 1595 2887 1597 2892 1599 2897 1601 2902 1603 2908 1605 2913 1608 2918 1610
 2924 1612 2929 1614 2934 1616 2940 1617 2945 1619 2950 1622 2955 1624 2961 1626
 2966 1627 2971 1629 2977 1631 2982 1633 2987 1635 2992 1636 2998 1638 3004 1640
 3008 1642 3014 1643 3019 1645 3025 1647 3029 1649 3035 1650 3041 1652 3045 1654
 3051 1655 3056 1656 3062 1659 3067 1660 3072 1661 3078 1663 3083 1664 3088 1666
 3093 1668 3099 1669 3104 1670 3109 1672 3115 1673 3120 1675 3125 1676 3131 1677
 3136 1679 3141 1680 3146 1682 3152 1683 3157 1684 3162 1685 3168 1687 3173 1688
 3178 1689 3183 1691 3189 1691 3194 1693 3199 1694 3205 1696 3210 1696 3215 1698
 3220 1699 3226 1700 3231 1701 3236 1703 3242 1703 3247 1705 3252 1705 3258 1707
 3263 1708 3269 1709 3273 1710 3279 1711 3284 1712 3290 1713 3295 1714 3300 1715
 3306 1716 3310 1717 3316 1718 3322 1719 3327 1720 3332 1721 3337 1722 3343 1723
 3348 1724 3353 1724 3359 1726 3364 1726 3369 1727 101 rps
 3369 1727 3374 1729 3380 1729 3385 1730 3390 1731 3396 1731 3401 1733 3406 1733 3411 1734
 3417 1735 3422 1736 3427 1736 3433 1737 3438 1738 3443 1739 3449 1740 3454 1740
 3459 1741 3464 1742 3470 1743 3475 1743 3480 1744 3486 1745 3491 1745 3496 1746
 3501 1747 3507 1747 3513 1748 3517 1749 3523 1749 3528 1750 3534 1751 3538 1752
 3544 1752 3550 1753 3555 1753 3560 1754 3565 1754 3571 1755 3576 1756 3581 1756
 3587 1757 3592 1757 3597 1758 3602 1759 3608 1759 3613 1760 3618 1760 3624 1761
 3629 1761 3634 1762 3640 1762 3645 1763 3650 1763 3655 1764 3661 1765 3666 1765
 3671 1766 3677 1766 3682 1766 3687 1767 3692 1768 3698 1768 3703 1768 3708 1769
 3714 1769 3719 1770 3724 1770 3729 1770 3735 1771 3741 1772 3745 1772 3751 1773
 3756 1773 3761 1773 3767 1774 3772 1774 3778 1775 3782 1775 3788 1775 3793 1776
 3799 1776 3804 1777 3809 1777 3815 1777 3820 1777 3825 1778 3831 1778 3836 1779
 3841 1779 3846 1780 3852 1780 3857 1780 3862 1780 3868 1781 3873 1781 3878 1782
 3883 1782 3889 1782 98 rps

/Symbol findfont 124 scalefont setfont
 2973 241 moveto  (k) show 

/Symbol findfont 91 scalefont setfont
 3041 212 moveto  (l ) show 

/Symbol findfont 124 scalefont setfont
 3116 241 moveto  (r) show 

/Times-Italic axumfindfont 128 scalefont setfont
 3185 241 moveto  (s) show 
 2113 1137 moveto  90 rotate (I) show  -90 rotate

/Symbol findfont 91 scalefont setfont
 2141 1180 moveto  90 rotate (l) show  -90 rotate

/Times-Roman axumfindfont 124 scalefont setfont
 2112 1231 moveto  90 rotate (/) show  -90 rotate

/Times-Italic axumfindfont 128 scalefont setfont
 2112 1267 moveto  90 rotate (I) show  -90 rotate

/Symbol findfont 91 scalefont setfont
 2141 1310 moveto  90 rotate (l) show  -90 rotate

/Times-Roman axumfindfont 91 scalefont setfont
 2141 1361 moveto  90 rotate (,o) show  -90 rotate

/Times-Italic axumfindfont 128 scalefont setfont
 2866 1865 moveto  (S) show 

/Symbol findfont 91 scalefont setfont
 2931 1836 moveto  (l) show 

/Times-Roman axumfindfont 124 scalefont setfont
 2982 1865 moveto  ( = 2) show 

/Times-Italic axumfindfont 128 scalefont setfont
 3181 1865 moveto  (I) show 

/Symbol findfont 91 scalefont setfont
 3224 1836 moveto  (l) show 

/Times-Roman axumfindfont 91 scalefont setfont
 3276 1836 moveto  (,o) show 
 [40 20] 0 setdash
 2297 1814 3887 1814 1 rps
 grestore showpage
%Trailer
%EOF
