%!PS-Adobe-2.0 EPSF-1.2
%%BoundingBox: 0 0 468 360
%%%%DocumentFonts: /Helvetica
%%Title: Axum PostScript file
%%Creator: TriMetrix, Inc.
%%Pages: 1
%%EndComments
% Copyright 1988-1991 by TriMetrix, Inc. All rights reserved.
/downdict 4 dict def
/sdown
 {downdict begin
  /thestring exch def
  /lineskip exch def
  thestring
   {
    /charcode exch def
    /thechar ( ) dup 0 charcode put def
    0 lineskip neg rmoveto
    gsave
     thechar stringwidth pop 2 div neg 0 rmoveto
     thechar show
    grestore
   } forall
   end
  } def

/updict 4 dict def
/sup
 {updict begin
  /thestring exch def
  /lineskip exch def
  thestring 
   {
    /charcode exch def
    /thechar ( ) dup 0 charcode put def
    0 lineskip rmoveto
    gsave
     thechar stringwidth pop 2 div neg 0 rmoveto
     thechar show
    grestore
   } forall
   end
  } def

/leftdict 4 dict def
/sleft
 {leftdict begin
  /thestring exch def
  thestring
   {
    /charcode exch def
    /thechar ( ) dup 0 charcode put def
    gsave
     thechar stringwidth pop neg 0 rmoveto
     thechar show
    grestore
   } forall

   thechar stringwidth pop neg 0 rmoveto
   end
  } def

/path{newpath moveto{lineto}repeat} bind def 
/cnp{newpath moveto{lineto}repeat closepath} bind def
/clp{moveto{lineto}repeat closepath} bind def
/rps{ 3 1 roll path stroke} bind def
/rcs{ 3 1 roll clp stroke} bind def
/setF { currentscreen 4 -2 roll pop 3 1 roll setscreen} bind def
% required due to WinWord 2.0 bug:
/II { } def

/reencodedict 5 dict def
/reencode
{
   reencodedict begin
   /newencoding exch def
   /newfontname exch def
   /basefontname exch def

   /basefontdict basefontname findfont def
   /newfont basefontdict maxlength dict def

   basefontdict
   {
      exch dup dup /FID ne exch /Encoding ne and
      { exch newfont 3 1 roll put }
      { pop pop }
      ifelse
   }
   forall

   newfont /FontName newfontname put
   newfont /Encoding newencoding put
   newfontname newfont definefont pop
   end
}
def

/axumencoding
[
/.notdef        %   0
/.notdef        %   1
/.notdef        %   2
/.notdef        %   3
/.notdef        %   4
/.notdef        %   5
/.notdef        %   6
/.notdef        %   7
/.notdef        %   8
/.notdef        %   9
/.notdef        %  10
/.notdef        %  11
/.notdef        %  12
/.notdef        %  13
/.notdef        %  14
/.notdef        %  15
/.notdef        %  16
/.notdef        %  17
/.notdef        %  18
/.notdef        %  19
/.notdef        %  20
/.notdef        %  21
/.notdef        %  22
/.notdef        %  23
/.notdef        %  24
/.notdef        %  25
/.notdef        %  26
/.notdef        %  27
/.notdef        %  28
/.notdef        %  29
/.notdef        %  30
/.notdef        %  31
/space          %  32
/exclam         %  33
/quotedbl       %  34
/numbersign     %  35
/dollar         %  36
/percent        %  37
/ampersand      %  38
/quoteright     %  39
/parenleft      %  40
/parenright     %  41
/asterisk       %  42
/plus           %  43
/comma          %  44
/hyphen         %  45
/period         %  46
/slash          %  47
/zero           %  48
/one            %  49
/two            %  50
/three          %  51
/four           %  52
/five           %  53
/six            %  54
/seven          %  55
/eight          %  56
/nine           %  57
/colon          %  58
/semicolon      %  59
/less           %  60
/equal          %  61
/greater        %  62
/question       %  63
/at             %  64
/A              %  65
/B              %  66
/C              %  67
/D              %  68
/E              %  69
/F              %  70
/G              %  71
/H              %  72
/I              %  73
/J              %  74
/K              %  75
/L              %  76
/M              %  77
/N              %  78
/O              %  79
/P              %  80
/Q              %  81
/R              %  82
/S              %  83
/T              %  84
/U              %  85
/V              %  86
/W              %  87
/X              %  88
/Y              %  89
/Z              %  90
/bracketleft    %  91
/backslash      %  92
/bracketright   %  93
/asciicircum    %  94
/underscore     %  95
/quoteleft      %  96
/a              %  97
/b              %  98
/c              %  99
/d              % 100
/e              % 101
/f              % 102
/g              % 103
/h              % 104
/i              % 105
/j              % 106
/k              % 107
/l              % 108
/m              % 109
/n              % 110
/o              % 111
/p              % 112
/q              % 113
/r              % 114
/s              % 115
/t              % 116
/u              % 117
/v              % 118
/w              % 119
/x              % 120
/y              % 121
/z              % 122
/braceleft      % 123
/bar            % 124
/braceright     % 125
/asciitilde     % 126
/.notdef        % 127
/Ccedilla       % 128
/udieresis      % 129
/eacute         % 130
/acircumflex    % 131
/adieresis      % 132
/agrave         % 133
/aring          % 134
/ccedilla       % 135
/ecircumflex    % 136
/edieresis      % 137
/egrave         % 138
/idieresis      % 139
/icircumflex    % 140
/igrave         % 141
/Adieresis      % 142
/Aring          % 143
/Eacute         % 144
/ae             % 145
/AE             % 146
/ocircumflex    % 147
/odieresis      % 148
/ograve         % 149
/ucircumflex    % 150
/ugrave         % 151
/ydieresis      % 152
/Odieresis      % 153
/Udieresis      % 154
/cent           % 155
/sterling       % 156
/yen            % 157
/currency       % 158
/florin         % 159
/aacute         % 160
/iacute         % 161
/oacute         % 162
/uacute         % 163
/ntilde         % 164
/Ntilde         % 165
/ordfeminine    % 166
/ordmasculine   % 167
/questiondown   % 168
/quotedblleft   % 169
/quotedblright  % 170
/Aacute         % 171
/Acircumflex    % 172
/exclamdown     % 173
/Egrave         % 174
/Ecircumflex    % 175
/atilde         % 176
/otilde         % 177
/Edieresis      % 178
/Igrave         % 179
/oe             % 180
/OE             % 181
/Agrave         % 182
/Atilde         % 183
/Otilde         % 184
/section        % 185
/Iacute         % 186
/Icircumflex    % 187
/Idieresis      % 188
/Ograve         % 189
/Oacute         % 190
/Ocircumflex    % 191
/Ugrave         % 192
/Uacute         % 193
/Ucircumflex    % 194
/Ydieresis      % 195
/germandbls     % 196
/guillemotleft  % 197
/guillemotright % 198
/bullet         % 199
/.notdef        % 200
/.notdef        % 201
/.notdef        % 202
/.notdef        % 203
/.notdef        % 204
/.notdef        % 205
/.notdef        % 206
/.notdef        % 207
/.notdef        % 208
/.notdef        % 209
/.notdef        % 210
/.notdef        % 211
/.notdef        % 212
/.notdef        % 213
/.notdef        % 214
/.notdef        % 215
/.notdef        % 216
/.notdef        % 217
/.notdef        % 218
/.notdef        % 219
/.notdef        % 220
/.notdef        % 221
/.notdef        % 222
/.notdef        % 223
/.notdef        % 224
/.notdef        % 225
/.notdef        % 226
/.notdef        % 227
/.notdef        % 228
/.notdef        % 229
/.notdef        % 230
/.notdef        % 231
/.notdef        % 232
/.notdef        % 233
/.notdef        % 234
/.notdef        % 235
/.notdef        % 236
/.notdef        % 237
/.notdef        % 238
/.notdef        % 239
/.notdef        % 240
/.notdef        % 241
/.notdef        % 242
/.notdef        % 243
/.notdef        % 244
/.notdef        % 245
/.notdef        % 246
/.notdef        % 247
/.notdef        % 248
/.notdef        % 249
/.notdef        % 250
/.notdef        % 251
/.notdef        % 252
/.notdef        % 253
/.notdef        % 254
/.notdef        % 255
] 
def

/axumfindfont
{
   /axumfont axumencoding reencode
   /axumfont findfont
}
def


/MainFont /Helvetica axumfindfont 98 scalefont def
MainFont setfont
1 setlinejoin 0 setlinecap 0 setgray
 gsave 72 630 div dup scale
 0.0 setgray [] 0 setdash

1 setlinewidth
 136 1372 2210 1372 1 rps
 2210 1372
 2120 1338 2120 1405 2210 1372 3 3 1 roll cnp
 0.00 setgray
gsave eofill grestore  0.0 setgray
 stroke 0.0 setgray 0.0 setgray 136 2160 2496 2160 1 rps
 2496 2160
 2406 2126 2406 2193 2496 2160 3 3 1 roll cnp
 0.00 setgray
gsave eofill grestore  0.0 setgray
 stroke 0.0 setgray 0.0 setgray
/Symbol findfont 124 scalefont setfont
 1806 2234 moveto  (q) show 
 2256 1355 moveto  (t) show 

/Symbol findfont 91 scalefont setfont
 2310 1327 moveto  (l) show 

/Times-Roman axumfindfont 124 scalefont setfont
 2360 1355 moveto  ( = 2/3) show 

/Symbol findfont 124 scalefont setfont
 2520 2124 moveto  (t) show 

/Symbol findfont 91 scalefont setfont
 2574 2096 moveto  (l) show 

/Times-Roman axumfindfont 124 scalefont setfont
 2624 2124 moveto  ( = 2/3) show 
 464 1710 moveto  (Lines of sight) show 
 3958 1369 3956 1438 3949 1506 3939 1574 3924 1641 3905 1706 3881 1771 3854 1834 3823 1895
 3788 1954 3750 2011 3707 2065 3662 2116 3614 2165 3562 2210 3508 2252 3451 2291
 3392 2326 3331 2357 3268 2384 3204 2407 3138 2427 3071 2442 3003 2452 2935 2459
 2866 2461 2799 2459 2730 2452 2663 2442 2596 2427 2530 2408 2465 2384 2402 2357
 2341 2326 2282 2291 2226 2253 2171 2211 2120 2165 2071 2117 2026 2065 1984 2011
 1945 1955 1910 1896 1879 1834 1852 1772 1829 1707 1809 1641 1794 1574 1784 1506
 1777 1438 1775 1370 1777 1302 1784 1234 1794 1166 1809 1099 1828 1033 1851 969
 1879 906 1910 845 1945 786 1983 729 2025 675 2070 623 2119 575 2170 529
 2224 487 2281 448 2340 413 2401 382 2464 355 2529 332 2595 313 2661 298
 2729 287 2797 280 2866 278 2934 280 3002 286 3070 297 3137 312 3202 331
 3267 354 3330 381 3391 413 3450 447 3507 486 3561 528 3613 573 3661 622
 3707 673 3749 727 3787 784 3822 843 3854 904 3881 967 3904 1031 3923 1097
 3938 1164 3949 1232 3956 1300 99 rcs

 [40 20] 0 setdash
 3739 1369 3739 1385 3738 1401 3738 1417 3737 1433 3735 1449 3734 1465 3732 1481 3730 1497
 3727 1512 3724 1528 3721 1544 3718 1559 3714 1575 3710 1590 3706 1606 3702 1621
 3697 1637 3692 1652 3687 1667 3681 1682 3675 1697 3669 1711 3663 1726 3656 1741
 3649 1755 3642 1769 3634 1783 3627 1797 3619 1811 3610 1825 3602 1839 3593 1852
 3584 1865 3575 1878 3566 1891 3556 1904 3546 1917 3536 1929 3525 1941 3515 1953
 3504 1965 3493 1976 3482 1988 3470 1999 3459 2010 3447 2021 3435 2031 3423 2042
 3410 2052 3398 2062 3385 2071 3372 2081 3359 2090 3345 2099 3332 2107 3318 2116
 3305 2124 3291 2132 3277 2139 3262 2147 3248 2154 3234 2161 3219 2167 3204 2174
 3190 2180 3175 2186 3160 2191 3145 2196 3129 2201 3114 2206 3099 2210 3083 2215
 3068 2218 3052 2222 3037 2225 3021 2228 3005 2231 2989 2233 2973 2235 2957 2237
 2942 2239 2926 2240 2910 2241 2894 2242 2878 2242 2863 2242 2847 2242 2831 2241
 2815 2240 2799 2239 2783 2238 2767 2236 2751 2234 2735 2232 2719 2229 2704 2227
 2688 2223 2672 2220 2657 2216 2641 2212 100 rps
 2512 2167 2478 2151 2445 2133 2413 2114 2381 2094 2350 2073 2321 2050 2292 2026 2264 2001
 2238 1974 2212 1947 2188 1918 2165 1888 2144 1858 2123 1826 2104 1794 2087 1761
 2071 1727 2056 1692 2043 1657 2031 1622 2021 1586 2013 1549 2006 1512 2000 1475
 1997 1438 1995 1401 1994 1364 1995 1327 1998 1289 2002 1252 2008 1215 2015 1178
 2024 1142 2035 1106 2047 1071 2061 1036 2076 1001 2092 968 2110 935 2130 903
 2150 872 2172 841 2196 812 2220 784 2246 756 2273 730 2301 705 2330 682
 2360 659 2391 638 2423 618 2455 600 2489 583 2523 568 2558 554 2593 541
 2629 530 2665 521 2702 513 2739 506 2776 502 2813 499 2851 497 2887 497
 2925 499 2962 502 2999 507 3036 514 3073 522 3109 531 3145 543 3180 555
 3214 570 3248 585 3282 602 3314 621 3346 641 3377 662 3407 685 3436 709
 3464 734 3490 760 3516 787 3540 816 3564 845 3585 876 3606 907 3625 939
 3643 972 3659 1006 3674 1040 3688 1075 3700 1111 3710 1147 3719 1183 3726 1220
 3732 1257 3736 1294 3738 1332 3739 1369 100 rps
 3521 1369 3520 1410 3516 1451 3509 1492 3500 1532 3489 1571 3475 1610 3459 1648 3440 1684
 3419 1720 3396 1754 3371 1786 3344 1817 3314 1846 3284 1874 3251 1899 3217 1922
 3182 1943 3145 1962 3107 1978 3069 1992 3029 2003 2989 2012 2948 2019 2907 2023
 2866 2024 2826 2023 2785 2019 2744 2012 2704 2003 2665 1992 2626 1978 2588 1962
 2552 1943 2516 1922 2482 1899 2450 1874 2419 1847 2390 1818 2363 1787 2337 1754
 2314 1720 2293 1685 2274 1648 2258 1610 2244 1572 2233 1532 2224 1492 2217 1451
 2213 1411 2212 1369 2213 1329 2217 1288 2224 1248 2232 1208 2244 1168 2258 1129
 2274 1092 2293 1055 2314 1019 2337 985 2362 953 2389 922 2418 893 2449 866
 2482 840 2516 817 2551 796 2588 778 2625 761 2664 747 2704 736 2744 727
 2784 720 2825 716 2866 715 2907 716 2947 720 2988 726 3028 735 3068 747
 3107 761 3144 777 3181 796 3216 817 3250 840 3283 865 3314 892 3343 921
 3370 952 3395 984 3419 1018 3440 1054 3458 1090 3475 1128 3489 1167 3500 1206
 3509 1247 3516 1287 3520 1328 99 rcs

 [] 0 setdash
 1963 2321 1962 2319 1961 2318 1960 2317 1958 2316 1957 2314 1956 2313 1954 2312 1953 2310
 1952 2309 1951 2308 1950 2306 1948 2305 1947 2304 1946 2302 1945 2301 1944 2300
 1943 2298 1942 2297 1940 2296 1939 2294 1938 2293 1937 2291 1936 2290 1935 2288
 1934 2287 1933 2285 1932 2284 1931 2282 1930 2281 1929 2280 1928 2278 1927 2276
 1926 2275 1925 2273 1924 2272 1923 2270 1923 2269 1922 2267 1921 2266 1920 2264
 1919 2263 1918 2261 1917 2259 1917 2258 1916 2256 1915 2255 1914 2253 1914 2251
 1913 2250 1912 2248 1911 2246 1911 2245 1910 2243 1909 2241 1909 2240 1908 2238
 1907 2236 1907 2235 1906 2233 1906 2231 1905 2230 1905 2228 1904 2226 1903 2225
 1903 2223 1902 2221 1902 2219 1901 2218 1901 2216 1901 2214 1900 2212 1900 2211
 1899 2209 1899 2207 1899 2206 1898 2204 1898 2202 1898 2200 1897 2198 1897 2197
 1897 2195 1896 2193 1896 2191 1896 2190 1896 2188 1895 2186 1895 2184 1895 2183
 1895 2181 1895 2179 1895 2177 1894 2175 1894 2174 1894 2172 1894 2170 1894 2168
 1894 2166 1894 2165 1894 2163 1894 2161 100 rps
 2115 2161 1740 2556 1 rps
 grestore showpage
%Trailer
%EOF
