%!PS-Adobe-2.0 EPSF-1.2
%%BoundingBox: 0 0 468 360
%%%%DocumentFonts: /Helvetica
%%Title: Axum PostScript file
%%Creator: TriMetrix, Inc.
%%Pages: 1
%%EndComments
% Copyright 1988-1991 by TriMetrix, Inc. All rights reserved.
/downdict 4 dict def
/sdown
 {downdict begin
  /thestring exch def
  /lineskip exch def
  thestring
   {
    /charcode exch def
    /thechar ( ) dup 0 charcode put def
    0 lineskip neg rmoveto
    gsave
     thechar stringwidth pop 2 div neg 0 rmoveto
     thechar show
    grestore
   } forall
   end
  } def

/updict 4 dict def
/sup
 {updict begin
  /thestring exch def
  /lineskip exch def
  thestring 
   {
    /charcode exch def
    /thechar ( ) dup 0 charcode put def
    0 lineskip rmoveto
    gsave
     thechar stringwidth pop 2 div neg 0 rmoveto
     thechar show
    grestore
   } forall
   end
  } def

/leftdict 4 dict def
/sleft
 {leftdict begin
  /thestring exch def
  thestring
   {
    /charcode exch def
    /thechar ( ) dup 0 charcode put def
    gsave
     thechar stringwidth pop neg 0 rmoveto
     thechar show
    grestore
   } forall

   thechar stringwidth pop neg 0 rmoveto
   end
  } def

/path{newpath moveto{lineto}repeat} bind def 
/cnp{newpath moveto{lineto}repeat closepath} bind def
/clp{moveto{lineto}repeat closepath} bind def
/rps{ 3 1 roll path stroke} bind def
/rcs{ 3 1 roll clp stroke} bind def
/setF { currentscreen 4 -2 roll pop 3 1 roll setscreen} bind def
% required due to WinWord 2.0 bug:
/II { } def

/reencodedict 5 dict def
/reencode
{
   reencodedict begin
   /newencoding exch def
   /newfontname exch def
   /basefontname exch def

   /basefontdict basefontname findfont def
   /newfont basefontdict maxlength dict def

   basefontdict
   {
      exch dup dup /FID ne exch /Encoding ne and
      { exch newfont 3 1 roll put }
      { pop pop }
      ifelse
   }
   forall

   newfont /FontName newfontname put
   newfont /Encoding newencoding put
   newfontname newfont definefont pop
   end
}
def

/axumencoding
[
/.notdef        %   0
/.notdef        %   1
/.notdef        %   2
/.notdef        %   3
/.notdef        %   4
/.notdef        %   5
/.notdef        %   6
/.notdef        %   7
/.notdef        %   8
/.notdef        %   9
/.notdef        %  10
/.notdef        %  11
/.notdef        %  12
/.notdef        %  13
/.notdef        %  14
/.notdef        %  15
/.notdef        %  16
/.notdef        %  17
/.notdef        %  18
/.notdef        %  19
/.notdef        %  20
/.notdef        %  21
/.notdef        %  22
/.notdef        %  23
/.notdef        %  24
/.notdef        %  25
/.notdef        %  26
/.notdef        %  27
/.notdef        %  28
/.notdef        %  29
/.notdef        %  30
/.notdef        %  31
/space          %  32
/exclam         %  33
/quotedbl       %  34
/numbersign     %  35
/dollar         %  36
/percent        %  37
/ampersand      %  38
/quoteright     %  39
/parenleft      %  40
/parenright     %  41
/asterisk       %  42
/plus           %  43
/comma          %  44
/hyphen         %  45
/period         %  46
/slash          %  47
/zero           %  48
/one            %  49
/two            %  50
/three          %  51
/four           %  52
/five           %  53
/six            %  54
/seven          %  55
/eight          %  56
/nine           %  57
/colon          %  58
/semicolon      %  59
/less           %  60
/equal          %  61
/greater        %  62
/question       %  63
/at             %  64
/A              %  65
/B              %  66
/C              %  67
/D              %  68
/E              %  69
/F              %  70
/G              %  71
/H              %  72
/I              %  73
/J              %  74
/K              %  75
/L              %  76
/M              %  77
/N              %  78
/O              %  79
/P              %  80
/Q              %  81
/R              %  82
/S              %  83
/T              %  84
/U              %  85
/V              %  86
/W              %  87
/X              %  88
/Y              %  89
/Z              %  90
/bracketleft    %  91
/backslash      %  92
/bracketright   %  93
/asciicircum    %  94
/underscore     %  95
/quoteleft      %  96
/a              %  97
/b              %  98
/c              %  99
/d              % 100
/e              % 101
/f              % 102
/g              % 103
/h              % 104
/i              % 105
/j              % 106
/k              % 107
/l              % 108
/m              % 109
/n              % 110
/o              % 111
/p              % 112
/q              % 113
/r              % 114
/s              % 115
/t              % 116
/u              % 117
/v              % 118
/w              % 119
/x              % 120
/y              % 121
/z              % 122
/braceleft      % 123
/bar            % 124
/braceright     % 125
/asciitilde     % 126
/.notdef        % 127
/Ccedilla       % 128
/udieresis      % 129
/eacute         % 130
/acircumflex    % 131
/adieresis      % 132
/agrave         % 133
/aring          % 134
/ccedilla       % 135
/ecircumflex    % 136
/edieresis      % 137
/egrave         % 138
/idieresis      % 139
/icircumflex    % 140
/igrave         % 141
/Adieresis      % 142
/Aring          % 143
/Eacute         % 144
/ae             % 145
/AE             % 146
/ocircumflex    % 147
/odieresis      % 148
/ograve         % 149
/ucircumflex    % 150
/ugrave         % 151
/ydieresis      % 152
/Odieresis      % 153
/Udieresis      % 154
/cent           % 155
/sterling       % 156
/yen            % 157
/currency       % 158
/florin         % 159
/aacute         % 160
/iacute         % 161
/oacute         % 162
/uacute         % 163
/ntilde         % 164
/Ntilde         % 165
/ordfeminine    % 166
/ordmasculine   % 167
/questiondown   % 168
/quotedblleft   % 169
/quotedblright  % 170
/Aacute         % 171
/Acircumflex    % 172
/exclamdown     % 173
/Egrave         % 174
/Ecircumflex    % 175
/atilde         % 176
/otilde         % 177
/Edieresis      % 178
/Igrave         % 179
/oe             % 180
/OE             % 181
/Agrave         % 182
/Atilde         % 183
/Otilde         % 184
/section        % 185
/Iacute         % 186
/Icircumflex    % 187
/Idieresis      % 188
/Ograve         % 189
/Oacute         % 190
/Ocircumflex    % 191
/Ugrave         % 192
/Uacute         % 193
/Ucircumflex    % 194
/Ydieresis      % 195
/germandbls     % 196
/guillemotleft  % 197
/guillemotright % 198
/bullet         % 199
/.notdef        % 200
/.notdef        % 201
/.notdef        % 202
/.notdef        % 203
/.notdef        % 204
/.notdef        % 205
/.notdef        % 206
/.notdef        % 207
/.notdef        % 208
/.notdef        % 209
/.notdef        % 210
/.notdef        % 211
/.notdef        % 212
/.notdef        % 213
/.notdef        % 214
/.notdef        % 215
/.notdef        % 216
/.notdef        % 217
/.notdef        % 218
/.notdef        % 219
/.notdef        % 220
/.notdef        % 221
/.notdef        % 222
/.notdef        % 223
/.notdef        % 224
/.notdef        % 225
/.notdef        % 226
/.notdef        % 227
/.notdef        % 228
/.notdef        % 229
/.notdef        % 230
/.notdef        % 231
/.notdef        % 232
/.notdef        % 233
/.notdef        % 234
/.notdef        % 235
/.notdef        % 236
/.notdef        % 237
/.notdef        % 238
/.notdef        % 239
/.notdef        % 240
/.notdef        % 241
/.notdef        % 242
/.notdef        % 243
/.notdef        % 244
/.notdef        % 245
/.notdef        % 246
/.notdef        % 247
/.notdef        % 248
/.notdef        % 249
/.notdef        % 250
/.notdef        % 251
/.notdef        % 252
/.notdef        % 253
/.notdef        % 254
/.notdef        % 255
] 
def

/axumfindfont
{
   /axumfont axumencoding reencode
   /axumfont findfont
}
def


/MainFont /Helvetica axumfindfont 98 scalefont def
MainFont setfont
1 setlinejoin 0 setlinecap 0 setgray
 gsave 72 630 div dup scale
 0.0 setgray [] 0 setdash

1 setlinewidth
 592 476 3749 476 1 rps
 592 476 3749 476 1 rps
 588 2750 3753 2750 1 rps
 591 475 3750 475 1 rps
 591 475 3749 475 1 rps
 588 2751 3753 2751 1 rps
 590 474 3751 474 1 rps
 590 474 3749 474 1 rps
 588 2752 3753 2752 1 rps
 589 473 3752 473 1 rps
 589 473 3749 473 1 rps
 588 2753 3753 2753 1 rps
 588 472 3753 472 1 rps
 588 472 3749 472 1 rps
 588 2754 3753 2754 1 rps
 592 476 592 512 1 rps
 592 2750 592 2714 1 rps
 750 476 750 494 1 rps
 750 2750 750 2732 1 rps
 908 476 908 512 1 rps
 908 2750 908 2714 1 rps
 1066 476 1066 494 1 rps
 1066 2750 1066 2732 1 rps
 1223 476 1223 512 1 rps
 1223 2750 1223 2714 1 rps
 1381 476 1381 494 1 rps
 1381 2750 1381 2732 1 rps
 1539 476 1539 512 1 rps
 1539 2750 1539 2714 1 rps
 1697 476 1697 494 1 rps
 1697 2750 1697 2732 1 rps
 1855 476 1855 512 1 rps
 1855 2750 1855 2714 1 rps
 2013 476 2013 494 1 rps
 2013 2750 2013 2732 1 rps
 2170 476 2170 512 1 rps
 2170 2750 2170 2714 1 rps
 2328 476 2328 494 1 rps
 2328 2750 2328 2732 1 rps
 2486 476 2486 512 1 rps
 2486 2750 2486 2714 1 rps
 2644 476 2644 494 1 rps
 2644 2750 2644 2732 1 rps
 2802 476 2802 512 1 rps
 2802 2750 2802 2714 1 rps
 2960 476 2960 494 1 rps
 2960 2750 2960 2732 1 rps
 3118 476 3118 512 1 rps
 3118 2750 3118 2714 1 rps
 3276 476 3276 494 1 rps
 3276 2750 3276 2732 1 rps
 3433 476 3433 512 1 rps
 3433 2750 3433 2714 1 rps
 3591 476 3591 494 1 rps
 3591 2750 3591 2732 1 rps
 3749 476 3749 512 1 rps
 3749 2750 3749 2714 1 rps

/Times-Roman axumfindfont 124 scalefont setfont
 514 341 moveto  (0.0) show 
 830 341 moveto  (0.1) show 
 1145 341 moveto  (0.2) show 
 1461 341 moveto  (0.3) show 
 1777 341 moveto  (0.4) show 
 2092 341 moveto  (0.5) show 
 2408 341 moveto  (0.6) show 
 2724 341 moveto  (0.7) show 
 3040 341 moveto  (0.8) show 
 3355 341 moveto  (0.9) show 
 3671 341 moveto  (1.0) show 
 592 476 592 2750 1 rps
 591 475 591 2751 1 rps
 590 474 590 2752 1 rps
 589 473 589 2753 1 rps
 588 472 588 2754 1 rps
 3749 476 3749 2750 1 rps
 3750 475 3750 2751 1 rps
 3751 474 3751 2752 1 rps
 3752 473 3752 2753 1 rps
 3753 472 3753 2754 1 rps
 592 476 628 476 1 rps
 3749 476 3713 476 1 rps
 592 665 610 665 1 rps
 3749 665 3731 665 1 rps
 592 855 628 855 1 rps
 3749 855 3713 855 1 rps
 592 1044 610 1044 1 rps
 3749 1044 3731 1044 1 rps
 592 1234 628 1234 1 rps
 3749 1234 3713 1234 1 rps
 592 1423 610 1423 1 rps
 3749 1423 3731 1423 1 rps
 592 1613 628 1613 1 rps
 3749 1613 3713 1613 1 rps
 592 1802 610 1802 1 rps
 3749 1802 3731 1802 1 rps
 592 1992 628 1992 1 rps
 3749 1992 3713 1992 1 rps
 592 2181 610 2181 1 rps
 3749 2181 3731 2181 1 rps
 592 2371 628 2371 1 rps
 3749 2371 3713 2371 1 rps
 592 2560 610 2560 1 rps
 3749 2560 3731 2560 1 rps
 592 2750 628 2750 1 rps
 3749 2750 3713 2750 1 rps
 476 436 moveto  (0) show 
 476 815 moveto  (1) show 
 476 1194 moveto  (2) show 
 476 1573 moveto  (3) show 
 476 1952 moveto  (4) show 
 476 2331 moveto  (5) show 
 476 2710 moveto  (6) show 
 592 855 608 855 623 855 639 855 655 855 670 855 686 855 701 855 717 855
 733 855 748 855 764 856 780 856 795 856 811 856 827 856 842 856
 858 856 874 857 889 857 905 857 920 857 936 857 952 857 967 858
 983 858 999 858 1014 858 1030 859 1046 859 1061 859 1077 860 1093 860
 1108 860 1124 860 1139 861 1155 861 1171 862 1186 862 1202 862 1218 863
 1233 863 1249 863 1265 864 1280 864 1296 865 1312 865 1327 866 1343 866
 1358 867 1374 867 1390 868 1405 868 1421 869 1437 869 1452 870 1468 870
 1484 871 1499 872 1515 872 1531 873 1546 874 1562 874 1577 875 1593 876
 1609 876 1624 877 1640 878 1656 879 1671 879 1687 880 1703 881 1718 882
 1734 883 1750 883 1765 884 1781 885 1796 886 1812 887 1828 888 1843 889
 1859 890 1875 891 1890 892 1906 893 1922 894 1937 895 1953 896 1969 897
 1984 898 2000 899 2015 901 2031 902 2047 903 2062 904 2078 906 2094 907
 2109 908 2125 910 2141 911 2156 912 2172 914 101 rps
 2172 914 2188 915 2203 917 2219 918 2234 920 2250 921 2266 923 2281 925 2297 926
 2313 928 2328 930 2344 932 2360 933 2375 935 2391 937 2407 939 2422 941
 2438 943 2453 945 2469 947 2485 950 2500 952 2516 954 2532 956 2547 959
 2563 961 2579 964 2594 966 2610 969 2626 971 2641 974 2657 977 2672 980
 2688 983 2704 986 2719 989 2735 992 2751 995 2766 999 2782 1002 2798 1006
 2813 1009 2829 1013 2845 1017 2860 1021 2876 1025 2891 1029 2907 1033 2923 1038
 2938 1042 2954 1047 2970 1052 2985 1057 3001 1062 3017 1068 3032 1073 3048 1079
 3064 1085 3079 1091 3095 1098 3110 1105 3126 1111 3142 1119 3157 1126 3173 1134
 3189 1142 3204 1151 3220 1160 3236 1169 3251 1179 3267 1190 3282 1200 3298 1212
 3314 1224 3329 1237 3345 1250 3361 1265 3376 1280 3392 1296 3408 1314 3423 1333
 3439 1353 3455 1375 3470 1398 3486 1424 3501 1452 3517 1484 3533 1518 3548 1557
 3564 1600 3580 1649 3595 1706 3611 1772 3627 1851 3642 1946 3658 2065 3674 2220
 3689 2432 3705 2750 98 rps

/Times-Italic axumfindfont 128 scalefont setfont
 2093 159 moveto  (u) show 

/Times-Roman axumfindfont 124 scalefont setfont
 2156 159 moveto  (/) show 

/Times-Italic axumfindfont 128 scalefont setfont
 2191 159 moveto  (c) show 

/Symbol findfont 124 scalefont setfont
 350 1167 moveto  90 rotate (g) show  -90 rotate

/Times-Roman axumfindfont 124 scalefont setfont
 350 1217 moveto  90 rotate ( = \(1 ) show  -90 rotate

/Symbol findfont 124 scalefont setfont
 350 1488 moveto  90 rotate (- ) show  -90 rotate

/Times-Italic axumfindfont 128 scalefont setfont
 350 1587 moveto  90 rotate (u) show  -90 rotate

/Times-Roman axumfindfont 95 scalefont setfont
 300 1651 moveto  90 rotate (2) show  -90 rotate

/Times-Roman axumfindfont 124 scalefont setfont
 349 1699 moveto  90 rotate (/) show  -90 rotate

/Times-Italic axumfindfont 128 scalefont setfont
 349 1734 moveto  90 rotate (c) show  -90 rotate

/Times-Roman axumfindfont 95 scalefont setfont
 300 1791 moveto  90 rotate (2) show  -90 rotate

/Times-Roman axumfindfont 124 scalefont setfont
 349 1838 moveto  90 rotate (\)) show  -90 rotate

/Symbol findfont 91 scalefont setfont
 299 1881 moveto  90 rotate (-) show  -90 rotate

/Times-Roman axumfindfont 95 scalefont setfont
 299 1932 moveto  90 rotate (1/2) show  -90 rotate
 [40 20] 0 setdash
 591 855 3749 855 1 rps
 grestore showpage
%Trailer
%EOF
