%!PS-Adobe-2.0 EPSF-1.2
%%BoundingBox: 0 0 468 360
%%%%DocumentFonts: /Helvetica
%%Title: Axum PostScript file
%%Creator: TriMetrix, Inc.
%%Pages: 1
%%EndComments
% Copyright 1988-1991 by TriMetrix, Inc. All rights reserved.
/downdict 4 dict def
/sdown
 {downdict begin
  /thestring exch def
  /lineskip exch def
  thestring
   {
    /charcode exch def
    /thechar ( ) dup 0 charcode put def
    0 lineskip neg rmoveto
    gsave
     thechar stringwidth pop 2 div neg 0 rmoveto
     thechar show
    grestore
   } forall
   end
  } def

/updict 4 dict def
/sup
 {updict begin
  /thestring exch def
  /lineskip exch def
  thestring 
   {
    /charcode exch def
    /thechar ( ) dup 0 charcode put def
    0 lineskip rmoveto
    gsave
     thechar stringwidth pop 2 div neg 0 rmoveto
     thechar show
    grestore
   } forall
   end
  } def

/leftdict 4 dict def
/sleft
 {leftdict begin
  /thestring exch def
  thestring
   {
    /charcode exch def
    /thechar ( ) dup 0 charcode put def
    gsave
     thechar stringwidth pop neg 0 rmoveto
     thechar show
    grestore
   } forall

   thechar stringwidth pop neg 0 rmoveto
   end
  } def

/path{newpath moveto{lineto}repeat} bind def 
/cnp{newpath moveto{lineto}repeat closepath} bind def
/clp{moveto{lineto}repeat closepath} bind def
/rps{ 3 1 roll path stroke} bind def
/rcs{ 3 1 roll clp stroke} bind def
/setF { currentscreen 4 -2 roll pop 3 1 roll setscreen} bind def
% required due to WinWord 2.0 bug:
/II { } def

/reencodedict 5 dict def
/reencode
{
   reencodedict begin
   /newencoding exch def
   /newfontname exch def
   /basefontname exch def

   /basefontdict basefontname findfont def
   /newfont basefontdict maxlength dict def

   basefontdict
   {
      exch dup dup /FID ne exch /Encoding ne and
      { exch newfont 3 1 roll put }
      { pop pop }
      ifelse
   }
   forall

   newfont /FontName newfontname put
   newfont /Encoding newencoding put
   newfontname newfont definefont pop
   end
}
def

/axumencoding
[
/.notdef        %   0
/.notdef        %   1
/.notdef        %   2
/.notdef        %   3
/.notdef        %   4
/.notdef        %   5
/.notdef        %   6
/.notdef        %   7
/.notdef        %   8
/.notdef        %   9
/.notdef        %  10
/.notdef        %  11
/.notdef        %  12
/.notdef        %  13
/.notdef        %  14
/.notdef        %  15
/.notdef        %  16
/.notdef        %  17
/.notdef        %  18
/.notdef        %  19
/.notdef        %  20
/.notdef        %  21
/.notdef        %  22
/.notdef        %  23
/.notdef        %  24
/.notdef        %  25
/.notdef        %  26
/.notdef        %  27
/.notdef        %  28
/.notdef        %  29
/.notdef        %  30
/.notdef        %  31
/space          %  32
/exclam         %  33
/quotedbl       %  34
/numbersign     %  35
/dollar         %  36
/percent        %  37
/ampersand      %  38
/quoteright     %  39
/parenleft      %  40
/parenright     %  41
/asterisk       %  42
/plus           %  43
/comma          %  44
/hyphen         %  45
/period         %  46
/slash          %  47
/zero           %  48
/one            %  49
/two            %  50
/three          %  51
/four           %  52
/five           %  53
/six            %  54
/seven          %  55
/eight          %  56
/nine           %  57
/colon          %  58
/semicolon      %  59
/less           %  60
/equal          %  61
/greater        %  62
/question       %  63
/at             %  64
/A              %  65
/B              %  66
/C              %  67
/D              %  68
/E              %  69
/F              %  70
/G              %  71
/H              %  72
/I              %  73
/J              %  74
/K              %  75
/L              %  76
/M              %  77
/N              %  78
/O              %  79
/P              %  80
/Q              %  81
/R              %  82
/S              %  83
/T              %  84
/U              %  85
/V              %  86
/W              %  87
/X              %  88
/Y              %  89
/Z              %  90
/bracketleft    %  91
/backslash      %  92
/bracketright   %  93
/asciicircum    %  94
/underscore     %  95
/quoteleft      %  96
/a              %  97
/b              %  98
/c              %  99
/d              % 100
/e              % 101
/f              % 102
/g              % 103
/h              % 104
/i              % 105
/j              % 106
/k              % 107
/l              % 108
/m              % 109
/n              % 110
/o              % 111
/p              % 112
/q              % 113
/r              % 114
/s              % 115
/t              % 116
/u              % 117
/v              % 118
/w              % 119
/x              % 120
/y              % 121
/z              % 122
/braceleft      % 123
/bar            % 124
/braceright     % 125
/asciitilde     % 126
/.notdef        % 127
/Ccedilla       % 128
/udieresis      % 129
/eacute         % 130
/acircumflex    % 131
/adieresis      % 132
/agrave         % 133
/aring          % 134
/ccedilla       % 135
/ecircumflex    % 136
/edieresis      % 137
/egrave         % 138
/idieresis      % 139
/icircumflex    % 140
/igrave         % 141
/Adieresis      % 142
/Aring          % 143
/Eacute         % 144
/ae             % 145
/AE             % 146
/ocircumflex    % 147
/odieresis      % 148
/ograve         % 149
/ucircumflex    % 150
/ugrave         % 151
/ydieresis      % 152
/Odieresis      % 153
/Udieresis      % 154
/cent           % 155
/sterling       % 156
/yen            % 157
/currency       % 158
/florin         % 159
/aacute         % 160
/iacute         % 161
/oacute         % 162
/uacute         % 163
/ntilde         % 164
/Ntilde         % 165
/ordfeminine    % 166
/ordmasculine   % 167
/questiondown   % 168
/quotedblleft   % 169
/quotedblright  % 170
/Aacute         % 171
/Acircumflex    % 172
/exclamdown     % 173
/Egrave         % 174
/Ecircumflex    % 175
/atilde         % 176
/otilde         % 177
/Edieresis      % 178
/Igrave         % 179
/oe             % 180
/OE             % 181
/Agrave         % 182
/Atilde         % 183
/Otilde         % 184
/section        % 185
/Iacute         % 186
/Icircumflex    % 187
/Idieresis      % 188
/Ograve         % 189
/Oacute         % 190
/Ocircumflex    % 191
/Ugrave         % 192
/Uacute         % 193
/Ucircumflex    % 194
/Ydieresis      % 195
/germandbls     % 196
/guillemotleft  % 197
/guillemotright % 198
/bullet         % 199
/.notdef        % 200
/.notdef        % 201
/.notdef        % 202
/.notdef        % 203
/.notdef        % 204
/.notdef        % 205
/.notdef        % 206
/.notdef        % 207
/.notdef        % 208
/.notdef        % 209
/.notdef        % 210
/.notdef        % 211
/.notdef        % 212
/.notdef        % 213
/.notdef        % 214
/.notdef        % 215
/.notdef        % 216
/.notdef        % 217
/.notdef        % 218
/.notdef        % 219
/.notdef        % 220
/.notdef        % 221
/.notdef        % 222
/.notdef        % 223
/.notdef        % 224
/.notdef        % 225
/.notdef        % 226
/.notdef        % 227
/.notdef        % 228
/.notdef        % 229
/.notdef        % 230
/.notdef        % 231
/.notdef        % 232
/.notdef        % 233
/.notdef        % 234
/.notdef        % 235
/.notdef        % 236
/.notdef        % 237
/.notdef        % 238
/.notdef        % 239
/.notdef        % 240
/.notdef        % 241
/.notdef        % 242
/.notdef        % 243
/.notdef        % 244
/.notdef        % 245
/.notdef        % 246
/.notdef        % 247
/.notdef        % 248
/.notdef        % 249
/.notdef        % 250
/.notdef        % 251
/.notdef        % 252
/.notdef        % 253
/.notdef        % 254
/.notdef        % 255
] 
def

/axumfindfont
{
   /axumfont axumencoding reencode
   /axumfont findfont
}
def


/MainFont /Helvetica axumfindfont 98 scalefont def
MainFont setfont
1 setlinejoin 0 setlinecap 0 setgray
 gsave 72 630 div dup scale
 0.0 setgray [] 0 setdash

1 setlinewidth
 752 477 3837 477 1 rps
 752 477 3837 477 1 rps
 748 2760 3841 2760 1 rps
 751 476 3838 476 1 rps
 751 476 3837 476 1 rps
 748 2761 3841 2761 1 rps
 750 475 3839 475 1 rps
 750 475 3837 475 1 rps
 748 2762 3841 2762 1 rps
 749 474 3840 474 1 rps
 749 474 3837 474 1 rps
 748 2763 3841 2763 1 rps
 748 473 3841 473 1 rps
 748 473 3837 473 1 rps
 748 2764 3841 2764 1 rps
 752 477 752 514 1 rps
 752 2760 752 2724 1 rps
 886 477 886 495 1 rps
 886 2760 886 2742 1 rps
 1020 477 1020 514 1 rps
 1020 2760 1020 2724 1 rps
 1154 477 1154 495 1 rps
 1154 2760 1154 2742 1 rps
 1289 477 1289 514 1 rps
 1289 2760 1289 2724 1 rps
 1422 477 1422 495 1 rps
 1422 2760 1422 2742 1 rps
 1558 477 1558 514 1 rps
 1558 2760 1558 2724 1 rps
 1691 477 1691 495 1 rps
 1691 2760 1691 2742 1 rps
 1826 477 1826 514 1 rps
 1826 2760 1826 2724 1 rps
 1959 477 1959 495 1 rps
 1959 2760 1959 2742 1 rps
 2094 477 2094 514 1 rps
 2094 2760 2094 2724 1 rps
 2227 477 2227 495 1 rps
 2227 2760 2227 2742 1 rps
 2362 477 2362 514 1 rps
 2362 2760 2362 2724 1 rps
 2495 477 2495 495 1 rps
 2495 2760 2495 2742 1 rps
 2631 477 2631 514 1 rps
 2631 2760 2631 2724 1 rps
 2764 477 2764 495 1 rps
 2764 2760 2764 2742 1 rps
 2899 477 2899 514 1 rps
 2899 2760 2899 2724 1 rps
 3032 477 3032 495 1 rps
 3032 2760 3032 2742 1 rps
 3167 477 3167 514 1 rps
 3167 2760 3167 2724 1 rps
 3300 477 3300 495 1 rps
 3300 2760 3300 2742 1 rps
 3435 477 3435 514 1 rps
 3435 2760 3435 2724 1 rps
 3568 477 3568 495 1 rps
 3568 2760 3568 2742 1 rps
 3703 477 3703 514 1 rps
 3703 2760 3703 2724 1 rps
 3836 477 3836 495 1 rps
 3836 2760 3836 2742 1 rps

/Times-Roman axumfindfont 124 scalefont setfont
 674 342 moveto  (4.6) show 
 942 342 moveto  (4.5) show 
 1210 342 moveto  (4.4) show 
 1479 342 moveto  (4.3) show 
 1747 342 moveto  (4.2) show 
 2015 342 moveto  (4.1) show 
 2283 342 moveto  (4.0) show 
 2552 342 moveto  (3.9) show 
 2820 342 moveto  (3.8) show 
 3089 342 moveto  (3.7) show 
 3357 342 moveto  (3.6) show 
 3625 342 moveto  (3.5) show 
 752 477 752 2760 1 rps
 751 476 751 2761 1 rps
 750 475 750 2762 1 rps
 749 474 749 2763 1 rps
 748 473 748 2764 1 rps
 3837 477 3837 2760 1 rps
 3838 476 3838 2761 1 rps
 3839 475 3839 2762 1 rps
 3840 474 3840 2763 1 rps
 3841 473 3841 2764 1 rps
 752 477 789 477 1 rps
 3837 477 3801 477 1 rps
 752 640 771 640 1 rps
 3837 640 3819 640 1 rps
 752 804 789 804 1 rps
 3837 804 3801 804 1 rps
 752 966 771 966 1 rps
 3837 966 3819 966 1 rps
 752 1130 789 1130 1 rps
 3837 1130 3801 1130 1 rps
 752 1293 771 1293 1 rps
 3837 1293 3819 1293 1 rps
 752 1456 789 1456 1 rps
 3837 1456 3801 1456 1 rps
 752 1619 771 1619 1 rps
 3837 1619 3819 1619 1 rps
 752 1781 789 1781 1 rps
 3837 1781 3801 1781 1 rps
 752 1944 771 1944 1 rps
 3837 1944 3819 1944 1 rps
 752 2108 789 2108 1 rps
 3837 2108 3801 2108 1 rps
 752 2270 771 2270 1 rps
 3837 2270 3819 2270 1 rps
 752 2434 789 2434 1 rps
 3837 2434 3801 2434 1 rps
 752 2597 771 2597 1 rps
 3837 2597 3819 2597 1 rps
 752 2760 789 2760 1 rps
 3837 2760 3801 2760 1 rps

/Symbol findfont 124 scalefont setfont
 473 437 moveto  (-) show 

/Times-Roman axumfindfont 124 scalefont setfont
 542 437 moveto  (2.0) show 

/Symbol findfont 124 scalefont setfont
 473 763 moveto  (-) show 

/Times-Roman axumfindfont 124 scalefont setfont
 542 763 moveto  (1.0) show 
 542 1090 moveto  (0.0) show 
 542 1416 moveto  (1.0) show 
 542 1741 moveto  (2.0) show 
 542 2068 moveto  (3.0) show 
 542 2394 moveto  (4.0) show 
 542 2720 moveto  (5.0) show 
 3435 663 3411 690 3386 718 3362 745 3338 773 3312 800 3288 826 3263 852 3239 878
 3214 903 3190 928 3166 953 3141 976 3117 999 3092 1022 3067 1044 3043 1065
 3018 1084 2994 1103 2969 1121 2945 1138 2921 1155 2896 1171 2872 1186 2847 1201
 2823 1216 2797 1230 2773 1245 2749 1259 2724 1273 2700 1289 2675 1304 2651 1318
 2627 1333 2602 1349 2578 1364 2552 1380 2528 1396 2504 1412 2479 1429 2455 1446
 2430 1463 2406 1480 2382 1497 2357 1515 2333 1532 2307 1551 2283 1569 2258 1586
 2234 1604 2210 1621 2185 1639 2161 1656 2136 1674 2112 1691 2088 1709 2063 1726
 2038 1744 2013 1761 1989 1779 1965 1797 1940 1816 1916 1834 1891 1852 1867 1870
 1842 1888 1818 1906 1793 1924 1768 1942 1744 1961 1719 1979 1695 1997 1671 2016
 1646 2034 1622 2053 1597 2072 1573 2091 1549 2109 1523 2128 1499 2147 1474 2165
 1450 2184 1425 2203 1401 2222 1377 2241 1352 2260 1328 2279 1303 2298 1278 2319
 1254 2338 1229 2358 1205 2378 1180 2397 1156 2417 1132 2437 1107 2457 1083 2477
 1058 2497 1034 2518 1008 2538 99 rps
 3431 641
 3439 641 3448 645 3453 650 3457 659
 3457 667 3453 676 3448 681 3439 685
 3431 685 3422 681 3417 676 3413 667
 3413 659 3417 650 3422 645 3431 641
 16 3 1 roll cnp
 0.00 setgray
gsave eofill grestore  0.0 setgray
 stroke 0.0 setgray 3002 1072
 3010 1072 3019 1076 3024 1081 3028 1090
 3028 1098 3024 1107 3019 1112 3010 1116
 3002 1116 2993 1112 2988 1107 2984 1098
 2984 1090 2988 1081 2993 1076 3002 1072
 16 3 1 roll cnp
 0.00 setgray
gsave eofill grestore  0.0 setgray
 stroke 0.0 setgray 2792 1209
 2800 1209 2809 1213 2814 1218 2818 1227
 2818 1235 2814 1244 2809 1249 2800 1253
 2792 1253 2783 1249 2778 1244 2774 1235
 2774 1227 2778 1218 2783 1213 2792 1209
 16 3 1 roll cnp
 0.00 setgray
gsave eofill grestore  0.0 setgray
 stroke 0.0 setgray 2573 1343
 2581 1343 2590 1347 2595 1352 2599 1361
 2599 1369 2595 1378 2590 1383 2581 1387
 2573 1387 2563 1383 2558 1378 2554 1369
 2554 1361 2558 1352 2563 1347 2573 1343
 16 3 1 roll cnp
 0.00 setgray
gsave eofill grestore  0.0 setgray
 stroke 0.0 setgray 2216 1592
 2224 1592 2233 1596 2238 1601 2242 1610
 2242 1618 2238 1627 2233 1632 2224 1636
 2216 1636 2207 1632 2202 1627 2198 1618
 2198 1610 2202 1601 2207 1596 2216 1592
 16 3 1 roll cnp
 0.00 setgray
gsave eofill grestore  0.0 setgray
 stroke 0.0 setgray 1999 1747
 2007 1747 2016 1751 2021 1756 2025 1765
 2025 1773 2021 1782 2016 1787 2007 1791
 1999 1791 1990 1787 1985 1782 1981 1773
 1981 1765 1985 1756 1990 1751 1999 1747
 16 3 1 roll cnp
 0.00 setgray
gsave eofill grestore  0.0 setgray
 stroke 0.0 setgray 1633 2019
 1641 2019 1650 2023 1655 2028 1659 2037
 1659 2045 1655 2054 1650 2060 1641 2064
 1633 2064 1624 2060 1619 2054 1615 2045
 1615 2037 1619 2028 1624 2023 1633 2019
 16 3 1 roll cnp
 0.00 setgray
gsave eofill grestore  0.0 setgray
 stroke 0.0 setgray 1267 2301
 1275 2301 1285 2305 1290 2310 1294 2320
 1294 2328 1290 2337 1285 2342 1275 2346
 1267 2346 1258 2342 1253 2337 1249 2328
 1249 2320 1253 2310 1258 2305 1267 2301
 16 3 1 roll cnp
 0.00 setgray
gsave eofill grestore  0.0 setgray
 stroke 0.0 setgray 1004 2516
 1012 2516 1021 2520 1027 2525 1031 2534
 1031 2542 1027 2551 1021 2556 1012 2560
 1004 2560 995 2556 990 2551 986 2542
 986 2534 990 2525 995 2520 1004 2516
 16 3 1 roll cnp
 0.00 setgray
gsave eofill grestore  0.0 setgray
 stroke 0.0 setgray 0.0 setgray 1969 159 moveto  (Log) show 

/Times-Roman axumfindfont 95 scalefont setfont
 2172 131 moveto  (10) show 

/Times-Italic axumfindfont 128 scalefont setfont
 2266 159 moveto  ( T) show 

/Times-Italic axumfindfont 95 scalefont setfont
 2370 131 moveto  (e) show 

/Times-Italic axumfindfont 128 scalefont setfont
 2413 160 moveto  ( ) show 

/Times-Roman axumfindfont 124 scalefont setfont
 2444 160 moveto  (\(K\)) show 
 392 1311 moveto  90 rotate (Log) show  -90 rotate

/Times-Roman axumfindfont 95 scalefont setfont
 420 1513 moveto  90 rotate (10) show  -90 rotate

/Times-Roman axumfindfont 124 scalefont setfont
 391 1609 moveto  90 rotate (\() show  -90 rotate

/Times-Italic axumfindfont 128 scalefont setfont
 391 1651 moveto  90 rotate (L) show  -90 rotate

/Times-Roman axumfindfont 124 scalefont setfont
 391 1722 moveto  90 rotate (/) show  -90 rotate

/Times-Italic axumfindfont 128 scalefont setfont
 391 1758 moveto  90 rotate (L) show  -90 rotate

/Times-Italic axumfindfont 95 scalefont setfont
 419 1830 moveto  90 rotate (  ) show  -90 rotate

/Times-Roman axumfindfont 124 scalefont setfont
 391 1878 moveto  90 rotate (\)) show  -90 rotate

/Times-Roman axumfindfont 105 scalefont setfont
 3494 620 moveto  (0.5 M) show 
 3060 1086 moveto  (1.0 M) show 
 2640 1360 moveto  (1.5 M) show 
 2283 1603 moveto  (2.25 M) show 
 2069 1757 moveto  (3.0 M) show 
 1703 2031 moveto  (5.0 M) show 
 1352 2305 moveto  (9.0 M) show 
 1064 2529 moveto  (15 M) show 
 2850 1227 moveto  (1.25 M) show 

5 setlinewidth
 3771 587 3778 587 3785 588 3792 593 3796 600 3799 607 3799 614 3796 621 3792 628
 3785 632 3778 635 3771 635 3764 632 3757 628 3752 621 3750 614 3750 607
 3752 600 3757 593 3764 588 19 rcs

 3772 614 3771 612 3771 609 3774 607 3776 607 3778 609 3778 612 3776 614 3774 614
 8 rps
 3774 609 3776 609 3776 612 3774 612 3 rcs

 3339 1060 3346 1060 3353 1061 3360 1066 3364 1073 3367 1080 3367 1087 3364 1094 3360 1101
 3353 1105 3346 1108 3339 1108 3332 1105 3325 1101 3320 1094 3318 1087 3318 1080
 3320 1073 3325 1066 3332 1061 19 rcs

 3340 1087 3339 1085 3339 1082 3342 1080 3344 1080 3346 1082 3346 1085 3344 1087 3342 1087
 8 rps
 3342 1082 3344 1082 3344 1085 3342 1085 3 rcs

 2920 1333 2927 1333 2934 1334 2941 1339 2945 1346 2948 1353 2948 1360 2945 1367 2941 1374
 2934 1378 2927 1381 2920 1381 2913 1378 2906 1374 2901 1367 2899 1360 2899 1353
 2901 1346 2906 1339 2913 1334 19 rcs

 2921 1360 2920 1358 2920 1355 2923 1353 2925 1353 2927 1355 2927 1358 2925 1360 2923 1360
 8 rps
 2923 1355 2925 1355 2925 1358 2923 1358 3 rcs

 2615 1579 2622 1579 2629 1580 2636 1585 2640 1592 2643 1599 2643 1606 2640 1613 2636 1620
 2629 1624 2622 1627 2615 1627 2608 1624 2601 1620 2596 1613 2594 1606 2594 1599
 2596 1592 2601 1585 2608 1580 19 rcs

 2616 1606 2615 1604 2615 1601 2618 1599 2620 1599 2622 1601 2622 1604 2620 1606 2618 1606
 8 rps
 2618 1601 2620 1601 2620 1604 2618 1604 3 rcs

 2352 1729 2359 1729 2366 1730 2373 1735 2377 1742 2380 1749 2380 1756 2377 1763 2373 1770
 2366 1774 2359 1777 2352 1777 2345 1774 2338 1770 2333 1763 2331 1756 2331 1749
 2333 1742 2338 1735 2345 1730 19 rcs

 2353 1756 2352 1754 2352 1751 2355 1749 2357 1749 2359 1751 2359 1754 2357 1756 2355 1756
 8 rps
 2355 1751 2357 1751 2357 1754 2355 1754 3 rcs

 1983 2007 1990 2007 1997 2008 2004 2013 2008 2020 2011 2027 2011 2034 2008 2041 2004 2048
 1997 2052 1990 2055 1983 2055 1976 2052 1969 2048 1964 2041 1962 2034 1962 2027
 1964 2020 1969 2013 1976 2008 19 rcs

 1984 2034 1983 2032 1983 2029 1986 2027 1988 2027 1990 2029 1990 2032 1988 2034 1986 2034
 8 rps
 1986 2029 1988 2029 1988 2032 1986 2032 3 rcs

 1633 2280 1640 2280 1647 2281 1654 2286 1658 2293 1661 2300 1661 2307 1658 2314 1654 2321
 1647 2325 1640 2328 1633 2328 1626 2325 1619 2321 1614 2314 1612 2307 1612 2300
 1614 2293 1619 2286 1626 2281 19 rcs

 1634 2307 1633 2305 1633 2302 1636 2300 1638 2300 1640 2302 1640 2305 1638 2307 1636 2307
 8 rps
 1636 2302 1638 2302 1638 2305 1636 2305 3 rcs

 1319 2507 1326 2507 1333 2508 1340 2513 1344 2520 1347 2527 1347 2534 1344 2541 1340 2548
 1333 2552 1326 2555 1319 2555 1312 2552 1305 2548 1300 2541 1298 2534 1298 2527
 1300 2520 1305 2513 1312 2508 19 rcs

 1320 2534 1319 2532 1319 2529 1322 2527 1324 2527 1326 2529 1326 2532 1324 2534 1322 2534
 8 rps
 1322 2529 1324 2529 1324 2532 1322 2532 3 rcs

 3184 1201 3191 1201 3198 1202 3205 1207 3209 1214 3212 1221 3212 1228 3209 1235 3205 1242
 3198 1246 3191 1249 3184 1249 3177 1246 3170 1242 3165 1235 3163 1228 3163 1221
 3165 1214 3170 1207 3177 1202 19 rcs

 3185 1228 3184 1226 3184 1223 3187 1221 3189 1221 3191 1223 3191 1226 3189 1228 3187 1228
 8 rps
 3187 1223 3189 1223 3189 1226 3187 1226 3 rcs

 390 1831 398 1831 406 1833 414 1837 418 1845 422 1853 422 1862 418 1870 414 1878
 406 1882 398 1886 390 1886 381 1882 373 1878 369 1870 365 1862 365 1853
 369 1845 373 1837 381 1833 19 rcs

 391 1862 390 1860 390 1857 393 1853 396 1853 398 1857 398 1860 396 1862 393 1862
 8 rps
 393 1857 396 1857 396 1860 393 1860 3 rcs

 grestore showpage
%Trailer
%EOF
