%!PS-Adobe-2.0 EPSF-1.2
%%BoundingBox: 0 0 468 360
%%%%DocumentFonts: /Helvetica
%%Title: Axum PostScript file
%%Creator: TriMetrix, Inc.
%%Pages: 1
%%EndComments
% Copyright 1988-1991 by TriMetrix, Inc. All rights reserved.
/downdict 4 dict def
/sdown
 {downdict begin
  /thestring exch def
  /lineskip exch def
  thestring
   {
    /charcode exch def
    /thechar ( ) dup 0 charcode put def
    0 lineskip neg rmoveto
    gsave
     thechar stringwidth pop 2 div neg 0 rmoveto
     thechar show
    grestore
   } forall
   end
  } def

/updict 4 dict def
/sup
 {updict begin
  /thestring exch def
  /lineskip exch def
  thestring 
   {
    /charcode exch def
    /thechar ( ) dup 0 charcode put def
    0 lineskip rmoveto
    gsave
     thechar stringwidth pop 2 div neg 0 rmoveto
     thechar show
    grestore
   } forall
   end
  } def

/leftdict 4 dict def
/sleft
 {leftdict begin
  /thestring exch def
  thestring
   {
    /charcode exch def
    /thechar ( ) dup 0 charcode put def
    gsave
     thechar stringwidth pop neg 0 rmoveto
     thechar show
    grestore
   } forall

   thechar stringwidth pop neg 0 rmoveto
   end
  } def

/path{newpath moveto{lineto}repeat} bind def 
/cnp{newpath moveto{lineto}repeat closepath} bind def
/clp{moveto{lineto}repeat closepath} bind def
/rps{ 3 1 roll path stroke} bind def
/rcs{ 3 1 roll clp stroke} bind def
/setF { currentscreen 4 -2 roll pop 3 1 roll setscreen} bind def
% required due to WinWord 2.0 bug:
/II { } def

/reencodedict 5 dict def
/reencode
{
   reencodedict begin
   /newencoding exch def
   /newfontname exch def
   /basefontname exch def

   /basefontdict basefontname findfont def
   /newfont basefontdict maxlength dict def

   basefontdict
   {
      exch dup dup /FID ne exch /Encoding ne and
      { exch newfont 3 1 roll put }
      { pop pop }
      ifelse
   }
   forall

   newfont /FontName newfontname put
   newfont /Encoding newencoding put
   newfontname newfont definefont pop
   end
}
def

/axumencoding
[
/.notdef        %   0
/.notdef        %   1
/.notdef        %   2
/.notdef        %   3
/.notdef        %   4
/.notdef        %   5
/.notdef        %   6
/.notdef        %   7
/.notdef        %   8
/.notdef        %   9
/.notdef        %  10
/.notdef        %  11
/.notdef        %  12
/.notdef        %  13
/.notdef        %  14
/.notdef        %  15
/.notdef        %  16
/.notdef        %  17
/.notdef        %  18
/.notdef        %  19
/.notdef        %  20
/.notdef        %  21
/.notdef        %  22
/.notdef        %  23
/.notdef        %  24
/.notdef        %  25
/.notdef        %  26
/.notdef        %  27
/.notdef        %  28
/.notdef        %  29
/.notdef        %  30
/.notdef        %  31
/space          %  32
/exclam         %  33
/quotedbl       %  34
/numbersign     %  35
/dollar         %  36
/percent        %  37
/ampersand      %  38
/quoteright     %  39
/parenleft      %  40
/parenright     %  41
/asterisk       %  42
/plus           %  43
/comma          %  44
/hyphen         %  45
/period         %  46
/slash          %  47
/zero           %  48
/one            %  49
/two            %  50
/three          %  51
/four           %  52
/five           %  53
/six            %  54
/seven          %  55
/eight          %  56
/nine           %  57
/colon          %  58
/semicolon      %  59
/less           %  60
/equal          %  61
/greater        %  62
/question       %  63
/at             %  64
/A              %  65
/B              %  66
/C              %  67
/D              %  68
/E              %  69
/F              %  70
/G              %  71
/H              %  72
/I              %  73
/J              %  74
/K              %  75
/L              %  76
/M              %  77
/N              %  78
/O              %  79
/P              %  80
/Q              %  81
/R              %  82
/S              %  83
/T              %  84
/U              %  85
/V              %  86
/W              %  87
/X              %  88
/Y              %  89
/Z              %  90
/bracketleft    %  91
/backslash      %  92
/bracketright   %  93
/asciicircum    %  94
/underscore     %  95
/quoteleft      %  96
/a              %  97
/b              %  98
/c              %  99
/d              % 100
/e              % 101
/f              % 102
/g              % 103
/h              % 104
/i              % 105
/j              % 106
/k              % 107
/l              % 108
/m              % 109
/n              % 110
/o              % 111
/p              % 112
/q              % 113
/r              % 114
/s              % 115
/t              % 116
/u              % 117
/v              % 118
/w              % 119
/x              % 120
/y              % 121
/z              % 122
/braceleft      % 123
/bar            % 124
/braceright     % 125
/asciitilde     % 126
/.notdef        % 127
/Ccedilla       % 128
/udieresis      % 129
/eacute         % 130
/acircumflex    % 131
/adieresis      % 132
/agrave         % 133
/aring          % 134
/ccedilla       % 135
/ecircumflex    % 136
/edieresis      % 137
/egrave         % 138
/idieresis      % 139
/icircumflex    % 140
/igrave         % 141
/Adieresis      % 142
/Aring          % 143
/Eacute         % 144
/ae             % 145
/AE             % 146
/ocircumflex    % 147
/odieresis      % 148
/ograve         % 149
/ucircumflex    % 150
/ugrave         % 151
/ydieresis      % 152
/Odieresis      % 153
/Udieresis      % 154
/cent           % 155
/sterling       % 156
/yen            % 157
/currency       % 158
/florin         % 159
/aacute         % 160
/iacute         % 161
/oacute         % 162
/uacute         % 163
/ntilde         % 164
/Ntilde         % 165
/ordfeminine    % 166
/ordmasculine   % 167
/questiondown   % 168
/quotedblleft   % 169
/quotedblright  % 170
/Aacute         % 171
/Acircumflex    % 172
/exclamdown     % 173
/Egrave         % 174
/Ecircumflex    % 175
/atilde         % 176
/otilde         % 177
/Edieresis      % 178
/Igrave         % 179
/oe             % 180
/OE             % 181
/Agrave         % 182
/Atilde         % 183
/Otilde         % 184
/section        % 185
/Iacute         % 186
/Icircumflex    % 187
/Idieresis      % 188
/Ograve         % 189
/Oacute         % 190
/Ocircumflex    % 191
/Ugrave         % 192
/Uacute         % 193
/Ucircumflex    % 194
/Ydieresis      % 195
/germandbls     % 196
/guillemotleft  % 197
/guillemotright % 198
/bullet         % 199
/.notdef        % 200
/.notdef        % 201
/.notdef        % 202
/.notdef        % 203
/.notdef        % 204
/.notdef        % 205
/.notdef        % 206
/.notdef        % 207
/.notdef        % 208
/.notdef        % 209
/.notdef        % 210
/.notdef        % 211
/.notdef        % 212
/.notdef        % 213
/.notdef        % 214
/.notdef        % 215
/.notdef        % 216
/.notdef        % 217
/.notdef        % 218
/.notdef        % 219
/.notdef        % 220
/.notdef        % 221
/.notdef        % 222
/.notdef        % 223
/.notdef        % 224
/.notdef        % 225
/.notdef        % 226
/.notdef        % 227
/.notdef        % 228
/.notdef        % 229
/.notdef        % 230
/.notdef        % 231
/.notdef        % 232
/.notdef        % 233
/.notdef        % 234
/.notdef        % 235
/.notdef        % 236
/.notdef        % 237
/.notdef        % 238
/.notdef        % 239
/.notdef        % 240
/.notdef        % 241
/.notdef        % 242
/.notdef        % 243
/.notdef        % 244
/.notdef        % 245
/.notdef        % 246
/.notdef        % 247
/.notdef        % 248
/.notdef        % 249
/.notdef        % 250
/.notdef        % 251
/.notdef        % 252
/.notdef        % 253
/.notdef        % 254
/.notdef        % 255
] 
def

/axumfindfont
{
   /axumfont axumencoding reencode
   /axumfont findfont
}
def


/MainFont /Helvetica axumfindfont 98 scalefont def
MainFont setfont
1 setlinejoin 0 setlinecap 0 setgray
 gsave 72 630 div dup scale
 0.0 setgray [] 0 setdash

1 setlinewidth
 686 476 3765 476 1 rps
 686 476 3765 476 1 rps
 682 2750 3769 2750 1 rps
 685 475 3766 475 1 rps
 685 475 3765 475 1 rps
 682 2751 3769 2751 1 rps
 684 474 3767 474 1 rps
 684 474 3765 474 1 rps
 682 2752 3769 2752 1 rps
 683 473 3768 473 1 rps
 683 473 3765 473 1 rps
 682 2753 3769 2753 1 rps
 682 472 3769 472 1 rps
 682 472 3765 472 1 rps
 682 2754 3769 2754 1 rps
 686 476 686 512 1 rps
 686 2750 686 2714 1 rps
 857 476 857 494 1 rps
 857 2750 857 2732 1 rps
 1028 476 1028 512 1 rps
 1028 2750 1028 2714 1 rps
 1199 476 1199 494 1 rps
 1199 2750 1199 2732 1 rps
 1370 476 1370 512 1 rps
 1370 2750 1370 2714 1 rps
 1541 476 1541 494 1 rps
 1541 2750 1541 2732 1 rps
 1712 476 1712 512 1 rps
 1712 2750 1712 2714 1 rps
 1883 476 1883 494 1 rps
 1883 2750 1883 2732 1 rps
 2054 476 2054 512 1 rps
 2054 2750 2054 2714 1 rps
 2225 476 2225 494 1 rps
 2225 2750 2225 2732 1 rps
 2397 476 2397 512 1 rps
 2397 2750 2397 2714 1 rps
 2568 476 2568 494 1 rps
 2568 2750 2568 2732 1 rps
 2739 476 2739 512 1 rps
 2739 2750 2739 2714 1 rps
 2910 476 2910 494 1 rps
 2910 2750 2910 2732 1 rps
 3081 476 3081 512 1 rps
 3081 2750 3081 2714 1 rps
 3252 476 3252 494 1 rps
 3252 2750 3252 2732 1 rps
 3423 476 3423 512 1 rps
 3423 2750 3423 2714 1 rps
 3594 476 3594 494 1 rps
 3594 2750 3594 2732 1 rps
 3765 476 3765 512 1 rps
 3765 2750 3765 2714 1 rps

/Times-Roman axumfindfont 124 scalefont setfont
 655 341 moveto  (0) show 
 966 341 moveto  (10) show 
 1308 341 moveto  (20) show 
 1650 341 moveto  (30) show 
 1992 341 moveto  (40) show 
 2335 341 moveto  (50) show 
 2677 341 moveto  (60) show 
 3019 341 moveto  (70) show 
 3361 341 moveto  (80) show 
 3703 341 moveto  (90) show 
 686 476 686 2750 1 rps
 685 475 685 2751 1 rps
 684 474 684 2752 1 rps
 683 473 683 2753 1 rps
 682 472 682 2754 1 rps
 3765 476 3765 2750 1 rps
 3766 475 3766 2751 1 rps
 3767 474 3767 2752 1 rps
 3768 473 3768 2753 1 rps
 3769 472 3769 2754 1 rps
 686 579 722 579 1 rps
 3765 579 3729 579 1 rps
 686 751 704 751 1 rps
 3765 751 3747 751 1 rps
 686 924 722 924 1 rps
 3765 924 3729 924 1 rps
 686 1096 704 1096 1 rps
 3765 1096 3747 1096 1 rps
 686 1268 722 1268 1 rps
 3765 1268 3729 1268 1 rps
 686 1440 704 1440 1 rps
 3765 1440 3747 1440 1 rps
 686 1613 722 1613 1 rps
 3765 1613 3729 1613 1 rps
 686 1785 704 1785 1 rps
 3765 1785 3747 1785 1 rps
 686 1958 722 1958 1 rps
 3765 1958 3729 1958 1 rps
 686 2130 704 2130 1 rps
 3765 2130 3747 2130 1 rps
 686 2302 722 2302 1 rps
 3765 2302 3729 2302 1 rps
 686 2474 704 2474 1 rps
 3765 2474 3747 2474 1 rps
 686 2647 722 2647 1 rps
 3765 2647 3729 2647 1 rps
 476 539 moveto  (0.4) show 
 476 884 moveto  (0.5) show 
 476 1228 moveto  (0.6) show 
 476 1573 moveto  (0.7) show 
 476 1918 moveto  (0.8) show 
 476 2262 moveto  (0.9) show 
 476 2607 moveto  (1.0) show 
 686 2647 857 2640 1028 2616 1199 2571 1370 2523 1570 2440 1947 2233 2245 2026 2504 1820
 2739 1613 2958 1406 3168 1200 3370 993 3569 786 3765 579 14 rps
 686 2625
 690 2625 699 2629 704 2634 708 2643
 708 2651 704 2660 699 2665 690 2669
 686 2669 686 2625 10 3 1 roll cnp
 0.00 setgray
gsave eofill grestore  0.0 setgray
 stroke 0.0 setgray 1566 2432
 1574 2432 1583 2436 1588 2441 1592 2450
 1592 2458 1588 2467 1583 2472 1574 2476
 1566 2476 1557 2472 1552 2467 1548 2458
 1548 2450 1552 2441 1557 2436 1566 2432
 16 3 1 roll cnp
 0.00 setgray
gsave eofill grestore  0.0 setgray
 stroke 0.0 setgray 1943 2273
 1951 2273 1960 2277 1965 2282 1969 2291
 1969 2299 1965 2308 1960 2313 1951 2317
 1943 2317 1934 2313 1929 2308 1925 2299
 1925 2291 1929 2282 1934 2277 1943 2273
 16 3 1 roll cnp
 0.00 setgray
gsave eofill grestore  0.0 setgray
 stroke 0.0 setgray 2241 2080
 2249 2080 2258 2084 2263 2089 2267 2098
 2267 2106 2263 2115 2258 2120 2249 2124
 2241 2124 2232 2120 2227 2115 2223 2106
 2223 2098 2227 2089 2232 2084 2241 2080
 16 3 1 roll cnp
 0.00 setgray
gsave eofill grestore  0.0 setgray
 stroke 0.0 setgray 2500 1894
 2508 1894 2517 1898 2522 1903 2526 1912
 2526 1920 2522 1929 2517 1934 2508 1938
 2500 1938 2491 1934 2486 1929 2482 1920
 2482 1912 2486 1903 2491 1898 2500 1894
 16 3 1 roll cnp
 0.00 setgray
gsave eofill grestore  0.0 setgray
 stroke 0.0 setgray 2735 1694
 2743 1694 2752 1698 2757 1703 2761 1712
 2761 1720 2757 1729 2752 1734 2743 1738
 2735 1738 2726 1734 2721 1729 2717 1720
 2717 1712 2721 1703 2726 1698 2735 1694
 16 3 1 roll cnp
 0.00 setgray
gsave eofill grestore  0.0 setgray
 stroke 0.0 setgray 2954 1488
 2962 1488 2971 1492 2976 1497 2980 1506
 2980 1514 2976 1523 2971 1528 2962 1532
 2954 1532 2945 1528 2940 1523 2936 1514
 2936 1506 2940 1497 2945 1492 2954 1488
 16 3 1 roll cnp
 0.00 setgray
gsave eofill grestore  0.0 setgray
 stroke 0.0 setgray 3164 1253
 3172 1253 3181 1257 3186 1262 3190 1271
 3190 1279 3186 1288 3181 1293 3172 1297
 3164 1297 3155 1293 3150 1288 3146 1279
 3146 1271 3150 1262 3155 1257 3164 1253
 16 3 1 roll cnp
 0.00 setgray
gsave eofill grestore  0.0 setgray
 stroke 0.0 setgray 3366 978
 3374 978 3383 982 3388 987 3392 996
 3392 1004 3388 1013 3383 1018 3374 1022
 3366 1022 3357 1018 3352 1013 3348 1004
 3348 996 3352 987 3357 982 3366 978
 16 3 1 roll cnp
 0.00 setgray
gsave eofill grestore  0.0 setgray
 stroke 0.0 setgray 3565 730
 3573 730 3582 734 3587 739 3591 748
 3591 756 3587 765 3582 770 3573 774
 3565 774 3556 770 3551 765 3547 756
 3547 748 3551 739 3556 734 3565 730
 16 3 1 roll cnp
 0.00 setgray
gsave eofill grestore  0.0 setgray
 stroke 0.0 setgray 0.0 setgray 1875 159 moveto  (Angle ) show 

/Symbol findfont 124 scalefont setfont
 2214 159 moveto  (q) show 

/Times-Roman axumfindfont 124 scalefont setfont
 2278 159 moveto  ( \(deg\)) show 

/Times-Italic axumfindfont 128 scalefont setfont
 359 1302 moveto  90 rotate (I) show  -90 rotate

/Times-Roman axumfindfont 124 scalefont setfont
 359 1344 moveto  90 rotate (\() show  -90 rotate

/Symbol findfont 124 scalefont setfont
 359 1386 moveto  90 rotate (q) show  -90 rotate

/Times-Roman axumfindfont 124 scalefont setfont
 359 1451 moveto  90 rotate (\)/) show  -90 rotate

/Times-Italic axumfindfont 128 scalefont setfont
 359 1528 moveto  90 rotate (I) show  -90 rotate

/Times-Roman axumfindfont 124 scalefont setfont
 359 1570 moveto  90 rotate (\() show  -90 rotate

/Symbol findfont 124 scalefont setfont
 359 1612 moveto  90 rotate (q) show  -90 rotate

/Times-Roman axumfindfont 124 scalefont setfont
 359 1677 moveto  90 rotate ( = 0\)) show  -90 rotate
 923 910 1196 910 1 rps
 1287 869 moveto  (Eddington approximation) show 
 1056 757
 1064 757 1073 761 1078 766 1082 775
 1082 783 1078 792 1073 797 1064 801
 1056 801 1047 797 1042 792 1038 783
 1038 775 1042 766 1047 761 1056 757
 16 3 1 roll cnp
 0.00 setgray
gsave eofill grestore  0.0 setgray
 stroke 0.0 setgray 0.0 setgray 1287 738 moveto  (Observed limb darkening) show 
 832 1091 832 647 2668 647 2668 1091 3 rcs

 grestore showpage
%Trailer
%EOF
