%!PS-Adobe-2.0 EPSF-1.2
%%BoundingBox: 0 0 468 360
%%%%DocumentFonts: /Helvetica
%%Title: Axum PostScript file
%%Creator: TriMetrix, Inc.
%%Pages: 1
%%EndComments
% Copyright 1988-1991 by TriMetrix, Inc. All rights reserved.
/downdict 4 dict def
/sdown
 {downdict begin
  /thestring exch def
  /lineskip exch def
  thestring
   {
    /charcode exch def
    /thechar ( ) dup 0 charcode put def
    0 lineskip neg rmoveto
    gsave
     thechar stringwidth pop 2 div neg 0 rmoveto
     thechar show
    grestore
   } forall
   end
  } def

/updict 4 dict def
/sup
 {updict begin
  /thestring exch def
  /lineskip exch def
  thestring 
   {
    /charcode exch def
    /thechar ( ) dup 0 charcode put def
    0 lineskip rmoveto
    gsave
     thechar stringwidth pop 2 div neg 0 rmoveto
     thechar show
    grestore
   } forall
   end
  } def

/leftdict 4 dict def
/sleft
 {leftdict begin
  /thestring exch def
  thestring
   {
    /charcode exch def
    /thechar ( ) dup 0 charcode put def
    gsave
     thechar stringwidth pop neg 0 rmoveto
     thechar show
    grestore
   } forall

   thechar stringwidth pop neg 0 rmoveto
   end
  } def

/path{newpath moveto{lineto}repeat} bind def 
/cnp{newpath moveto{lineto}repeat closepath} bind def
/clp{moveto{lineto}repeat closepath} bind def
/rps{ 3 1 roll path stroke} bind def
/rcs{ 3 1 roll clp stroke} bind def
/setF { currentscreen 4 -2 roll pop 3 1 roll setscreen} bind def
% required due to WinWord 2.0 bug:
/II { } def

/reencodedict 5 dict def
/reencode
{
   reencodedict begin
   /newencoding exch def
   /newfontname exch def
   /basefontname exch def

   /basefontdict basefontname findfont def
   /newfont basefontdict maxlength dict def

   basefontdict
   {
      exch dup dup /FID ne exch /Encoding ne and
      { exch newfont 3 1 roll put }
      { pop pop }
      ifelse
   }
   forall

   newfont /FontName newfontname put
   newfont /Encoding newencoding put
   newfontname newfont definefont pop
   end
}
def

/axumencoding
[
/.notdef        %   0
/.notdef        %   1
/.notdef        %   2
/.notdef        %   3
/.notdef        %   4
/.notdef        %   5
/.notdef        %   6
/.notdef        %   7
/.notdef        %   8
/.notdef        %   9
/.notdef        %  10
/.notdef        %  11
/.notdef        %  12
/.notdef        %  13
/.notdef        %  14
/.notdef        %  15
/.notdef        %  16
/.notdef        %  17
/.notdef        %  18
/.notdef        %  19
/.notdef        %  20
/.notdef        %  21
/.notdef        %  22
/.notdef        %  23
/.notdef        %  24
/.notdef        %  25
/.notdef        %  26
/.notdef        %  27
/.notdef        %  28
/.notdef        %  29
/.notdef        %  30
/.notdef        %  31
/space          %  32
/exclam         %  33
/quotedbl       %  34
/numbersign     %  35
/dollar         %  36
/percent        %  37
/ampersand      %  38
/quoteright     %  39
/parenleft      %  40
/parenright     %  41
/asterisk       %  42
/plus           %  43
/comma          %  44
/hyphen         %  45
/period         %  46
/slash          %  47
/zero           %  48
/one            %  49
/two            %  50
/three          %  51
/four           %  52
/five           %  53
/six            %  54
/seven          %  55
/eight          %  56
/nine           %  57
/colon          %  58
/semicolon      %  59
/less           %  60
/equal          %  61
/greater        %  62
/question       %  63
/at             %  64
/A              %  65
/B              %  66
/C              %  67
/D              %  68
/E              %  69
/F              %  70
/G              %  71
/H              %  72
/I              %  73
/J              %  74
/K              %  75
/L              %  76
/M              %  77
/N              %  78
/O              %  79
/P              %  80
/Q              %  81
/R              %  82
/S              %  83
/T              %  84
/U              %  85
/V              %  86
/W              %  87
/X              %  88
/Y              %  89
/Z              %  90
/bracketleft    %  91
/backslash      %  92
/bracketright   %  93
/asciicircum    %  94
/underscore     %  95
/quoteleft      %  96
/a              %  97
/b              %  98
/c              %  99
/d              % 100
/e              % 101
/f              % 102
/g              % 103
/h              % 104
/i              % 105
/j              % 106
/k              % 107
/l              % 108
/m              % 109
/n              % 110
/o              % 111
/p              % 112
/q              % 113
/r              % 114
/s              % 115
/t              % 116
/u              % 117
/v              % 118
/w              % 119
/x              % 120
/y              % 121
/z              % 122
/braceleft      % 123
/bar            % 124
/braceright     % 125
/asciitilde     % 126
/.notdef        % 127
/Ccedilla       % 128
/udieresis      % 129
/eacute         % 130
/acircumflex    % 131
/adieresis      % 132
/agrave         % 133
/aring          % 134
/ccedilla       % 135
/ecircumflex    % 136
/edieresis      % 137
/egrave         % 138
/idieresis      % 139
/icircumflex    % 140
/igrave         % 141
/Adieresis      % 142
/Aring          % 143
/Eacute         % 144
/ae             % 145
/AE             % 146
/ocircumflex    % 147
/odieresis      % 148
/ograve         % 149
/ucircumflex    % 150
/ugrave         % 151
/ydieresis      % 152
/Odieresis      % 153
/Udieresis      % 154
/cent           % 155
/sterling       % 156
/yen            % 157
/currency       % 158
/florin         % 159
/aacute         % 160
/iacute         % 161
/oacute         % 162
/uacute         % 163
/ntilde         % 164
/Ntilde         % 165
/ordfeminine    % 166
/ordmasculine   % 167
/questiondown   % 168
/quotedblleft   % 169
/quotedblright  % 170
/Aacute         % 171
/Acircumflex    % 172
/exclamdown     % 173
/Egrave         % 174
/Ecircumflex    % 175
/atilde         % 176
/otilde         % 177
/Edieresis      % 178
/Igrave         % 179
/oe             % 180
/OE             % 181
/Agrave         % 182
/Atilde         % 183
/Otilde         % 184
/section        % 185
/Iacute         % 186
/Icircumflex    % 187
/Idieresis      % 188
/Ograve         % 189
/Oacute         % 190
/Ocircumflex    % 191
/Ugrave         % 192
/Uacute         % 193
/Ucircumflex    % 194
/Ydieresis      % 195
/germandbls     % 196
/guillemotleft  % 197
/guillemotright % 198
/bullet         % 199
/.notdef        % 200
/.notdef        % 201
/.notdef        % 202
/.notdef        % 203
/.notdef        % 204
/.notdef        % 205
/.notdef        % 206
/.notdef        % 207
/.notdef        % 208
/.notdef        % 209
/.notdef        % 210
/.notdef        % 211
/.notdef        % 212
/.notdef        % 213
/.notdef        % 214
/.notdef        % 215
/.notdef        % 216
/.notdef        % 217
/.notdef        % 218
/.notdef        % 219
/.notdef        % 220
/.notdef        % 221
/.notdef        % 222
/.notdef        % 223
/.notdef        % 224
/.notdef        % 225
/.notdef        % 226
/.notdef        % 227
/.notdef        % 228
/.notdef        % 229
/.notdef        % 230
/.notdef        % 231
/.notdef        % 232
/.notdef        % 233
/.notdef        % 234
/.notdef        % 235
/.notdef        % 236
/.notdef        % 237
/.notdef        % 238
/.notdef        % 239
/.notdef        % 240
/.notdef        % 241
/.notdef        % 242
/.notdef        % 243
/.notdef        % 244
/.notdef        % 245
/.notdef        % 246
/.notdef        % 247
/.notdef        % 248
/.notdef        % 249
/.notdef        % 250
/.notdef        % 251
/.notdef        % 252
/.notdef        % 253
/.notdef        % 254
/.notdef        % 255
] 
def

/axumfindfont
{
   /axumfont axumencoding reencode
   /axumfont findfont
}
def


/MainFont /Helvetica axumfindfont 98 scalefont def
MainFont setfont
1 setlinejoin 0 setlinecap 0 setgray
 gsave 72 630 div dup scale
 0.0 setgray [] 0 setdash

1 setlinewidth
 1920 2689 1920 2998 1 rps
 1920 2998
 1935 2930 1904 2930 1920 2998 3 3 1 roll cnp
 0.00 setgray
gsave eofill grestore  0.0 setgray
 stroke 0.0 setgray 0.0 setgray 1920 2584 1610 2584 1 rps
 1610 2584
 1655 2599 1655 2568 1610 2584 3 3 1 roll cnp
 0.00 setgray
gsave eofill grestore  0.0 setgray
 stroke 0.0 setgray 0.0 setgray 1187 2284 932 2284 1 rps
 932 2284
 977 2299 977 2268 932 2284 3 3 1 roll cnp
 0.00 setgray
gsave eofill grestore  0.0 setgray
 stroke 0.0 setgray 0.0 setgray 1187 2284 1060 2411 1 rps
 1060 2411
 1102 2390 1080 2368 1060 2411 3 3 1 roll cnp
 0.00 setgray
gsave eofill grestore  0.0 setgray
 stroke 0.0 setgray 0.0 setgray 1187 2284 1060 2152 1 rps
 1060 2152
 1079 2195 1102 2173 1060 2152 3 3 1 roll cnp
 0.00 setgray
gsave eofill grestore  0.0 setgray
 stroke 0.0 setgray 0.0 setgray 2652 2284 2393 2284 1 rps
 2393 2284
 2438 2299 2438 2268 2393 2284 3 3 1 roll cnp
 0.00 setgray
gsave eofill grestore  0.0 setgray
 stroke 0.0 setgray 0.0 setgray 2652 2284 2525 2411 1 rps
 2525 2411
 2567 2390 2545 2368 2525 2411 3 3 1 roll cnp
 0.00 setgray
gsave eofill grestore  0.0 setgray
 stroke 0.0 setgray 0.0 setgray 2652 2284 2525 2152 1 rps
 2525 2152
 2544 2195 2567 2173 2525 2152 3 3 1 roll cnp
 0.00 setgray
gsave eofill grestore  0.0 setgray
 stroke 0.0 setgray 0.0 setgray 887 1551 677 1551 1 rps
 677 1551
 722 1566 722 1535 677 1551 3 3 1 roll cnp
 0.00 setgray
gsave eofill grestore  0.0 setgray
 stroke 0.0 setgray 0.0 setgray 1920 1551 1715 1551 1 rps
 1715 1551
 1760 1566 1760 1535 1715 1551 3 3 1 roll cnp
 0.00 setgray
gsave eofill grestore  0.0 setgray
 stroke 0.0 setgray 0.0 setgray 1920 1551 1815 1656 1 rps
 1815 1656
 1857 1635 1835 1613 1815 1656 3 3 1 roll cnp
 0.00 setgray
gsave eofill grestore  0.0 setgray
 stroke 0.0 setgray 0.0 setgray 1920 1551 1815 1446 1 rps
 1815 1446
 1835 1488 1857 1466 1815 1446 3 3 1 roll cnp
 0.00 setgray
gsave eofill grestore  0.0 setgray
 stroke 0.0 setgray 0.0 setgray 2957 1551 2748 1551 1 rps
 2748 1551
 2793 1566 2793 1535 2748 1551 3 3 1 roll cnp
 0.00 setgray
gsave eofill grestore  0.0 setgray
 stroke 0.0 setgray 0.0 setgray 1187 818 1032 818 1 rps
 1032 818
 1077 833 1077 802 1032 818 3 3 1 roll cnp
 0.00 setgray
gsave eofill grestore  0.0 setgray
 stroke 0.0 setgray 0.0 setgray 1187 818 1114 896 1 rps
 1114 896
 1156 873 1133 852 1114 896 3 3 1 roll cnp
 0.00 setgray
gsave eofill grestore  0.0 setgray
 stroke 0.0 setgray 0.0 setgray 1187 818 1114 741 1 rps
 1114 741
 1133 784 1156 762 1114 741 3 3 1 roll cnp
 0.00 setgray
gsave eofill grestore  0.0 setgray
 stroke 0.0 setgray 0.0 setgray 2652 818 2497 818 1 rps
 2497 818
 2542 833 2542 802 2497 818 3 3 1 roll cnp
 0.00 setgray
gsave eofill grestore  0.0 setgray
 stroke 0.0 setgray 0.0 setgray 2652 818 2575 896 1 rps
 2575 896
 2617 875 2595 852 2575 896 3 3 1 roll cnp
 0.00 setgray
gsave eofill grestore  0.0 setgray
 stroke 0.0 setgray 0.0 setgray 2652 818 2575 741 1 rps
 2575 741
 2595 783 2617 761 2575 741 3 3 1 roll cnp
 0.00 setgray
gsave eofill grestore  0.0 setgray
 stroke 0.0 setgray 0.0 setgray 1920 518 1815 518 1 rps
 1815 518
 1860 533 1860 502 1815 518 3 3 1 roll cnp
 0.00 setgray
gsave eofill grestore  0.0 setgray
 stroke 0.0 setgray 0.0 setgray 1914 1517 1926 1517 1940 1524 1947 1531 1954 1545 1954 1557 1947 1571 1940 1578 1926 1585
 1914 1585 1900 1578 1893 1571 1886 1557 1886 1545 1893 1531 1900 1524 15 rcs

 1918 1540
 1922 1540 1926 1542 1929 1545 1931 1549
 1931 1553 1929 1557 1926 1560 1922 1562
 1918 1562 1914 1560 1911 1557 1909 1553
 1909 1549 1911 1545 1914 1542 1918 1540
 16 3 1 roll cnp
 0.00 setgray
gsave eofill grestore  0.0 setgray
 stroke 0.0 setgray 1916 2562
 1924 2562 1933 2566 1938 2571 1942 2580
 1942 2588 1938 2597 1933 2602 1924 2606
 1916 2606 1907 2602 1902 2597 1898 2588
 1898 2580 1902 2571 1907 2566 1916 2562
 16 3 1 roll cnp
 0.00 setgray
gsave eofill grestore  0.0 setgray
 stroke 0.0 setgray 883 1529
 891 1529 900 1533 905 1538 909 1547
 909 1555 905 1564 900 1569 891 1573
 883 1573 874 1569 869 1564 865 1555
 865 1547 869 1538 874 1533 883 1529
 16 3 1 roll cnp
 0.00 setgray
gsave eofill grestore  0.0 setgray
 stroke 0.0 setgray 1916 496
 1924 496 1933 500 1938 505 1942 514
 1942 522 1938 531 1933 536 1924 540
 1916 540 1907 536 1902 531 1898 522
 1898 514 1902 505 1907 500 1916 496
 16 3 1 roll cnp
 0.00 setgray
gsave eofill grestore  0.0 setgray
 stroke 0.0 setgray 2953 1529
 2961 1529 2970 1533 2975 1538 2979 1547
 2979 1555 2975 1564 2970 1569 2961 1573
 2953 1573 2944 1569 2939 1564 2935 1555
 2935 1547 2939 1538 2944 1533 2953 1529
 16 3 1 roll cnp
 0.00 setgray
gsave eofill grestore  0.0 setgray
 stroke 0.0 setgray 1183 2262
 1191 2262 1200 2266 1205 2271 1209 2280
 1209 2288 1205 2297 1200 2302 1191 2306
 1183 2306 1174 2302 1169 2297 1165 2288
 1165 2280 1169 2271 1174 2266 1183 2262
 16 3 1 roll cnp
 0.00 setgray
gsave eofill grestore  0.0 setgray
 stroke 0.0 setgray 1183 796
 1191 796 1200 800 1205 805 1209 814
 1209 822 1205 831 1200 836 1191 840
 1183 840 1174 836 1169 831 1165 822
 1165 814 1169 805 1174 800 1183 796
 16 3 1 roll cnp
 0.00 setgray
gsave eofill grestore  0.0 setgray
 stroke 0.0 setgray 2648 796
 2656 796 2665 800 2670 805 2674 814
 2674 822 2670 831 2665 836 2656 840
 2648 840 2639 836 2634 831 2630 822
 2630 814 2634 805 2639 800 2648 796
 16 3 1 roll cnp
 0.00 setgray
gsave eofill grestore  0.0 setgray
 stroke 0.0 setgray 2648 2262
 2656 2262 2665 2266 2670 2271 2674 2280
 2674 2288 2670 2297 2665 2302 2656 2306
 2648 2306 2639 2302 2634 2297 2630 2288
 2630 2280 2634 2271 2639 2266 2648 2262
 16 3 1 roll cnp
 0.00 setgray
gsave eofill grestore  0.0 setgray
 stroke 0.0 setgray 0.0 setgray [40 20] 0 setdash
 1920 2584 1920 518 1 rps
 887 1551 2957 1551 1 rps
 1187 2284 2652 818 1 rps
 1187 818 2652 2284 1 rps
 [20 20] 0 setdash
 932 2284 1060 2411 1 rps
 932 2284 1060 2152 1 rps
 2393 2284 2525 2411 1 rps
 2393 2284 2525 2152 1 rps
 1715 1551 1815 1656 1 rps
 1715 1551 1815 1446 1 rps
 1032 818 1114 896 1 rps
 1032 818 1114 741 1 rps
 2497 818 2575 896 1 rps
 2497 818 2575 741 1 rps

/Times-Roman axumfindfont 124 scalefont setfont
 1974 2543 moveto  (0) show 

/Times-Roman axumfindfont 95 scalefont setfont
 2036 2592 moveto  (o) show 

/Times-Roman axumfindfont 124 scalefont setfont
 1242 2238 moveto  (45) show 

/Times-Roman axumfindfont 95 scalefont setfont
 1367 2287 moveto  (o) show 

/Times-Roman axumfindfont 124 scalefont setfont
 823 1597 moveto  (90) show 

/Times-Roman axumfindfont 95 scalefont setfont
 948 1646 moveto  (o) show 

/Times-Roman axumfindfont 124 scalefont setfont
 1237 778 moveto  (135) show 

/Times-Roman axumfindfont 95 scalefont setfont
 1425 827 moveto  (o) show 

/Times-Roman axumfindfont 124 scalefont setfont
 1820 386 moveto  (180) show 

/Times-Roman axumfindfont 95 scalefont setfont
 2008 435 moveto  (o) show 

/Times-Roman axumfindfont 124 scalefont setfont
 2702 778 moveto  (225) show 

/Times-Roman axumfindfont 95 scalefont setfont
 2890 827 moveto  (o) show 

/Times-Roman axumfindfont 124 scalefont setfont
 3007 1515 moveto  (270) show 

/Times-Roman axumfindfont 95 scalefont setfont
 3195 1564 moveto  (o) show 

/Times-Roman axumfindfont 124 scalefont setfont
 2702 2238 moveto  (315) show 

/Times-Roman axumfindfont 95 scalefont setfont
 2890 2287 moveto  (o) show 

/Times-Roman axumfindfont 124 scalefont setfont
 1983 2880 moveto  (To Galactic center) show 
 2138 1415 moveto  (Sun) show 
 [] 0 setdash
 1983 1524 2115 1465 1 rps
 grestore showpage
%Trailer
%EOF
