%!PS-Adobe-2.0 EPSF-1.2
%%BoundingBox: 0 0 468 360
%%%%DocumentFonts: /Helvetica
%%Title: Axum PostScript file
%%Creator: TriMetrix, Inc.
%%Pages: 1
%%EndComments
% Copyright 1988-1991 by TriMetrix, Inc. All rights reserved.
/downdict 4 dict def
/sdown
 {downdict begin
  /thestring exch def
  /lineskip exch def
  thestring
   {
    /charcode exch def
    /thechar ( ) dup 0 charcode put def
    0 lineskip neg rmoveto
    gsave
     thechar stringwidth pop 2 div neg 0 rmoveto
     thechar show
    grestore
   } forall
   end
  } def

/updict 4 dict def
/sup
 {updict begin
  /thestring exch def
  /lineskip exch def
  thestring 
   {
    /charcode exch def
    /thechar ( ) dup 0 charcode put def
    0 lineskip rmoveto
    gsave
     thechar stringwidth pop 2 div neg 0 rmoveto
     thechar show
    grestore
   } forall
   end
  } def

/leftdict 4 dict def
/sleft
 {leftdict begin
  /thestring exch def
  thestring
   {
    /charcode exch def
    /thechar ( ) dup 0 charcode put def
    gsave
     thechar stringwidth pop neg 0 rmoveto
     thechar show
    grestore
   } forall

   thechar stringwidth pop neg 0 rmoveto
   end
  } def

/path{newpath moveto{lineto}repeat} bind def 
/cnp{newpath moveto{lineto}repeat closepath} bind def
/clp{moveto{lineto}repeat closepath} bind def
/rps{ 3 1 roll path stroke} bind def
/rcs{ 3 1 roll clp stroke} bind def
/setF { currentscreen 4 -2 roll pop 3 1 roll setscreen} bind def
% required due to WinWord 2.0 bug:
/II { } def

/reencodedict 5 dict def
/reencode
{
   reencodedict begin
   /newencoding exch def
   /newfontname exch def
   /basefontname exch def

   /basefontdict basefontname findfont def
   /newfont basefontdict maxlength dict def

   basefontdict
   {
      exch dup dup /FID ne exch /Encoding ne and
      { exch newfont 3 1 roll put }
      { pop pop }
      ifelse
   }
   forall

   newfont /FontName newfontname put
   newfont /Encoding newencoding put
   newfontname newfont definefont pop
   end
}
def

/axumencoding
[
/.notdef        %   0
/.notdef        %   1
/.notdef        %   2
/.notdef        %   3
/.notdef        %   4
/.notdef        %   5
/.notdef        %   6
/.notdef        %   7
/.notdef        %   8
/.notdef        %   9
/.notdef        %  10
/.notdef        %  11
/.notdef        %  12
/.notdef        %  13
/.notdef        %  14
/.notdef        %  15
/.notdef        %  16
/.notdef        %  17
/.notdef        %  18
/.notdef        %  19
/.notdef        %  20
/.notdef        %  21
/.notdef        %  22
/.notdef        %  23
/.notdef        %  24
/.notdef        %  25
/.notdef        %  26
/.notdef        %  27
/.notdef        %  28
/.notdef        %  29
/.notdef        %  30
/.notdef        %  31
/space          %  32
/exclam         %  33
/quotedbl       %  34
/numbersign     %  35
/dollar         %  36
/percent        %  37
/ampersand      %  38
/quoteright     %  39
/parenleft      %  40
/parenright     %  41
/asterisk       %  42
/plus           %  43
/comma          %  44
/hyphen         %  45
/period         %  46
/slash          %  47
/zero           %  48
/one            %  49
/two            %  50
/three          %  51
/four           %  52
/five           %  53
/six            %  54
/seven          %  55
/eight          %  56
/nine           %  57
/colon          %  58
/semicolon      %  59
/less           %  60
/equal          %  61
/greater        %  62
/question       %  63
/at             %  64
/A              %  65
/B              %  66
/C              %  67
/D              %  68
/E              %  69
/F              %  70
/G              %  71
/H              %  72
/I              %  73
/J              %  74
/K              %  75
/L              %  76
/M              %  77
/N              %  78
/O              %  79
/P              %  80
/Q              %  81
/R              %  82
/S              %  83
/T              %  84
/U              %  85
/V              %  86
/W              %  87
/X              %  88
/Y              %  89
/Z              %  90
/bracketleft    %  91
/backslash      %  92
/bracketright   %  93
/asciicircum    %  94
/underscore     %  95
/quoteleft      %  96
/a              %  97
/b              %  98
/c              %  99
/d              % 100
/e              % 101
/f              % 102
/g              % 103
/h              % 104
/i              % 105
/j              % 106
/k              % 107
/l              % 108
/m              % 109
/n              % 110
/o              % 111
/p              % 112
/q              % 113
/r              % 114
/s              % 115
/t              % 116
/u              % 117
/v              % 118
/w              % 119
/x              % 120
/y              % 121
/z              % 122
/braceleft      % 123
/bar            % 124
/braceright     % 125
/asciitilde     % 126
/.notdef        % 127
/Ccedilla       % 128
/udieresis      % 129
/eacute         % 130
/acircumflex    % 131
/adieresis      % 132
/agrave         % 133
/aring          % 134
/ccedilla       % 135
/ecircumflex    % 136
/edieresis      % 137
/egrave         % 138
/idieresis      % 139
/icircumflex    % 140
/igrave         % 141
/Adieresis      % 142
/Aring          % 143
/Eacute         % 144
/ae             % 145
/AE             % 146
/ocircumflex    % 147
/odieresis      % 148
/ograve         % 149
/ucircumflex    % 150
/ugrave         % 151
/ydieresis      % 152
/Odieresis      % 153
/Udieresis      % 154
/cent           % 155
/sterling       % 156
/yen            % 157
/currency       % 158
/florin         % 159
/aacute         % 160
/iacute         % 161
/oacute         % 162
/uacute         % 163
/ntilde         % 164
/Ntilde         % 165
/ordfeminine    % 166
/ordmasculine   % 167
/questiondown   % 168
/quotedblleft   % 169
/quotedblright  % 170
/Aacute         % 171
/Acircumflex    % 172
/exclamdown     % 173
/Egrave         % 174
/Ecircumflex    % 175
/atilde         % 176
/otilde         % 177
/Edieresis      % 178
/Igrave         % 179
/oe             % 180
/OE             % 181
/Agrave         % 182
/Atilde         % 183
/Otilde         % 184
/section        % 185
/Iacute         % 186
/Icircumflex    % 187
/Idieresis      % 188
/Ograve         % 189
/Oacute         % 190
/Ocircumflex    % 191
/Ugrave         % 192
/Uacute         % 193
/Ucircumflex    % 194
/Ydieresis      % 195
/germandbls     % 196
/guillemotleft  % 197
/guillemotright % 198
/bullet         % 199
/.notdef        % 200
/.notdef        % 201
/.notdef        % 202
/.notdef        % 203
/.notdef        % 204
/.notdef        % 205
/.notdef        % 206
/.notdef        % 207
/.notdef        % 208
/.notdef        % 209
/.notdef        % 210
/.notdef        % 211
/.notdef        % 212
/.notdef        % 213
/.notdef        % 214
/.notdef        % 215
/.notdef        % 216
/.notdef        % 217
/.notdef        % 218
/.notdef        % 219
/.notdef        % 220
/.notdef        % 221
/.notdef        % 222
/.notdef        % 223
/.notdef        % 224
/.notdef        % 225
/.notdef        % 226
/.notdef        % 227
/.notdef        % 228
/.notdef        % 229
/.notdef        % 230
/.notdef        % 231
/.notdef        % 232
/.notdef        % 233
/.notdef        % 234
/.notdef        % 235
/.notdef        % 236
/.notdef        % 237
/.notdef        % 238
/.notdef        % 239
/.notdef        % 240
/.notdef        % 241
/.notdef        % 242
/.notdef        % 243
/.notdef        % 244
/.notdef        % 245
/.notdef        % 246
/.notdef        % 247
/.notdef        % 248
/.notdef        % 249
/.notdef        % 250
/.notdef        % 251
/.notdef        % 252
/.notdef        % 253
/.notdef        % 254
/.notdef        % 255
] 
def

/axumfindfont
{
   /axumfont axumencoding reencode
   /axumfont findfont
}
def


/MainFont /Helvetica axumfindfont 98 scalefont def
MainFont setfont
1 setlinejoin 0 setlinecap 0 setgray
 gsave 72 630 div dup scale
 0.0 setgray [] 0 setdash

1 setlinewidth
 660 476 3733 476 1 rps
 660 476 3733 476 1 rps
 656 2449 3737 2449 1 rps
 659 475 3734 475 1 rps
 659 475 3733 475 1 rps
 656 2450 3737 2450 1 rps
 658 474 3735 474 1 rps
 658 474 3733 474 1 rps
 656 2451 3737 2451 1 rps
 657 473 3736 473 1 rps
 657 473 3733 473 1 rps
 656 2452 3737 2452 1 rps
 656 472 3737 472 1 rps
 656 472 3733 472 1 rps
 656 2453 3737 2453 1 rps
 660 476 660 512 1 rps
 660 2449 660 2413 1 rps
 852 476 852 494 1 rps
 852 2449 852 2431 1 rps
 1044 476 1044 512 1 rps
 1044 2449 1044 2413 1 rps
 1236 476 1236 494 1 rps
 1236 2449 1236 2431 1 rps
 1428 476 1428 512 1 rps
 1428 2449 1428 2413 1 rps
 1620 476 1620 494 1 rps
 1620 2449 1620 2431 1 rps
 1812 476 1812 512 1 rps
 1812 2449 1812 2413 1 rps
 2004 476 2004 494 1 rps
 2004 2449 2004 2431 1 rps
 2196 476 2196 512 1 rps
 2196 2449 2196 2413 1 rps
 2388 476 2388 494 1 rps
 2388 2449 2388 2431 1 rps
 2581 476 2581 512 1 rps
 2581 2449 2581 2413 1 rps
 2773 476 2773 494 1 rps
 2773 2449 2773 2431 1 rps
 2965 476 2965 512 1 rps
 2965 2449 2965 2413 1 rps
 3157 476 3157 494 1 rps
 3157 2449 3157 2431 1 rps
 3349 476 3349 512 1 rps
 3349 2449 3349 2413 1 rps
 3541 476 3541 494 1 rps
 3541 2449 3541 2431 1 rps
 3733 476 3733 512 1 rps
 3733 2449 3733 2413 1 rps

/Times-Roman axumfindfont 124 scalefont setfont
 629 341 moveto  (0) show 
 982 341 moveto  (45) show 
 1366 341 moveto  (90) show 
 1718 341 moveto  (135) show 
 2102 341 moveto  (180) show 
 2487 341 moveto  (225) show 
 2871 341 moveto  (270) show 
 3255 341 moveto  (315) show 
 3639 341 moveto  (360) show 
 660 476 660 2449 1 rps
 659 475 659 2450 1 rps
 658 474 658 2451 1 rps
 657 473 657 2452 1 rps
 656 472 656 2453 1 rps
 3733 476 3733 2449 1 rps
 3734 475 3734 2450 1 rps
 3735 474 3735 2451 1 rps
 3736 473 3736 2452 1 rps
 3737 472 3737 2453 1 rps
 660 476 696 476 1 rps
 3733 476 3697 476 1 rps
 660 673 678 673 1 rps
 3733 673 3715 673 1 rps
 660 871 696 871 1 rps
 3733 871 3697 871 1 rps
 660 1068 678 1068 1 rps
 3733 1068 3715 1068 1 rps
 660 1265 696 1265 1 rps
 3733 1265 3697 1265 1 rps
 660 1462 678 1462 1 rps
 3733 1462 3715 1462 1 rps
 660 1660 696 1660 1 rps
 3733 1660 3697 1660 1 rps
 660 1857 678 1857 1 rps
 3733 1857 3715 1857 1 rps
 660 2054 696 2054 1 rps
 3733 2054 3697 2054 1 rps
 660 2251 678 2251 1 rps
 3733 2251 3715 2251 1 rps
 660 2449 696 2449 1 rps
 3733 2449 3697 2449 1 rps

/Symbol findfont 124 scalefont setfont
 476 436 moveto  (-) show 

/Times-Roman axumfindfont 124 scalefont setfont
 544 436 moveto  (3) show 

/Symbol findfont 124 scalefont setfont
 476 831 moveto  (-) show 

/Times-Roman axumfindfont 124 scalefont setfont
 544 831 moveto  (2) show 

/Symbol findfont 124 scalefont setfont
 476 1225 moveto  (-) show 

/Times-Roman axumfindfont 124 scalefont setfont
 544 1225 moveto  (1) show 
 544 1620 moveto  (0) show 
 544 2014 moveto  (1) show 
 544 2409 moveto  (2) show 
 660 1660 675 1696 691 1731 706 1767 722 1802 737 1836 753 1870 768 1903 784 1935
 799 1966 814 1995 830 2024 845 2050 861 2076 876 2099 892 2121 907 2141
 923 2159 938 2175 953 2189 969 2201 984 2211 1000 2219 1015 2224 1031 2227
 1046 2228 1061 2227 1077 2223 1092 2217 1108 2209 1123 2199 1139 2186 1154 2171
 1170 2155 1185 2136 1200 2116 1216 2093 1231 2069 1247 2044 1262 2017 1278 1988
 1293 1958 1309 1927 1324 1895 1339 1862 1355 1828 1370 1793 1386 1758 1401 1722
 1417 1687 1432 1651 1448 1615 1463 1579 1478 1544 1494 1509 1509 1475 1525 1441
 1540 1409 1556 1377 1571 1346 1587 1317 1602 1289 1617 1263 1633 1238 1648 1215
 1664 1193 1679 1174 1695 1156 1710 1141 1726 1127 1741 1116 1756 1106 1772 1099
 1787 1095 1803 1092 1818 1092 1834 1094 1849 1098 1864 1104 1880 1113 1895 1124
 1911 1137 1926 1152 1942 1169 1957 1188 1973 1209 1988 1232 2003 1256 2019 1282
 2034 1310 2050 1339 2065 1369 2081 1401 2096 1433 2112 1466 2127 1501 2142 1535
 2158 1570 2173 1606 2189 1642 2204 1678 2220 1714 101 rps
 2220 1714 2235 1749 2251 1784 2266 1819 2281 1853 2297 1887 2312 1919 2328 1950 2343 1981
 2359 2010 2374 2037 2390 2063 2405 2088 2420 2110 2436 2131 2451 2150 2467 2168
 2482 2183 2498 2196 2513 2206 2529 2215 2544 2222 2559 2226 2575 2228 2590 2228
 2606 2225 2621 2220 2637 2213 2652 2204 2667 2193 2683 2179 2698 2163 2714 2146
 2729 2126 2745 2105 2760 2082 2776 2057 2791 2030 2806 2002 2822 1973 2837 1943
 2853 1911 2868 1878 2884 1845 2899 1810 2915 1776 2930 1740 2945 1705 2961 1669
 2976 1633 2992 1597 3007 1562 3023 1526 3038 1492 3054 1458 3069 1425 3084 1393
 3100 1362 3115 1332 3131 1303 3146 1276 3162 1250 3177 1226 3193 1204 3208 1183
 3223 1165 3239 1148 3254 1134 3270 1121 3285 1111 3301 1103 3316 1097 3332 1093
 3347 1092 3362 1092 3378 1096 3393 1101 3409 1109 3424 1118 3440 1130 3455 1144
 3470 1160 3486 1179 3501 1199 3517 1220 3532 1244 3548 1269 3563 1296 3579 1324
 3594 1354 3609 1385 3625 1417 3640 1450 3656 1483 3671 1518 3687 1553 3702 1588
 3718 1624 3733 1660 98 rps
 [80 20] 0 setdash
 660 1755 675 1753 691 1750 706 1744 722 1736 737 1726 753 1714 768 1700 784 1684
 799 1665 814 1645 830 1623 845 1599 861 1574 876 1547 892 1518 907 1488
 923 1457 938 1425 953 1392 969 1358 984 1324 1000 1289 1015 1253 1031 1218
 1046 1182 1061 1146 1077 1110 1092 1075 1108 1040 1123 1006 1139 972 1154 939
 1170 907 1185 877 1200 847 1216 819 1231 792 1247 767 1262 744 1278 722
 1293 703 1309 685 1324 669 1339 655 1355 643 1370 634 1386 627 1401 622
 1417 619 1432 618 1448 620 1463 624 1478 630 1494 638 1509 649 1525 662
 1540 677 1556 693 1571 712 1587 733 1602 756 1617 780 1633 806 1648 833
 1664 862 1679 892 1695 923 1710 955 1726 989 1741 1023 1756 1057 1772 1093
 1787 1128 1803 1164 1818 1200 1834 1236 1849 1271 1864 1306 1880 1341 1895 1375
 1911 1409 1926 1441 1942 1473 1957 1503 1973 1532 1988 1560 2003 1586 2019 1611
 2034 1634 2050 1655 2065 1675 2081 1692 2096 1707 2112 1721 2127 1732 2142 1741
 2158 1747 2173 1752 2189 1754 2204 1754 2220 1752 101 rps
 2220 1752 2235 1747 2251 1741 2266 1732 2281 1721 2297 1707 2312 1692 2328 1675 2343 1655
 2359 1634 2374 1611 2390 1586 2405 1560 2420 1532 2436 1503 2451 1473 2467 1441
 2482 1409 2498 1375 2513 1341 2529 1306 2544 1271 2559 1236 2575 1200 2590 1164
 2606 1128 2621 1093 2637 1057 2652 1023 2667 989 2683 955 2698 923 2714 892
 2729 862 2745 833 2760 806 2776 780 2791 756 2806 733 2822 712 2837 693
 2853 677 2868 662 2884 649 2899 638 2915 630 2930 624 2945 620 2961 618
 2976 619 2992 622 3007 627 3023 634 3038 643 3054 655 3069 669 3084 685
 3100 703 3115 722 3131 744 3146 767 3162 793 3177 819 3193 847 3208 877
 3223 907 3239 939 3254 972 3270 1006 3285 1040 3301 1075 3316 1110 3332 1146
 3347 1182 3362 1218 3378 1253 3393 1289 3409 1324 3424 1358 3440 1392 3455 1425
 3470 1457 3486 1488 3501 1518 3517 1547 3532 1574 3548 1599 3563 1623 3579 1645
 3594 1665 3609 1684 3625 1700 3640 1714 3656 1726 3671 1736 3687 1744 3702 1750
 3718 1753 3733 1755 98 rps
 1584 159 moveto  (Galactic longitude \(deg\)) show 
 294 1018 moveto  90 rotate (Velocity \(km s) show  -90 rotate

/Symbol findfont 91 scalefont setfont
 244 1767 moveto  90 rotate (-) show  -90 rotate

/Times-Roman axumfindfont 95 scalefont setfont
 244 1818 moveto  90 rotate (1) show  -90 rotate

/Times-Roman axumfindfont 124 scalefont setfont
 293 1865 moveto  90 rotate (\)) show  -90 rotate

/Times-Italic axumfindfont 128 scalefont setfont
 1182 2183 moveto  (v) show 

/Times-Italic axumfindfont 95 scalefont setfont
 1238 2155 moveto  (r) show 

/Times-Italic axumfindfont 128 scalefont setfont
 818 1683 moveto  (v) show 

/Times-Italic axumfindfont 95 scalefont setfont
 874 1655 moveto  (t) show 
 grestore showpage
%Trailer
%EOF
