%!PS-Adobe-2.0 EPSF-1.2
%%BoundingBox: 100 60 268 300
%%%%DocumentFonts: /Helvetica
%%Title: Axum PostScript file
%%Creator: TriMetrix, Inc.
%%Pages: 1
%%EndComments
% Copyright 1988-1991 by TriMetrix, Inc. All rights reserved.
/downdict 4 dict def
/sdown
 {downdict begin
  /thestring exch def
  /lineskip exch def
  thestring
   {
    /charcode exch def
    /thechar ( ) dup 0 charcode put def
    0 lineskip neg rmoveto
    gsave
     thechar stringwidth pop 2 div neg 0 rmoveto
     thechar show
    grestore
   } forall
   end
  } def

/updict 4 dict def
/sup
 {updict begin
  /thestring exch def
  /lineskip exch def
  thestring 
   {
    /charcode exch def
    /thechar ( ) dup 0 charcode put def
    0 lineskip rmoveto
    gsave
     thechar stringwidth pop 2 div neg 0 rmoveto
     thechar show
    grestore
   } forall
   end
  } def

/leftdict 4 dict def
/sleft
 {leftdict begin
  /thestring exch def
  thestring
   {
    /charcode exch def
    /thechar ( ) dup 0 charcode put def
    gsave
     thechar stringwidth pop neg 0 rmoveto
     thechar show
    grestore
   } forall

   thechar stringwidth pop neg 0 rmoveto
   end
  } def

/path{newpath moveto{lineto}repeat} bind def 
/cnp{newpath moveto{lineto}repeat closepath} bind def
/clp{moveto{lineto}repeat closepath} bind def
/rps{ 3 1 roll path stroke} bind def
/rcs{ 3 1 roll clp stroke} bind def
/setF { currentscreen 4 -2 roll pop 3 1 roll setscreen} bind def
% required due to WinWord 2.0 bug:
/II { } def

/reencodedict 5 dict def
/reencode
{
   reencodedict begin
   /newencoding exch def
   /newfontname exch def
   /basefontname exch def

   /basefontdict basefontname findfont def
   /newfont basefontdict maxlength dict def

   basefontdict
   {
      exch dup dup /FID ne exch /Encoding ne and
      { exch newfont 3 1 roll put }
      { pop pop }
      ifelse
   }
   forall

   newfont /FontName newfontname put
   newfont /Encoding newencoding put
   newfontname newfont definefont pop
   end
}
def

/axumencoding
[
/.notdef        %   0
/.notdef        %   1
/.notdef        %   2
/.notdef        %   3
/.notdef        %   4
/.notdef        %   5
/.notdef        %   6
/.notdef        %   7
/.notdef        %   8
/.notdef        %   9
/.notdef        %  10
/.notdef        %  11
/.notdef        %  12
/.notdef        %  13
/.notdef        %  14
/.notdef        %  15
/.notdef        %  16
/.notdef        %  17
/.notdef        %  18
/.notdef        %  19
/.notdef        %  20
/.notdef        %  21
/.notdef        %  22
/.notdef        %  23
/.notdef        %  24
/.notdef        %  25
/.notdef        %  26
/.notdef        %  27
/.notdef        %  28
/.notdef        %  29
/.notdef        %  30
/.notdef        %  31
/space          %  32
/exclam         %  33
/quotedbl       %  34
/numbersign     %  35
/dollar         %  36
/percent        %  37
/ampersand      %  38
/quoteright     %  39
/parenleft      %  40
/parenright     %  41
/asterisk       %  42
/plus           %  43
/comma          %  44
/hyphen         %  45
/period         %  46
/slash          %  47
/zero           %  48
/one            %  49
/two            %  50
/three          %  51
/four           %  52
/five           %  53
/six            %  54
/seven          %  55
/eight          %  56
/nine           %  57
/colon          %  58
/semicolon      %  59
/less           %  60
/equal          %  61
/greater        %  62
/question       %  63
/at             %  64
/A              %  65
/B              %  66
/C              %  67
/D              %  68
/E              %  69
/F              %  70
/G              %  71
/H              %  72
/I              %  73
/J              %  74
/K              %  75
/L              %  76
/M              %  77
/N              %  78
/O              %  79
/P              %  80
/Q              %  81
/R              %  82
/S              %  83
/T              %  84
/U              %  85
/V              %  86
/W              %  87
/X              %  88
/Y              %  89
/Z              %  90
/bracketleft    %  91
/backslash      %  92
/bracketright   %  93
/asciicircum    %  94
/underscore     %  95
/quoteleft      %  96
/a              %  97
/b              %  98
/c              %  99
/d              % 100
/e              % 101
/f              % 102
/g              % 103
/h              % 104
/i              % 105
/j              % 106
/k              % 107
/l              % 108
/m              % 109
/n              % 110
/o              % 111
/p              % 112
/q              % 113
/r              % 114
/s              % 115
/t              % 116
/u              % 117
/v              % 118
/w              % 119
/x              % 120
/y              % 121
/z              % 122
/braceleft      % 123
/bar            % 124
/braceright     % 125
/asciitilde     % 126
/.notdef        % 127
/Ccedilla       % 128
/udieresis      % 129
/eacute         % 130
/acircumflex    % 131
/adieresis      % 132
/agrave         % 133
/aring          % 134
/ccedilla       % 135
/ecircumflex    % 136
/edieresis      % 137
/egrave         % 138
/idieresis      % 139
/icircumflex    % 140
/igrave         % 141
/Adieresis      % 142
/Aring          % 143
/Eacute         % 144
/ae             % 145
/AE             % 146
/ocircumflex    % 147
/odieresis      % 148
/ograve         % 149
/ucircumflex    % 150
/ugrave         % 151
/ydieresis      % 152
/Odieresis      % 153
/Udieresis      % 154
/cent           % 155
/sterling       % 156
/yen            % 157
/currency       % 158
/florin         % 159
/aacute         % 160
/iacute         % 161
/oacute         % 162
/uacute         % 163
/ntilde         % 164
/Ntilde         % 165
/ordfeminine    % 166
/ordmasculine   % 167
/questiondown   % 168
/quotedblleft   % 169
/quotedblright  % 170
/Aacute         % 171
/Acircumflex    % 172
/exclamdown     % 173
/Egrave         % 174
/Ecircumflex    % 175
/atilde         % 176
/otilde         % 177
/Edieresis      % 178
/Igrave         % 179
/oe             % 180
/OE             % 181
/Agrave         % 182
/Atilde         % 183
/Otilde         % 184
/section        % 185
/Iacute         % 186
/Icircumflex    % 187
/Idieresis      % 188
/Ograve         % 189
/Oacute         % 190
/Ocircumflex    % 191
/Ugrave         % 192
/Uacute         % 193
/Ucircumflex    % 194
/Ydieresis      % 195
/germandbls     % 196
/guillemotleft  % 197
/guillemotright % 198
/bullet         % 199
/.notdef        % 200
/.notdef        % 201
/.notdef        % 202
/.notdef        % 203
/.notdef        % 204
/.notdef        % 205
/.notdef        % 206
/.notdef        % 207
/.notdef        % 208
/.notdef        % 209
/.notdef        % 210
/.notdef        % 211
/.notdef        % 212
/.notdef        % 213
/.notdef        % 214
/.notdef        % 215
/.notdef        % 216
/.notdef        % 217
/.notdef        % 218
/.notdef        % 219
/.notdef        % 220
/.notdef        % 221
/.notdef        % 222
/.notdef        % 223
/.notdef        % 224
/.notdef        % 225
/.notdef        % 226
/.notdef        % 227
/.notdef        % 228
/.notdef        % 229
/.notdef        % 230
/.notdef        % 231
/.notdef        % 232
/.notdef        % 233
/.notdef        % 234
/.notdef        % 235
/.notdef        % 236
/.notdef        % 237
/.notdef        % 238
/.notdef        % 239
/.notdef        % 240
/.notdef        % 241
/.notdef        % 242
/.notdef        % 243
/.notdef        % 244
/.notdef        % 245
/.notdef        % 246
/.notdef        % 247
/.notdef        % 248
/.notdef        % 249
/.notdef        % 250
/.notdef        % 251
/.notdef        % 252
/.notdef        % 253
/.notdef        % 254
/.notdef        % 255
] 
def

/axumfindfont
{
   /axumfont axumencoding reencode
   /axumfont findfont
}
def


/MainFont /Helvetica axumfindfont 98 scalefont def
MainFont setfont
1 setlinejoin 0 setlinecap 0 setgray
 gsave 72 630 div dup scale
 0.0 setgray [] 0 setdash

1 setlinewidth
 1927 786 1460 786 1 rps
 1460 786
 1551 808 1551 762 1460 786 3 3 1 roll cnp
 0.00 setgray
gsave eofill grestore  0.0 setgray
 stroke 0.0 setgray 0.0 setgray 1529 1260 944 1475 1 rps
 944 1475
 1037 1465 1020 1422 944 1475 3 3 1 roll cnp
 0.00 setgray
gsave eofill grestore  0.0 setgray
 stroke 0.0 setgray 1923 2316
 1931 2316 1940 2321 1945 2326 1949 2335
 1949 2343 1945 2352 1940 2357 1931 2361
 1923 2361 1914 2357 1909 2352 1905 2343
 1905 2335 1909 2326 1914 2321 1923 2316
 16 3 1 roll cnp
 0.00 setgray
gsave eofill grestore  0.0 setgray
 stroke 0.0 setgray 1925 774
 1929 774 1933 777 1936 780 1938 784
 1938 788 1936 792 1933 795 1929 797
 1925 797 1921 795 1918 792 1916 788
 1916 784 1918 780 1921 777 1925 774
 16 3 1 roll cnp
 0.00 setgray
gsave eofill grestore  0.0 setgray
 stroke 0.0 setgray 1155 1672
 1163 1672 1172 1676 1177 1681 1181 1690
 1181 1698 1177 1707 1172 1712 1163 1716
 1155 1716 1146 1712 1141 1707 1137 1698
 1137 1690 1141 1681 1146 1676 1155 1672
 16 3 1 roll cnp
 0.00 setgray
gsave eofill grestore  0.0 setgray
 stroke 0.0 setgray 1525 1238
 1533 1238 1543 1242 1548 1247 1552 1256
 1552 1264 1548 1273 1543 1278 1533 1282
 1525 1282 1516 1278 1511 1273 1507 1264
 1507 1256 1511 1247 1516 1242 1525 1238
 16 3 1 roll cnp
 0.00 setgray
gsave eofill grestore  0.0 setgray
 stroke 0.0 setgray 0.0 setgray 1921 751 1933 751 1947 758 1954 765 1961 780 1961 792 1954 806 1947 813 1933 820
 1921 820 1907 813 1900 806 1893 792 1893 780 1900 765 1907 758 15 rcs

 1927 2339 1927 786 1 rps
 1927 2339 1159 1694 1 rps
 1927 2339 1529 1260 1 rps
 [40 20] 0 setdash
 1529 1260 1927 1260 1 rps
 [] 0 setdash
 1927 786 1159 1694 1 rps
 1849 1260 1849 1338 1 rps
 1849 1338 1927 1338 1 rps
 1209 1635 1268 1685 1 rps
 1268 1685 1218 1744 1 rps
 1810 2240 1811 2239 1812 2238 1813 2237 1813 2236 1814 2235 1815 2234 1816 2233 1817 2232
 1818 2231 1819 2230 1820 2229 1821 2228 1822 2227 1823 2226 1824 2226 1825 2225
 1826 2224 1827 2223 1828 2222 1829 2221 1830 2220 1831 2219 1832 2219 1833 2218
 1834 2217 1835 2216 1836 2215 1837 2214 1838 2214 1840 2213 1841 2212 1842 2211
 1843 2211 1844 2210 1845 2209 1846 2208 1847 2208 1849 2207 1850 2206 1851 2206
 1852 2205 1853 2204 1854 2204 1856 2203 1857 2202 1858 2202 1859 2201 1860 2201
 1862 2200 1863 2199 1864 2199 1865 2198 1866 2198 1868 2197 1869 2197 1870 2196
 1871 2196 1873 2195 1874 2195 1875 2194 1876 2194 1878 2193 1879 2193 1880 2193
 1882 2192 1883 2192 1884 2191 1885 2191 1887 2191 1888 2190 1889 2190 1891 2190
 1892 2189 1893 2189 1895 2189 1896 2188 1897 2188 1898 2188 1900 2188 1901 2187
 1902 2187 1904 2187 1905 2187 1906 2187 1908 2186 1909 2186 1910 2186 1912 2186
 1913 2186 1914 2186 1916 2185 1917 2185 1918 2185 1920 2185 1921 2185 1922 2185
 1924 2185 1925 2185 1927 2185 1927 2185 1 add 100 rps
 1927 940 1927 940 1926 940 1925 940 1924 940 1923 940 1922 940 1921 940 1919 940
 1918 940 1917 940 1916 940 1915 939 1914 939 1913 939 1912 939 1911 939
 1910 939 1909 939 1908 939 1907 939 1906 938 1904 938 1903 938 1902 938
 1901 938 1900 937 1899 937 1898 937 1897 937 1896 937 1895 936 1894 936
 1893 936 1892 936 1891 935 1890 935 1889 935 1888 935 1887 934 1886 934
 1885 934 1884 933 1883 933 1881 933 1880 932 1879 932 1878 932 1877 931
 1876 931 1875 931 1874 930 1873 930 1872 930 1871 929 1870 929 1869 928
 1868 928 1867 928 1866 927 1865 927 1864 926 1863 926 1862 925 1862 925
 1861 924 1860 924 1859 923 1858 923 1857 923 1856 922 1855 921 1854 921
 1853 920 1852 920 1851 919 1850 919 1849 918 1848 918 1847 917 1846 917
 1846 916 1845 915 1844 915 1843 914 1842 914 1841 913 1840 912 1839 912
 1838 911 1838 911 1837 910 1836 909 1835 909 1834 908 1833 907 1832 907
 1832 906 1831 905 1830 905 1829 904 100 rps
 1431 1379 1430 1378 1430 1378 1429 1377 1429 1377 1428 1376 1427 1376 1427 1375 1426 1375
 1426 1374 1425 1374 1425 1373 1424 1373 1423 1372 1423 1372 1422 1371 1422 1370
 1421 1370 1421 1369 1420 1369 1419 1368 1419 1368 1418 1367 1418 1366 1417 1366
 1417 1365 1416 1365 1416 1364 1415 1363 1415 1363 1414 1362 1413 1362 1413 1361
 1412 1360 1412 1360 1411 1359 1411 1359 1410 1358 1410 1357 1409 1357 1409 1356
 1408 1356 1408 1355 1407 1354 1407 1354 1406 1353 1406 1352 1406 1352 1405 1351
 1405 1350 1404 1350 1404 1349 1403 1348 1403 1348 1402 1347 1402 1346 1401 1346
 1401 1345 1401 1344 1400 1344 1400 1343 1399 1342 1399 1342 1398 1341 1398 1340
 1398 1340 1397 1339 1397 1338 1396 1338 1396 1337 1396 1336 1395 1336 1395 1335
 1395 1334 1394 1333 1394 1333 1393 1332 1393 1331 1393 1331 1392 1330 1392 1329
 1392 1329 1391 1328 1391 1327 1391 1326 1390 1326 1390 1325 1390 1324 1389 1323
 1389 1323 1389 1322 1388 1321 1388 1321 1388 1320 1387 1319 1387 1318 1387 1318
 1386 1317 1386 1316 1386 1315 1386 1315 100 rps

/Times-Italic axumfindfont 128 scalefont setfont
 1999 2310 moveto  (C) show 
 1999 744 moveto  (O) show 
 1488 1123 moveto  (S) show 
 1041 1653 moveto  (T) show 

/Symbol findfont 124 scalefont setfont
 903 1352 moveto  340 rotate (Q) show  -340 rotate
 1465 639 moveto  (Q) show 

/Times-Roman axumfindfont 95 scalefont setfont
 1557 611 moveto  (0) show 

/Times-Italic axumfindfont 128 scalefont setfont
 1580 1689 moveto  (R) show 
 1963 1516 moveto  (R) show 

/Times-Roman axumfindfont 95 scalefont setfont
 2041 1488 moveto  (0) show 

/Times-Italic axumfindfont 128 scalefont setfont
 1593 958 moveto  320 rotate (d) show  -320 rotate

/Symbol findfont 124 scalefont setfont
 1734 2124 moveto  330 rotate (a) show  -330 rotate
 1849 2036 moveto  (b) show 
 1277 1375 moveto  340 rotate (a) show  -340 rotate

5 setlinewidth
 1838 985 1846 997 1859 1018 1863 1026 1867 1038 1867 1046 1863 1050 1854 1046 1850 1038
 1846 1022 1842 993 1842 968 1846 964 1850 964 1859 968 1863 972 1871 985
 16 rps
 grestore showpage
%Trailer
%EOF
