%!PS-Adobe-2.0 EPSF-1.2
%%BoundingBox: 120 20 350 350
%%%%DocumentFonts: /Helvetica
%%Title: Axum PostScript file
%%Creator: TriMetrix, Inc.
%%Pages: 1
%%EndComments
% Copyright 1988-1991 by TriMetrix, Inc. All rights reserved.
/downdict 4 dict def
/sdown
 {downdict begin
  /thestring exch def
  /lineskip exch def
  thestring
   {
    /charcode exch def
    /thechar ( ) dup 0 charcode put def
    0 lineskip neg rmoveto
    gsave
     thechar stringwidth pop 2 div neg 0 rmoveto
     thechar show
    grestore
   } forall
   end
  } def

/updict 4 dict def
/sup
 {updict begin
  /thestring exch def
  /lineskip exch def
  thestring 
   {
    /charcode exch def
    /thechar ( ) dup 0 charcode put def
    0 lineskip rmoveto
    gsave
     thechar stringwidth pop 2 div neg 0 rmoveto
     thechar show
    grestore
   } forall
   end
  } def

/leftdict 4 dict def
/sleft
 {leftdict begin
  /thestring exch def
  thestring
   {
    /charcode exch def
    /thechar ( ) dup 0 charcode put def
    gsave
     thechar stringwidth pop neg 0 rmoveto
     thechar show
    grestore
   } forall

   thechar stringwidth pop neg 0 rmoveto
   end
  } def

/path{newpath moveto{lineto}repeat} bind def 
/cnp{newpath moveto{lineto}repeat closepath} bind def
/clp{moveto{lineto}repeat closepath} bind def
/rps{ 3 1 roll path stroke} bind def
/rcs{ 3 1 roll clp stroke} bind def
/setF { currentscreen 4 -2 roll pop 3 1 roll setscreen} bind def
% required due to WinWord 2.0 bug:
/II { } def

/reencodedict 5 dict def
/reencode
{
   reencodedict begin
   /newencoding exch def
   /newfontname exch def
   /basefontname exch def

   /basefontdict basefontname findfont def
   /newfont basefontdict maxlength dict def

   basefontdict
   {
      exch dup dup /FID ne exch /Encoding ne and
      { exch newfont 3 1 roll put }
      { pop pop }
      ifelse
   }
   forall

   newfont /FontName newfontname put
   newfont /Encoding newencoding put
   newfontname newfont definefont pop
   end
}
def

/axumencoding
[
/.notdef        %   0
/.notdef        %   1
/.notdef        %   2
/.notdef        %   3
/.notdef        %   4
/.notdef        %   5
/.notdef        %   6
/.notdef        %   7
/.notdef        %   8
/.notdef        %   9
/.notdef        %  10
/.notdef        %  11
/.notdef        %  12
/.notdef        %  13
/.notdef        %  14
/.notdef        %  15
/.notdef        %  16
/.notdef        %  17
/.notdef        %  18
/.notdef        %  19
/.notdef        %  20
/.notdef        %  21
/.notdef        %  22
/.notdef        %  23
/.notdef        %  24
/.notdef        %  25
/.notdef        %  26
/.notdef        %  27
/.notdef        %  28
/.notdef        %  29
/.notdef        %  30
/.notdef        %  31
/space          %  32
/exclam         %  33
/quotedbl       %  34
/numbersign     %  35
/dollar         %  36
/percent        %  37
/ampersand      %  38
/quoteright     %  39
/parenleft      %  40
/parenright     %  41
/asterisk       %  42
/plus           %  43
/comma          %  44
/hyphen         %  45
/period         %  46
/slash          %  47
/zero           %  48
/one            %  49
/two            %  50
/three          %  51
/four           %  52
/five           %  53
/six            %  54
/seven          %  55
/eight          %  56
/nine           %  57
/colon          %  58
/semicolon      %  59
/less           %  60
/equal          %  61
/greater        %  62
/question       %  63
/at             %  64
/A              %  65
/B              %  66
/C              %  67
/D              %  68
/E              %  69
/F              %  70
/G              %  71
/H              %  72
/I              %  73
/J              %  74
/K              %  75
/L              %  76
/M              %  77
/N              %  78
/O              %  79
/P              %  80
/Q              %  81
/R              %  82
/S              %  83
/T              %  84
/U              %  85
/V              %  86
/W              %  87
/X              %  88
/Y              %  89
/Z              %  90
/bracketleft    %  91
/backslash      %  92
/bracketright   %  93
/asciicircum    %  94
/underscore     %  95
/quoteleft      %  96
/a              %  97
/b              %  98
/c              %  99
/d              % 100
/e              % 101
/f              % 102
/g              % 103
/h              % 104
/i              % 105
/j              % 106
/k              % 107
/l              % 108
/m              % 109
/n              % 110
/o              % 111
/p              % 112
/q              % 113
/r              % 114
/s              % 115
/t              % 116
/u              % 117
/v              % 118
/w              % 119
/x              % 120
/y              % 121
/z              % 122
/braceleft      % 123
/bar            % 124
/braceright     % 125
/asciitilde     % 126
/.notdef        % 127
/Ccedilla       % 128
/udieresis      % 129
/eacute         % 130
/acircumflex    % 131
/adieresis      % 132
/agrave         % 133
/aring          % 134
/ccedilla       % 135
/ecircumflex    % 136
/edieresis      % 137
/egrave         % 138
/idieresis      % 139
/icircumflex    % 140
/igrave         % 141
/Adieresis      % 142
/Aring          % 143
/Eacute         % 144
/ae             % 145
/AE             % 146
/ocircumflex    % 147
/odieresis      % 148
/ograve         % 149
/ucircumflex    % 150
/ugrave         % 151
/ydieresis      % 152
/Odieresis      % 153
/Udieresis      % 154
/cent           % 155
/sterling       % 156
/yen            % 157
/currency       % 158
/florin         % 159
/aacute         % 160
/iacute         % 161
/oacute         % 162
/uacute         % 163
/ntilde         % 164
/Ntilde         % 165
/ordfeminine    % 166
/ordmasculine   % 167
/questiondown   % 168
/quotedblleft   % 169
/quotedblright  % 170
/Aacute         % 171
/Acircumflex    % 172
/exclamdown     % 173
/Egrave         % 174
/Ecircumflex    % 175
/atilde         % 176
/otilde         % 177
/Edieresis      % 178
/Igrave         % 179
/oe             % 180
/OE             % 181
/Agrave         % 182
/Atilde         % 183
/Otilde         % 184
/section        % 185
/Iacute         % 186
/Icircumflex    % 187
/Idieresis      % 188
/Ograve         % 189
/Oacute         % 190
/Ocircumflex    % 191
/Ugrave         % 192
/Uacute         % 193
/Ucircumflex    % 194
/Ydieresis      % 195
/germandbls     % 196
/guillemotleft  % 197
/guillemotright % 198
/bullet         % 199
/.notdef        % 200
/.notdef        % 201
/.notdef        % 202
/.notdef        % 203
/.notdef        % 204
/.notdef        % 205
/.notdef        % 206
/.notdef        % 207
/.notdef        % 208
/.notdef        % 209
/.notdef        % 210
/.notdef        % 211
/.notdef        % 212
/.notdef        % 213
/.notdef        % 214
/.notdef        % 215
/.notdef        % 216
/.notdef        % 217
/.notdef        % 218
/.notdef        % 219
/.notdef        % 220
/.notdef        % 221
/.notdef        % 222
/.notdef        % 223
/.notdef        % 224
/.notdef        % 225
/.notdef        % 226
/.notdef        % 227
/.notdef        % 228
/.notdef        % 229
/.notdef        % 230
/.notdef        % 231
/.notdef        % 232
/.notdef        % 233
/.notdef        % 234
/.notdef        % 235
/.notdef        % 236
/.notdef        % 237
/.notdef        % 238
/.notdef        % 239
/.notdef        % 240
/.notdef        % 241
/.notdef        % 242
/.notdef        % 243
/.notdef        % 244
/.notdef        % 245
/.notdef        % 246
/.notdef        % 247
/.notdef        % 248
/.notdef        % 249
/.notdef        % 250
/.notdef        % 251
/.notdef        % 252
/.notdef        % 253
/.notdef        % 254
/.notdef        % 255
] 
def

/axumfindfont
{
   /axumfont axumencoding reencode
   /axumfont findfont
}
def


/MainFont /Helvetica axumfindfont 98 scalefont def
MainFont setfont
1 setlinejoin 0 setlinecap 0 setgray
 gsave 72 630 div dup scale
 0.0 setgray [] 0 setdash

1 setlinewidth
 1365 435 3002 435 1 rps
 1365 435 3002 435 1 rps
 1361 2982 3006 2982 1 rps
 1364 434 3003 434 1 rps
 1364 434 3002 434 1 rps
 1361 2983 3006 2983 1 rps
 1363 433 3004 433 1 rps
 1363 433 3002 433 1 rps
 1361 2984 3006 2984 1 rps
 1362 432 3005 432 1 rps
 1362 432 3002 432 1 rps
 1361 2985 3006 2985 1 rps
 1361 431 3006 431 1 rps
 1361 431 3002 431 1 rps
 1361 2986 3006 2986 1 rps
 1547 435 1547 471 1 rps
 1547 2982 1547 2946 1 rps
 1729 435 1729 453 1 rps
 1729 2982 1729 2964 1 rps
 1911 435 1911 471 1 rps
 1911 2982 1911 2946 1 rps
 2093 435 2093 453 1 rps
 2093 2982 2093 2964 1 rps
 2274 435 2274 471 1 rps
 2274 2982 2274 2946 1 rps
 2456 435 2456 453 1 rps
 2456 2982 2456 2964 1 rps
 2638 435 2638 471 1 rps
 2638 2982 2638 2946 1 rps
 2820 435 2820 453 1 rps
 2820 2982 2820 2964 1 rps
 3002 435 3002 471 1 rps
 3002 2982 3002 2946 1 rps

/Times-Roman axumfindfont 62 scalefont setfont
 1532 341 moveto  (4) show 
 1896 341 moveto  (5) show 
 2259 341 moveto  (6) show 
 2623 341 moveto  (7) show 
 2987 341 moveto  (8) show 
 1365 435 1365 2982 1 rps
 1364 434 1364 2983 1 rps
 1363 433 1363 2984 1 rps
 1362 432 1362 2985 1 rps
 1361 431 1361 2986 1 rps
 3002 435 3002 2982 1 rps
 3003 434 3003 2983 1 rps
 3004 433 3004 2984 1 rps
 3005 432 3005 2985 1 rps
 3006 431 3006 2986 1 rps
 1365 435 1401 435 1 rps
 3002 435 2966 435 1 rps
 1365 617 1383 617 1 rps
 3002 617 2984 617 1 rps
 1365 799 1401 799 1 rps
 3002 799 2966 799 1 rps
 1365 981 1383 981 1 rps
 3002 981 2984 981 1 rps
 1365 1163 1401 1163 1 rps
 3002 1163 2966 1163 1 rps
 1365 1345 1383 1345 1 rps
 3002 1345 2984 1345 1 rps
 1365 1527 1401 1527 1 rps
 3002 1527 2966 1527 1 rps
 1365 1709 1383 1709 1 rps
 3002 1709 2984 1709 1 rps
 1365 1890 1401 1890 1 rps
 3002 1890 2966 1890 1 rps
 1365 2072 1383 2072 1 rps
 3002 2072 2984 2072 1 rps
 1365 2254 1401 2254 1 rps
 3002 2254 2966 2254 1 rps
 1365 2436 1383 2436 1 rps
 3002 2436 2984 2436 1 rps
 1365 2618 1401 2618 1 rps
 3002 2618 2966 2618 1 rps
 1365 2800 1383 2800 1 rps
 3002 2800 2984 2800 1 rps
 1365 2982 1401 2982 1 rps
 3002 2982 2966 2982 1 rps

/Symbol findfont 62 scalefont setfont
 1247 415 moveto  (-) show 

/Times-Roman axumfindfont 62 scalefont setfont
 1281 415 moveto  (2) show 

/Symbol findfont 62 scalefont setfont
 1247 779 moveto  (-) show 

/Times-Roman axumfindfont 62 scalefont setfont
 1281 779 moveto  (1) show 
 1281 1143 moveto  (0) show 
 1281 1507 moveto  (1) show 
 1281 1870 moveto  (2) show 
 1281 2234 moveto  (3) show 
 1281 2598 moveto  (4) show 
 1281 2962 moveto  (5) show 
 1466 506 1467 515 1467 525 1468 534 1469 543 1469 553 1470 562 1471 572 1471 581
 1472 591 1472 600 1473 610 1474 619 1474 629 1475 638 1476 648 1476 657
 1477 667 1478 676 1478 685 1479 695 1479 704 1480 714 1481 724 1481 733
 1482 743 1483 752 1483 762 1484 771 1485 781 1485 790 1486 800 1486 809
 1487 819 1488 828 1488 838 1489 848 1490 857 1490 867 1491 876 1492 886
 1492 896 1493 905 1493 915 1494 925 1495 934 1495 944 1496 953 1497 963
 1497 972 1498 982 1499 991 1499 1001 1500 1010 1500 1019 1501 1029 1502 1038
 1502 1047 1503 1056 1504 1065 1504 1075 1505 1083 1506 1092 1506 1101 1507 1110
 1507 1119 1508 1127 1509 1136 1509 1144 1510 1152 1511 1161 1511 1169 1512 1177
 1513 1185 1513 1193 1514 1200 1514 1208 1515 1215 1516 1223 1516 1230 1517 1237
 1518 1244 1518 1251 1519 1257 1520 1264 1520 1270 1521 1277 1521 1283 1522 1289
 1523 1294 1523 1300 1524 1306 1525 1311 1525 1316 1526 1321 1527 1326 1527 1330
 1528 1335 1528 1339 1529 1343 1530 1347 1530 1351 101 rps
 1530 1351 1531 1354 1532 1357 1532 1361 1533 1364 1534 1366 1534 1369 1535 1371 1535 1373
 1536 1375 1537 1377 1537 1379 1538 1381 1539 1382 1539 1383 1540 1384 1541 1385
 1541 1386 1542 1387 1542 1388 1543 1388 1544 1388 1544 1389 1545 1389 1546 1389
 1546 1389 1547 1388 1548 1388 1548 1388 1549 1387 1549 1386 1550 1386 1551 1385
 1551 1384 1552 1383 1553 1382 1553 1381 1554 1380 1555 1378 1555 1377 1556 1375
 1556 1374 1557 1372 1558 1371 1558 1369 1559 1367 1560 1366 1560 1364 1561 1362
 1562 1360 1562 1358 1563 1356 1563 1354 1564 1352 1565 1350 1565 1348 1566 1345
 1567 1343 1567 1341 1568 1339 1569 1336 1569 1334 1570 1332 1570 1330 1571 1327
 1572 1325 1572 1322 1573 1320 1574 1318 1574 1315 1575 1313 1576 1311 1576 1308
 1577 1306 1577 1304 1578 1301 1579 1299 1579 1297 1580 1294 1581 1292 1581 1290
 1582 1287 1583 1285 1583 1283 1584 1281 1584 1278 1585 1276 1586 1274 1586 1272
 1587 1270 1588 1267 1588 1265 1589 1263 1590 1261 1590 1259 1591 1257 1591 1255
 1592 1253 1593 1251 1593 1249 1594 1247 1595 1245 101 rps
 1595 1245 1595 1243 1596 1242 1597 1240 1597 1238 1598 1236 1598 1235 1599 1233 1600 1231
 1600 1230 1601 1228 1602 1227 1602 1225 1603 1224 1604 1222 1604 1221 1605 1220
 1605 1218 1606 1217 1607 1216 1607 1215 1608 1213 1609 1212 1609 1211 1610 1210
 1611 1209 1611 1208 1612 1206 1612 1205 1613 1204 1614 1203 1614 1202 1615 1201
 1616 1200 1616 1199 1617 1198 1618 1196 1618 1195 1619 1194 1619 1193 1620 1192
 1621 1191 1621 1190 1622 1189 1623 1188 1623 1186 1624 1185 1625 1184 1625 1183
 1626 1182 1626 1181 1627 1179 1628 1178 1628 1177 1629 1176 1630 1175 1630 1173
 1631 1172 1632 1171 1632 1170 1633 1169 1633 1167 1634 1166 1635 1165 1635 1164
 1636 1163 1637 1162 1637 1160 1638 1159 1639 1158 1639 1157 1640 1156 1640 1155
 1641 1154 1642 1153 1642 1151 1643 1150 1644 1149 1644 1148 1645 1147 1646 1146
 1646 1145 1647 1144 1647 1143 1648 1142 1649 1141 1649 1140 1650 1139 1651 1138
 1651 1137 1652 1136 1653 1135 1653 1134 1654 1133 1654 1132 1655 1131 1656 1130
 1656 1129 97 rps
 1466 604 1467 618 1468 632 1469 646 1470 659 1471 673 1473 687 1474 701 1475 715
 1476 729 1477 743 1478 757 1479 771 1480 785 1481 799 1482 813 1483 827
 1484 841 1485 856 1486 870 1487 884 1488 899 1490 913 1491 928 1492 943
 1493 958 1494 972 1495 987 1496 1002 1497 1017 1498 1032 1499 1048 1500 1063
 1501 1078 1502 1093 1503 1108 1504 1124 1506 1139 1507 1154 1508 1169 1509 1184
 1510 1200 1511 1215 1512 1230 1513 1245 1514 1260 1515 1275 1516 1290 1517 1305
 1518 1319 1519 1334 1520 1348 1521 1363 1523 1377 1524 1390 1525 1404 1526 1417
 1527 1430 1528 1443 1529 1455 1530 1467 1531 1479 1532 1491 1533 1502 1534 1512
 1535 1523 1536 1533 1537 1542 1539 1551 1540 1560 1541 1569 1542 1577 1543 1585
 1544 1592 1545 1599 1546 1606 1547 1612 1548 1618 1549 1623 1550 1628 1551 1632
 1552 1637 1553 1640 1554 1644 1556 1647 1557 1649 1558 1651 1559 1653 1560 1654
 1561 1654 1562 1655 1563 1654 1564 1654 1565 1653 1566 1651 1567 1650 1568 1648
 1569 1645 1570 1643 1572 1640 1573 1637 1574 1633 101 rps
 1574 1633 1575 1630 1576 1626 1577 1622 1578 1618 1579 1614 1580 1610 1581 1606 1582 1601
 1583 1597 1584 1593 1585 1588 1586 1583 1587 1579 1589 1574 1590 1569 1591 1564
 1592 1560 1593 1555 1594 1550 1595 1545 1596 1540 1597 1536 1598 1531 1599 1526
 1600 1522 1601 1517 1602 1513 1603 1508 1605 1504 1606 1500 1607 1496 1608 1492
 1609 1487 1610 1483 1611 1479 1612 1475 1613 1472 1614 1468 1615 1464 1616 1460
 1617 1456 1618 1453 1619 1449 1620 1446 1622 1442 1623 1439 1624 1435 1625 1432
 1626 1428 1627 1425 1628 1422 1629 1418 1630 1415 1631 1412 1632 1409 1633 1405
 1634 1402 1635 1399 1636 1396 1638 1392 1639 1389 1640 1386 1641 1383 1642 1380
 1643 1377 1644 1373 1645 1370 1646 1367 1647 1364 1648 1361 1649 1358 1650 1355
 1651 1352 1652 1349 1653 1345 1655 1342 1656 1339 1657 1337 1658 1334 1659 1331
 1660 1328 1661 1325 1662 1322 1663 1320 1664 1317 1665 1314 1666 1311 1667 1309
 1668 1306 1669 1304 1671 1301 1672 1299 1673 1296 1674 1294 1675 1291 1676 1289
 1677 1287 1678 1284 1679 1282 1680 1280 1681 1278 101 rps
 1681 1278 1682 1276 1683 1274 1684 1272 1685 1269 1686 1268 1688 1266 1689 1264 1690 1262
 1691 1260 1692 1258 1693 1256 1694 1255 1695 1253 1696 1251 1697 1250 1698 1248
 1699 1247 1700 1245 1701 1244 1702 1243 1704 1241 1705 1240 1706 1239 1707 1238
 1708 1237 1709 1236 1710 1235 1711 1234 1712 1233 1713 1233 1714 1232 1715 1231
 1716 1231 1717 1231 1718 1230 1719 1230 1721 1230 1722 1230 1723 1229 1724 1229
 1725 1229 1726 1230 1727 1230 1728 1230 1729 1230 1730 1230 1731 1231 1732 1231
 1733 1231 1734 1232 1735 1232 1737 1232 1738 1233 1739 1233 1740 1233 1741 1233
 1742 1234 1743 1234 1744 1234 1745 1234 1746 1234 1747 1234 1748 1234 1749 1234
 1750 1234 1751 1233 1752 1233 1754 1232 1755 1232 1756 1231 1757 1231 1758 1230
 1759 1229 1760 1228 1761 1227 1762 1226 1763 1225 1764 1224 1765 1222 1766 1221
 1767 1220 1768 1218 1770 1216 1771 1215 1772 1213 1773 1211 1774 1209 1775 1207
 1776 1205 1777 1203 1778 1201 1779 1199 1780 1196 1781 1194 1782 1192 1783 1190
 1784 1187 97 rps
 1466 748 1468 765 1469 783 1471 800 1472 817 1474 834 1475 852 1477 869 1478 886
 1480 904 1481 921 1482 939 1484 957 1485 974 1487 992 1488 1010 1490 1028
 1491 1046 1493 1065 1494 1083 1496 1102 1497 1120 1499 1139 1500 1158 1502 1177
 1503 1196 1505 1215 1506 1234 1508 1253 1509 1273 1511 1292 1512 1312 1514 1331
 1515 1351 1517 1370 1518 1390 1520 1409 1521 1429 1523 1448 1524 1467 1526 1486
 1527 1505 1529 1524 1530 1543 1532 1561 1533 1579 1535 1597 1536 1615 1537 1632
 1539 1649 1540 1665 1542 1681 1543 1697 1545 1713 1546 1727 1548 1742 1549 1756
 1551 1769 1552 1782 1554 1795 1555 1806 1557 1818 1558 1828 1560 1838 1561 1847
 1563 1856 1564 1864 1566 1871 1567 1877 1569 1883 1570 1888 1572 1893 1573 1896
 1575 1899 1576 1902 1578 1903 1579 1905 1581 1905 1582 1905 1584 1904 1585 1903
 1587 1902 1588 1900 1590 1897 1591 1894 1592 1891 1594 1887 1595 1883 1597 1879
 1598 1874 1600 1869 1601 1864 1603 1859 1604 1853 1606 1848 1607 1842 1609 1836
 1610 1830 1612 1824 1613 1817 1615 1811 1616 1805 101 rps
 1616 1805 1618 1799 1619 1793 1621 1786 1622 1780 1624 1774 1625 1769 1627 1763 1628 1757
 1630 1751 1631 1746 1633 1740 1634 1735 1636 1729 1637 1724 1639 1718 1640 1713
 1642 1707 1643 1702 1645 1697 1646 1692 1647 1686 1649 1681 1650 1676 1652 1671
 1653 1666 1655 1661 1656 1656 1658 1651 1659 1646 1661 1642 1662 1637 1664 1632
 1665 1628 1667 1623 1668 1619 1670 1615 1671 1610 1673 1606 1674 1602 1676 1598
 1677 1594 1679 1590 1680 1586 1682 1582 1683 1578 1685 1574 1686 1570 1688 1567
 1689 1563 1691 1559 1692 1556 1694 1552 1695 1549 1697 1545 1698 1542 1700 1539
 1701 1535 1703 1532 1704 1529 1705 1526 1707 1523 1708 1520 1710 1517 1711 1514
 1713 1511 1714 1509 1716 1506 1717 1504 1719 1501 1720 1499 1722 1496 1723 1494
 1725 1492 1726 1490 1728 1488 1729 1486 1731 1484 1732 1482 1734 1480 1735 1479
 1737 1477 1738 1476 1740 1475 1741 1474 1743 1473 1744 1472 1746 1471 1747 1470
 1749 1469 1750 1469 1752 1468 1753 1468 1755 1468 1756 1467 1758 1467 1759 1467
 1760 1466 1762 1466 1763 1466 1765 1465 1766 1465 101 rps
 1766 1465 1768 1464 1769 1463 1771 1462 1772 1461 1774 1460 1775 1459 1777 1457 1778 1455
 1780 1453 1781 1450 1783 1447 1784 1444 1786 1440 1787 1436 1789 1431 1790 1427
 1792 1422 1793 1417 1795 1411 1796 1406 1798 1401 1799 1395 1801 1390 1802 1385
 1804 1380 1805 1375 1807 1370 1808 1365 1810 1360 1811 1355 1813 1350 1814 1345
 1815 1340 1817 1336 1818 1331 1820 1326 1821 1321 1823 1316 1824 1311 1826 1306
 1827 1301 1829 1296 1830 1292 1832 1287 1833 1282 1835 1278 1836 1274 1838 1269
 1839 1265 1841 1261 1842 1257 1844 1253 1845 1249 1847 1245 1848 1242 1850 1238
 1851 1235 1853 1231 1854 1228 1856 1225 1857 1221 1859 1218 1860 1215 1862 1212
 1863 1210 1865 1207 1866 1204 1868 1201 1869 1199 1870 1196 1872 1194 1873 1192
 1875 1189 1876 1187 1878 1185 1879 1182 1881 1180 1882 1178 1884 1176 1885 1174
 1887 1172 1888 1170 1890 1168 1891 1166 1893 1164 1894 1162 1896 1160 1897 1159
 1899 1157 1900 1155 1902 1153 1903 1151 1905 1149 1906 1147 1908 1146 1909 1144
 1911 1142 97 rps
 1466 931 1468 949 1470 968 1472 986 1474 1005 1475 1023 1477 1042 1479 1061 1481 1079
 1483 1098 1485 1117 1487 1137 1488 1156 1490 1175 1492 1195 1494 1215 1496 1235
 1498 1255 1499 1275 1501 1296 1503 1316 1505 1337 1507 1358 1509 1379 1511 1400
 1512 1421 1514 1442 1516 1463 1518 1485 1520 1506 1522 1527 1524 1548 1525 1570
 1527 1591 1529 1612 1531 1633 1533 1653 1535 1674 1537 1695 1538 1715 1540 1735
 1542 1755 1544 1775 1546 1794 1548 1813 1550 1832 1551 1851 1553 1869 1555 1887
 1557 1905 1559 1921 1561 1938 1562 1954 1564 1969 1566 1983 1568 1997 1570 2011
 1572 2023 1574 2035 1575 2047 1577 2058 1579 2068 1581 2078 1583 2087 1585 2095
 1587 2103 1588 2110 1590 2116 1592 2122 1594 2127 1596 2132 1598 2136 1600 2139
 1601 2141 1603 2143 1605 2145 1607 2145 1609 2145 1611 2144 1613 2143 1614 2141
 1616 2139 1618 2136 1620 2133 1622 2129 1624 2124 1625 2120 1627 2114 1629 2109
 1631 2103 1633 2097 1635 2091 1637 2085 1638 2079 1640 2072 1642 2066 1644 2060
 1646 2054 1648 2048 1650 2042 1651 2036 1653 2030 101 rps
 1653 2030 1655 2024 1657 2019 1659 2013 1661 2008 1663 2003 1664 1997 1666 1992 1668 1988
 1670 1983 1672 1978 1674 1973 1676 1969 1677 1964 1679 1960 1681 1955 1683 1951
 1685 1947 1687 1942 1688 1938 1690 1934 1692 1929 1694 1925 1696 1921 1698 1916
 1700 1912 1701 1908 1703 1904 1705 1900 1707 1895 1709 1891 1711 1887 1713 1883
 1714 1880 1716 1876 1718 1872 1720 1868 1722 1865 1724 1861 1726 1858 1727 1855
 1729 1851 1731 1848 1733 1845 1735 1842 1737 1839 1739 1836 1740 1833 1742 1830
 1744 1827 1746 1825 1748 1822 1750 1819 1751 1817 1753 1814 1755 1811 1757 1809
 1759 1807 1761 1805 1763 1803 1764 1801 1766 1799 1768 1798 1770 1796 1772 1795
 1774 1793 1776 1792 1777 1790 1779 1789 1781 1787 1783 1784 1785 1782 1787 1779
 1789 1775 1790 1771 1792 1767 1794 1762 1796 1757 1798 1751 1800 1745 1802 1739
 1803 1732 1805 1724 1807 1716 1809 1708 1811 1700 1813 1691 1814 1682 1816 1673
 1818 1664 1820 1655 1822 1646 1824 1636 1826 1627 1827 1618 1829 1608 1831 1600
 1833 1591 1835 1582 1837 1574 1839 1566 1840 1558 101 rps
 1840 1558 1842 1550 1844 1542 1846 1535 1848 1527 1850 1520 1852 1513 1853 1505 1855 1498
 1857 1491 1859 1484 1861 1477 1863 1470 1865 1463 1866 1456 1868 1450 1870 1443
 1872 1437 1874 1431 1876 1425 1877 1420 1879 1414 1881 1409 1883 1404 1885 1400
 1887 1395 1889 1391 1890 1386 1892 1382 1894 1378 1896 1375 1898 1371 1900 1368
 1902 1364 1903 1361 1905 1358 1907 1354 1909 1351 1911 1348 1913 1344 1915 1341
 1916 1337 1918 1334 1920 1330 1922 1327 1924 1324 1926 1320 1928 1317 1929 1314
 1931 1311 1933 1308 1935 1306 1937 1303 1939 1301 1940 1299 1942 1297 1944 1295
 1946 1293 1948 1292 1950 1291 1952 1290 1953 1289 1955 1288 1957 1287 1959 1286
 1961 1286 1963 1285 1965 1284 1966 1284 1968 1283 1970 1282 1972 1282 1974 1281
 1976 1280 1978 1279 1979 1278 1981 1277 1983 1276 1985 1275 1987 1274 1989 1273
 1991 1272 1992 1270 1994 1269 1996 1268 1998 1266 2000 1265 2002 1263 2003 1262
 2005 1260 2007 1259 2009 1257 2011 1255 2013 1254 2015 1252 2016 1250 2018 1249
 2020 1247 97 rps
 1466 1163 1468 1178 1471 1193 1473 1209 1475 1224 1477 1240 1479 1256 1482 1272 1484 1289
 1486 1306 1488 1324 1491 1343 1493 1362 1495 1381 1497 1402 1499 1422 1502 1444
 1504 1465 1506 1487 1508 1510 1511 1532 1513 1555 1515 1578 1517 1601 1519 1624
 1522 1646 1524 1668 1526 1689 1528 1709 1530 1728 1533 1746 1535 1763 1537 1780
 1539 1798 1542 1815 1544 1834 1546 1854 1548 1875 1550 1899 1553 1923 1555 1948
 1557 1972 1559 1996 1562 2019 1564 2041 1566 2061 1568 2079 1570 2097 1573 2114
 1575 2130 1577 2146 1579 2162 1582 2177 1584 2192 1586 2207 1588 2222 1590 2236
 1593 2250 1595 2263 1597 2276 1599 2288 1601 2300 1604 2311 1606 2321 1608 2331
 1610 2341 1613 2349 1615 2357 1617 2364 1619 2370 1621 2376 1624 2381 1626 2385
 1628 2388 1630 2391 1633 2393 1635 2395 1637 2396 1639 2396 1641 2396 1644 2395
 1646 2393 1648 2391 1650 2389 1653 2387 1655 2384 1657 2380 1659 2377 1661 2373
 1664 2369 1666 2365 1668 2361 1670 2357 1673 2352 1675 2348 1677 2343 1679 2339
 1681 2334 1684 2330 1686 2325 1688 2321 1690 2317 101 rps
 1690 2317 1692 2312 1695 2309 1697 2305 1699 2301 1701 2297 1704 2294 1706 2290 1708 2287
 1710 2283 1712 2279 1715 2276 1717 2272 1719 2269 1721 2265 1724 2261 1726 2257
 1728 2253 1730 2249 1732 2244 1735 2240 1737 2236 1739 2232 1741 2228 1744 2223
 1746 2219 1748 2215 1750 2211 1752 2208 1755 2204 1757 2200 1759 2196 1761 2192
 1763 2188 1766 2184 1768 2180 1770 2176 1772 2172 1775 2167 1777 2163 1779 2159
 1781 2154 1783 2150 1786 2145 1788 2141 1790 2136 1792 2131 1795 2126 1797 2121
 1799 2115 1801 2109 1803 2103 1806 2096 1808 2089 1810 2081 1812 2073 1815 2065
 1817 2055 1819 2046 1821 2035 1823 2025 1826 2014 1828 2003 1830 1992 1832 1980
 1835 1969 1837 1958 1839 1946 1841 1935 1843 1924 1846 1913 1848 1902 1850 1891
 1852 1880 1854 1869 1857 1859 1859 1848 1861 1838 1863 1828 1866 1818 1868 1808
 1870 1798 1872 1789 1874 1780 1877 1771 1879 1762 1881 1754 1883 1746 1886 1738
 1888 1730 1890 1723 1892 1716 1894 1709 1897 1702 1899 1695 1901 1689 1903 1683
 1906 1676 1908 1670 1910 1665 1912 1659 1914 1653 101 rps
 1914 1653 1917 1647 1919 1642 1921 1636 1923 1631 1925 1626 1928 1620 1930 1615 1932 1610
 1934 1605 1937 1600 1939 1596 1941 1591 1943 1586 1945 1582 1948 1577 1950 1572
 1952 1568 1954 1564 1957 1559 1959 1555 1961 1551 1963 1547 1965 1543 1968 1539
 1970 1535 1972 1531 1974 1528 1977 1524 1979 1520 1981 1517 1983 1513 1985 1509
 1988 1506 1990 1502 1992 1499 1994 1495 1996 1491 1999 1488 2001 1484 2003 1480
 2005 1476 2008 1472 2010 1468 2012 1464 2014 1459 2016 1455 2019 1450 2021 1446
 2023 1441 2025 1436 2028 1430 2030 1425 2032 1419 2034 1414 2036 1408 2039 1402
 2041 1395 2043 1389 2045 1382 2048 1375 2050 1368 2052 1361 2054 1354 2056 1346
 2059 1339 2061 1331 2063 1323 2065 1315 2068 1307 2070 1298 2072 1290 2074 1282
 2076 1274 2079 1265 2081 1257 2083 1249 2085 1241 2087 1233 2090 1225 2092 1218
 2094 1210 2096 1203 2099 1195 2101 1188 2103 1181 2105 1173 2107 1166 2110 1159
 2112 1152 2114 1145 2116 1138 2119 1131 2121 1124 2123 1117 2125 1111 2127 1104
 2130 1097 97 rps
 1547 1998 1549 2017 1552 2037 1554 2056 1557 2076 1559 2095 1561 2115 1564 2135 1566 2154
 1569 2174 1571 2193 1574 2212 1576 2231 1579 2249 1581 2267 1583 2284 1586 2300
 1588 2317 1591 2333 1593 2348 1596 2364 1598 2379 1600 2393 1603 2408 1605 2422
 1608 2436 1610 2450 1613 2463 1615 2476 1617 2489 1620 2502 1622 2514 1625 2526
 1627 2537 1630 2549 1632 2559 1634 2570 1637 2579 1639 2588 1642 2597 1644 2605
 1647 2612 1649 2619 1652 2625 1654 2631 1656 2636 1659 2641 1661 2645 1664 2649
 1666 2652 1669 2655 1671 2657 1673 2659 1676 2661 1678 2663 1681 2664 1683 2664
 1686 2665 1688 2665 1690 2665 1693 2665 1695 2664 1698 2664 1700 2663 1703 2662
 1705 2661 1707 2659 1710 2658 1712 2656 1715 2654 1717 2652 1720 2650 1722 2648
 1725 2646 1727 2644 1729 2641 1732 2639 1734 2636 1737 2633 1739 2630 1742 2627
 1744 2623 1746 2619 1749 2615 1751 2611 1754 2606 1756 2601 1759 2596 1761 2591
 1763 2586 1766 2580 1768 2575 1771 2569 1773 2563 1776 2556 1778 2550 1780 2543
 1783 2536 1785 2529 1788 2522 1790 2514 1793 2507 101 rps
 1793 2507 1795 2499 1798 2491 1800 2483 1802 2474 1805 2466 1807 2457 1810 2448 1812 2439
 1815 2429 1817 2420 1819 2411 1822 2401 1824 2391 1827 2382 1829 2372 1832 2362
 1834 2351 1836 2341 1839 2331 1841 2320 1844 2310 1846 2299 1849 2288 1851 2277
 1853 2266 1856 2255 1858 2244 1861 2233 1863 2221 1866 2210 1868 2199 1870 2188
 1873 2178 1875 2167 1878 2157 1880 2147 1883 2137 1885 2127 1888 2118 1890 2109
 1892 2099 1895 2091 1897 2082 1900 2073 1902 2065 1905 2056 1907 2048 1909 2040
 1912 2032 1914 2024 1917 2016 1919 2008 1922 2001 1924 1993 1926 1986 1929 1979
 1931 1971 1934 1964 1936 1958 1939 1951 1941 1945 1943 1938 1946 1932 1948 1926
 1951 1920 1953 1915 1956 1909 1958 1903 1961 1898 1963 1892 1965 1886 1968 1880
 1970 1875 1973 1869 1975 1863 1978 1857 1980 1850 1982 1844 1985 1838 1987 1831
 1990 1824 1992 1818 1995 1811 1997 1804 1999 1797 2002 1790 2004 1783 2007 1776
 2009 1768 2012 1761 2014 1754 2016 1747 2019 1739 2021 1732 2024 1725 2026 1718
 2029 1710 2031 1703 2034 1696 2036 1688 2038 1681 101 rps
 2038 1681 2041 1674 2043 1666 2046 1658 2048 1651 2051 1643 2053 1635 2055 1627 2058 1619
 2060 1611 2063 1603 2065 1594 2068 1586 2070 1577 2072 1569 2075 1560 2077 1551
 2080 1542 2082 1533 2085 1524 2087 1515 2089 1506 2092 1497 2094 1487 2097 1478
 2099 1469 2102 1459 2104 1449 2107 1439 2109 1429 2111 1419 2114 1409 2116 1398
 2119 1388 2121 1377 2124 1366 2126 1355 2128 1343 2131 1332 2133 1320 2136 1308
 2138 1296 2141 1284 2143 1272 2145 1260 2148 1248 2150 1236 2153 1225 2155 1213
 2158 1202 2160 1192 2162 1181 2165 1172 2167 1162 2170 1153 2172 1145 2175 1137
 2177 1129 2180 1122 2182 1115 2184 1109 2187 1103 2189 1097 2192 1092 2194 1087
 2197 1083 2199 1079 2201 1075 2204 1071 2206 1068 2209 1065 2211 1062 2214 1059
 2216 1057 2218 1055 2221 1052 2223 1051 2226 1049 2228 1047 2231 1045 2233 1044
 2235 1043 2238 1041 2240 1040 2243 1038 2245 1037 2248 1036 2250 1034 2253 1033
 2255 1032 2257 1031 2260 1029 2262 1028 2265 1027 2267 1026 2270 1024 2272 1023
 2274 1022 97 rps
 1692 2912 1694 2916 1696 2921 1699 2925 1701 2929 1703 2933 1706 2937 1708 2940 1710 2944
 1713 2947 1715 2949 1717 2952 1719 2954 1722 2956 1724 2957 1726 2958 1729 2958
 1731 2959 1733 2959 1736 2958 1738 2957 1740 2956 1743 2955 1745 2954 1747 2952
 1750 2950 1752 2948 1754 2946 1756 2944 1759 2941 1761 2938 1763 2934 1766 2931
 1768 2927 1770 2923 1773 2918 1775 2914 1777 2909 1780 2904 1782 2898 1784 2893
 1787 2887 1789 2881 1791 2874 1794 2868 1796 2861 1798 2854 1800 2847 1803 2840
 1805 2832 1807 2824 1810 2817 1812 2809 1814 2800 1817 2792 1819 2784 1821 2775
 1824 2766 1826 2758 1828 2749 1831 2740 1833 2731 1835 2721 1838 2712 1840 2703
 1842 2693 1844 2684 1847 2674 1849 2665 1851 2655 1854 2645 1856 2636 1858 2626
 1861 2616 1863 2607 1865 2597 1868 2587 1870 2577 1872 2568 1875 2558 1877 2548
 1879 2539 1882 2529 1884 2520 1886 2510 1888 2501 1891 2491 1893 2482 1895 2473
 1898 2464 1900 2455 1902 2446 1905 2437 1907 2429 1909 2420 1912 2412 1914 2403
 1916 2395 1919 2387 1921 2379 1923 2372 1926 2364 101 rps
 1926 2364 1928 2356 1930 2349 1932 2341 1935 2334 1937 2326 1939 2319 1942 2312 1944 2304
 1946 2297 1949 2290 1951 2283 1953 2276 1956 2268 1958 2261 1960 2254 1963 2247
 1965 2239 1967 2232 1969 2225 1972 2218 1974 2210 1976 2203 1979 2195 1981 2188
 1983 2180 1986 2173 1988 2165 1990 2158 1993 2150 1995 2142 1997 2134 2000 2127
 2002 2119 2004 2111 2007 2103 2009 2095 2011 2086 2013 2078 2016 2070 2018 2062
 2020 2053 2023 2045 2025 2036 2027 2028 2030 2019 2032 2010 2034 2002 2037 1993
 2039 1984 2041 1975 2044 1967 2046 1958 2048 1950 2051 1941 2053 1933 2055 1924
 2057 1916 2060 1908 2062 1900 2064 1892 2067 1884 2069 1876 2071 1868 2074 1860
 2076 1852 2078 1844 2081 1836 2083 1829 2085 1821 2088 1813 2090 1806 2092 1798
 2095 1790 2097 1782 2099 1774 2101 1767 2104 1759 2106 1751 2108 1743 2111 1735
 2113 1727 2115 1719 2118 1710 2120 1702 2122 1694 2125 1685 2127 1677 2129 1668
 2132 1659 2134 1651 2136 1642 2139 1633 2141 1623 2143 1614 2145 1604 2148 1594
 2150 1584 2152 1574 2155 1564 2157 1553 2159 1542 101 rps
 2159 1542 2162 1531 2164 1519 2166 1507 2169 1495 2171 1483 2173 1470 2176 1458 2178 1445
 2180 1432 2182 1419 2185 1406 2187 1394 2189 1381 2192 1369 2194 1357 2196 1346
 2199 1334 2201 1323 2203 1312 2206 1302 2208 1292 2210 1282 2213 1273 2215 1263
 2217 1254 2220 1246 2222 1237 2224 1229 2226 1221 2229 1214 2231 1206 2233 1199
 2236 1192 2238 1186 2240 1179 2243 1173 2245 1168 2247 1162 2250 1157 2252 1151
 2254 1147 2257 1142 2259 1137 2261 1133 2264 1128 2266 1124 2268 1120 2270 1116
 2273 1113 2275 1109 2277 1105 2280 1102 2282 1098 2284 1095 2287 1092 2289 1089
 2291 1086 2294 1083 2296 1081 2298 1078 2301 1076 2303 1073 2305 1071 2308 1069
 2310 1068 2312 1066 2314 1064 2317 1063 2319 1061 2321 1060 2324 1059 2326 1057
 2328 1056 2331 1055 2333 1054 2335 1053 2338 1052 2340 1051 2342 1050 2345 1049
 2347 1048 2349 1046 2352 1045 2354 1044 2356 1043 2358 1042 2361 1041 2363 1040
 2365 1039 2368 1038 2370 1037 2372 1036 2375 1035 2377 1034 2379 1033 2382 1032
 2384 1031 97 rps
 2055 2171 2057 2165 2058 2160 2060 2155 2061 2149 2063 2144 2064 2139 2066 2134 2067 2128
 2069 2123 2070 2118 2072 2113 2073 2107 2074 2102 2076 2097 2077 2092 2079 2087
 2080 2082 2082 2077 2083 2071 2085 2066 2086 2061 2088 2056 2089 2051 2091 2046
 2092 2042 2094 2037 2095 2032 2096 2027 2098 2022 2099 2017 2101 2012 2102 2008
 2104 2003 2105 1998 2107 1993 2108 1989 2110 1984 2111 1979 2113 1975 2114 1970
 2116 1966 2117 1961 2118 1956 2120 1952 2121 1947 2123 1943 2124 1938 2126 1934
 2127 1929 2129 1925 2130 1921 2132 1916 2133 1912 2135 1907 2136 1903 2137 1899
 2139 1894 2140 1890 2142 1886 2143 1882 2145 1877 2146 1873 2148 1869 2149 1864
 2151 1860 2152 1856 2154 1851 2155 1847 2157 1842 2158 1838 2159 1834 2161 1829
 2162 1825 2164 1820 2165 1816 2167 1811 2168 1807 2170 1802 2171 1798 2173 1793
 2174 1788 2176 1783 2177 1779 2178 1774 2180 1769 2181 1764 2183 1759 2184 1754
 2186 1748 2187 1743 2189 1738 2190 1732 2192 1727 2193 1721 2195 1715 2196 1709
 2198 1703 2199 1697 2200 1691 2202 1685 2203 1678 101 rps
 2203 1678 2205 1672 2206 1666 2208 1659 2209 1653 2211 1646 2212 1639 2214 1632 2215 1626
 2217 1619 2218 1612 2219 1605 2221 1598 2222 1591 2224 1584 2225 1577 2227 1570
 2228 1563 2230 1556 2231 1549 2233 1542 2234 1535 2236 1528 2237 1521 2239 1514
 2240 1507 2241 1500 2243 1494 2244 1487 2246 1480 2247 1473 2249 1466 2250 1460
 2252 1453 2253 1446 2255 1440 2256 1433 2258 1427 2259 1421 2261 1414 2262 1408
 2263 1402 2265 1396 2266 1390 2268 1384 2269 1378 2271 1372 2272 1367 2274 1361
 2275 1355 2277 1350 2278 1345 2280 1339 2281 1334 2282 1329 2284 1324 2285 1319
 2287 1314 2288 1309 2290 1305 2291 1300 2293 1295 2294 1291 2296 1286 2297 1282
 2299 1278 2300 1273 2302 1269 2303 1265 2304 1261 2306 1257 2307 1253 2309 1249
 2310 1245 2312 1241 2313 1237 2315 1233 2316 1229 2318 1226 2319 1222 2321 1219
 2322 1215 2323 1212 2325 1209 2326 1206 2328 1202 2329 1199 2331 1196 2332 1194
 2334 1191 2335 1188 2337 1185 2338 1183 2340 1180 2341 1178 2343 1176 2344 1174
 2345 1171 2347 1169 2348 1167 2350 1165 2351 1164 101 rps
 2351 1164 2353 1162 2354 1160 2356 1158 2357 1156 2359 1155 2360 1153 2362 1152 2363 1150
 2365 1148 2366 1147 2367 1145 2369 1144 2370 1142 2372 1140 2373 1139 2375 1137
 2376 1136 2378 1134 2379 1132 2381 1130 2382 1129 2384 1127 2385 1125 2386 1123
 2388 1121 2389 1119 2391 1117 2392 1115 2394 1113 2395 1111 2397 1108 2398 1106
 2400 1104 2401 1102 2403 1099 2404 1097 2406 1095 2407 1092 2408 1090 2410 1088
 2411 1085 2413 1083 2414 1081 2416 1078 2417 1076 2419 1073 2420 1071 2422 1069
 2423 1066 2425 1064 2426 1062 2427 1059 2429 1057 2430 1055 2432 1052 2433 1050
 2435 1048 2436 1046 2438 1044 2439 1042 2441 1040 2442 1038 2444 1036 2445 1034
 2447 1033 2448 1031 2449 1029 2451 1028 2452 1026 2454 1025 2455 1024 2457 1023
 2458 1021 2460 1020 2461 1019 2463 1018 2464 1017 2466 1016 2467 1015 2469 1014
 2470 1014 2471 1013 2473 1012 2474 1012 2476 1011 2477 1010 2479 1010 2480 1009
 2482 1008 2483 1008 2485 1007 2486 1007 2488 1006 2489 1006 2490 1005 2492 1005
 2493 1004 97 rps
 2165 1996 2167 1993 2168 1989 2170 1985 2171 1981 2173 1977 2174 1974 2176 1970 2178 1966
 2179 1962 2181 1959 2182 1955 2184 1951 2186 1947 2187 1943 2189 1939 2190 1936
 2192 1932 2193 1928 2195 1924 2197 1920 2198 1916 2200 1912 2201 1908 2203 1904
 2205 1900 2206 1896 2208 1892 2209 1888 2211 1884 2212 1880 2214 1876 2216 1872
 2217 1867 2219 1863 2220 1859 2222 1855 2224 1850 2225 1846 2227 1842 2228 1837
 2230 1833 2231 1828 2233 1824 2235 1819 2236 1815 2238 1810 2239 1805 2241 1801
 2243 1796 2244 1791 2246 1786 2247 1782 2249 1777 2250 1772 2252 1767 2254 1762
 2255 1757 2257 1752 2258 1746 2260 1741 2262 1736 2263 1731 2265 1726 2266 1720
 2268 1715 2269 1710 2271 1704 2273 1699 2274 1693 2276 1688 2277 1682 2279 1677
 2280 1671 2282 1666 2284 1660 2285 1655 2287 1649 2288 1643 2290 1638 2292 1632
 2293 1626 2295 1621 2296 1615 2298 1610 2299 1604 2301 1598 2303 1593 2304 1587
 2306 1582 2307 1576 2309 1571 2311 1565 2312 1560 2314 1554 2315 1549 2317 1543
 2318 1538 2320 1533 2322 1527 2323 1522 2325 1517 101 rps
 2325 1517 2326 1511 2328 1506 2330 1501 2331 1496 2333 1490 2334 1485 2336 1480 2337 1475
 2339 1470 2341 1465 2342 1459 2344 1454 2345 1449 2347 1444 2349 1439 2350 1434
 2352 1429 2353 1425 2355 1420 2356 1415 2358 1410 2360 1405 2361 1401 2363 1396
 2364 1392 2366 1387 2368 1383 2369 1378 2371 1374 2372 1370 2374 1365 2375 1361
 2377 1357 2379 1353 2380 1349 2382 1345 2383 1342 2385 1338 2387 1334 2388 1331
 2390 1327 2391 1324 2393 1320 2394 1317 2396 1314 2398 1310 2399 1307 2401 1304
 2402 1300 2404 1297 2406 1294 2407 1290 2409 1287 2410 1284 2412 1280 2413 1277
 2415 1273 2417 1270 2418 1266 2420 1262 2421 1258 2423 1254 2425 1250 2426 1246
 2428 1242 2429 1238 2431 1234 2432 1229 2434 1225 2436 1221 2437 1216 2439 1212
 2440 1207 2442 1203 2444 1199 2445 1194 2447 1190 2448 1185 2450 1181 2451 1176
 2453 1172 2455 1167 2456 1163 2458 1159 2459 1154 2461 1150 2463 1146 2464 1142
 2466 1137 2467 1133 2469 1129 2470 1125 2472 1121 2474 1117 2475 1113 2477 1110
 2478 1106 2480 1102 2482 1098 2483 1095 2485 1091 101 rps
 2485 1091 2486 1088 2488 1085 2489 1081 2491 1078 2493 1075 2494 1072 2496 1069 2497 1066
 2499 1064 2501 1061 2502 1059 2504 1056 2505 1054 2507 1051 2508 1049 2510 1047
 2512 1045 2513 1043 2515 1041 2516 1039 2518 1037 2520 1035 2521 1033 2523 1031
 2524 1030 2526 1028 2527 1026 2529 1025 2531 1023 2532 1022 2534 1020 2535 1019
 2537 1018 2538 1016 2540 1015 2542 1014 2543 1013 2545 1011 2546 1010 2548 1009
 2550 1008 2551 1007 2553 1006 2554 1005 2556 1005 2557 1004 2559 1003 2561 1002
 2562 1002 2564 1001 2565 1000 2567 1000 2569 999 2570 999 2572 998 2573 998
 2575 997 2576 997 2578 997 2580 996 2581 996 2583 996 2584 996 2586 995
 2588 995 2589 995 2591 995 2592 995 2594 995 2595 994 2597 994 2599 994
 2600 994 2602 994 2603 994 2605 994 2607 994 2608 994 2610 994 2611 993
 2613 993 2614 993 2616 993 2618 993 2619 993 2621 993 2622 993 2624 993
 2626 993 2627 993 2629 993 2630 993 2632 993 2633 993 2635 993 2637 992
 2638 992 97 rps
 2274 1909 2276 1905 2278 1902 2279 1898 2281 1895 2282 1892 2284 1888 2286 1885 2287 1881
 2289 1878 2290 1875 2292 1871 2293 1868 2295 1864 2297 1861 2298 1858 2300 1854
 2301 1851 2303 1848 2305 1844 2306 1841 2308 1838 2309 1834 2311 1831 2312 1828
 2314 1824 2316 1821 2317 1817 2319 1814 2320 1811 2322 1807 2324 1804 2325 1800
 2327 1797 2328 1793 2330 1790 2331 1786 2333 1782 2335 1779 2336 1775 2338 1771
 2339 1767 2341 1763 2343 1759 2344 1755 2346 1751 2347 1747 2349 1743 2350 1739
 2352 1735 2354 1730 2355 1726 2357 1722 2358 1718 2360 1713 2362 1709 2363 1704
 2365 1700 2366 1695 2368 1691 2369 1686 2371 1682 2373 1677 2374 1673 2376 1668
 2377 1663 2379 1659 2380 1654 2382 1649 2384 1645 2385 1640 2387 1635 2388 1630
 2390 1626 2392 1621 2393 1616 2395 1611 2396 1607 2398 1602 2399 1597 2401 1592
 2403 1588 2404 1583 2406 1578 2407 1573 2409 1568 2411 1564 2412 1559 2414 1554
 2415 1549 2417 1544 2418 1540 2420 1535 2422 1530 2423 1525 2425 1521 2426 1516
 2428 1511 2430 1506 2431 1502 2433 1497 2434 1492 101 rps
 2434 1492 2436 1487 2437 1482 2439 1477 2441 1472 2442 1467 2444 1462 2445 1457 2447 1452
 2449 1447 2450 1442 2452 1436 2453 1431 2455 1425 2456 1420 2458 1415 2460 1409
 2461 1403 2463 1398 2464 1392 2466 1386 2468 1381 2469 1375 2471 1369 2472 1363
 2474 1358 2475 1352 2477 1346 2479 1340 2480 1334 2482 1328 2483 1322 2485 1316
 2487 1310 2488 1305 2490 1299 2491 1293 2493 1287 2494 1281 2496 1275 2498 1269
 2499 1263 2501 1257 2502 1251 2504 1245 2506 1240 2507 1234 2509 1228 2510 1222
 2512 1217 2513 1211 2515 1206 2517 1200 2518 1195 2520 1189 2521 1184 2523 1179
 2525 1173 2526 1168 2528 1163 2529 1158 2531 1154 2532 1149 2534 1144 2536 1140
 2537 1135 2539 1131 2540 1126 2542 1122 2544 1118 2545 1114 2547 1110 2548 1106
 2550 1102 2551 1099 2553 1095 2555 1092 2556 1088 2558 1085 2559 1082 2561 1079
 2563 1075 2564 1072 2566 1070 2567 1067 2569 1064 2570 1061 2572 1059 2574 1056
 2575 1054 2577 1051 2578 1049 2580 1047 2582 1045 2583 1043 2585 1041 2586 1039
 2588 1037 2589 1035 2591 1033 2593 1032 2594 1030 101 rps
 2594 1030 2596 1029 2597 1027 2599 1026 2601 1025 2602 1023 2604 1022 2605 1021 2607 1020
 2608 1019 2610 1018 2612 1017 2613 1016 2615 1015 2616 1014 2618 1014 2620 1013
 2621 1012 2623 1011 2624 1011 2626 1010 2627 1010 2629 1009 2631 1009 2632 1008
 2634 1008 2635 1007 2637 1007 2638 1006 2640 1006 2642 1005 2643 1005 2645 1004
 2646 1004 2648 1004 2650 1003 2651 1003 2653 1002 2654 1002 2656 1002 2657 1001
 2659 1001 2661 1001 2662 1000 2664 1000 2665 1000 2667 999 2669 999 2670 999
 2672 998 2673 998 2675 998 2676 997 2678 997 2680 997 2681 997 2683 996
 2684 996 2686 996 2688 995 2689 995 2691 995 2692 995 2694 994 2695 994
 2697 994 2699 994 2700 993 2702 993 2703 993 2705 993 2707 993 2708 992
 2710 992 2711 992 2713 992 2714 991 2716 991 2718 991 2719 991 2721 991
 2722 990 2724 990 2726 990 2727 990 2729 989 2730 989 2732 989 2733 989
 2735 989 2737 988 2738 988 2740 988 2741 988 2743 988 2745 987 2746 987
 2748 987 97 rps
 2419 1723 2421 1718 2422 1713 2424 1709 2425 1704 2427 1699 2428 1695 2429 1690 2431 1685
 2432 1681 2434 1676 2435 1671 2437 1666 2438 1662 2440 1657 2441 1652 2443 1647
 2444 1643 2446 1638 2447 1633 2449 1628 2450 1624 2451 1619 2453 1614 2454 1609
 2456 1604 2457 1600 2459 1595 2460 1590 2462 1585 2463 1580 2465 1575 2466 1570
 2468 1566 2469 1561 2470 1556 2472 1551 2473 1546 2475 1541 2476 1536 2478 1531
 2479 1526 2481 1521 2482 1516 2484 1511 2485 1506 2487 1501 2488 1496 2490 1491
 2491 1486 2492 1481 2494 1477 2495 1472 2497 1467 2498 1462 2500 1457 2501 1452
 2503 1446 2504 1441 2506 1436 2507 1431 2509 1426 2510 1421 2512 1416 2513 1411
 2514 1406 2516 1401 2517 1396 2519 1391 2520 1386 2522 1381 2523 1376 2525 1371
 2526 1366 2528 1361 2529 1355 2531 1350 2532 1345 2533 1340 2535 1335 2536 1330
 2538 1325 2539 1320 2541 1315 2542 1309 2544 1304 2545 1299 2547 1294 2548 1289
 2550 1284 2551 1279 2553 1274 2554 1269 2555 1264 2557 1260 2558 1255 2560 1250
 2561 1245 2563 1240 2564 1236 2566 1231 2567 1226 101 rps
 2567 1226 2569 1222 2570 1217 2572 1213 2573 1208 2574 1204 2576 1199 2577 1195 2579 1191
 2580 1186 2582 1182 2583 1178 2585 1174 2586 1170 2588 1166 2589 1162 2591 1158
 2592 1154 2594 1150 2595 1147 2596 1143 2598 1139 2599 1136 2601 1132 2602 1129
 2604 1125 2605 1122 2607 1119 2608 1116 2610 1113 2611 1110 2613 1107 2614 1104
 2616 1101 2617 1098 2618 1096 2620 1093 2621 1090 2623 1088 2624 1086 2626 1083
 2627 1081 2629 1079 2630 1076 2632 1074 2633 1072 2635 1070 2636 1068 2637 1066
 2639 1065 2640 1063 2642 1061 2643 1060 2645 1058 2646 1057 2648 1055 2649 1054
 2651 1052 2652 1051 2654 1050 2655 1049 2657 1047 2658 1046 2659 1045 2661 1044
 2662 1043 2664 1042 2665 1041 2667 1040 2668 1039 2670 1038 2671 1038 2673 1037
 2674 1036 2676 1035 2677 1035 2678 1034 2680 1033 2681 1032 2683 1032 2684 1031
 2686 1030 2687 1030 2689 1029 2690 1029 2692 1028 2693 1027 2695 1027 2696 1026
 2698 1025 2699 1025 2700 1024 2702 1024 2703 1023 2705 1022 2706 1022 2708 1021
 2709 1020 2711 1019 2712 1019 2714 1018 2715 1017 101 rps
 2715 1017 2717 1017 2718 1016 2719 1015 2721 1015 2722 1014 2724 1013 2725 1012 2727 1012
 2728 1011 2730 1010 2731 1010 2733 1009 2734 1008 2736 1007 2737 1007 2739 1006
 2740 1005 2741 1005 2743 1004 2744 1003 2746 1003 2747 1002 2749 1001 2750 1001
 2752 1000 2753 1000 2755 999 2756 998 2758 998 2759 997 2761 997 2762 996
 2763 996 2765 995 2766 994 2768 994 2769 993 2771 993 2772 992 2774 992
 2775 991 2777 991 2778 991 2780 990 2781 990 2782 989 2784 989 2785 988
 2787 988 2788 988 2790 987 2791 987 2793 986 2794 986 2796 986 2797 985
 2799 985 2800 985 2802 984 2803 984 2804 984 2806 984 2807 983 2809 983
 2810 983 2812 983 2813 982 2815 982 2816 982 2818 982 2819 982 2821 981
 2822 981 2823 981 2825 981 2826 981 2828 980 2829 980 2831 980 2832 980
 2834 980 2835 980 2837 980 2838 980 2840 979 2841 979 2843 979 2844 979
 2845 979 2847 979 2848 979 2850 979 2851 979 2853 979 2854 978 2856 978
 2857 978 97 rps
 2529 1494 2530 1489 2532 1484 2533 1479 2535 1474 2537 1469 2538 1464 2540 1459 2541 1455
 2543 1450 2545 1445 2546 1440 2548 1435 2549 1430 2551 1425 2552 1420 2554 1415
 2556 1411 2557 1406 2559 1401 2560 1396 2562 1391 2564 1387 2565 1382 2567 1377
 2568 1372 2570 1368 2571 1363 2573 1358 2575 1353 2576 1349 2578 1344 2579 1339
 2581 1335 2583 1330 2584 1326 2586 1321 2587 1317 2589 1312 2590 1308 2592 1303
 2594 1299 2595 1295 2597 1290 2598 1286 2600 1282 2602 1277 2603 1273 2605 1269
 2606 1265 2608 1261 2609 1257 2611 1253 2613 1249 2614 1245 2616 1241 2617 1237
 2619 1233 2621 1229 2622 1226 2624 1222 2625 1218 2627 1215 2628 1211 2630 1208
 2632 1204 2633 1201 2635 1197 2636 1194 2638 1191 2640 1187 2641 1184 2643 1181
 2644 1178 2646 1175 2647 1172 2649 1169 2651 1166 2652 1163 2654 1160 2655 1158
 2657 1155 2659 1152 2660 1149 2662 1147 2663 1144 2665 1142 2666 1139 2668 1137
 2670 1135 2671 1132 2673 1130 2674 1128 2676 1125 2678 1123 2679 1121 2681 1119
 2682 1117 2684 1115 2685 1113 2687 1111 2689 1109 101 rps
 2689 1109 2690 1107 2692 1105 2693 1104 2695 1102 2697 1100 2698 1099 2700 1097 2701 1095
 2703 1094 2704 1092 2706 1091 2708 1089 2709 1088 2711 1086 2712 1085 2714 1084
 2716 1082 2717 1081 2719 1080 2720 1078 2722 1077 2723 1076 2725 1074 2727 1073
 2728 1072 2730 1071 2731 1069 2733 1068 2734 1067 2736 1066 2738 1064 2739 1063
 2741 1062 2742 1061 2744 1059 2746 1058 2747 1057 2749 1055 2750 1054 2752 1052
 2753 1051 2755 1050 2757 1048 2758 1047 2760 1045 2761 1044 2763 1042 2765 1041
 2766 1039 2768 1038 2769 1037 2771 1035 2772 1034 2774 1032 2776 1031 2777 1029
 2779 1028 2780 1026 2782 1025 2784 1023 2785 1022 2787 1021 2788 1019 2790 1018
 2791 1016 2793 1015 2795 1014 2796 1012 2798 1011 2799 1010 2801 1009 2803 1007
 2804 1006 2806 1005 2807 1004 2809 1003 2810 1002 2812 1001 2814 1000 2815 999
 2817 998 2818 997 2820 996 2822 996 2823 995 2825 994 2826 993 2828 993
 2829 992 2831 991 2833 991 2834 990 2836 990 2837 989 2839 989 2841 988
 2842 988 2844 987 2845 987 2847 986 2848 986 101 rps
 2848 986 2850 985 2852 985 2853 984 2855 984 2856 984 2858 983 2860 983 2861 982
 2863 982 2864 982 2866 981 2867 981 2869 980 2871 980 2872 980 2874 979
 2875 979 2877 979 2879 978 2880 978 2882 978 2883 977 2885 977 2886 977
 2888 976 2890 976 2891 976 2893 975 2894 975 2896 975 2898 974 2899 974
 2901 974 2902 973 2904 973 2905 973 2907 972 2909 972 2910 972 2912 972
 2913 971 2915 971 2917 971 2918 970 2920 970 2921 970 2923 970 2924 969
 2926 969 2928 969 2929 968 2931 968 2932 968 2934 968 2936 967 2937 967
 2939 967 2940 967 2942 966 2943 966 2945 966 2947 966 2948 965 2950 965
 2951 965 2953 965 2955 965 2956 964 2958 964 2959 964 2961 964 2962 963
 2964 963 2966 963 2967 963 2969 962 2970 962 2972 962 2974 962 2975 962
 2977 961 2978 961 2980 961 2981 961 2983 960 2985 960 2986 960 2988 960
 2989 960 2991 959 2992 959 2994 959 2996 959 2997 959 2999 958 3000 958
 3002 958 97 rps
 2638 1349 2639 1347 2641 1344 2642 1342 2643 1339 2644 1336 2646 1334 2647 1331 2648 1329
 2649 1326 2650 1323 2652 1321 2653 1318 2654 1316 2655 1313 2656 1311 2658 1308
 2659 1305 2660 1303 2661 1300 2663 1298 2664 1295 2665 1293 2666 1290 2667 1288
 2669 1285 2670 1283 2671 1280 2672 1278 2674 1275 2675 1273 2676 1270 2677 1268
 2678 1265 2680 1263 2681 1260 2682 1258 2683 1255 2684 1253 2686 1250 2687 1248
 2688 1246 2689 1243 2691 1241 2692 1239 2693 1236 2694 1234 2695 1232 2697 1229
 2698 1227 2699 1225 2700 1222 2701 1220 2703 1218 2704 1216 2705 1213 2706 1211
 2708 1209 2709 1207 2710 1205 2711 1203 2712 1200 2714 1198 2715 1196 2716 1194
 2717 1192 2719 1190 2720 1188 2721 1186 2722 1184 2723 1182 2725 1180 2726 1178
 2727 1176 2728 1174 2729 1172 2731 1170 2732 1168 2733 1166 2734 1164 2736 1162
 2737 1160 2738 1158 2739 1156 2740 1154 2742 1152 2743 1150 2744 1148 2745 1146
 2746 1145 2748 1143 2749 1141 2750 1139 2751 1137 2753 1135 2754 1133 2755 1132
 2756 1130 2757 1128 2759 1126 2760 1124 2761 1123 101 rps
 2761 1123 2762 1121 2764 1119 2765 1117 2766 1116 2767 1114 2768 1112 2770 1110 2771 1109
 2772 1107 2773 1105 2774 1103 2776 1102 2777 1100 2778 1098 2779 1097 2781 1095
 2782 1093 2783 1092 2784 1090 2785 1089 2787 1087 2788 1085 2789 1084 2790 1082
 2792 1081 2793 1079 2794 1077 2795 1076 2796 1074 2798 1073 2799 1071 2800 1070
 2801 1068 2802 1067 2804 1065 2805 1064 2806 1062 2807 1061 2809 1059 2810 1058
 2811 1057 2812 1055 2813 1054 2815 1052 2816 1051 2817 1050 2818 1048 2819 1047
 2821 1046 2822 1044 2823 1043 2824 1042 2826 1040 2827 1039 2828 1038 2829 1037
 2830 1035 2832 1034 2833 1033 2834 1032 2835 1030 2837 1029 2838 1028 2839 1027
 2840 1026 2841 1025 2843 1024 2844 1022 2845 1021 2846 1020 2847 1019 2849 1018
 2850 1017 2851 1016 2852 1015 2854 1014 2855 1013 2856 1012 2857 1011 2858 1010
 2860 1009 2861 1008 2862 1007 2863 1006 2864 1005 2866 1005 2867 1004 2868 1003
 2869 1002 2871 1001 2872 1000 2873 1000 2874 999 2875 998 2877 997 2878 996
 2879 996 2880 995 2882 994 2883 993 2884 993 101 rps
 2884 993 2885 992 2886 991 2888 991 2889 990 2890 989 2891 989 2892 988 2894 988
 2895 987 2896 986 2897 986 2899 985 2900 985 2901 984 2902 983 2903 983
 2905 982 2906 982 2907 981 2908 981 2910 980 2911 980 2912 979 2913 979
 2914 978 2916 978 2917 977 2918 977 2919 977 2920 976 2922 976 2923 975
 2924 975 2925 975 2927 974 2928 974 2929 973 2930 973 2931 973 2933 972
 2934 972 2935 972 2936 971 2937 971 2939 971 2940 970 2941 970 2942 970
 2944 969 2945 969 2946 969 2947 968 2948 968 2950 968 2951 968 2952 967
 2953 967 2955 967 2956 967 2957 966 2958 966 2959 966 2961 966 2962 965
 2963 965 2964 965 2965 965 2967 964 2968 964 2969 964 2970 964 2972 964
 2973 963 2974 963 2975 963 2976 963 2978 963 2979 962 2980 962 2981 962
 2982 962 2984 962 2985 961 2986 961 2987 961 2989 961 2990 961 2991 961
 2992 960 2993 960 2995 960 2996 960 2997 960 2998 959 3000 959 3001 959
 3002 959 97 rps
 2812 1130 2814 1127 2816 1124 2818 1121 2819 1118 2821 1115 2823 1112 2825 1109 2827 1106
 2829 1103 2831 1100 2833 1097 2835 1094 2837 1092 2839 1089 2841 1086 2842 1083
 2844 1081 2846 1078 2848 1075 2850 1073 2852 1070 2854 1068 2856 1065 2858 1063
 2860 1060 2862 1058 2864 1056 2866 1053 2867 1051 2869 1049 2871 1047 2873 1044
 2875 1042 2877 1040 2879 1038 2881 1036 2883 1034 2885 1032 2887 1030 2889 1028
 2891 1026 2892 1024 2894 1022 2896 1020 2898 1018 2900 1017 2902 1015 2904 1013
 2906 1011 2908 1010 2910 1008 2912 1006 2914 1005 2916 1003 2917 1002 2919 1000
 2921 999 2923 997 2925 996 2927 995 2929 993 2931 992 2933 991 2935 989
 2937 988 2939 987 2941 986 2942 985 2944 984 2946 983 2948 982 2950 980
 2952 980 2954 979 2956 978 2958 977 2960 976 2962 975 2964 974 2965 973
 2967 973 2969 972 2971 971 2973 971 2975 970 2977 969 2979 969 2981 968
 2983 968 2985 967 2987 967 2989 966 2990 966 2992 966 2994 965 2996 965
 2998 965 3000 965 3002 964 99 rps
 2032 225 moveto  (Log) show 

/Times-Roman axumfindfont 45 scalefont setfont
 2133 211 moveto  (10) show 

/Times-Roman axumfindfont 62 scalefont setfont
 2180 225 moveto  ( ) show 

/Times-Italic axumfindfont 62 scalefont setfont
 2195 225 moveto  (T) show 

/Times-Roman axumfindfont 62 scalefont setfont
 2231 225 moveto  ( \(K\)) show 
 1131 1482 moveto  90 rotate (Log) show  -90 rotate

/Times-Roman axumfindfont 45 scalefont setfont
 1145 1583 moveto  90 rotate (10) show  -90 rotate

/Times-Roman axumfindfont 62 scalefont setfont
 1130 1631 moveto  90 rotate ( ) show  -90 rotate

/Symbol findfont 62 scalefont setfont
 1130 1646 moveto  90 rotate (k) show  -90 rotate

/Times-Roman axumfindfont 62 scalefont setfont
 1130 1681 moveto  90 rotate ( \(cm) show  -90 rotate

/Times-Roman axumfindfont 45 scalefont setfont
 1106 1795 moveto  90 rotate (2) show  -90 rotate

/Times-Roman axumfindfont 62 scalefont setfont
 1130 1818 moveto  90 rotate ( g) show  -90 rotate

/Symbol findfont 45 scalefont setfont
 1105 1866 moveto  90 rotate (-) show  -90 rotate

/Times-Roman axumfindfont 45 scalefont setfont
 1105 1892 moveto  90 rotate (1) show  -90 rotate

/Times-Roman axumfindfont 62 scalefont setfont
 1129 1915 moveto  90 rotate (\)) show  -90 rotate

/Symbol findfont 62 scalefont setfont
 1610 1069 moveto  (-) show 

/Times-Roman axumfindfont 62 scalefont setfont
 1644 1069 moveto  (10) show 

/Symbol findfont 62 scalefont setfont
 1883 1078 moveto  (-) show 

/Times-Roman axumfindfont 62 scalefont setfont
 1917 1078 moveto  (8) show 

/Symbol findfont 62 scalefont setfont
 2088 1041 moveto  (-) show 

/Times-Roman axumfindfont 62 scalefont setfont
 2122 1041 moveto  (6) show 

/Symbol findfont 62 scalefont setfont
 1642 2839 moveto  (-) show 

/Times-Roman axumfindfont 62 scalefont setfont
 1676 2839 moveto  (4) show 

/Symbol findfont 62 scalefont setfont
 2133 2033 moveto  (-) show 

/Times-Roman axumfindfont 62 scalefont setfont
 2167 2033 moveto  (2) show 
 2402 1769 moveto  (0) show 
 2620 1387 moveto  (2) show 

/Times-Italic axumfindfont 62 scalefont setfont
 2347 2798 moveto  (X) show 

/Times-Roman axumfindfont 62 scalefont setfont
 2386 2798 moveto  (=0.7) show 

/Times-Italic axumfindfont 62 scalefont setfont
 2347 2720 moveto  (Z) show 

/Times-Roman axumfindfont 62 scalefont setfont
 2382 2720 moveto  (=0.02) show 
 grestore showpage
%Trailer
%EOF
