%!PS-Adobe-2.0 EPSF-1.2
%%BoundingBox: 0 0 468 360
%%%%DocumentFonts: /Helvetica
%%Title: Axum PostScript file
%%Creator: TriMetrix, Inc.
%%Pages: 1
%%EndComments
% Copyright 1988-1991 by TriMetrix, Inc. All rights reserved.
/downdict 4 dict def
/sdown
 {downdict begin
  /thestring exch def
  /lineskip exch def
  thestring
   {
    /charcode exch def
    /thechar ( ) dup 0 charcode put def
    0 lineskip neg rmoveto
    gsave
     thechar stringwidth pop 2 div neg 0 rmoveto
     thechar show
    grestore
   } forall
   end
  } def

/updict 4 dict def
/sup
 {updict begin
  /thestring exch def
  /lineskip exch def
  thestring 
   {
    /charcode exch def
    /thechar ( ) dup 0 charcode put def
    0 lineskip rmoveto
    gsave
     thechar stringwidth pop 2 div neg 0 rmoveto
     thechar show
    grestore
   } forall
   end
  } def

/leftdict 4 dict def
/sleft
 {leftdict begin
  /thestring exch def
  thestring
   {
    /charcode exch def
    /thechar ( ) dup 0 charcode put def
    gsave
     thechar stringwidth pop neg 0 rmoveto
     thechar show
    grestore
   } forall

   thechar stringwidth pop neg 0 rmoveto
   end
  } def

/path{newpath moveto{lineto}repeat} bind def 
/cnp{newpath moveto{lineto}repeat closepath} bind def
/clp{moveto{lineto}repeat closepath} bind def
/rps{ 3 1 roll path stroke} bind def
/rcs{ 3 1 roll clp stroke} bind def
/setF { currentscreen 4 -2 roll pop 3 1 roll setscreen} bind def
% required due to WinWord 2.0 bug:
/II { } def

/reencodedict 5 dict def
/reencode
{
   reencodedict begin
   /newencoding exch def
   /newfontname exch def
   /basefontname exch def

   /basefontdict basefontname findfont def
   /newfont basefontdict maxlength dict def

   basefontdict
   {
      exch dup dup /FID ne exch /Encoding ne and
      { exch newfont 3 1 roll put }
      { pop pop }
      ifelse
   }
   forall

   newfont /FontName newfontname put
   newfont /Encoding newencoding put
   newfontname newfont definefont pop
   end
}
def

/axumencoding
[
/.notdef        %   0
/.notdef        %   1
/.notdef        %   2
/.notdef        %   3
/.notdef        %   4
/.notdef        %   5
/.notdef        %   6
/.notdef        %   7
/.notdef        %   8
/.notdef        %   9
/.notdef        %  10
/.notdef        %  11
/.notdef        %  12
/.notdef        %  13
/.notdef        %  14
/.notdef        %  15
/.notdef        %  16
/.notdef        %  17
/.notdef        %  18
/.notdef        %  19
/.notdef        %  20
/.notdef        %  21
/.notdef        %  22
/.notdef        %  23
/.notdef        %  24
/.notdef        %  25
/.notdef        %  26
/.notdef        %  27
/.notdef        %  28
/.notdef        %  29
/.notdef        %  30
/.notdef        %  31
/space          %  32
/exclam         %  33
/quotedbl       %  34
/numbersign     %  35
/dollar         %  36
/percent        %  37
/ampersand      %  38
/quoteright     %  39
/parenleft      %  40
/parenright     %  41
/asterisk       %  42
/plus           %  43
/comma          %  44
/hyphen         %  45
/period         %  46
/slash          %  47
/zero           %  48
/one            %  49
/two            %  50
/three          %  51
/four           %  52
/five           %  53
/six            %  54
/seven          %  55
/eight          %  56
/nine           %  57
/colon          %  58
/semicolon      %  59
/less           %  60
/equal          %  61
/greater        %  62
/question       %  63
/at             %  64
/A              %  65
/B              %  66
/C              %  67
/D              %  68
/E              %  69
/F              %  70
/G              %  71
/H              %  72
/I              %  73
/J              %  74
/K              %  75
/L              %  76
/M              %  77
/N              %  78
/O              %  79
/P              %  80
/Q              %  81
/R              %  82
/S              %  83
/T              %  84
/U              %  85
/V              %  86
/W              %  87
/X              %  88
/Y              %  89
/Z              %  90
/bracketleft    %  91
/backslash      %  92
/bracketright   %  93
/asciicircum    %  94
/underscore     %  95
/quoteleft      %  96
/a              %  97
/b              %  98
/c              %  99
/d              % 100
/e              % 101
/f              % 102
/g              % 103
/h              % 104
/i              % 105
/j              % 106
/k              % 107
/l              % 108
/m              % 109
/n              % 110
/o              % 111
/p              % 112
/q              % 113
/r              % 114
/s              % 115
/t              % 116
/u              % 117
/v              % 118
/w              % 119
/x              % 120
/y              % 121
/z              % 122
/braceleft      % 123
/bar            % 124
/braceright     % 125
/asciitilde     % 126
/.notdef        % 127
/Ccedilla       % 128
/udieresis      % 129
/eacute         % 130
/acircumflex    % 131
/adieresis      % 132
/agrave         % 133
/aring          % 134
/ccedilla       % 135
/ecircumflex    % 136
/edieresis      % 137
/egrave         % 138
/idieresis      % 139
/icircumflex    % 140
/igrave         % 141
/Adieresis      % 142
/Aring          % 143
/Eacute         % 144
/ae             % 145
/AE             % 146
/ocircumflex    % 147
/odieresis      % 148
/ograve         % 149
/ucircumflex    % 150
/ugrave         % 151
/ydieresis      % 152
/Odieresis      % 153
/Udieresis      % 154
/cent           % 155
/sterling       % 156
/yen            % 157
/currency       % 158
/florin         % 159
/aacute         % 160
/iacute         % 161
/oacute         % 162
/uacute         % 163
/ntilde         % 164
/Ntilde         % 165
/ordfeminine    % 166
/ordmasculine   % 167
/questiondown   % 168
/quotedblleft   % 169
/quotedblright  % 170
/Aacute         % 171
/Acircumflex    % 172
/exclamdown     % 173
/Egrave         % 174
/Ecircumflex    % 175
/atilde         % 176
/otilde         % 177
/Edieresis      % 178
/Igrave         % 179
/oe             % 180
/OE             % 181
/Agrave         % 182
/Atilde         % 183
/Otilde         % 184
/section        % 185
/Iacute         % 186
/Icircumflex    % 187
/Idieresis      % 188
/Ograve         % 189
/Oacute         % 190
/Ocircumflex    % 191
/Ugrave         % 192
/Uacute         % 193
/Ucircumflex    % 194
/Ydieresis      % 195
/germandbls     % 196
/guillemotleft  % 197
/guillemotright % 198
/bullet         % 199
/.notdef        % 200
/.notdef        % 201
/.notdef        % 202
/.notdef        % 203
/.notdef        % 204
/.notdef        % 205
/.notdef        % 206
/.notdef        % 207
/.notdef        % 208
/.notdef        % 209
/.notdef        % 210
/.notdef        % 211
/.notdef        % 212
/.notdef        % 213
/.notdef        % 214
/.notdef        % 215
/.notdef        % 216
/.notdef        % 217
/.notdef        % 218
/.notdef        % 219
/.notdef        % 220
/.notdef        % 221
/.notdef        % 222
/.notdef        % 223
/.notdef        % 224
/.notdef        % 225
/.notdef        % 226
/.notdef        % 227
/.notdef        % 228
/.notdef        % 229
/.notdef        % 230
/.notdef        % 231
/.notdef        % 232
/.notdef        % 233
/.notdef        % 234
/.notdef        % 235
/.notdef        % 236
/.notdef        % 237
/.notdef        % 238
/.notdef        % 239
/.notdef        % 240
/.notdef        % 241
/.notdef        % 242
/.notdef        % 243
/.notdef        % 244
/.notdef        % 245
/.notdef        % 246
/.notdef        % 247
/.notdef        % 248
/.notdef        % 249
/.notdef        % 250
/.notdef        % 251
/.notdef        % 252
/.notdef        % 253
/.notdef        % 254
/.notdef        % 255
] 
def

/axumfindfont
{
   /axumfont axumencoding reencode
   /axumfont findfont
}
def


/MainFont /Helvetica axumfindfont 98 scalefont def
MainFont setfont
1 setlinejoin 0 setlinecap 0 setgray
 gsave 72 630 div dup scale
 0.0 setgray [] 0 setdash

1 setlinewidth
 727 476 3457 476 1 rps
 727 476 3457 476 1 rps
 723 2864 3461 2864 1 rps
 726 475 3458 475 1 rps
 726 475 3457 475 1 rps
 723 2865 3461 2865 1 rps
 725 474 3459 474 1 rps
 725 474 3457 474 1 rps
 723 2866 3461 2866 1 rps
 724 473 3460 473 1 rps
 724 473 3457 473 1 rps
 723 2867 3461 2867 1 rps
 723 472 3461 472 1 rps
 723 472 3457 472 1 rps
 723 2868 3461 2868 1 rps
 727 476 727 512 1 rps
 727 2864 727 2828 1 rps
 863 476 863 494 1 rps
 863 2864 863 2846 1 rps
 1000 476 1000 512 1 rps
 1000 2864 1000 2828 1 rps
 1136 476 1136 494 1 rps
 1136 2864 1136 2846 1 rps
 1273 476 1273 512 1 rps
 1273 2864 1273 2828 1 rps
 1409 476 1409 494 1 rps
 1409 2864 1409 2846 1 rps
 1546 476 1546 512 1 rps
 1546 2864 1546 2828 1 rps
 1682 476 1682 494 1 rps
 1682 2864 1682 2846 1 rps
 1819 476 1819 512 1 rps
 1819 2864 1819 2828 1 rps
 1955 476 1955 494 1 rps
 1955 2864 1955 2846 1 rps
 2092 476 2092 512 1 rps
 2092 2864 2092 2828 1 rps
 2228 476 2228 494 1 rps
 2228 2864 2228 2846 1 rps
 2365 476 2365 512 1 rps
 2365 2864 2365 2828 1 rps
 2501 476 2501 494 1 rps
 2501 2864 2501 2846 1 rps
 2638 476 2638 512 1 rps
 2638 2864 2638 2828 1 rps
 2774 476 2774 494 1 rps
 2774 2864 2774 2846 1 rps
 2911 476 2911 512 1 rps
 2911 2864 2911 2828 1 rps
 3047 476 3047 494 1 rps
 3047 2864 3047 2846 1 rps
 3184 476 3184 512 1 rps
 3184 2864 3184 2828 1 rps
 3320 476 3320 494 1 rps
 3320 2864 3320 2846 1 rps
 3457 476 3457 512 1 rps
 3457 2864 3457 2828 1 rps

/Times-Roman axumfindfont 124 scalefont setfont
 649 341 moveto  (0.0) show 
 922 341 moveto  (0.1) show 
 1195 341 moveto  (0.2) show 
 1468 341 moveto  (0.3) show 
 1741 341 moveto  (0.4) show 
 2014 341 moveto  (0.5) show 
 2287 341 moveto  (0.6) show 
 2560 341 moveto  (0.7) show 
 2833 341 moveto  (0.8) show 
 3106 341 moveto  (0.9) show 
 3379 341 moveto  (1.0) show 
 727 476 727 2864 1 rps
 726 475 726 2865 1 rps
 725 474 725 2866 1 rps
 724 473 724 2867 1 rps
 723 472 723 2868 1 rps
 3457 476 3457 2864 1 rps
 3458 475 3458 2865 1 rps
 3459 474 3459 2866 1 rps
 3460 473 3460 2867 1 rps
 3461 472 3461 2868 1 rps
 727 476 763 476 1 rps
 727 874 745 874 1 rps
 727 1272 763 1272 1 rps
 727 1670 745 1670 1 rps
 727 2068 763 2068 1 rps
 727 2466 745 2466 1 rps
 727 2864 763 2864 1 rps
 453 436 moveto  (0.00) show 
 453 1232 moveto  (0.05) show 
 453 2028 moveto  (0.10) show 
 453 2824 moveto  (0.15) show 
 727 476 754 1056 782 1331 809 1535 836 1701 863 1841 891 1961 918 2066 945 2158
 973 2240 1000 2314 1027 2380 1055 2439 1082 2492 1109 2540 1136 2582 1164 2621
 1191 2655 1218 2686 1246 2713 1273 2737 1300 2757 1328 2775 1355 2791 1382 2803
 1409 2814 1437 2822 1464 2828 1491 2832 1519 2834 1546 2834 1573 2833 1601 2830
 1628 2825 1655 2818 1682 2811 1710 2801 1737 2791 1764 2779 1792 2765 1819 2751
 1846 2735 1874 2718 1901 2700 1928 2681 1955 2661 1983 2639 2010 2617 2037 2594
 2065 2570 2092 2545 2119 2519 2147 2492 2174 2465 2201 2436 2228 2407 2256 2377
 2283 2346 2310 2314 2338 2282 2365 2249 2392 2215 2420 2181 2447 2146 2474 2110
 2501 2074 2529 2037 2556 1999 2583 1961 2611 1922 2638 1883 2665 1843 2693 1802
 2720 1761 2747 1720 2774 1678 2802 1635 2829 1592 2856 1548 2884 1504 2911 1459
 2938 1414 2966 1369 2993 1323 3020 1276 3047 1229 3075 1182 3102 1134 3129 1086
 3157 1037 3184 988 3211 939 3239 889 3266 839 3293 788 3320 737 3348 685
 3375 634 3402 581 3430 529 3457 476 100 rps
 3457 476 3457 2864 1 rps
 3458 475 3458 2865 1 rps
 3459 474 3459 2866 1 rps
 3460 473 3460 2867 1 rps
 3461 472 3461 2868 1 rps
 3457 476 3421 476 1 rps
 3457 874 3439 874 1 rps
 3457 1272 3421 1272 1 rps
 3457 1670 3439 1670 1 rps
 3457 2068 3421 2068 1 rps
 3457 2466 3439 2466 1 rps
 3457 2864 3421 2864 1 rps
 3507 436 moveto  (0) show 
 3507 1232 moveto  (300) show 
 3507 2028 moveto  (600) show 
 3507 2824 moveto  (900) show 

/Times-Italic axumfindfont 128 scalefont setfont
 2015 159 moveto  (t) show 

/Times-Roman axumfindfont 124 scalefont setfont
 2050 159 moveto  (/) show 

/Times-Italic axumfindfont 128 scalefont setfont
 2085 159 moveto  (t) show 

/Times-Roman axumfindfont 95 scalefont setfont
 2121 131 moveto  (0) show 

/Times-Italic axumfindfont 128 scalefont setfont
 346 1486 moveto  90 rotate (dH) show  -90 rotate

/Times-Roman axumfindfont 95 scalefont setfont
 374 1642 moveto  90 rotate (0) show  -90 rotate

/Times-Roman axumfindfont 124 scalefont setfont
 345 1689 moveto  90 rotate (/2) show  -90 rotate

/Times-Italic axumfindfont 128 scalefont setfont
 345 1787 moveto  90 rotate (c) show  -90 rotate

/Times-Italic axumfindfont 141 scalefont setfont
 3882 1176 moveto  90 rotate (d) show  -90 rotate

/Times-Roman axumfindfont 137 scalefont setfont
 3882 1246 moveto  90 rotate ( \(Mpc\) for ) show  -90 rotate

/Times-Italic axumfindfont 141 scalefont setfont
 3882 1865 moveto  90 rotate (h) show  -90 rotate

/Times-Roman axumfindfont 137 scalefont setfont
 3882 1936 moveto  90 rotate ( = 1) show  -90 rotate
 grestore showpage
%Trailer
%EOF
