%!PS-Adobe-2.0 EPSF-1.2
%%Creator: MATLAB, The Mathworks, Inc.
%%Title: plot_le.eps
%%CreationDate: 10/27/2006  19:20:38
%%DocumentNeededFonts: Helvetica
%%DocumentProcessColors: Cyan Magenta Yellow Black
%%Pages: 1
%%BoundingBox:    41   192   549   589
%%EndComments

%%BeginProlog
% MathWorks dictionary
/MathWorks 160 dict begin
% definition operators
/bdef {bind def} bind def
/ldef {load def} bind def
/xdef {exch def} bdef
/xstore {exch store} bdef
% operator abbreviations
/c  /clip ldef
/cc /concat ldef
/cp /closepath ldef
/gr /grestore ldef
/gs /gsave ldef
/mt /moveto ldef
/np /newpath ldef
/cm /currentmatrix ldef
/sm /setmatrix ldef
/rm /rmoveto ldef
/rl /rlineto ldef
/s {show newpath} bdef
/sc {setcmykcolor} bdef
/sr /setrgbcolor ldef
/sg /setgray ldef
/w /setlinewidth ldef
/j /setlinejoin ldef
/cap /setlinecap ldef
/rc {rectclip} bdef
/rf {rectfill} bdef
% page state control
/pgsv () def
/bpage {/pgsv save def} bdef
/epage {pgsv restore} bdef
/bplot /gsave ldef
/eplot {stroke grestore} bdef
% orientation switch
/portraitMode 0 def /landscapeMode 1 def /rotateMode 2 def
% coordinate system mappings
/dpi2point 0 def
% font control
/FontSize 0 def
/FMS {/FontSize xstore findfont [FontSize 0 0 FontSize neg 0 0]
  makefont setfont} bdef
/ISOLatin1Encoding where {pop /WindowsLatin1Encoding 256 array bdef
ISOLatin1Encoding WindowsLatin1Encoding copy pop
/.notdef/.notdef/quotesinglbase/florin/quotedblbase/ellipsis/dagger
/daggerdbl/circumflex/perthousand/Scaron/guilsinglleft/OE/.notdef/.notdef
/.notdef/.notdef/quoteleft/quoteright/quotedblleft/quotedblright/bullet
/endash/emdash/tilde/trademark/scaron/guilsinglright/oe/.notdef/.notdef
/Ydieresis WindowsLatin1Encoding 128 32 getinterval astore pop}
{/WindowsLatin1Encoding StandardEncoding bdef} ifelse
/reencode {exch dup where {pop load} {pop StandardEncoding} ifelse
  exch dup 3 1 roll findfont dup length dict begin
  { 1 index /FID ne {def}{pop pop} ifelse } forall
  /Encoding exch def currentdict end definefont pop} bdef
/isroman {findfont /CharStrings get /Agrave known} bdef
/FMSR {3 1 roll 1 index dup isroman {reencode} {pop pop} ifelse
  exch FMS} bdef
/csm {1 dpi2point div -1 dpi2point div scale neg translate
 dup landscapeMode eq {pop -90 rotate}
  {rotateMode eq {90 rotate} if} ifelse} bdef
% line types: solid, dotted, dashed, dotdash
/SO { [] 0 setdash } bdef
/DO { [.5 dpi2point mul 4 dpi2point mul] 0 setdash } bdef
/DA { [6 dpi2point mul] 0 setdash } bdef
/DD { [.5 dpi2point mul 4 dpi2point mul 6 dpi2point mul 4
  dpi2point mul] 0 setdash } bdef
% macros for lines and objects
/L {lineto stroke} bdef
/MP {3 1 roll moveto 1 sub {rlineto} repeat} bdef
/AP {{rlineto} repeat} bdef
/PDlw -1 def
/W {/PDlw currentlinewidth def setlinewidth} def
/PP {closepath eofill} bdef
/DP {closepath stroke} bdef
/MR {4 -2 roll moveto dup  0 exch rlineto exch 0 rlineto
  neg 0 exch rlineto closepath} bdef
/FR {MR stroke} bdef
/PR {MR fill} bdef
/L1i {{currentfile picstr readhexstring pop} image} bdef
/tMatrix matrix def
/MakeOval {newpath tMatrix currentmatrix pop translate scale
0 0 1 0 360 arc tMatrix setmatrix} bdef
/FO {MakeOval stroke} bdef
/PO {MakeOval fill} bdef
/PD {currentlinewidth 2 div 0 360 arc fill
   PDlw -1 eq not {PDlw w /PDlw -1 def} if} def
/FA {newpath tMatrix currentmatrix pop translate scale
  0 0 1 5 -2 roll arc tMatrix setmatrix stroke} bdef
/PA {newpath tMatrix currentmatrix pop	translate 0 0 moveto scale
  0 0 1 5 -2 roll arc closepath tMatrix setmatrix fill} bdef
/FAn {newpath tMatrix currentmatrix pop translate scale
  0 0 1 5 -2 roll arcn tMatrix setmatrix stroke} bdef
/PAn {newpath tMatrix currentmatrix pop translate 0 0 moveto scale
  0 0 1 5 -2 roll arcn closepath tMatrix setmatrix fill} bdef
/vradius 0 def /hradius 0 def /lry 0 def
/lrx 0 def /uly 0 def /ulx 0 def /rad 0 def
/MRR {/vradius xdef /hradius xdef /lry xdef /lrx xdef /uly xdef
  /ulx xdef newpath tMatrix currentmatrix pop ulx hradius add uly
  vradius add translate hradius vradius scale 0 0 1 180 270 arc 
  tMatrix setmatrix lrx hradius sub uly vradius add translate
  hradius vradius scale 0 0 1 270 360 arc tMatrix setmatrix
  lrx hradius sub lry vradius sub translate hradius vradius scale
  0 0 1 0 90 arc tMatrix setmatrix ulx hradius add lry vradius sub
  translate hradius vradius scale 0 0 1 90 180 arc tMatrix setmatrix
  closepath} bdef
/FRR {MRR stroke } bdef
/PRR {MRR fill } bdef
/MlrRR {/lry xdef /lrx xdef /uly xdef /ulx xdef /rad lry uly sub 2 div def
  newpath tMatrix currentmatrix pop ulx rad add uly rad add translate
  rad rad scale 0 0 1 90 270 arc tMatrix setmatrix lrx rad sub lry rad
  sub translate rad rad scale 0 0 1 270 90 arc tMatrix setmatrix
  closepath} bdef
/FlrRR {MlrRR stroke } bdef
/PlrRR {MlrRR fill } bdef
/MtbRR {/lry xdef /lrx xdef /uly xdef /ulx xdef /rad lrx ulx sub 2 div def
  newpath tMatrix currentmatrix pop ulx rad add uly rad add translate
  rad rad scale 0 0 1 180 360 arc tMatrix setmatrix lrx rad sub lry rad
  sub translate rad rad scale 0 0 1 0 180 arc tMatrix setmatrix
  closepath} bdef
/FtbRR {MtbRR stroke } bdef
/PtbRR {MtbRR fill } bdef
/stri 6 array def /dtri 6 array def
/smat 6 array def /dmat 6 array def
/tmat1 6 array def /tmat2 6 array def /dif 3 array def
/asub {/ind2 exch def /ind1 exch def dup dup
  ind1 get exch ind2 get sub exch } bdef
/tri_to_matrix {
  2 0 asub 3 1 asub 4 0 asub 5 1 asub
  dup 0 get exch 1 get 7 -1 roll astore } bdef
/compute_transform {
  dmat dtri tri_to_matrix tmat1 invertmatrix 
  smat stri tri_to_matrix tmat2 concatmatrix } bdef
/ds {stri astore pop} bdef
/dt {dtri astore pop} bdef
/db {2 copy /cols xdef /rows xdef mul dup string
  currentfile exch readhexstring pop
  /bmap xdef pop pop} bdef
/it {gs np dtri aload pop moveto lineto lineto cp c
  cols rows 8 compute_transform 
  {bmap} image gr}bdef
/il {newpath moveto lineto stroke}bdef
currentdict end def
%%EndProlog

%%BeginSetup
MathWorks begin

0 cap

end
%%EndSetup

%%Page: 1 1
%%BeginPageSetup
%%PageBoundingBox:    41   192   549   589
MathWorks begin
bpage
%%EndPageSetup

%%BeginObject: obj1
bplot

/dpi2point 12 def
portraitMode 0216 7344 csm

  287   274  6090  4755 MR c np
85 dict begin %Colortable dictionary
/c0 { 0 0 0 sr} bdef
/c1 { 1 1 1 sr} bdef
/c2 { 1 0 0 sr} bdef
/c3 { 0 1 0 sr} bdef
/c4 { 0 0 1 sr} bdef
/c5 { 1 1 0 sr} bdef
/c6 { 1 0 1 sr} bdef
/c7 { 0 1 1 sr} bdef
c0
1 j
1 sg
   0    0 6919 5187 PR
6 w
0 4227 5362 0 0 -4227 899 4616 4 MP
PP
-5362 0 0 4227 5362 0 0 -4227 899 4616 5 MP stroke
4 w
DO
0 sg
 899 4616 mt  899  389 L
 899  389 mt  899  389 L
1792 4616 mt 1792  389 L
1792  389 mt 1792  389 L
2686 4616 mt 2686  389 L
2686  389 mt 2686  389 L
3580 4616 mt 3580  389 L
3580  389 mt 3580  389 L
4473 4616 mt 4473  389 L
4473  389 mt 4473  389 L
5367 4616 mt 5367  389 L
5367  389 mt 5367  389 L
6261 4616 mt 6261  389 L
6261  389 mt 6261  389 L
 899 4616 mt 6261 4616 L
6261 4616 mt 6261 4616 L
 899 4193 mt 6261 4193 L
6261 4193 mt 6261 4193 L
 899 3770 mt 6261 3770 L
6261 3770 mt 6261 3770 L
 899 3347 mt 6261 3347 L
6261 3347 mt 6261 3347 L
 899 2925 mt 6261 2925 L
6261 2925 mt 6261 2925 L
 899 2502 mt 6261 2502 L
6261 2502 mt 6261 2502 L
 899 2079 mt 6261 2079 L
6261 2079 mt 6261 2079 L
 899 1657 mt 6261 1657 L
6261 1657 mt 6261 1657 L
 899 1234 mt 6261 1234 L
6261 1234 mt 6261 1234 L
 899  811 mt 6261  811 L
6261  811 mt 6261  811 L
 899  389 mt 6261  389 L
6261  389 mt 6261  389 L
SO
6 w
 899  389 mt 6261  389 L
 899 4616 mt 6261 4616 L
6261 4616 mt 6261  389 L
 899 4616 mt  899  389 L
 899 4616 mt 6261 4616 L
 899 4616 mt  899  389 L
 899 4616 mt  899 4562 L
 899  389 mt  899  442 L
%%IncludeResource: font Helvetica
/Helvetica /WindowsLatin1Encoding 120 FMSR

 866 4761 mt 
(0) s
1792 4616 mt 1792 4562 L
1792  389 mt 1792  442 L
1759 4761 mt 
(5) s
2686 4616 mt 2686 4562 L
2686  389 mt 2686  442 L
2620 4761 mt 
(10) s
3580 4616 mt 3580 4562 L
3580  389 mt 3580  442 L
3514 4761 mt 
(15) s
4473 4616 mt 4473 4562 L
4473  389 mt 4473  442 L
4407 4761 mt 
(20) s
5367 4616 mt 5367 4562 L
5367  389 mt 5367  442 L
5301 4761 mt 
(25) s
6261 4616 mt 6261 4562 L
6261  389 mt 6261  442 L
6195 4761 mt 
(30) s
 899 4616 mt  952 4616 L
6261 4616 mt 6207 4616 L
 798 4660 mt 
(0) s
 899 4193 mt  952 4193 L
6261 4193 mt 6207 4193 L
 698 4237 mt 
(0.1) s
 899 3770 mt  952 3770 L
6261 3770 mt 6207 3770 L
 698 3814 mt 
(0.2) s
 899 3347 mt  952 3347 L
6261 3347 mt 6207 3347 L
 698 3391 mt 
(0.3) s
 899 2925 mt  952 2925 L
6261 2925 mt 6207 2925 L
 698 2969 mt 
(0.4) s
 899 2502 mt  952 2502 L
6261 2502 mt 6207 2502 L
 698 2546 mt 
(0.5) s
 899 2079 mt  952 2079 L
6261 2079 mt 6207 2079 L
 698 2123 mt 
(0.6) s
 899 1657 mt  952 1657 L
6261 1657 mt 6207 1657 L
 698 1701 mt 
(0.7) s
 899 1234 mt  952 1234 L
6261 1234 mt 6207 1234 L
 698 1278 mt 
(0.8) s
 899  811 mt  952  811 L
6261  811 mt 6207  811 L
 698  855 mt 
(0.9) s
 899  389 mt  952  389 L
6261  389 mt 6207  389 L
 798  433 mt 
(1) s
 899  389 mt 6261  389 L
 899 4616 mt 6261 4616 L
6261 4616 mt 6261  389 L
 899 4616 mt  899  389 L
gs 899 389 5363 4228 MR c np
18 0 18 0 18 0 18 0 18 0 18 0 17 0 18 0 
18 0 18 0 18 0 18 0 18 0 18 0 17 0 18 0 
18 0 18 0 18 0 18 0 18 0 18 0 17 0 18 0 
18 0 18 0 18 0 18 0 18 0 18 0 17 0 18 0 
18 0 18 0 18 0 18 0 18 0 18 0 17 0 18 0 
18 0 18 0 18 0 18 0 18 0 18 0 17 0 18 0 
18 0 18 0 18 0 18 0 18 0 18 0 17 0 18 0 
18 0 18 0 18 0 18 0 18 0 18 0 17 0 18 0 
18 0 18 0 18 0 18 0 18 0 18 0 17 0 18 0 
18 0 18 0 18 0 18 0 18 0 17 0 18 0 18 0 
18 0 18 0 18 0 18 0 18 0 17 0 18 0 18 0 
18 0 18 0 18 0 18 0 18 0 17 0 18 0 18 0 
18 0 18 0 18 0 4473 4616 100 MP stroke
18 0 18 0 17 0 18 0 18 0 18 0 18 0 18 0 
18 0 18 0 17 0 18 0 18 0 18 0 18 0 18 0 
18 0 18 0 17 0 18 0 18 0 18 0 18 0 18 0 
18 0 18 0 17 0 18 0 18 0 18 0 18 0 18 0 
18 0 18 0 17 0 18 0 18 0 18 0 18 0 18 0 
18 0 18 0 17 0 18 0 18 0 18 0 18 0 18 0 
18 0 17 0 18 0 18 0 18 0 18 0 18 0 18 0 
18 0 17 0 18 0 18 0 18 0 18 0 18 0 18 0 
18 0 17 0 18 0 18 0 18 0 18 0 18 0 18 0 
18 0 17 0 18 0 18 0 18 0 18 0 18 0 18 0 
18 0 17 0 18 0 18 0 18 0 18 0 18 0 18 0 
18 0 17 0 18 0 18 0 18 0 18 0 18 0 18 0 
18 0 17 0 18 0 2704 4616 100 MP stroke
18 0 18 0 18 0 18 0 18 0 18 0 17 0 18 0 
18 0 18 0 18 0 18 0 18 0 18 0 17 0 18 0 
18 0 18 0 18 0 18 0 18 0 18 0 17 0 18 0 
18 0 18 0 18 0 18 0 18 0 17 0 18 0 18 0 
18 0 18 0 18 0 18 0 18 0 17 0 18 0 18 0 
18 0 18 0 18 0 18 0 18 0 17 0 18 0 18 0 
18 0 18 0 18 0 18 0 18 0 17 0 18 0 18 0 
18 0 18 0 18 0 18 0 18 0 17 0 18 0 18 0 
18 0 18 0 18 0 18 0 18 0 17 0 18 0 18 0 
18 0 18 0 18 0 18 0 18 170 17 331 18 317 18 303 
18 289 18 275 18 260 18 247 18 232 17 219 18 204 18 190 
18 176 18 162 18 148 18 134 18 120 17 106 18 91 18 78 
18 63 18 49 18 35 934 417 100 MP stroke
18 21 17 7 899 389 3 MP stroke
18 0 18 0 18 0 18 0 18 0 18 0 17 0 18 0 
18 0 18 0 18 0 18 0 18 0 18 0 17 0 18 0 
18 0 18 0 18 0 18 0 18 0 18 0 17 0 18 0 
18 0 18 0 18 0 18 0 18 0 18 0 17 0 18 0 
18 0 18 0 18 0 18 0 18 0 18 0 17 0 18 0 
18 0 18 0 18 0 18 0 18 0 18 0 17 0 18 0 
18 0 18 0 18 0 18 0 18 0 18 0 17 0 18 0 
18 0 18 0 18 0 18 0 18 0 18 0 17 0 18 0 
18 0 18 0 18 0 18 0 18 0 18 0 17 0 18 0 
18 0 18 0 18 0 18 0 18 0 17 0 18 0 18 0 
18 0 18 0 18 0 18 0 18 0 17 0 18 0 18 0 
18 0 18 0 18 0 18 0 18 0 17 0 18 0 18 0 
18 0 18 0 18 0 4473 4616 100 MP stroke
18 0 18 0 17 0 18 0 18 0 18 0 18 0 18 0 
18 0 18 0 17 0 18 0 18 0 18 0 18 0 18 0 
18 0 18 0 17 0 18 0 18 0 18 0 18 0 18 0 
18 0 18 0 17 0 18 0 18 0 18 0 18 0 18 0 
18 0 18 0 17 0 18 0 18 0 18 0 18 0 18 0 
18 0 18 0 17 0 18 0 18 0 18 0 18 0 18 0 
18 0 17 0 18 0 18 0 18 0 18 0 18 0 18 0 
18 0 17 0 18 0 18 0 18 0 18 0 18 0 18 0 
18 0 17 0 18 0 18 0 18 0 18 0 18 0 18 0 
18 0 17 0 18 0 18 0 18 0 18 0 18 0 18 0 
18 0 17 0 18 0 18 0 18 0 18 0 18 0 18 0 
18 0 17 0 18 0 18 0 18 0 18 0 18 0 18 0 
18 0 17 0 18 0 2704 4616 100 MP stroke
18 0 18 0 18 0 18 0 18 0 18 0 17 0 18 0 
18 0 18 0 18 0 18 0 18 0 18 0 17 0 18 0 
18 0 18 0 18 0 18 0 18 0 18 0 17 0 18 0 
18 0 18 0 18 0 18 0 18 0 17 0 18 0 18 0 
18 0 18 0 18 0 18 0 18 0 17 0 18 0 18 0 
18 0 18 0 18 0 18 0 18 0 17 0 18 0 18 0 
18 0 18 0 18 0 18 0 18 0 17 0 18 0 18 0 
18 0 18 0 18 0 18 0 18 0 17 0 18 0 18 0 
18 0 18 0 18 0 18 0 18 0 17 57 18 142 18 150 
18 157 18 164 18 169 18 173 18 178 17 181 18 183 18 184 
18 184 18 184 18 182 18 178 18 175 17 171 18 164 18 158 
18 150 18 141 18 133 18 122 18 111 17 100 18 88 18 75 
18 62 18 49 18 35 934 416 100 MP stroke
18 20 17 7 899 389 3 MP stroke
18 0 18 0 18 0 18 0 18 0 18 0 17 0 18 0 
18 0 18 0 18 0 18 0 18 0 18 0 17 0 18 0 
18 0 18 0 18 0 18 0 18 0 18 0 17 0 18 0 
18 0 18 0 18 0 18 0 18 0 18 0 17 0 18 0 
18 0 18 0 18 0 18 0 18 0 18 0 17 0 18 0 
18 0 18 0 18 0 18 0 18 0 18 0 17 0 18 0 
18 0 18 0 18 0 18 0 18 0 18 0 17 0 18 0 
18 0 18 0 18 0 18 0 18 0 18 0 17 0 18 0 
18 0 18 0 18 0 18 0 18 0 18 0 17 0 18 0 
18 0 18 0 18 0 18 0 18 0 17 0 18 0 18 0 
18 0 18 0 18 0 18 0 18 0 17 0 18 0 18 0 
18 0 18 0 18 0 18 0 18 0 17 0 18 0 18 0 
18 0 18 0 18 0 4473 4616 100 MP stroke
18 0 18 0 17 0 18 0 18 0 18 0 18 0 18 0 
18 0 18 0 17 0 18 0 18 0 18 0 18 0 18 0 
18 0 18 0 17 0 18 0 18 0 18 0 18 0 18 0 
18 0 18 0 17 0 18 0 18 0 18 0 18 0 18 0 
18 0 18 0 17 0 18 0 18 0 18 0 18 0 18 0 
18 0 18 0 17 0 18 0 18 0 18 0 18 0 18 0 
18 0 17 0 18 0 18 0 18 0 18 0 18 0 18 0 
18 0 17 0 18 0 18 0 18 0 18 0 18 0 18 0 
18 0 17 0 18 0 18 0 18 0 18 0 18 0 18 0 
18 0 17 0 18 0 18 0 18 0 18 0 18 0 18 0 
18 0 17 0 18 0 18 0 18 0 18 0 18 0 18 0 
18 0 17 0 18 0 18 0 18 0 18 0 18 0 18 0 
18 0 17 0 18 0 2704 4616 100 MP stroke
18 0 18 0 18 0 18 0 18 0 18 0 17 0 18 0 
18 0 18 0 18 0 18 0 18 0 18 0 17 0 18 0 
18 0 18 0 18 0 18 0 18 0 18 0 17 0 18 0 
18 0 18 0 18 0 18 0 18 0 17 0 18 0 18 0 
18 0 18 0 18 0 18 0 18 0 17 0 18 0 18 0 
18 0 18 0 18 0 18 0 18 0 17 0 18 0 18 0 
18 0 18 0 18 0 18 0 18 0 17 0 18 0 18 0 
18 0 18 29 18 57 18 59 18 62 17 65 18 68 18 72 
18 76 18 79 18 83 18 87 18 91 17 95 18 100 18 104 
18 108 18 112 18 117 18 121 18 124 17 128 18 132 18 134 
18 137 18 139 18 140 18 141 18 140 17 140 18 138 18 134 
18 131 18 125 18 120 18 112 18 104 17 95 18 84 18 73 
18 61 18 48 18 35 934 416 100 MP stroke
18 20 17 7 899 389 3 MP stroke
18 0 18 0 18 0 18 0 18 0 18 0 17 0 18 0 
18 0 18 0 18 0 18 0 18 0 18 0 17 0 18 0 
18 0 18 0 18 0 18 0 18 0 18 0 17 0 18 0 
18 0 18 0 18 0 18 0 18 0 18 0 17 0 18 0 
18 0 18 0 18 0 18 0 18 0 18 0 17 0 18 0 
18 0 18 0 18 0 18 0 18 0 18 0 17 0 18 0 
18 0 18 0 18 0 18 0 18 0 18 0 17 0 18 0 
18 0 18 0 18 0 18 0 18 0 18 0 17 0 18 0 
18 0 18 0 18 0 18 0 18 0 18 0 17 0 18 0 
18 0 18 0 18 0 18 0 18 0 17 0 18 0 18 0 
18 0 18 0 18 0 18 0 18 0 17 0 18 0 18 0 
18 0 18 0 18 0 18 0 18 0 17 0 18 0 18 0 
18 0 18 0 18 0 4473 4616 100 MP stroke
18 0 18 0 17 0 18 0 18 0 18 0 18 0 18 0 
18 0 18 0 17 0 18 0 18 0 18 0 18 0 18 0 
18 0 18 0 17 0 18 0 18 0 18 0 18 0 18 0 
18 0 18 0 17 0 18 0 18 0 18 0 18 0 18 0 
18 0 18 0 17 0 18 0 18 0 18 0 18 0 18 0 
18 0 18 0 17 0 18 0 18 0 18 0 18 0 18 0 
18 0 17 0 18 0 18 0 18 0 18 0 18 0 18 0 
18 0 17 0 18 0 18 0 18 0 18 0 18 0 18 0 
18 0 17 0 18 0 18 0 18 0 18 0 18 0 18 0 
18 0 17 0 18 0 18 0 18 0 18 0 18 0 18 0 
18 0 17 0 18 0 18 0 18 0 18 0 18 0 18 0 
18 0 17 0 18 0 18 0 18 0 18 0 18 0 18 0 
18 0 17 0 18 0 2704 4616 100 MP stroke
18 0 18 0 18 0 18 0 18 0 18 0 17 0 18 0 
18 0 18 0 18 0 18 0 18 0 18 0 17 0 18 0 
18 0 18 0 18 0 18 0 18 0 18 0 17 0 18 0 
18 0 18 0 18 0 18 0 18 0 17 0 18 0 18 0 
18 18 18 19 18 19 18 20 18 20 17 22 18 21 18 23 
18 23 18 24 18 25 18 26 18 27 17 27 18 29 18 30 
18 31 18 32 18 33 18 34 18 36 17 38 18 38 18 41 
18 42 18 44 18 46 18 47 18 50 17 52 18 54 18 57 
18 59 18 61 18 64 18 68 18 70 17 73 18 76 18 79 
18 83 18 86 18 90 18 93 18 96 17 100 18 103 18 106 
18 109 18 112 18 114 18 116 18 118 17 118 18 118 18 118 
18 115 18 113 18 109 18 104 18 97 17 90 18 81 18 71 
18 60 18 47 18 35 934 416 100 MP stroke
18 20 17 7 899 389 3 MP stroke
18 0 18 0 18 0 18 0 18 0 18 0 17 0 18 0 
18 0 18 0 18 0 18 0 18 0 18 0 17 0 18 0 
18 0 18 0 18 0 18 0 18 0 18 0 17 0 18 0 
18 0 18 0 18 0 18 0 18 0 18 0 17 0 18 0 
18 0 18 0 18 0 18 0 18 0 18 0 17 0 18 0 
18 0 18 0 18 0 18 0 18 0 18 0 17 0 18 0 
18 0 18 0 18 0 18 0 18 0 18 0 17 0 18 0 
18 0 18 0 18 0 18 0 18 0 18 0 17 0 18 0 
18 0 18 0 18 0 18 0 18 0 18 0 17 0 18 0 
18 0 18 0 18 0 18 0 18 0 17 0 18 0 18 0 
18 0 18 0 18 0 18 0 18 0 17 0 18 0 18 0 
18 0 18 0 18 0 18 0 18 0 17 0 18 0 18 0 
18 0 18 0 18 0 4473 4616 100 MP stroke
18 0 18 0 17 0 18 0 18 0 18 0 18 0 18 0 
18 0 18 0 17 0 18 0 18 0 18 0 18 0 18 0 
18 0 18 0 17 0 18 0 18 0 18 0 18 0 18 0 
18 0 18 0 17 0 18 0 18 0 18 0 18 0 18 0 
18 0 18 0 17 0 18 0 18 0 18 0 18 0 18 0 
18 0 18 0 17 0 18 0 18 0 18 0 18 0 18 0 
18 0 17 0 18 3 18 3 18 4 18 3 18 4 18 4 
18 3 17 4 18 4 18 4 18 4 18 4 18 4 18 4 
18 4 17 4 18 4 18 5 18 4 18 4 18 5 18 5 
18 4 17 5 18 5 18 5 18 5 18 5 18 5 18 5 
18 5 17 6 18 5 18 6 18 6 18 5 18 6 18 6 
18 6 17 7 18 6 18 6 18 7 18 7 18 7 18 6 
18 8 17 7 18 7 2704 4371 100 MP stroke
18 8 18 7 18 8 18 8 18 8 18 9 17 8 18 9 
18 9 18 9 18 9 18 9 18 10 18 10 17 10 18 11 
18 10 18 11 18 11 18 11 18 12 18 12 17 12 18 13 
18 13 18 13 18 14 18 14 18 14 17 15 18 15 18 15 
18 16 18 17 18 17 18 17 18 18 17 19 18 19 18 19 
18 20 18 21 18 22 18 22 18 23 17 24 18 25 18 25 
18 26 18 27 18 29 18 29 18 30 17 32 18 32 18 34 
18 35 18 37 18 37 18 40 18 41 17 42 18 45 18 46 
18 48 18 50 18 52 18 55 18 57 17 59 18 62 18 64 
18 67 18 70 18 72 18 76 18 79 17 81 18 85 18 88 
18 91 18 93 18 97 18 98 18 101 17 103 18 103 18 104 
18 104 18 102 18 100 18 97 18 92 17 85 18 78 18 69 
18 58 18 47 18 35 934 416 100 MP stroke
18 20 17 7 899 389 3 MP stroke
18 1 18 1 18 0 18 1 18 1 18 1 17 1 18 1 
18 0 18 1 18 1 18 1 18 1 18 1 17 1 18 1 
18 1 18 1 18 0 18 1 18 1 18 1 17 1 18 1 
18 1 18 1 18 1 18 1 18 1 18 1 17 1 18 1 
18 1 18 1 18 1 18 1 18 1 18 1 17 1 18 2 
18 1 18 1 18 1 18 1 18 1 18 1 17 1 18 1 
18 2 18 1 18 1 18 1 18 1 18 2 17 1 18 1 
18 1 18 1 18 2 18 1 18 1 18 2 17 1 18 1 
18 1 18 2 18 1 18 2 18 1 18 1 17 2 18 1 
18 1 18 2 18 1 18 2 18 1 17 2 18 1 18 2 
18 1 18 2 18 1 18 2 18 1 17 2 18 2 18 1 
18 2 18 2 18 1 18 2 18 2 17 1 18 2 18 2 
18 2 18 1 18 2 4473 4251 100 MP stroke
18 2 18 2 17 2 18 2 18 1 18 2 18 2 18 2 
18 2 18 2 17 2 18 2 18 2 18 2 18 2 18 3 
18 2 18 2 17 2 18 2 18 3 18 2 18 2 18 2 
18 3 18 2 17 3 18 2 18 2 18 3 18 2 18 3 
18 3 18 2 17 3 18 2 18 3 18 3 18 3 18 2 
18 3 18 3 17 3 18 3 18 3 18 3 18 3 18 3 
18 3 17 3 18 4 18 3 18 3 18 3 18 4 18 3 
18 4 17 3 18 4 18 3 18 4 18 4 18 4 18 3 
18 4 17 4 18 4 18 4 18 5 18 4 18 4 18 4 
18 5 17 4 18 5 18 4 18 5 18 5 18 4 18 5 
18 5 17 5 18 5 18 6 18 5 18 5 18 6 18 5 
18 6 17 6 18 6 18 6 18 6 18 6 18 6 18 7 
18 6 17 7 18 7 2704 3901 100 MP stroke
18 7 18 7 18 7 18 7 18 8 18 8 17 7 18 8 
18 9 18 8 18 8 18 9 18 9 18 9 17 9 18 9 
18 10 18 10 18 10 18 10 18 11 18 11 17 11 18 11 
18 12 18 12 18 12 18 12 18 13 17 13 18 14 18 14 
18 14 18 14 18 15 18 16 18 16 17 16 18 17 18 17 
18 18 18 18 18 19 18 19 18 20 17 21 18 21 18 22 
18 23 18 24 18 24 18 25 18 26 17 27 18 28 18 29 
18 30 18 31 18 32 18 33 18 35 17 36 18 38 18 39 
18 40 18 42 18 44 18 46 18 48 17 49 18 52 18 54 
18 56 18 59 18 61 18 64 18 66 17 69 18 72 18 75 
18 78 18 80 18 83 18 86 18 88 17 91 18 92 18 93 
18 94 18 94 18 92 18 91 18 86 17 82 18 75 18 67 
18 57 18 47 18 34 934 416 100 MP stroke
18 20 17 7 899 389 3 MP stroke
gr

%%IncludeResource: font Symbol
/Symbol /WindowsLatin1Encoding 192 FMSR

3532 4948 mt 
(x) s
 505 2706 mt  -90 rotate
(q) s
90 rotate
%%IncludeResource: font Symbol
/Symbol /WindowsLatin1Encoding 144 FMSR

 601 2606 mt  -90 rotate
(h) s
90 rotate
%%IncludeResource: font Helvetica
/Helvetica /WindowsLatin1Encoding 192 FMSR

 505 2520 mt  -90 rotate
(\() s
90 rotate
%%IncludeResource: font Symbol
/Symbol /WindowsLatin1Encoding 192 FMSR

 505 2457 mt  -90 rotate
(x) s
90 rotate
%%IncludeResource: font Helvetica
/Helvetica /WindowsLatin1Encoding 192 FMSR

 505 2363 mt  -90 rotate
(\)) s
90 rotate
%%IncludeResource: font Symbol
/Symbol /WindowsLatin1Encoding 192 FMSR

1131 4600 mt 
(h) s
%%IncludeResource: font Helvetica
/Helvetica /WindowsLatin1Encoding 192 FMSR

1246 4600 mt 
(=0) s
%%IncludeResource: font Symbol
/Symbol /WindowsLatin1Encoding 192 FMSR

1292 4431 mt 
(h) s
%%IncludeResource: font Helvetica
/Helvetica /WindowsLatin1Encoding 192 FMSR

1407 4431 mt 
(=1) s
%%IncludeResource: font Symbol
/Symbol /WindowsLatin1Encoding 192 FMSR

1506 4262 mt 
(h) s
%%IncludeResource: font Helvetica
/Helvetica /WindowsLatin1Encoding 192 FMSR

1621 4262 mt 
(=2) s
%%IncludeResource: font Symbol
/Symbol /WindowsLatin1Encoding 192 FMSR

1721 4093 mt 
(h) s
%%IncludeResource: font Helvetica
/Helvetica /WindowsLatin1Encoding 192 FMSR

1836 4093 mt 
(=3) s
%%IncludeResource: font Symbol
/Symbol /WindowsLatin1Encoding 192 FMSR

2025 3924 mt 
(h) s
%%IncludeResource: font Helvetica
/Helvetica /WindowsLatin1Encoding 192 FMSR

2140 3924 mt 
(=4) s
%%IncludeResource: font Symbol
/Symbol /WindowsLatin1Encoding 192 FMSR

2507 3755 mt 
(h) s
%%IncludeResource: font Helvetica
/Helvetica /WindowsLatin1Encoding 192 FMSR

2622 3755 mt 
(=5) s

end

eplot
%%EndObject

epage
end

showpage

%%Trailer
%%EOF
