%!PS-Adobe-2.0 EPSF-1.2
%%Creator: MATLAB, The Mathworks, Inc.
%%Title: plot_le7_mass_radius.eps
%%CreationDate: 10/26/2006  21:57:18
%%DocumentNeededFonts: Helvetica
%%DocumentProcessColors: Cyan Magenta Yellow Black
%%Pages: 1
%%BoundingBox:    44   190   551   589
%%EndComments

%%BeginProlog
% MathWorks dictionary
/MathWorks 160 dict begin
% definition operators
/bdef {bind def} bind def
/ldef {load def} bind def
/xdef {exch def} bdef
/xstore {exch store} bdef
% operator abbreviations
/c  /clip ldef
/cc /concat ldef
/cp /closepath ldef
/gr /grestore ldef
/gs /gsave ldef
/mt /moveto ldef
/np /newpath ldef
/cm /currentmatrix ldef
/sm /setmatrix ldef
/rm /rmoveto ldef
/rl /rlineto ldef
/s {show newpath} bdef
/sc {setcmykcolor} bdef
/sr /setrgbcolor ldef
/sg /setgray ldef
/w /setlinewidth ldef
/j /setlinejoin ldef
/cap /setlinecap ldef
/rc {rectclip} bdef
/rf {rectfill} bdef
% page state control
/pgsv () def
/bpage {/pgsv save def} bdef
/epage {pgsv restore} bdef
/bplot /gsave ldef
/eplot {stroke grestore} bdef
% orientation switch
/portraitMode 0 def /landscapeMode 1 def /rotateMode 2 def
% coordinate system mappings
/dpi2point 0 def
% font control
/FontSize 0 def
/FMS {/FontSize xstore findfont [FontSize 0 0 FontSize neg 0 0]
  makefont setfont} bdef
/ISOLatin1Encoding where {pop /WindowsLatin1Encoding 256 array bdef
ISOLatin1Encoding WindowsLatin1Encoding copy pop
/.notdef/.notdef/quotesinglbase/florin/quotedblbase/ellipsis/dagger
/daggerdbl/circumflex/perthousand/Scaron/guilsinglleft/OE/.notdef/.notdef
/.notdef/.notdef/quoteleft/quoteright/quotedblleft/quotedblright/bullet
/endash/emdash/tilde/trademark/scaron/guilsinglright/oe/.notdef/.notdef
/Ydieresis WindowsLatin1Encoding 128 32 getinterval astore pop}
{/WindowsLatin1Encoding StandardEncoding bdef} ifelse
/reencode {exch dup where {pop load} {pop StandardEncoding} ifelse
  exch dup 3 1 roll findfont dup length dict begin
  { 1 index /FID ne {def}{pop pop} ifelse } forall
  /Encoding exch def currentdict end definefont pop} bdef
/isroman {findfont /CharStrings get /Agrave known} bdef
/FMSR {3 1 roll 1 index dup isroman {reencode} {pop pop} ifelse
  exch FMS} bdef
/csm {1 dpi2point div -1 dpi2point div scale neg translate
 dup landscapeMode eq {pop -90 rotate}
  {rotateMode eq {90 rotate} if} ifelse} bdef
% line types: solid, dotted, dashed, dotdash
/SO { [] 0 setdash } bdef
/DO { [.5 dpi2point mul 4 dpi2point mul] 0 setdash } bdef
/DA { [6 dpi2point mul] 0 setdash } bdef
/DD { [.5 dpi2point mul 4 dpi2point mul 6 dpi2point mul 4
  dpi2point mul] 0 setdash } bdef
% macros for lines and objects
/L {lineto stroke} bdef
/MP {3 1 roll moveto 1 sub {rlineto} repeat} bdef
/AP {{rlineto} repeat} bdef
/PDlw -1 def
/W {/PDlw currentlinewidth def setlinewidth} def
/PP {closepath eofill} bdef
/DP {closepath stroke} bdef
/MR {4 -2 roll moveto dup  0 exch rlineto exch 0 rlineto
  neg 0 exch rlineto closepath} bdef
/FR {MR stroke} bdef
/PR {MR fill} bdef
/L1i {{currentfile picstr readhexstring pop} image} bdef
/tMatrix matrix def
/MakeOval {newpath tMatrix currentmatrix pop translate scale
0 0 1 0 360 arc tMatrix setmatrix} bdef
/FO {MakeOval stroke} bdef
/PO {MakeOval fill} bdef
/PD {currentlinewidth 2 div 0 360 arc fill
   PDlw -1 eq not {PDlw w /PDlw -1 def} if} def
/FA {newpath tMatrix currentmatrix pop translate scale
  0 0 1 5 -2 roll arc tMatrix setmatrix stroke} bdef
/PA {newpath tMatrix currentmatrix pop	translate 0 0 moveto scale
  0 0 1 5 -2 roll arc closepath tMatrix setmatrix fill} bdef
/FAn {newpath tMatrix currentmatrix pop translate scale
  0 0 1 5 -2 roll arcn tMatrix setmatrix stroke} bdef
/PAn {newpath tMatrix currentmatrix pop translate 0 0 moveto scale
  0 0 1 5 -2 roll arcn closepath tMatrix setmatrix fill} bdef
/vradius 0 def /hradius 0 def /lry 0 def
/lrx 0 def /uly 0 def /ulx 0 def /rad 0 def
/MRR {/vradius xdef /hradius xdef /lry xdef /lrx xdef /uly xdef
  /ulx xdef newpath tMatrix currentmatrix pop ulx hradius add uly
  vradius add translate hradius vradius scale 0 0 1 180 270 arc 
  tMatrix setmatrix lrx hradius sub uly vradius add translate
  hradius vradius scale 0 0 1 270 360 arc tMatrix setmatrix
  lrx hradius sub lry vradius sub translate hradius vradius scale
  0 0 1 0 90 arc tMatrix setmatrix ulx hradius add lry vradius sub
  translate hradius vradius scale 0 0 1 90 180 arc tMatrix setmatrix
  closepath} bdef
/FRR {MRR stroke } bdef
/PRR {MRR fill } bdef
/MlrRR {/lry xdef /lrx xdef /uly xdef /ulx xdef /rad lry uly sub 2 div def
  newpath tMatrix currentmatrix pop ulx rad add uly rad add translate
  rad rad scale 0 0 1 90 270 arc tMatrix setmatrix lrx rad sub lry rad
  sub translate rad rad scale 0 0 1 270 90 arc tMatrix setmatrix
  closepath} bdef
/FlrRR {MlrRR stroke } bdef
/PlrRR {MlrRR fill } bdef
/MtbRR {/lry xdef /lrx xdef /uly xdef /ulx xdef /rad lrx ulx sub 2 div def
  newpath tMatrix currentmatrix pop ulx rad add uly rad add translate
  rad rad scale 0 0 1 180 360 arc tMatrix setmatrix lrx rad sub lry rad
  sub translate rad rad scale 0 0 1 0 180 arc tMatrix setmatrix
  closepath} bdef
/FtbRR {MtbRR stroke } bdef
/PtbRR {MtbRR fill } bdef
/stri 6 array def /dtri 6 array def
/smat 6 array def /dmat 6 array def
/tmat1 6 array def /tmat2 6 array def /dif 3 array def
/asub {/ind2 exch def /ind1 exch def dup dup
  ind1 get exch ind2 get sub exch } bdef
/tri_to_matrix {
  2 0 asub 3 1 asub 4 0 asub 5 1 asub
  dup 0 get exch 1 get 7 -1 roll astore } bdef
/compute_transform {
  dmat dtri tri_to_matrix tmat1 invertmatrix 
  smat stri tri_to_matrix tmat2 concatmatrix } bdef
/ds {stri astore pop} bdef
/dt {dtri astore pop} bdef
/db {2 copy /cols xdef /rows xdef mul dup string
  currentfile exch readhexstring pop
  /bmap xdef pop pop} bdef
/it {gs np dtri aload pop moveto lineto lineto cp c
  cols rows 8 compute_transform 
  {bmap} image gr}bdef
/il {newpath moveto lineto stroke}bdef
currentdict end def
%%EndProlog

%%BeginSetup
MathWorks begin

0 cap

end
%%EndSetup

%%Page: 1 1
%%BeginPageSetup
%%PageBoundingBox:    44   190   551   589
MathWorks begin
bpage
%%EndPageSetup

%%BeginObject: obj1
bplot

/dpi2point 12 def
portraitMode 0216 7344 csm

  312   274  6087  4788 MR c np
85 dict begin %Colortable dictionary
/c0 { 0 0 0 sr} bdef
/c1 { 1 1 1 sr} bdef
/c2 { 1 0 0 sr} bdef
/c3 { 0 1 0 sr} bdef
/c4 { 0 0 1 sr} bdef
/c5 { 1 1 0 sr} bdef
/c6 { 1 0 1 sr} bdef
/c7 { 0 1 1 sr} bdef
c0
1 j
1 sg
   0    0 6919 5187 PR
6 w
0 4227 5362 0 0 -4227 899 4616 4 MP
PP
-5362 0 0 4227 5362 0 0 -4227 899 4616 5 MP stroke
4 w
DO
0 sg
 899 4616 mt  899  389 L
 899  389 mt  899  389 L
2686 4616 mt 2686  389 L
2686  389 mt 2686  389 L
4473 4616 mt 4473  389 L
4473  389 mt 4473  389 L
6261 4616 mt 6261  389 L
6261  389 mt 6261  389 L
 899 4616 mt 6261 4616 L
6261 4616 mt 6261 4616 L
 899 4146 mt 6261 4146 L
6261 4146 mt 6261 4146 L
 899 3676 mt 6261 3676 L
6261 3676 mt 6261 3676 L
 899 3206 mt 6261 3206 L
6261 3206 mt 6261 3206 L
 899 2737 mt 6261 2737 L
6261 2737 mt 6261 2737 L
 899 2267 mt 6261 2267 L
6261 2267 mt 6261 2267 L
 899 1797 mt 6261 1797 L
6261 1797 mt 6261 1797 L
 899 1328 mt 6261 1328 L
6261 1328 mt 6261 1328 L
 899  858 mt 6261  858 L
6261  858 mt 6261  858 L
 899  389 mt 6261  389 L
6261  389 mt 6261  389 L
SO
6 w
 899  389 mt 6261  389 L
 899 4616 mt 6261 4616 L
6261 4616 mt 6261  389 L
 899 4616 mt  899  389 L
 899 4616 mt 6261 4616 L
 899 4616 mt  899  389 L
 899 4616 mt  899 4589 L
 899  389 mt  899  415 L
DO
 899 4616 mt  899  389 L
 899  389 mt  899  389 L
SO
 899 4616 mt  899 4562 L
 899  389 mt  899  442 L
%%IncludeResource: font Helvetica
/Helvetica /WindowsLatin1Encoding 120 FMSR

 811 4798 mt 
(10) s
%%IncludeResource: font Helvetica
/Helvetica /WindowsLatin1Encoding 80 FMSR

 944 4724 mt 
(1) s
1437 4616 mt 1437 4589 L
1437  389 mt 1437  415 L
DO
1437 4616 mt 1437  389 L
1437  389 mt 1437  389 L
SO
1751 4616 mt 1751 4589 L
1751  389 mt 1751  415 L
DO
1751 4616 mt 1751  389 L
1751  389 mt 1751  389 L
SO
1975 4616 mt 1975 4589 L
1975  389 mt 1975  415 L
DO
1975 4616 mt 1975  389 L
1975  389 mt 1975  389 L
SO
2148 4616 mt 2148 4589 L
2148  389 mt 2148  415 L
DO
2148 4616 mt 2148  389 L
2148  389 mt 2148  389 L
SO
2289 4616 mt 2289 4589 L
2289  389 mt 2289  415 L
DO
2289 4616 mt 2289  389 L
2289  389 mt 2289  389 L
SO
2409 4616 mt 2409 4589 L
2409  389 mt 2409  415 L
DO
2409 4616 mt 2409  389 L
2409  389 mt 2409  389 L
SO
2513 4616 mt 2513 4589 L
2513  389 mt 2513  415 L
DO
2513 4616 mt 2513  389 L
2513  389 mt 2513  389 L
SO
2604 4616 mt 2604 4589 L
2604  389 mt 2604  415 L
DO
2604 4616 mt 2604  389 L
2604  389 mt 2604  389 L
SO
2686 4616 mt 2686 4589 L
2686  389 mt 2686  415 L
DO
2686 4616 mt 2686  389 L
2686  389 mt 2686  389 L
SO
2686 4616 mt 2686 4562 L
2686  389 mt 2686  442 L
%%IncludeResource: font Helvetica
/Helvetica /WindowsLatin1Encoding 120 FMSR

2598 4798 mt 
(10) s
%%IncludeResource: font Helvetica
/Helvetica /WindowsLatin1Encoding 80 FMSR

2731 4724 mt 
(2) s
3224 4616 mt 3224 4589 L
3224  389 mt 3224  415 L
DO
3224 4616 mt 3224  389 L
3224  389 mt 3224  389 L
SO
3539 4616 mt 3539 4589 L
3539  389 mt 3539  415 L
DO
3539 4616 mt 3539  389 L
3539  389 mt 3539  389 L
SO
3762 4616 mt 3762 4589 L
3762  389 mt 3762  415 L
DO
3762 4616 mt 3762  389 L
3762  389 mt 3762  389 L
SO
3935 4616 mt 3935 4589 L
3935  389 mt 3935  415 L
DO
3935 4616 mt 3935  389 L
3935  389 mt 3935  389 L
SO
4077 4616 mt 4077 4589 L
4077  389 mt 4077  415 L
DO
4077 4616 mt 4077  389 L
4077  389 mt 4077  389 L
SO
4196 4616 mt 4196 4589 L
4196  389 mt 4196  415 L
DO
4196 4616 mt 4196  389 L
4196  389 mt 4196  389 L
SO
4300 4616 mt 4300 4589 L
4300  389 mt 4300  415 L
DO
4300 4616 mt 4300  389 L
4300  389 mt 4300  389 L
SO
4391 4616 mt 4391 4589 L
4391  389 mt 4391  415 L
DO
4391 4616 mt 4391  389 L
4391  389 mt 4391  389 L
SO
4473 4616 mt 4473 4589 L
4473  389 mt 4473  415 L
DO
4473 4616 mt 4473  389 L
4473  389 mt 4473  389 L
SO
4473 4616 mt 4473 4562 L
4473  389 mt 4473  442 L
%%IncludeResource: font Helvetica
/Helvetica /WindowsLatin1Encoding 120 FMSR

4385 4798 mt 
(10) s
%%IncludeResource: font Helvetica
/Helvetica /WindowsLatin1Encoding 80 FMSR

4518 4724 mt 
(3) s
5011 4616 mt 5011 4589 L
5011  389 mt 5011  415 L
DO
5011 4616 mt 5011  389 L
5011  389 mt 5011  389 L
SO
5326 4616 mt 5326 4589 L
5326  389 mt 5326  415 L
DO
5326 4616 mt 5326  389 L
5326  389 mt 5326  389 L
SO
5549 4616 mt 5549 4589 L
5549  389 mt 5549  415 L
DO
5549 4616 mt 5549  389 L
5549  389 mt 5549  389 L
SO
5722 4616 mt 5722 4589 L
5722  389 mt 5722  415 L
DO
5722 4616 mt 5722  389 L
5722  389 mt 5722  389 L
SO
5864 4616 mt 5864 4589 L
5864  389 mt 5864  415 L
DO
5864 4616 mt 5864  389 L
5864  389 mt 5864  389 L
SO
5984 4616 mt 5984 4589 L
5984  389 mt 5984  415 L
DO
5984 4616 mt 5984  389 L
5984  389 mt 5984  389 L
SO
6087 4616 mt 6087 4589 L
6087  389 mt 6087  415 L
DO
6087 4616 mt 6087  389 L
6087  389 mt 6087  389 L
SO
6179 4616 mt 6179 4589 L
6179  389 mt 6179  415 L
DO
6179 4616 mt 6179  389 L
6179  389 mt 6179  389 L
SO
6261 4616 mt 6261 4589 L
6261  389 mt 6261  415 L
DO
6261 4616 mt 6261  389 L
6261  389 mt 6261  389 L
SO
6261 4616 mt 6261 4562 L
6261  389 mt 6261  442 L
%%IncludeResource: font Helvetica
/Helvetica /WindowsLatin1Encoding 120 FMSR

6173 4798 mt 
(10) s
%%IncludeResource: font Helvetica
/Helvetica /WindowsLatin1Encoding 80 FMSR

6306 4724 mt 
(4) s
 899 4616 mt  952 4616 L
6261 4616 mt 6207 4616 L
%%IncludeResource: font Helvetica
/Helvetica /WindowsLatin1Encoding 120 FMSR

 698 4660 mt 
(0.5) s
 899 4146 mt  952 4146 L
6261 4146 mt 6207 4146 L
 698 4190 mt 
(0.6) s
 899 3676 mt  952 3676 L
6261 3676 mt 6207 3676 L
 698 3720 mt 
(0.7) s
 899 3206 mt  952 3206 L
6261 3206 mt 6207 3206 L
 698 3250 mt 
(0.8) s
 899 2737 mt  952 2737 L
6261 2737 mt 6207 2737 L
 698 2781 mt 
(0.9) s
 899 2267 mt  952 2267 L
6261 2267 mt 6207 2267 L
 798 2311 mt 
(1) s
 899 1797 mt  952 1797 L
6261 1797 mt 6207 1797 L
 698 1841 mt 
(1.1) s
 899 1328 mt  952 1328 L
6261 1328 mt 6207 1328 L
 698 1372 mt 
(1.2) s
 899  858 mt  952  858 L
6261  858 mt 6207  858 L
 698  902 mt 
(1.3) s
 899  389 mt  952  389 L
6261  389 mt 6207  389 L
 698  433 mt 
(1.4) s
 899  389 mt 6261  389 L
 899 4616 mt 6261 4616 L
6261 4616 mt 6261  389 L
 899 4616 mt  899  389 L
gs 899 389 5363 4228 MR c np
-243 688 -208 585 -252 505 -227 400 -233 319 -228 249 -223 189 -228 147 
-226 111 -224 81 -221 55 -220 35 -217 11 -211 -17 -206 -51 -198 -100 
-188 -167 -178 -255 -168 -360 -156 -477 -145 -584 -135 -661 -124 -686 -116 -657 
6172 4446 25 MP stroke
gr

gs 1324 358 4922 4162 MR c np
6147 4421 mt 6197 4471 L
6197 4421 mt 6147 4471 L
6031 3764 mt 6081 3814 L
6081 3764 mt 6031 3814 L
5907 3078 mt 5957 3128 L
5957 3078 mt 5907 3128 L
5772 2417 mt 5822 2467 L
5822 2417 mt 5772 2467 L
5627 1833 mt 5677 1883 L
5677 1833 mt 5627 1883 L
5471 1356 mt 5521 1406 L
5521 1356 mt 5471 1406 L
5303  996 mt 5353 1046 L
5353  996 mt 5303 1046 L
5125  741 mt 5175  791 L
5175  741 mt 5125  791 L
4937  574 mt 4987  624 L
4987  574 mt 4937  624 L
4739  474 mt 4789  524 L
4789  474 mt 4739  524 L
4533  423 mt 4583  473 L
4583  423 mt 4533  473 L
4322  406 mt 4372  456 L
4372  406 mt 4322  456 L
4105  417 mt 4155  467 L
4155  417 mt 4105  467 L
3885  452 mt 3935  502 L
3935  452 mt 3885  502 L
3664  507 mt 3714  557 L
3714  507 mt 3664  557 L
3440  588 mt 3490  638 L
3490  588 mt 3440  638 L
3214  699 mt 3264  749 L
3264  699 mt 3214  749 L
2986  846 mt 3036  896 L
3036  846 mt 2986  896 L
2763 1035 mt 2813 1085 L
2813 1035 mt 2763 1085 L
2535 1284 mt 2585 1334 L
2585 1284 mt 2535 1334 L
2302 1603 mt 2352 1653 L
2352 1603 mt 2302 1653 L
2075 2003 mt 2125 2053 L
2125 2003 mt 2075 2053 L
1823 2508 mt 1873 2558 L
1873 2508 mt 1823 2558 L
1615 3093 mt 1665 3143 L
1665 3093 mt 1615 3143 L
1372 3781 mt 1422 3831 L
1422 3781 mt 1372 3831 L
gr

gs 899 389 5363 4228 MR c np
gs 5771 2178 147 147 MR c np
24 W
5844 2251 PD
gr

gs 5937 3368 147 147 MR c np
24 W
6010 3441 PD
gr

gr

gs 6173 3368 147 147 MR c np
24 W
6246 3441 PD
gr

gs 899 389 5363 4228 MR c np
gs 6076 3415 147 147 MR c np
24 W
6149 3488 PD
gr

gs 5980 3791 147 147 MR c np
24 W
6053 3864 PD
gr

gs 6069 4063 147 147 MR c np
24 W
6142 4136 PD
gr

gr

gs 6122 4355 147 147 MR c np
24 W
6195 4428 PD
gr

gs 899 389 5363 4228 MR c np
gs 6048 4402 147 147 MR c np
24 W
6121 4475 PD
gr

gr

gs 6145 4538 147 147 MR c np
24 W
6218 4611 PD
gr

gs 899 389 5363 4228 MR c np
gs 5784 3180 147 147 MR c np
24 W
5857 3253 PD
gr

gs 5980 4120 147 147 MR c np
24 W
6053 4193 PD
gr

gs 6015 4167 147 147 MR c np
24 W
6088 4240 PD
gr

gr

gs 5937 4543 147 147 MR c np
24 W
6010 4616 PD
gr

gs 899 389 5363 4228 MR c np
gr

gs 5980 4543 147 147 MR c np
24 W
6053 4616 PD
gr

gs 899 389 5363 4228 MR c np
0 -244 5844 2373 2 MP stroke
27 0 5830 2373 2 MP stroke
27 0 5830 2129 2 MP stroke
0 -282 6010 3582 2 MP stroke
21 0 5999 3582 2 MP stroke
21 0 5999 3300 2 MP stroke
0 -563 6246 3723 2 MP stroke
16 0 6238 3723 2 MP stroke
16 0 6238 3160 2 MP stroke
0 -376 6149 3676 2 MP stroke
18 0 6140 3676 2 MP stroke
18 0 6140 3300 2 MP stroke
0 -376 6053 4052 2 MP stroke
20 0 6043 4052 2 MP stroke
20 0 6043 3676 2 MP stroke
0 -141 6142 4207 2 MP stroke
18 0 6133 4207 2 MP stroke
18 0 6133 4066 2 MP stroke
0 -376 6195 4616 2 MP stroke
17 0 6186 4616 2 MP stroke
17 0 6186 4240 2 MP stroke
0 -377 6121 4617 2 MP stroke
19 0 6111 4240 2 MP stroke
0 -58 6218 4617 2 MP stroke
16 0 6210 4559 2 MP stroke
0 -189 6183 4617 2 MP stroke
17 0 6174 4428 2 MP stroke
0 -187 5857 3347 2 MP stroke
26 0 5844 3347 2 MP stroke
26 0 5844 3160 2 MP stroke
0 -564 6053 4475 2 MP stroke
20 0 6043 4475 2 MP stroke
20 0 6043 3911 2 MP stroke
0 -470 6088 4475 2 MP stroke
19 0 6078 4475 2 MP stroke
19 0 6078 4005 2 MP stroke
0 -95 6010 4617 2 MP stroke
21 0 5999 4522 2 MP stroke
0 -236 6053 4617 2 MP stroke
20 0 6043 4381 2 MP stroke
47 0 5820 2251 2 MP stroke
0 -94 5820 2298 2 MP stroke
0 -94 5867 2298 2 MP stroke
45 0 5987 3441 2 MP stroke
0 -94 5987 3488 2 MP stroke
0 -94 6032 3488 2 MP stroke
135 0 6127 3441 2 MP stroke
0 -94 6127 3488 2 MP stroke
50 0 6124 3488 2 MP stroke
0 -94 6124 3535 2 MP stroke
0 -94 6174 3535 2 MP stroke
27 0 6235 3676 2 MP stroke
0 -94 6235 3723 2 MP stroke
142 0 5979 3864 2 MP stroke
0 -94 5979 3911 2 MP stroke
0 -94 6121 3911 2 MP stroke
40 0 6122 4136 2 MP stroke
0 -94 6122 4183 2 MP stroke
0 -94 6162 4183 2 MP stroke
22 0 6240 4193 2 MP stroke
0 -94 6240 4240 2 MP stroke
117 0 6134 4428 2 MP stroke
0 -94 6134 4475 2 MP stroke
0 -94 6251 4475 2 MP stroke
456 0 5806 4475 2 MP stroke
0 -94 5806 4522 2 MP stroke
23 0 6206 4611 2 MP stroke
0 -53 6206 4617 2 MP stroke
0 -53 6229 4617 2 MP stroke
91 0 5810 3253 2 MP stroke
0 -93 5810 3300 2 MP stroke
0 -93 5901 3300 2 MP stroke
142 0 5979 4193 2 MP stroke
0 -94 5979 4240 2 MP stroke
0 -94 6121 4240 2 MP stroke
54 0 6060 4240 2 MP stroke
0 -94 6060 4287 2 MP stroke
0 -94 6114 4287 2 MP stroke
89 0 5964 4616 2 MP stroke
0 -48 5964 4617 2 MP stroke
0 -48 6053 4617 2 MP stroke
142 0 5979 4616 2 MP stroke
0 -48 5979 4617 2 MP stroke
0 -48 6121 4617 2 MP stroke
DO
-201 568 -215 619 -241 584 -236 513 -230 433 -235 359 -234 291 -227 227 
-229 178 -225 134 -225 99 -220 66 -217 37 -212 3 -207 -36 -198 -89 
-188 -159 -179 -247 -167 -356 -157 -472 -145 -582 -134 -659 -125 -685 -116 -656 
6172 4447 25 MP stroke
gr

DO
gs 1336 433 4910 4258 MR c np
SO
24 W
6172 4447 PD
24 W
6056 3791 PD
24 W
5931 3106 PD
24 W
5797 2447 PD
24 W
5652 1865 PD
24 W
5495 1393 PD
24 W
5328 1037 PD
24 W
5149 790 PD
24 W
4961 631 PD
24 W
4763 542 PD
24 W
4556 506 PD
24 W
4344 509 PD
24 W
4127 546 PD
24 W
3907 612 PD
24 W
3682 711 PD
24 W
3457 845 PD
24 W
3228 1023 PD
24 W
3001 1250 PD
24 W
2767 1541 PD
24 W
2532 1900 PD
24 W
2302 2333 PD
24 W
2066 2846 PD
24 W
1825 3430 PD
24 W
1610 4049 PD
DO
gr

gs 899 389 5363 4228 MR c np
gr

%%IncludeResource: font Helvetica
/Helvetica /WindowsLatin1Encoding 192 FMSR

3165 4994 mt 
(radius/km) s
 515 2954 mt  -90 rotate
(mass/M) s
90 rotate
%%IncludeResource: font Helvetica
/Helvetica /WindowsLatin1Encoding 144 FMSR

 611 2282 mt  -90 rotate
(sun) s
90 rotate
SO
1 sg
0 299 890 0 0 -299 959 748 4 MP
PP
-890 0 0 299 890 0 0 -299 959 748 5 MP stroke
4 w
DO
SO
6 w
0 sg
 959  449 mt 1849  449 L
 959  748 mt 1849  748 L
1849  748 mt 1849  449 L
 959  748 mt  959  449 L
 959  748 mt 1849  748 L
 959  748 mt  959  449 L
 959  449 mt 1849  449 L
 959  748 mt 1849  748 L
1849  748 mt 1849  449 L
 959  748 mt  959  449 L
%%IncludeResource: font Helvetica
/Helvetica /WindowsLatin1Encoding 120 FMSR

1292  571 mt 
(non-rel) s
1292  709 mt 
(relativisic) s
gs 959 449 891 300 MR c np
200 0 1025 531 2 MP stroke
gs 1052 458 147 147 MR c np
1100  506 mt 1150  556 L
1150  506 mt 1100  556 L
gr

gs 1052 596 147 147 MR c np
24 W
1125 669 PD
gr

gr


end

eplot
%%EndObject

epage
end

showpage

%%Trailer
%%EOF
