%!PS-Adobe-2.0 EPSF-1.2
%%Creator: MATLAB, The Mathworks, Inc.
%%Title: plot_le2.eps
%%CreationDate: 10/17/2006  16:01:11
%%DocumentNeededFonts: Helvetica
%%DocumentProcessColors: Cyan Magenta Yellow Black
%%Pages: 1
%%BoundingBox:    39   192   549   589
%%EndComments

%%BeginProlog
% MathWorks dictionary
/MathWorks 160 dict begin
% definition operators
/bdef {bind def} bind def
/ldef {load def} bind def
/xdef {exch def} bdef
/xstore {exch store} bdef
% operator abbreviations
/c  /clip ldef
/cc /concat ldef
/cp /closepath ldef
/gr /grestore ldef
/gs /gsave ldef
/mt /moveto ldef
/np /newpath ldef
/cm /currentmatrix ldef
/sm /setmatrix ldef
/rm /rmoveto ldef
/rl /rlineto ldef
/s {show newpath} bdef
/sc {setcmykcolor} bdef
/sr /setrgbcolor ldef
/sg /setgray ldef
/w /setlinewidth ldef
/j /setlinejoin ldef
/cap /setlinecap ldef
/rc {rectclip} bdef
/rf {rectfill} bdef
% page state control
/pgsv () def
/bpage {/pgsv save def} bdef
/epage {pgsv restore} bdef
/bplot /gsave ldef
/eplot {stroke grestore} bdef
% orientation switch
/portraitMode 0 def /landscapeMode 1 def /rotateMode 2 def
% coordinate system mappings
/dpi2point 0 def
% font control
/FontSize 0 def
/FMS {/FontSize xstore findfont [FontSize 0 0 FontSize neg 0 0]
  makefont setfont} bdef
/ISOLatin1Encoding where {pop /WindowsLatin1Encoding 256 array bdef
ISOLatin1Encoding WindowsLatin1Encoding copy pop
/.notdef/.notdef/quotesinglbase/florin/quotedblbase/ellipsis/dagger
/daggerdbl/circumflex/perthousand/Scaron/guilsinglleft/OE/.notdef/.notdef
/.notdef/.notdef/quoteleft/quoteright/quotedblleft/quotedblright/bullet
/endash/emdash/tilde/trademark/scaron/guilsinglright/oe/.notdef/.notdef
/Ydieresis WindowsLatin1Encoding 128 32 getinterval astore pop}
{/WindowsLatin1Encoding StandardEncoding bdef} ifelse
/reencode {exch dup where {pop load} {pop StandardEncoding} ifelse
  exch dup 3 1 roll findfont dup length dict begin
  { 1 index /FID ne {def}{pop pop} ifelse } forall
  /Encoding exch def currentdict end definefont pop} bdef
/isroman {findfont /CharStrings get /Agrave known} bdef
/FMSR {3 1 roll 1 index dup isroman {reencode} {pop pop} ifelse
  exch FMS} bdef
/csm {1 dpi2point div -1 dpi2point div scale neg translate
 dup landscapeMode eq {pop -90 rotate}
  {rotateMode eq {90 rotate} if} ifelse} bdef
% line types: solid, dotted, dashed, dotdash
/SO { [] 0 setdash } bdef
/DO { [.5 dpi2point mul 4 dpi2point mul] 0 setdash } bdef
/DA { [6 dpi2point mul] 0 setdash } bdef
/DD { [.5 dpi2point mul 4 dpi2point mul 6 dpi2point mul 4
  dpi2point mul] 0 setdash } bdef
% macros for lines and objects
/L {lineto stroke} bdef
/MP {3 1 roll moveto 1 sub {rlineto} repeat} bdef
/AP {{rlineto} repeat} bdef
/PDlw -1 def
/W {/PDlw currentlinewidth def setlinewidth} def
/PP {closepath eofill} bdef
/DP {closepath stroke} bdef
/MR {4 -2 roll moveto dup  0 exch rlineto exch 0 rlineto
  neg 0 exch rlineto closepath} bdef
/FR {MR stroke} bdef
/PR {MR fill} bdef
/L1i {{currentfile picstr readhexstring pop} image} bdef
/tMatrix matrix def
/MakeOval {newpath tMatrix currentmatrix pop translate scale
0 0 1 0 360 arc tMatrix setmatrix} bdef
/FO {MakeOval stroke} bdef
/PO {MakeOval fill} bdef
/PD {currentlinewidth 2 div 0 360 arc fill
   PDlw -1 eq not {PDlw w /PDlw -1 def} if} def
/FA {newpath tMatrix currentmatrix pop translate scale
  0 0 1 5 -2 roll arc tMatrix setmatrix stroke} bdef
/PA {newpath tMatrix currentmatrix pop	translate 0 0 moveto scale
  0 0 1 5 -2 roll arc closepath tMatrix setmatrix fill} bdef
/FAn {newpath tMatrix currentmatrix pop translate scale
  0 0 1 5 -2 roll arcn tMatrix setmatrix stroke} bdef
/PAn {newpath tMatrix currentmatrix pop translate 0 0 moveto scale
  0 0 1 5 -2 roll arcn closepath tMatrix setmatrix fill} bdef
/vradius 0 def /hradius 0 def /lry 0 def
/lrx 0 def /uly 0 def /ulx 0 def /rad 0 def
/MRR {/vradius xdef /hradius xdef /lry xdef /lrx xdef /uly xdef
  /ulx xdef newpath tMatrix currentmatrix pop ulx hradius add uly
  vradius add translate hradius vradius scale 0 0 1 180 270 arc 
  tMatrix setmatrix lrx hradius sub uly vradius add translate
  hradius vradius scale 0 0 1 270 360 arc tMatrix setmatrix
  lrx hradius sub lry vradius sub translate hradius vradius scale
  0 0 1 0 90 arc tMatrix setmatrix ulx hradius add lry vradius sub
  translate hradius vradius scale 0 0 1 90 180 arc tMatrix setmatrix
  closepath} bdef
/FRR {MRR stroke } bdef
/PRR {MRR fill } bdef
/MlrRR {/lry xdef /lrx xdef /uly xdef /ulx xdef /rad lry uly sub 2 div def
  newpath tMatrix currentmatrix pop ulx rad add uly rad add translate
  rad rad scale 0 0 1 90 270 arc tMatrix setmatrix lrx rad sub lry rad
  sub translate rad rad scale 0 0 1 270 90 arc tMatrix setmatrix
  closepath} bdef
/FlrRR {MlrRR stroke } bdef
/PlrRR {MlrRR fill } bdef
/MtbRR {/lry xdef /lrx xdef /uly xdef /ulx xdef /rad lrx ulx sub 2 div def
  newpath tMatrix currentmatrix pop ulx rad add uly rad add translate
  rad rad scale 0 0 1 180 360 arc tMatrix setmatrix lrx rad sub lry rad
  sub translate rad rad scale 0 0 1 0 180 arc tMatrix setmatrix
  closepath} bdef
/FtbRR {MtbRR stroke } bdef
/PtbRR {MtbRR fill } bdef
/stri 6 array def /dtri 6 array def
/smat 6 array def /dmat 6 array def
/tmat1 6 array def /tmat2 6 array def /dif 3 array def
/asub {/ind2 exch def /ind1 exch def dup dup
  ind1 get exch ind2 get sub exch } bdef
/tri_to_matrix {
  2 0 asub 3 1 asub 4 0 asub 5 1 asub
  dup 0 get exch 1 get 7 -1 roll astore } bdef
/compute_transform {
  dmat dtri tri_to_matrix tmat1 invertmatrix 
  smat stri tri_to_matrix tmat2 concatmatrix } bdef
/ds {stri astore pop} bdef
/dt {dtri astore pop} bdef
/db {2 copy /cols xdef /rows xdef mul dup string
  currentfile exch readhexstring pop
  /bmap xdef pop pop} bdef
/it {gs np dtri aload pop moveto lineto lineto cp c
  cols rows 8 compute_transform 
  {bmap} image gr}bdef
/il {newpath moveto lineto stroke}bdef
currentdict end def
%%EndProlog

%%BeginSetup
MathWorks begin

0 cap

end
%%EndSetup

%%Page: 1 1
%%BeginPageSetup
%%PageBoundingBox:    39   192   549   589
MathWorks begin
bpage
%%EndPageSetup

%%BeginObject: obj1
bplot

/dpi2point 12 def
portraitMode 0216 7344 csm

  260   274  6119  4755 MR c np
85 dict begin %Colortable dictionary
/c0 { 0 0 0 sr} bdef
/c1 { 1 1 1 sr} bdef
/c2 { 1 0 0 sr} bdef
/c3 { 0 1 0 sr} bdef
/c4 { 0 0 1 sr} bdef
/c5 { 1 1 0 sr} bdef
/c6 { 1 0 1 sr} bdef
/c7 { 0 1 1 sr} bdef
c0
1 j
1 sg
   0    0 6919 5187 PR
6 w
0 4227 5362 0 0 -4227 899 4616 4 MP
PP
-5362 0 0 4227 5362 0 0 -4227 899 4616 5 MP stroke
4 w
DO
0 sg
 899 4616 mt  899  389 L
 899  389 mt  899  389 L
1792 4616 mt 1792  389 L
1792  389 mt 1792  389 L
2686 4616 mt 2686  389 L
2686  389 mt 2686  389 L
3580 4616 mt 3580  389 L
3580  389 mt 3580  389 L
4473 4616 mt 4473  389 L
4473  389 mt 4473  389 L
5367 4616 mt 5367  389 L
5367  389 mt 5367  389 L
6261 4616 mt 6261  389 L
6261  389 mt 6261  389 L
 899 4616 mt 6261 4616 L
6261 4616 mt 6261 4616 L
 899 4193 mt 6261 4193 L
6261 4193 mt 6261 4193 L
 899 3770 mt 6261 3770 L
6261 3770 mt 6261 3770 L
 899 3347 mt 6261 3347 L
6261 3347 mt 6261 3347 L
 899 2925 mt 6261 2925 L
6261 2925 mt 6261 2925 L
 899 2502 mt 6261 2502 L
6261 2502 mt 6261 2502 L
 899 2079 mt 6261 2079 L
6261 2079 mt 6261 2079 L
 899 1657 mt 6261 1657 L
6261 1657 mt 6261 1657 L
 899 1234 mt 6261 1234 L
6261 1234 mt 6261 1234 L
 899  811 mt 6261  811 L
6261  811 mt 6261  811 L
 899  389 mt 6261  389 L
6261  389 mt 6261  389 L
SO
6 w
 899  389 mt 6261  389 L
 899 4616 mt 6261 4616 L
6261 4616 mt 6261  389 L
 899 4616 mt  899  389 L
 899 4616 mt 6261 4616 L
 899 4616 mt  899  389 L
 899 4616 mt  899 4562 L
 899  389 mt  899  442 L
%%IncludeResource: font Helvetica
/Helvetica /WindowsLatin1Encoding 120 FMSR

 866 4761 mt 
(0) s
1792 4616 mt 1792 4562 L
1792  389 mt 1792  442 L
1709 4761 mt 
(0.5) s
2686 4616 mt 2686 4562 L
2686  389 mt 2686  442 L
2653 4761 mt 
(1) s
3580 4616 mt 3580 4562 L
3580  389 mt 3580  442 L
3497 4761 mt 
(1.5) s
4473 4616 mt 4473 4562 L
4473  389 mt 4473  442 L
4440 4761 mt 
(2) s
5367 4616 mt 5367 4562 L
5367  389 mt 5367  442 L
5284 4761 mt 
(2.5) s
6261 4616 mt 6261 4562 L
6261  389 mt 6261  442 L
6228 4761 mt 
(3) s
 899 4616 mt  952 4616 L
6261 4616 mt 6207 4616 L
 798 4660 mt 
(2) s
 899 4193 mt  952 4193 L
6261 4193 mt 6207 4193 L
 698 4237 mt 
(2.5) s
 899 3770 mt  952 3770 L
6261 3770 mt 6207 3770 L
 798 3814 mt 
(3) s
 899 3347 mt  952 3347 L
6261 3347 mt 6207 3347 L
 698 3391 mt 
(3.5) s
 899 2925 mt  952 2925 L
6261 2925 mt 6207 2925 L
 798 2969 mt 
(4) s
 899 2502 mt  952 2502 L
6261 2502 mt 6207 2502 L
 698 2546 mt 
(4.5) s
 899 2079 mt  952 2079 L
6261 2079 mt 6207 2079 L
 798 2123 mt 
(5) s
 899 1657 mt  952 1657 L
6261 1657 mt 6207 1657 L
 698 1701 mt 
(5.5) s
 899 1234 mt  952 1234 L
6261 1234 mt 6207 1234 L
 798 1278 mt 
(6) s
 899  811 mt  952  811 L
6261  811 mt 6207  811 L
 698  855 mt 
(6.5) s
 899  389 mt  952  389 L
6261  389 mt 6207  389 L
 798  433 mt 
(7) s
 899  389 mt 6261  389 L
 899 4616 mt 6261 4616 L
6261 4616 mt 6261  389 L
 899 4616 mt  899  389 L
gs 899 389 5363 4228 MR c np
447 -728 447 -575 447 -465 447 -382 447 -320 446 -271 447 -233 447 -200 
447 -175 447 -154 447 -136 446 -120 899 4235 13 MP stroke
gr

gs 826 403 5509 3906 MR c np
 874 4210 mt  924 4260 L
 924 4210 mt  874 4260 L
1320 4090 mt 1370 4140 L
1370 4090 mt 1320 4140 L
1767 3954 mt 1817 4004 L
1817 3954 mt 1767 4004 L
2214 3800 mt 2264 3850 L
2264 3800 mt 2214 3850 L
2661 3625 mt 2711 3675 L
2711 3625 mt 2661 3675 L
3108 3425 mt 3158 3475 L
3158 3425 mt 3108 3475 L
3555 3192 mt 3605 3242 L
3605 3192 mt 3555 3242 L
4001 2921 mt 4051 2971 L
4051 2921 mt 4001 2971 L
4448 2601 mt 4498 2651 L
4498 2601 mt 4448 2651 L
4895 2219 mt 4945 2269 L
4945 2219 mt 4895 2269 L
5342 1754 mt 5392 1804 L
5392 1754 mt 5342 1804 L
5789 1179 mt 5839 1229 L
5839 1179 mt 5789 1229 L
6236  451 mt 6286  501 L
6286  451 mt 6236  501 L
gr

gs 899 389 5363 4228 MR c np
DO
447 66 447 77 447 88 447 101 447 118 446 138 447 164 447 198 
447 242 447 305 447 396 446 542 899 2165 13 MP stroke
gr

DO
gs 826 2092 5509 2582 MR c np
SO
 874 2140 mt  924 2190 L
 924 2140 mt  874 2190 L
1320 2682 mt 1370 2732 L
1370 2682 mt 1320 2732 L
1767 3078 mt 1817 3128 L
1817 3078 mt 1767 3128 L
2214 3383 mt 2264 3433 L
2264 3383 mt 2214 3433 L
2661 3625 mt 2711 3675 L
2711 3625 mt 2661 3675 L
3108 3823 mt 3158 3873 L
3158 3823 mt 3108 3873 L
3555 3987 mt 3605 4037 L
3605 3987 mt 3555 4037 L
4001 4125 mt 4051 4175 L
4051 4125 mt 4001 4175 L
4448 4243 mt 4498 4293 L
4498 4243 mt 4448 4293 L
4895 4344 mt 4945 4394 L
4945 4344 mt 4895 4394 L
5342 4432 mt 5392 4482 L
5392 4432 mt 5342 4482 L
5789 4509 mt 5839 4559 L
5839 4509 mt 5789 4559 L
6236 4575 mt 6286 4625 L
6286 4575 mt 6236 4625 L
DO
gr

gs 899 389 5363 4228 MR c np
gr

%%IncludeResource: font Symbol
/Symbol /WindowsLatin1Encoding 192 FMSR

3521 4948 mt 
(h) s
 515 3199 mt  -90 rotate
(x) s
90 rotate
%%IncludeResource: font Helvetica
/Helvetica /WindowsLatin1Encoding 144 FMSR

 611 3105 mt  -90 rotate
(1) s
90 rotate
%%IncludeResource: font Helvetica
/Helvetica /WindowsLatin1Encoding 192 FMSR

 515 3025 mt  -90 rotate
(   and   -) s
90 rotate
%%IncludeResource: font Symbol
/Symbol /WindowsLatin1Encoding 192 FMSR

 515 2273 mt  -90 rotate
(x) s
90 rotate
%%IncludeResource: font Helvetica
/Helvetica /WindowsLatin1Encoding 144 FMSR

 611 2179 mt  -90 rotate
(1) s
90 rotate
 419 2179 mt  -90 rotate
(2) s
90 rotate
%%IncludeResource: font Helvetica
/Helvetica /WindowsLatin1Encoding 192 FMSR

 515 2099 mt  -90 rotate
( ) s
90 rotate
%%IncludeResource: font Symbol
/Symbol /WindowsLatin1Encoding 192 FMSR

 515 2046 mt  -90 rotate
(q) s
90 rotate
%%IncludeResource: font Helvetica
/Helvetica /WindowsLatin1Encoding 192 FMSR

 515 1946 mt  -90 rotate
(\264) s
90 rotate
%%IncludeResource: font Helvetica
/Helvetica /WindowsLatin1Encoding 144 FMSR

 611 1883 mt  -90 rotate
(1) s
90 rotate
%%IncludeResource: font Symbol
/Symbol /WindowsLatin1Encoding 192 FMSR

4473 2366 mt 
(x) s
%%IncludeResource: font Helvetica
/Helvetica /WindowsLatin1Encoding 144 FMSR

4567 2462 mt 
(1) s
%%IncludeResource: font Helvetica
/Helvetica /WindowsLatin1Encoding 192 FMSR

4473 4244 mt 
(-) s
%%IncludeResource: font Symbol
/Symbol /WindowsLatin1Encoding 192 FMSR

4585 4244 mt 
(x) s
%%IncludeResource: font Helvetica
/Helvetica /WindowsLatin1Encoding 144 FMSR

4679 4340 mt 
(1) s
4679 4148 mt 
(2) s
%%IncludeResource: font Helvetica
/Helvetica /WindowsLatin1Encoding 192 FMSR

4759 4244 mt 
( ) s
%%IncludeResource: font Symbol
/Symbol /WindowsLatin1Encoding 192 FMSR

4812 4244 mt 
(q) s
%%IncludeResource: font Helvetica
/Helvetica /WindowsLatin1Encoding 192 FMSR

4912 4244 mt 
(\264) s
%%IncludeResource: font Helvetica
/Helvetica /WindowsLatin1Encoding 144 FMSR

4975 4340 mt 
(1) s
SO

end

eplot
%%EndObject

epage
end

showpage

%%Trailer
%%EOF
