%!PS-Adobe-2.0 EPSF-1.2
%%BoundingBox: 0 0 468 360
%%%%DocumentFonts: /Helvetica
%%Title: Axum PostScript file
%%Creator: TriMetrix, Inc.
%%Pages: 1
%%EndComments
% Copyright 1988-1991 by TriMetrix, Inc. All rights reserved.
/downdict 4 dict def
/sdown
 {downdict begin
  /thestring exch def
  /lineskip exch def
  thestring
   {
    /charcode exch def
    /thechar ( ) dup 0 charcode put def
    0 lineskip neg rmoveto
    gsave
     thechar stringwidth pop 2 div neg 0 rmoveto
     thechar show
    grestore
   } forall
   end
  } def

/updict 4 dict def
/sup
 {updict begin
  /thestring exch def
  /lineskip exch def
  thestring 
   {
    /charcode exch def
    /thechar ( ) dup 0 charcode put def
    0 lineskip rmoveto
    gsave
     thechar stringwidth pop 2 div neg 0 rmoveto
     thechar show
    grestore
   } forall
   end
  } def

/leftdict 4 dict def
/sleft
 {leftdict begin
  /thestring exch def
  thestring
   {
    /charcode exch def
    /thechar ( ) dup 0 charcode put def
    gsave
     thechar stringwidth pop neg 0 rmoveto
     thechar show
    grestore
   } forall

   thechar stringwidth pop neg 0 rmoveto
   end
  } def

/path{newpath moveto{lineto}repeat} bind def 
/cnp{newpath moveto{lineto}repeat closepath} bind def
/clp{moveto{lineto}repeat closepath} bind def
/rps{ 3 1 roll path stroke} bind def
/rcs{ 3 1 roll clp stroke} bind def
/setF { currentscreen 4 -2 roll pop 3 1 roll setscreen} bind def
% required due to WinWord 2.0 bug:
/II { } def

/reencodedict 5 dict def
/reencode
{
   reencodedict begin
   /newencoding exch def
   /newfontname exch def
   /basefontname exch def

   /basefontdict basefontname findfont def
   /newfont basefontdict maxlength dict def

   basefontdict
   {
      exch dup dup /FID ne exch /Encoding ne and
      { exch newfont 3 1 roll put }
      { pop pop }
      ifelse
   }
   forall

   newfont /FontName newfontname put
   newfont /Encoding newencoding put
   newfontname newfont definefont pop
   end
}
def

/axumencoding
[
/.notdef        %   0
/.notdef        %   1
/.notdef        %   2
/.notdef        %   3
/.notdef        %   4
/.notdef        %   5
/.notdef        %   6
/.notdef        %   7
/.notdef        %   8
/.notdef        %   9
/.notdef        %  10
/.notdef        %  11
/.notdef        %  12
/.notdef        %  13
/.notdef        %  14
/.notdef        %  15
/.notdef        %  16
/.notdef        %  17
/.notdef        %  18
/.notdef        %  19
/.notdef        %  20
/.notdef        %  21
/.notdef        %  22
/.notdef        %  23
/.notdef        %  24
/.notdef        %  25
/.notdef        %  26
/.notdef        %  27
/.notdef        %  28
/.notdef        %  29
/.notdef        %  30
/.notdef        %  31
/space          %  32
/exclam         %  33
/quotedbl       %  34
/numbersign     %  35
/dollar         %  36
/percent        %  37
/ampersand      %  38
/quoteright     %  39
/parenleft      %  40
/parenright     %  41
/asterisk       %  42
/plus           %  43
/comma          %  44
/hyphen         %  45
/period         %  46
/slash          %  47
/zero           %  48
/one            %  49
/two            %  50
/three          %  51
/four           %  52
/five           %  53
/six            %  54
/seven          %  55
/eight          %  56
/nine           %  57
/colon          %  58
/semicolon      %  59
/less           %  60
/equal          %  61
/greater        %  62
/question       %  63
/at             %  64
/A              %  65
/B              %  66
/C              %  67
/D              %  68
/E              %  69
/F              %  70
/G              %  71
/H              %  72
/I              %  73
/J              %  74
/K              %  75
/L              %  76
/M              %  77
/N              %  78
/O              %  79
/P              %  80
/Q              %  81
/R              %  82
/S              %  83
/T              %  84
/U              %  85
/V              %  86
/W              %  87
/X              %  88
/Y              %  89
/Z              %  90
/bracketleft    %  91
/backslash      %  92
/bracketright   %  93
/asciicircum    %  94
/underscore     %  95
/quoteleft      %  96
/a              %  97
/b              %  98
/c              %  99
/d              % 100
/e              % 101
/f              % 102
/g              % 103
/h              % 104
/i              % 105
/j              % 106
/k              % 107
/l              % 108
/m              % 109
/n              % 110
/o              % 111
/p              % 112
/q              % 113
/r              % 114
/s              % 115
/t              % 116
/u              % 117
/v              % 118
/w              % 119
/x              % 120
/y              % 121
/z              % 122
/braceleft      % 123
/bar            % 124
/braceright     % 125
/asciitilde     % 126
/.notdef        % 127
/Ccedilla       % 128
/udieresis      % 129
/eacute         % 130
/acircumflex    % 131
/adieresis      % 132
/agrave         % 133
/aring          % 134
/ccedilla       % 135
/ecircumflex    % 136
/edieresis      % 137
/egrave         % 138
/idieresis      % 139
/icircumflex    % 140
/igrave         % 141
/Adieresis      % 142
/Aring          % 143
/Eacute         % 144
/ae             % 145
/AE             % 146
/ocircumflex    % 147
/odieresis      % 148
/ograve         % 149
/ucircumflex    % 150
/ugrave         % 151
/ydieresis      % 152
/Odieresis      % 153
/Udieresis      % 154
/cent           % 155
/sterling       % 156
/yen            % 157
/currency       % 158
/florin         % 159
/aacute         % 160
/iacute         % 161
/oacute         % 162
/uacute         % 163
/ntilde         % 164
/Ntilde         % 165
/ordfeminine    % 166
/ordmasculine   % 167
/questiondown   % 168
/quotedblleft   % 169
/quotedblright  % 170
/Aacute         % 171
/Acircumflex    % 172
/exclamdown     % 173
/Egrave         % 174
/Ecircumflex    % 175
/atilde         % 176
/otilde         % 177
/Edieresis      % 178
/Igrave         % 179
/oe             % 180
/OE             % 181
/Agrave         % 182
/Atilde         % 183
/Otilde         % 184
/section        % 185
/Iacute         % 186
/Icircumflex    % 187
/Idieresis      % 188
/Ograve         % 189
/Oacute         % 190
/Ocircumflex    % 191
/Ugrave         % 192
/Uacute         % 193
/Ucircumflex    % 194
/Ydieresis      % 195
/germandbls     % 196
/guillemotleft  % 197
/guillemotright % 198
/bullet         % 199
/.notdef        % 200
/.notdef        % 201
/.notdef        % 202
/.notdef        % 203
/.notdef        % 204
/.notdef        % 205
/.notdef        % 206
/.notdef        % 207
/.notdef        % 208
/.notdef        % 209
/.notdef        % 210
/.notdef        % 211
/.notdef        % 212
/.notdef        % 213
/.notdef        % 214
/.notdef        % 215
/.notdef        % 216
/.notdef        % 217
/.notdef        % 218
/.notdef        % 219
/.notdef        % 220
/.notdef        % 221
/.notdef        % 222
/.notdef        % 223
/.notdef        % 224
/.notdef        % 225
/.notdef        % 226
/.notdef        % 227
/.notdef        % 228
/.notdef        % 229
/.notdef        % 230
/.notdef        % 231
/.notdef        % 232
/.notdef        % 233
/.notdef        % 234
/.notdef        % 235
/.notdef        % 236
/.notdef        % 237
/.notdef        % 238
/.notdef        % 239
/.notdef        % 240
/.notdef        % 241
/.notdef        % 242
/.notdef        % 243
/.notdef        % 244
/.notdef        % 245
/.notdef        % 246
/.notdef        % 247
/.notdef        % 248
/.notdef        % 249
/.notdef        % 250
/.notdef        % 251
/.notdef        % 252
/.notdef        % 253
/.notdef        % 254
/.notdef        % 255
] 
def

/axumfindfont
{
   /axumfont axumencoding reencode
   /axumfont findfont
}
def


/MainFont /Helvetica axumfindfont 98 scalefont def
MainFont setfont
1 setlinejoin 0 setlinecap 0 setgray
 gsave 72 630 div dup scale
 [] 0 setdash

1 setlinewidth
 787 340
 2887 340 3307 970 1207 970 787 340
 4 3 1 roll cnp
 0.93 setgray eofill 0.0 setgray 3412 2334
 3408 2338 3403 2341 3398 2345 3392 2349
 3387 2352 3382 2356 3377 2359 3372 2363
 3366 2366 3361 2369 3356 2372 3351 2375
 3346 2378 3341 2380 3336 2383 3332 2385
 3327 2388 3322 2390 3317 2392 3313 2394
 3308 2396 3304 2397 3300 2399 3296 2400
 3291 2402 3287 2403 3284 2404 3280 2405
 3276 2405 3273 2406 3269 2406 3266 2407
 3263 2407 3260 2407 3257 2407 3254 2407
 3252 2406 3249 2406 3247 2405 3245 2404
 3243 2403 3241 2402 3239 2401 3237 2399
 3236 2398 2047 655 3412 1985 3412 2334
 48 3 1 roll cnp
 1.00 setgray eofill 0.0 setgray 682 2334
 686 2338 691 2341 696 2345 702 2349
 707 2352 712 2356 717 2359 722 2363
 728 2366 733 2369 738 2372 743 2375
 748 2378 753 2380 758 2383 762 2385
 767 2388 772 2390 777 2392 781 2394
 786 2396 790 2397 794 2399 798 2400
 803 2402 807 2403 810 2404 814 2405
 818 2405 821 2406 825 2406 828 2407
 831 2407 834 2407 837 2407 840 2407
 842 2406 845 2406 847 2405 849 2404
 851 2403 853 2402 855 2401 857 2399
 858 2398 2047 655 682 1986 682 2334
 48 3 1 roll cnp
 1.00 setgray eofill 0.0 setgray 0.0 setgray 3558 2128 3559 2130 3560 2131 3561 2133 3562 2135 3562 2138 3563 2140 3563 2142 3563 2145
 3563 2147 3563 2150 3562 2153 3562 2156 3561 2159 3560 2162 3559 2166 3558 2169
 3557 2172 3555 2176 3554 2180 3552 2183 3550 2187 3548 2191 3545 2195 3543 2199
 3540 2203 3538 2207 3535 2211 3532 2216 3529 2220 3526 2224 3522 2229 3519 2233
 3515 2237 3511 2242 3507 2246 3503 2251 3499 2255 3495 2260 3491 2264 3487 2269
 3482 2274 3478 2278 3473 2283 3468 2287 3464 2291 3459 2296 3454 2300 3449 2305
 3444 2309 3439 2313 3434 2317 3429 2322 3424 2326 3419 2330 3413 2334 3408 2338
 3403 2341 3398 2345 3392 2349 3387 2352 3382 2356 3377 2359 3372 2363 3366 2366
 3361 2369 3356 2372 3351 2375 3346 2378 3341 2380 3336 2383 3332 2385 3327 2388
 3322 2390 3317 2392 3313 2394 3308 2396 3304 2397 3300 2399 3296 2400 3291 2402
 3287 2403 3284 2404 3280 2405 3276 2405 3273 2406 3269 2406 3266 2407 3263 2407
 3260 2407 3257 2407 3254 2407 3252 2406 3249 2406 3247 2405 3245 2404 3243 2403
 3241 2402 3239 2401 3237 2399 3236 2398 2047 655 101 rcs

 3558 2128 3556 2127 3555 2125 3553 2124 3551 2123 3549 2122 3547 2121 3545 2120 3542 2120
 3540 2119 3537 2119 3534 2119 3531 2119 3528 2119 3524 2119 3521 2120 3518 2121
 3514 2121 3510 2122 3506 2123 3502 2124 3498 2126 3494 2127 3490 2129 3485 2130
 3481 2132 3476 2134 3472 2136 3467 2138 3462 2141 3457 2143 3452 2146 3447 2148
 3442 2151 3437 2154 3432 2157 3427 2160 3422 2163 3417 2167 3412 2170 3406 2173
 3401 2177 3396 2181 3391 2185 3386 2188 3380 2192 3375 2196 3370 2200 3365 2204
 3360 2209 3355 2213 3350 2217 3345 2221 3340 2226 3335 2230 3330 2234 3325 2239
 3321 2243 3316 2248 3311 2252 3307 2257 3303 2261 3298 2266 3294 2270 3290 2275
 3286 2279 3282 2284 3279 2288 3275 2293 3272 2297 3268 2302 3265 2306 3262 2310
 3259 2315 3256 2319 3253 2323 3251 2327 3248 2331 3246 2335 3244 2339 3242 2343
 3240 2346 3238 2350 3237 2354 3236 2357 3234 2360 3233 2364 3232 2367 3232 2370
 3231 2373 3231 2376 3231 2379 3231 2381 3231 2384 3231 2386 3231 2388 3232 2391
 3233 2393 3234 2394 3235 2396 3236 2398 100 rps
 [20 20] 0 setdash
 537 2128 539 2127 540 2125 542 2124 544 2123 546 2122 548 2121 550 2120 553 2120
 555 2119 558 2119 561 2119 564 2119 567 2119 571 2119 574 2120 577 2121
 581 2121 585 2122 589 2123 593 2124 597 2126 601 2127 605 2129 610 2130
 614 2132 619 2134 623 2136 628 2138 633 2141 638 2143 643 2146 648 2148
 653 2151 658 2154 663 2157 668 2160 673 2163 678 2167 682 2170 688 2173
 693 2177 698 2181 703 2185 708 2188 714 2192 719 2196 724 2200 729 2204
 734 2209 739 2213 744 2217 749 2221 754 2226 759 2230 764 2234 769 2239
 773 2243 778 2248 783 2252 787 2257 791 2261 796 2266 800 2270 804 2275
 808 2279 812 2284 815 2288 819 2293 822 2297 826 2302 829 2306 832 2310
 835 2315 838 2319 841 2323 843 2327 846 2331 848 2335 850 2339 852 2343
 854 2346 856 2350 857 2354 858 2357 860 2360 861 2364 862 2367 862 2370
 863 2373 863 2376 863 2379 863 2381 863 2384 863 2386 863 2388 862 2391
 861 2393 860 2394 859 2396 858 2398 100 rps
 [] 0 setdash
 537 2128 536 2130 535 2131 534 2133 533 2135 533 2138 532 2140 532 2142 532 2145
 532 2147 532 2150 533 2153 533 2156 534 2159 535 2162 536 2166 537 2169
 538 2172 540 2176 541 2180 543 2183 545 2187 547 2191 550 2195 552 2199
 555 2203 557 2207 560 2211 563 2216 566 2220 569 2224 573 2229 576 2233
 580 2237 584 2242 588 2246 592 2251 596 2255 600 2260 604 2264 608 2269
 613 2274 617 2278 622 2283 627 2287 631 2291 636 2296 641 2300 646 2305
 651 2309 656 2313 661 2317 666 2322 671 2326 676 2330 682 2334 686 2338
 691 2341 696 2345 702 2349 707 2352 712 2356 717 2359 722 2363 728 2366
 733 2369 738 2372 743 2375 748 2378 753 2380 758 2383 762 2385 767 2388
 772 2390 777 2392 781 2394 786 2396 790 2397 794 2399 798 2400 803 2402
 807 2403 810 2404 814 2405 818 2405 821 2406 825 2406 828 2407 831 2407
 834 2407 837 2407 840 2407 842 2406 845 2406 847 2405 849 2404 851 2403
 853 2402 855 2401 857 2399 858 2398 2047 655 101 rcs


/Symbol findfont 124 scalefont setfont
 2343 1515 moveto  (q) show 
 1692 1515 moveto  (q) show 

/Times-Italic axumfindfont 128 scalefont setfont
 3162 2497 moveto  (d) show 

/Symbol findfont 124 scalefont setfont
 3225 2497 moveto  (W) show 

/Times-Italic axumfindfont 128 scalefont setfont
 764 2497 moveto  (d) show 

/Symbol findfont 124 scalefont setfont
 827 2497 moveto  (W) show 

/Times-Italic axumfindfont 128 scalefont setfont
 996 404 moveto  (dA) show 
 2143 2670 moveto  (z) show 
 2047 655 2047 2752 1 rps
 2069 2662 2047 2752 1 rps
 2024 2662 2047 2752 1 rps
 3530 2425 3799 2743 1 rps
 3799 2743
 3758 2659 3723 2688 3799 2743 3 3 1 roll cnp
 0.00 setgray
gsave eofill grestore  0.0 setgray
 stroke 0.0 setgray 0.0 setgray 564 2425 291 2743 1 rps
 564 2425
 488 2478 522 2507 564 2425 3 3 1 roll cnp
 0.00 setgray
gsave eofill grestore  0.0 setgray
 stroke 0.0 setgray 0.0 setgray 2006 1492 2047 1492 1 rps
 2047 1492
 1979 1469 1979 1514 2047 1492 3 3 1 roll cnp
 0.00 setgray
gsave eofill grestore  0.0 setgray
 stroke 0.0 setgray 0.0 setgray 2088 1492 2047 1492 1 rps
 2047 1492
 2115 1514 2115 1469 2047 1492 3 3 1 roll cnp
 0.00 setgray
gsave eofill grestore  0.0 setgray
 stroke 0.0 setgray 0.0 setgray 2561 1314 2584 1296 1 rps
 2584 1296
 2516 1320 2544 1355 2584 1296 3 3 1 roll cnp
 0.00 setgray
gsave eofill grestore  0.0 setgray
 stroke 0.0 setgray 0.0 setgray 1528 1314 1506 1296 1 rps
 1506 1296
 1544 1356 1572 1321 1506 1296 3 3 1 roll cnp
 0.00 setgray
gsave eofill grestore  0.0 setgray
 stroke 0.0 setgray 0.0 setgray
10 setlinewidth
 787 341 2884 341 1 rps
 787 341 1205 969 1 rps
 2884 341 3307 969 1 rps
 1205 969 1647 969 1 rps
 1897 969 1983 969 1 rps
 2111 969 2193 969 1 rps
 2443 969 3307 969 1 rps
 [20 20] 0 setdash

1 setlinewidth
 2047 655 3394 2261 1 rps
 2047 655 696 2261 1 rps
 [] 0 setdash
 2585 1296 2581 1300 2577 1303 2573 1306 2568 1310 2564 1313 2560 1316 2556 1320 2551 1323
 2547 1326 2543 1329 2538 1333 2534 1336 2529 1339 2525 1342 2521 1345 2516 1348
 2512 1351 2507 1354 2503 1357 2498 1360 2494 1363 2489 1366 2484 1369 2480 1371
 2475 1374 2470 1377 2466 1380 2461 1382 2456 1385 2452 1388 2447 1390 2442 1393
 2437 1395 2433 1398 2428 1400 2423 1403 2418 1405 2413 1408 2408 1410 2404 1412
 2399 1415 2394 1417 2389 1419 2384 1421 2379 1423 2374 1426 2369 1428 2364 1430
 2359 1432 2354 1434 2349 1436 2344 1438 2339 1439 2334 1441 2329 1443 2324 1445
 2318 1447 2313 1448 2308 1450 2303 1452 2298 1454 2293 1455 2288 1457 2282 1458
 2277 1460 2272 1461 2267 1463 2262 1464 2256 1465 2251 1467 2246 1468 2241 1469
 2235 1471 2230 1472 2225 1473 2220 1474 2214 1475 2209 1476 2204 1477 2198 1478
 2193 1479 2188 1480 2182 1481 2177 1482 2172 1483 2166 1483 2161 1484 2156 1485
 2150 1486 2145 1486 2140 1487 2134 1487 2129 1488 2123 1489 2118 1489 2113 1489
 2107 1490 2102 1490 2096 1491 2091 1491 100 rps
 2004 1491 1999 1491 1994 1490 1988 1490 1983 1489 1977 1489 1972 1489 1967 1488 1961 1488
 1956 1487 1951 1486 1945 1486 1940 1485 1935 1484 1929 1484 1924 1483 1918 1482
 1913 1481 1908 1480 1902 1479 1897 1478 1892 1477 1887 1476 1881 1475 1876 1474
 1871 1473 1865 1472 1860 1471 1855 1469 1850 1468 1844 1467 1839 1466 1834 1464
 1829 1463 1823 1461 1818 1460 1813 1458 1808 1457 1803 1455 1798 1454 1792 1452
 1787 1450 1782 1449 1777 1447 1772 1445 1767 1443 1762 1442 1757 1440 1752 1438
 1747 1436 1742 1434 1737 1432 1731 1430 1726 1428 1722 1426 1717 1424 1712 1421
 1707 1419 1702 1417 1697 1415 1692 1412 1687 1410 1682 1408 1677 1405 1672 1403
 1668 1401 1663 1398 1658 1396 1653 1393 1649 1391 1644 1388 1639 1385 1634 1383
 1630 1380 1625 1377 1620 1374 1616 1372 1611 1369 1606 1366 1602 1363 1597 1360
 1593 1357 1588 1354 1584 1351 1579 1348 1575 1345 1570 1342 1566 1339 1562 1336
 1557 1333 1553 1330 1548 1327 1544 1323 1540 1320 1536 1317 1531 1313 1527 1310
 1523 1307 1519 1303 1514 1300 1510 1296 100 rps
 grestore showpage
%Trailer
%EOF
