%!PS-Adobe-2.0 EPSF-1.2
%%BoundingBox: 0 0 468 360
%%%%DocumentFonts: /Helvetica
%%Title: Axum PostScript file
%%Creator: TriMetrix, Inc.
%%Pages: 1
%%EndComments
% Copyright 1988-1991 by TriMetrix, Inc. All rights reserved.
/downdict 4 dict def
/sdown
 {downdict begin
  /thestring exch def
  /lineskip exch def
  thestring
   {
    /charcode exch def
    /thechar ( ) dup 0 charcode put def
    0 lineskip neg rmoveto
    gsave
     thechar stringwidth pop 2 div neg 0 rmoveto
     thechar show
    grestore
   } forall
   end
  } def

/updict 4 dict def
/sup
 {updict begin
  /thestring exch def
  /lineskip exch def
  thestring 
   {
    /charcode exch def
    /thechar ( ) dup 0 charcode put def
    0 lineskip rmoveto
    gsave
     thechar stringwidth pop 2 div neg 0 rmoveto
     thechar show
    grestore
   } forall
   end
  } def

/leftdict 4 dict def
/sleft
 {leftdict begin
  /thestring exch def
  thestring
   {
    /charcode exch def
    /thechar ( ) dup 0 charcode put def
    gsave
     thechar stringwidth pop neg 0 rmoveto
     thechar show
    grestore
   } forall

   thechar stringwidth pop neg 0 rmoveto
   end
  } def

/path{newpath moveto{lineto}repeat} bind def 
/cnp{newpath moveto{lineto}repeat closepath} bind def
/clp{moveto{lineto}repeat closepath} bind def
/rps{ 3 1 roll path stroke} bind def
/rcs{ 3 1 roll clp stroke} bind def
/setF { currentscreen 4 -2 roll pop 3 1 roll setscreen} bind def
% required due to WinWord 2.0 bug:
/II { } def

/reencodedict 5 dict def
/reencode
{
   reencodedict begin
   /newencoding exch def
   /newfontname exch def
   /basefontname exch def

   /basefontdict basefontname findfont def
   /newfont basefontdict maxlength dict def

   basefontdict
   {
      exch dup dup /FID ne exch /Encoding ne and
      { exch newfont 3 1 roll put }
      { pop pop }
      ifelse
   }
   forall

   newfont /FontName newfontname put
   newfont /Encoding newencoding put
   newfontname newfont definefont pop
   end
}
def

/axumencoding
[
/.notdef        %   0
/.notdef        %   1
/.notdef        %   2
/.notdef        %   3
/.notdef        %   4
/.notdef        %   5
/.notdef        %   6
/.notdef        %   7
/.notdef        %   8
/.notdef        %   9
/.notdef        %  10
/.notdef        %  11
/.notdef        %  12
/.notdef        %  13
/.notdef        %  14
/.notdef        %  15
/.notdef        %  16
/.notdef        %  17
/.notdef        %  18
/.notdef        %  19
/.notdef        %  20
/.notdef        %  21
/.notdef        %  22
/.notdef        %  23
/.notdef        %  24
/.notdef        %  25
/.notdef        %  26
/.notdef        %  27
/.notdef        %  28
/.notdef        %  29
/.notdef        %  30
/.notdef        %  31
/space          %  32
/exclam         %  33
/quotedbl       %  34
/numbersign     %  35
/dollar         %  36
/percent        %  37
/ampersand      %  38
/quoteright     %  39
/parenleft      %  40
/parenright     %  41
/asterisk       %  42
/plus           %  43
/comma          %  44
/hyphen         %  45
/period         %  46
/slash          %  47
/zero           %  48
/one            %  49
/two            %  50
/three          %  51
/four           %  52
/five           %  53
/six            %  54
/seven          %  55
/eight          %  56
/nine           %  57
/colon          %  58
/semicolon      %  59
/less           %  60
/equal          %  61
/greater        %  62
/question       %  63
/at             %  64
/A              %  65
/B              %  66
/C              %  67
/D              %  68
/E              %  69
/F              %  70
/G              %  71
/H              %  72
/I              %  73
/J              %  74
/K              %  75
/L              %  76
/M              %  77
/N              %  78
/O              %  79
/P              %  80
/Q              %  81
/R              %  82
/S              %  83
/T              %  84
/U              %  85
/V              %  86
/W              %  87
/X              %  88
/Y              %  89
/Z              %  90
/bracketleft    %  91
/backslash      %  92
/bracketright   %  93
/asciicircum    %  94
/underscore     %  95
/quoteleft      %  96
/a              %  97
/b              %  98
/c              %  99
/d              % 100
/e              % 101
/f              % 102
/g              % 103
/h              % 104
/i              % 105
/j              % 106
/k              % 107
/l              % 108
/m              % 109
/n              % 110
/o              % 111
/p              % 112
/q              % 113
/r              % 114
/s              % 115
/t              % 116
/u              % 117
/v              % 118
/w              % 119
/x              % 120
/y              % 121
/z              % 122
/braceleft      % 123
/bar            % 124
/braceright     % 125
/asciitilde     % 126
/.notdef        % 127
/Ccedilla       % 128
/udieresis      % 129
/eacute         % 130
/acircumflex    % 131
/adieresis      % 132
/agrave         % 133
/aring          % 134
/ccedilla       % 135
/ecircumflex    % 136
/edieresis      % 137
/egrave         % 138
/idieresis      % 139
/icircumflex    % 140
/igrave         % 141
/Adieresis      % 142
/Aring          % 143
/Eacute         % 144
/ae             % 145
/AE             % 146
/ocircumflex    % 147
/odieresis      % 148
/ograve         % 149
/ucircumflex    % 150
/ugrave         % 151
/ydieresis      % 152
/Odieresis      % 153
/Udieresis      % 154
/cent           % 155
/sterling       % 156
/yen            % 157
/currency       % 158
/florin         % 159
/aacute         % 160
/iacute         % 161
/oacute         % 162
/uacute         % 163
/ntilde         % 164
/Ntilde         % 165
/ordfeminine    % 166
/ordmasculine   % 167
/questiondown   % 168
/quotedblleft   % 169
/quotedblright  % 170
/Aacute         % 171
/Acircumflex    % 172
/exclamdown     % 173
/Egrave         % 174
/Ecircumflex    % 175
/atilde         % 176
/otilde         % 177
/Edieresis      % 178
/Igrave         % 179
/oe             % 180
/OE             % 181
/Agrave         % 182
/Atilde         % 183
/Otilde         % 184
/section        % 185
/Iacute         % 186
/Icircumflex    % 187
/Idieresis      % 188
/Ograve         % 189
/Oacute         % 190
/Ocircumflex    % 191
/Ugrave         % 192
/Uacute         % 193
/Ucircumflex    % 194
/Ydieresis      % 195
/germandbls     % 196
/guillemotleft  % 197
/guillemotright % 198
/bullet         % 199
/.notdef        % 200
/.notdef        % 201
/.notdef        % 202
/.notdef        % 203
/.notdef        % 204
/.notdef        % 205
/.notdef        % 206
/.notdef        % 207
/.notdef        % 208
/.notdef        % 209
/.notdef        % 210
/.notdef        % 211
/.notdef        % 212
/.notdef        % 213
/.notdef        % 214
/.notdef        % 215
/.notdef        % 216
/.notdef        % 217
/.notdef        % 218
/.notdef        % 219
/.notdef        % 220
/.notdef        % 221
/.notdef        % 222
/.notdef        % 223
/.notdef        % 224
/.notdef        % 225
/.notdef        % 226
/.notdef        % 227
/.notdef        % 228
/.notdef        % 229
/.notdef        % 230
/.notdef        % 231
/.notdef        % 232
/.notdef        % 233
/.notdef        % 234
/.notdef        % 235
/.notdef        % 236
/.notdef        % 237
/.notdef        % 238
/.notdef        % 239
/.notdef        % 240
/.notdef        % 241
/.notdef        % 242
/.notdef        % 243
/.notdef        % 244
/.notdef        % 245
/.notdef        % 246
/.notdef        % 247
/.notdef        % 248
/.notdef        % 249
/.notdef        % 250
/.notdef        % 251
/.notdef        % 252
/.notdef        % 253
/.notdef        % 254
/.notdef        % 255
] 
def

/axumfindfont
{
   /axumfont axumencoding reencode
   /axumfont findfont
}
def


/MainFont /Helvetica axumfindfont 98 scalefont def
MainFont setfont
1 setlinejoin 0 setlinecap 0 setgray
 gsave 72 630 div dup scale
 [] 0 setdash

1 setlinewidth
 3473 1551
 3472 1565 3470 1579 3466 1593 3461 1606
 3454 1620 3445 1634 3435 1647 3424 1660
 3411 1674 3396 1687 3380 1700 3363 1713
 3344 1725 3324 1738 3302 1750 3279 1763
 3255 1774 3229 1786 3202 1798 3174 1809
 3144 1820 3114 1831 3082 1841 3048 1851
 3014 1861 2979 1871 2943 1880 2905 1889
 2867 1897 2827 1905 2787 1913 2746 1921
 2704 1928 2662 1935 2618 1941 2574 1947
 2529 1953 2484 1958 2438 1963 2392 1967
 2345 1971 2297 1975 2250 1978 2202 1980
 2153 1983 2105 1984 2056 1986 2007 1987
 1958 1987 1909 1987 1860 1987 1811 1986
 1763 1985 1714 1984 1665 1982 1617 1979
 1569 1976 1522 1973 1475 1969 1428 1965
 1382 1960 1336 1955 1291 1950 1247 1944
 1203 1938 1160 1931 1118 1924 1076 1917
 1035 1909 996 1901 957 1893 919 1884
 882 1875 846 1866 812 1856 778 1846
 745 1836 714 1825 684 1814 655 1803
 627 1792 601 1780 576 1769 552 1756
 530 1744 509 1732 489 1719 471 1706
 454 1693 439 1680 426 1667 413 1654
 403 1640 393 1627 386 1613 379 1600
 375 1586 372 1572 370 1558 370 1545
 372 1531 375 1517 379 1503 386 1490
 393 1476 403 1463 413 1449 426 1436
 439 1423 454 1410 471 1397 489 1384
 509 1371 530 1359 552 1347 576 1334
 601 1323 627 1311 655 1300 684 1289
 714 1278 745 1267 778 1257 812 1247
 846 1237 882 1228 919 1219 957 1210
 996 1202 1036 1194 1076 1186 1118 1179
 1160 1172 1203 1165 1247 1159 1291 1153
 1336 1148 1382 1143 1428 1138 1475 1134
 1522 1130 1569 1127 1617 1124 1666 1121
 1714 1119 1763 1118 1811 1117 1860 1116
 1909 1116 1958 1116 2007 1116 2056 1117
 2105 1119 2153 1120 2202 1123 2250 1125
 2297 1128 2345 1132 2392 1136 2438 1140
 2484 1145 2529 1150 2574 1156 2618 1162
 2662 1168 2704 1175 2746 1182 2787 1190
 2828 1198 2867 1206 2905 1214 2943 1223
 2979 1232 3014 1242 3048 1252 3082 1262
 3114 1272 3144 1283 3174 1294 3202 1305
 3229 1317 3255 1329 3279 1340 3302 1353
 3324 1365 3344 1378 3363 1390 3380 1403
 3396 1416 3411 1429 3424 1443 3435 1456
 3445 1469 3454 1483 3461 1497 3466 1510
 3470 1524 3472 1538 3473 1552 3473 1551
 200 3 1 roll cnp
 0.93 setgray eofill 0.0 setgray
 newpath
 370 1396 moveto 370 1396 lineto
 370 1389 lineto 371 1383 lineto
 372 1376 lineto 373 1369 lineto
 375 1362 lineto 377 1355 lineto
 379 1348 lineto 382 1341 lineto
 386 1335 lineto 389 1328 lineto
 393 1321 lineto 398 1314 lineto
 403 1307 lineto 408 1301 lineto
 413 1294 lineto 419 1287 lineto
 426 1281 lineto 432 1274 lineto
 439 1268 lineto 447 1261 lineto
 454 1254 lineto 463 1248 lineto
 471 1241 lineto 480 1235 lineto
 489 1229 lineto 499 1222 lineto
 509 1216 lineto 519 1210 lineto
 530 1204 lineto 541 1197 lineto
 552 1191 lineto 564 1185 lineto
 576 1179 lineto 588 1173 lineto
 601 1168 lineto 614 1162 lineto
 627 1156 lineto 641 1150 lineto
 655 1145 lineto 669 1139 lineto
 684 1133 lineto 699 1128 lineto
 714 1123 lineto 729 1117 lineto
 745 1112 lineto 761 1107 lineto
 778 1102 lineto 795 1097 lineto
 812 1092 lineto 829 1087 lineto
 846 1082 lineto 864 1077 lineto
 882 1073 lineto 900 1068 lineto
 919 1064 lineto 938 1059 lineto
 957 1055 lineto 976 1051 lineto
 996 1046 lineto 1016 1042 lineto
 1036 1038 lineto 1056 1035 lineto
 1076 1031 lineto 1097 1027 lineto
 1118 1023 lineto 1139 1020 lineto
 1160 1016 lineto 1181 1013 lineto
 1203 1010 lineto 1225 1007 lineto
 1247 1004 lineto 1269 1001 lineto
 1291 998 lineto 1314 995 lineto
 1336 993 lineto 1359 990 lineto
 1382 988 lineto 1405 985 lineto
 1428 983 lineto 1451 981 lineto
 1475 979 lineto 1498 977 lineto
 1522 975 lineto 1546 973 lineto
 1569 972 lineto 1593 970 lineto
 1617 969 lineto 1641 968 lineto
 1666 966 lineto 1690 965 lineto
 1714 964 lineto 1738 963 lineto
 1763 963 lineto 1787 962 lineto
 1811 961 lineto 1836 961 lineto
 1860 961 lineto 1885 960 lineto
 1909 960 lineto 1934 960 lineto
 1958 960 lineto 1983 961 lineto
 2007 961 lineto 2032 961 lineto
 2056 962 lineto 2080 963 lineto
 2105 963 lineto 2129 964 lineto
 2153 965 lineto 2178 966 lineto
 2202 968 lineto 2226 969 lineto
 2250 970 lineto 2274 972 lineto
 2297 973 lineto 2321 975 lineto
 2345 977 lineto 2368 979 lineto
 2392 981 lineto 2415 983 lineto
 2438 985 lineto 2461 988 lineto
 2484 990 lineto 2507 993 lineto
 2529 995 lineto 2552 998 lineto
 2574 1001 lineto 2596 1004 lineto
 2618 1007 lineto 2640 1010 lineto
 2662 1013 lineto 2683 1016 lineto
 2704 1020 lineto 2725 1023 lineto
 2746 1027 lineto 2767 1031 lineto
 2787 1035 lineto 2808 1038 lineto
 2828 1042 lineto 2847 1046 lineto
 2867 1051 lineto 2886 1055 lineto
 2905 1059 lineto 2924 1064 lineto
 2943 1068 lineto 2961 1073 lineto
 2979 1077 lineto 2997 1082 lineto
 3014 1087 lineto 3032 1092 lineto
 3048 1097 lineto 3065 1102 lineto
 3082 1107 lineto 3098 1112 lineto
 3114 1117 lineto 3129 1123 lineto
 3144 1128 lineto 3159 1133 lineto
 3174 1139 lineto 3188 1145 lineto
 3202 1150 lineto 3216 1156 lineto
 3229 1162 lineto 3242 1168 lineto
 3255 1173 lineto 3267 1179 lineto
 3279 1185 lineto 3291 1191 lineto
 3302 1197 lineto 3313 1204 lineto
 3324 1210 lineto 3334 1216 lineto
 3344 1222 lineto 3354 1229 lineto
 3363 1235 lineto 3372 1241 lineto
 3380 1248 lineto 3389 1254 lineto
 3396 1261 lineto 3404 1268 lineto
 3411 1274 lineto 3417 1281 lineto
 3424 1287 lineto 3430 1294 lineto
 3435 1301 lineto 3440 1308 lineto
 3445 1314 lineto 3450 1321 lineto
 3454 1328 lineto 3457 1335 lineto
 3461 1341 lineto 3464 1348 lineto
 3466 1355 lineto 3468 1362 lineto
 3470 1369 lineto 3471 1376 lineto
 3472 1383 lineto 3473 1389 lineto
 3473 1396 lineto 3473 1552 lineto
 3472 1538 lineto 3470 1524 lineto
 3466 1510 lineto 3461 1496 lineto
 3454 1483 lineto 3445 1469 lineto
 3435 1455 lineto 3423 1442 lineto
 3410 1429 lineto 3396 1415 lineto
 3379 1402 lineto 3362 1389 lineto
 3343 1377 lineto 3322 1364 lineto
 3301 1352 lineto 3277 1340 lineto
 3253 1328 lineto 3227 1316 lineto
 3199 1304 lineto 3171 1293 lineto
 3141 1282 lineto 3110 1271 lineto
 3078 1261 lineto 3044 1251 lineto
 3010 1241 lineto 2974 1231 lineto
 2938 1222 lineto 2900 1213 lineto
 2861 1205 lineto 2821 1196 lineto
 2781 1188 lineto 2739 1181 lineto
 2697 1174 lineto 2654 1167 lineto
 2610 1161 lineto 2566 1155 lineto
 2521 1149 lineto 2475 1144 lineto
 2429 1139 lineto 2382 1135 lineto
 2335 1131 lineto 2287 1128 lineto
 2239 1125 lineto 2191 1122 lineto
 2142 1120 lineto 2093 1118 lineto
 2044 1117 lineto 1995 1116 lineto
 1946 1116 lineto 1897 1116 lineto
 1848 1116 lineto 1799 1117 lineto
 1750 1118 lineto 1701 1120 lineto
 1652 1122 lineto 1604 1125 lineto
 1556 1128 lineto 1508 1131 lineto
 1461 1135 lineto 1414 1139 lineto
 1368 1144 lineto 1322 1149 lineto
 1277 1155 lineto 1233 1161 lineto
 1189 1167 lineto 1146 1174 lineto
 1104 1181 lineto 1062 1188 lineto
 1022 1196 lineto 982 1205 lineto
 943 1213 lineto 905 1222 lineto
 869 1231 lineto 833 1241 lineto
 799 1251 lineto 765 1261 lineto
 733 1271 lineto 702 1282 lineto
 672 1293 lineto 644 1304 lineto
 616 1316 lineto 590 1328 lineto
 566 1340 lineto 542 1352 lineto
 521 1364 lineto 500 1377 lineto
 481 1389 lineto 464 1402 lineto
 447 1415 lineto 433 1429 lineto
 420 1442 lineto 408 1455 lineto
 398 1469 lineto 389 1483 lineto
 382 1496 lineto 377 1510 lineto
 373 1524 lineto 371 1538 lineto
 370 1551 lineto 370 1396 lineto
 closepath
 0.87 setgray eofill 0.0 setgray 0.0 setgray 3473 1551 3472 1565 3470 1579 3466 1593 3461 1606 3454 1620 3445 1634 3435 1647 3424 1660
 3411 1674 3396 1687 3380 1700 3363 1713 3344 1725 3324 1738 3302 1750 3279 1763
 3255 1774 3229 1786 3202 1798 3174 1809 3144 1820 3114 1831 3082 1841 3048 1851
 3014 1861 2979 1871 2943 1880 2905 1889 2867 1897 2827 1905 2787 1913 2746 1921
 2704 1928 2662 1935 2618 1941 2574 1947 2529 1953 2484 1958 2438 1963 2392 1967
 2345 1971 2297 1975 2250 1978 2202 1980 2153 1983 2105 1984 2056 1986 2007 1987
 1958 1987 1909 1987 1860 1987 1811 1986 1763 1985 1714 1984 1665 1982 1617 1979
 1569 1976 1522 1973 1475 1969 1428 1965 1382 1960 1336 1955 1291 1950 1247 1944
 1203 1938 1160 1931 1118 1924 1076 1917 1035 1909 996 1901 957 1893 919 1884
 882 1875 846 1866 812 1856 778 1846 745 1836 714 1825 684 1814 655 1803
 627 1792 601 1780 576 1769 552 1756 530 1744 509 1732 489 1719 471 1706
 454 1693 439 1680 426 1667 413 1654 403 1640 393 1627 386 1613 379 1600
 375 1586 372 1572 370 1558 370 1545 372 1531 101 rps
 372 1531 375 1517 379 1503 386 1490 393 1476 403 1463 413 1449 426 1436 439 1423
 454 1410 471 1397 489 1384 509 1371 530 1359 552 1347 576 1334 601 1323
 627 1311 655 1300 684 1289 714 1278 745 1267 778 1257 812 1247 846 1237
 882 1228 919 1219 957 1210 996 1202 1036 1194 1076 1186 1118 1179 1160 1172
 1203 1165 1247 1159 1291 1153 1336 1148 1382 1143 1428 1138 1475 1134 1522 1130
 1569 1127 1617 1124 1666 1121 1714 1119 1763 1118 1811 1117 1860 1116 1909 1116
 1958 1116 2007 1116 2056 1117 2105 1119 2153 1120 2202 1123 2250 1125 2297 1128
 2345 1132 2392 1136 2438 1140 2484 1145 2529 1150 2574 1156 2618 1162 2662 1168
 2704 1175 2746 1182 2787 1190 2828 1198 2867 1206 2905 1214 2943 1223 2979 1232
 3014 1242 3048 1252 3082 1262 3114 1272 3144 1283 3174 1294 3202 1305 3229 1317
 3255 1329 3279 1340 3302 1353 3324 1365 3344 1378 3363 1390 3380 1403 3396 1416
 3411 1429 3424 1443 3435 1456 3445 1469 3454 1483 3461 1497 3466 1510 3470 1524
 3472 1538 3473 1552 98 rps
 370 1551 370 1396 370 1389 371 1383 372 1376 373 1369 375 1362 377 1355 379 1348
 382 1341 386 1335 389 1328 393 1321 398 1314 403 1307 408 1301 413 1294
 419 1287 426 1281 432 1274 439 1268 447 1261 454 1254 463 1248 471 1241
 480 1235 489 1229 499 1222 509 1216 519 1210 530 1204 541 1197 552 1191
 564 1185 576 1179 588 1173 601 1168 614 1162 627 1156 641 1150 655 1145
 669 1139 684 1133 699 1128 714 1123 729 1117 745 1112 761 1107 778 1102
 795 1097 812 1092 829 1087 846 1082 864 1077 882 1073 900 1068 919 1064
 938 1059 957 1055 976 1051 996 1046 1016 1042 1036 1038 1056 1035 1076 1031
 1097 1027 1118 1023 1139 1020 1160 1016 1181 1013 1203 1010 1225 1007 1247 1004
 1269 1001 1291 998 1314 995 1336 993 1359 990 1382 988 1405 985 1428 983
 1451 981 1475 979 1498 977 1522 975 1546 973 1569 972 1593 970 1617 969
 1641 968 1666 966 1690 965 1714 964 1738 963 1763 963 1787 962 1811 961
 1836 961 1860 961 1885 960 1909 960 1934 960 101 rps
 1934 960 1958 960 1983 961 2007 961 2032 961 2056 962 2080 963 2105 963 2129 964
 2153 965 2178 966 2202 968 2226 969 2250 970 2274 972 2297 973 2321 975
 2345 977 2368 979 2392 981 2415 983 2438 985 2461 988 2484 990 2507 993
 2529 995 2552 998 2574 1001 2596 1004 2618 1007 2640 1010 2662 1013 2683 1016
 2704 1020 2725 1023 2746 1027 2767 1031 2787 1035 2808 1038 2828 1042 2847 1046
 2867 1051 2886 1055 2905 1059 2924 1064 2943 1068 2961 1073 2979 1077 2997 1082
 3014 1087 3032 1092 3048 1097 3065 1102 3082 1107 3098 1112 3114 1117 3129 1123
 3144 1128 3159 1133 3174 1139 3188 1145 3202 1150 3216 1156 3229 1162 3242 1168
 3255 1173 3267 1179 3279 1185 3291 1191 3302 1197 3313 1204 3324 1210 3334 1216
 3344 1222 3354 1229 3363 1235 3372 1241 3380 1248 3389 1254 3396 1261 3404 1268
 3411 1274 3417 1281 3424 1287 3430 1294 3435 1301 3440 1308 3445 1314 3450 1321
 3454 1328 3457 1335 3461 1341 3464 1348 3466 1355 3468 1362 3470 1369 3471 1376
 3472 1383 3473 1389 3473 1396 3473 1551 100 rps
 1550 1838 1557 1839 1564 1840 1572 1840 1579 1841 1586 1842 1594 1842 1601 1843 1608 1844
 1616 1844 1623 1845 1630 1846 1638 1846 1645 1847 1652 1847 1660 1848 1667 1848
 1675 1849 1682 1849 1690 1850 1697 1850 1705 1851 1712 1851 1720 1851 1727 1852
 1735 1852 1742 1853 1750 1853 1757 1853 1765 1854 1773 1854 1780 1854 1788 1854
 1795 1855 1803 1855 1811 1855 1818 1855 1826 1856 1834 1856 1841 1856 1849 1856
 1856 1856 1864 1856 1872 1856 1879 1856 1887 1857 1895 1857 1902 1857 1910 1857
 1918 1857 1925 1857 1933 1857 1941 1857 1948 1857 1956 1857 1964 1856 1971 1856
 1979 1856 1987 1856 1994 1856 2002 1856 2009 1856 2017 1856 2025 1855 2032 1855
 2040 1855 2048 1855 2055 1854 2063 1854 2070 1854 2078 1854 2086 1853 2093 1853
 2101 1853 2108 1852 2116 1852 2123 1851 2131 1851 2138 1851 2146 1850 2153 1850
 2161 1849 2168 1849 2176 1848 2183 1848 2191 1847 2198 1847 2205 1846 2213 1846
 2220 1845 2227 1844 2235 1844 2242 1843 2249 1842 2257 1842 2264 1841 2271 1840
 2279 1840 2286 1839 2293 1838 99 rps

/Symbol findfont 124 scalefont setfont
 1337 1560 moveto  (q) show 

/Times-Italic axumfindfont 128 scalefont setfont
 1182 1824 moveto  (z) show 
 1501 1674 moveto  (R) show 
 1196 2607 moveto  (Z) show 

/Symbol findfont 124 scalefont setfont
 759 2270 moveto  (P) show 
 1383 2325 moveto  (Q) show 
 1142 2170 814 2234 1 rps
 814 2234
 906 2238 898 2194 814 2234 3 3 1 roll cnp
 0.00 setgray
gsave eofill grestore  0.0 setgray
 stroke 0.0 setgray 0.0 setgray 1146 2170 1146 2638 1 rps
 1146 2638
 1168 2548 1123 2548 1146 2638 3 3 1 roll cnp
 0.00 setgray
gsave eofill grestore  0.0 setgray
 stroke 0.0 setgray 0.0 setgray 1142 2170 1392 2293 1 rps
 1392 2293
 1321 2233 1301 2273 1392 2293 3 3 1 roll cnp
 0.00 setgray
gsave eofill grestore  0.0 setgray
 stroke 0.0 setgray 1918 1540
 1922 1540 1926 1542 1929 1545 1931 1549
 1931 1553 1929 1557 1926 1560 1922 1562
 1918 1562 1914 1560 1911 1557 1909 1553
 1909 1549 1911 1545 1914 1542 1918 1540
 16 3 1 roll cnp
 0.00 setgray
gsave eofill grestore  0.0 setgray
 stroke 0.0 setgray 1144 2159
 1148 2159 1152 2161 1155 2164 1157 2168
 1157 2172 1155 2176 1152 2179 1148 2181
 1144 2181 1140 2179 1137 2176 1135 2172
 1135 2168 1137 2164 1140 2161 1144 2159
 16 3 1 roll cnp
 0.00 setgray
gsave eofill grestore  0.0 setgray
 stroke 0.0 setgray 830 1540
 834 1540 838 1542 841 1545 843 1549
 843 1553 841 1557 838 1560 834 1562
 830 1562 826 1560 823 1557 821 1553
 821 1549 823 1545 826 1542 830 1540
 16 3 1 roll cnp
 0.00 setgray
gsave eofill grestore  0.0 setgray
 stroke 0.0 setgray 0.0 setgray 1920 1551 832 1551 1 rps
 1146 1706 1146 2170 1 rps
 1920 1551 1146 1706 1 rps
 1466 1641 1466 1640 1465 1639 1465 1638 1465 1637 1465 1636 1465 1635 1465 1634 1464 1634
 1464 1633 1464 1632 1464 1631 1464 1630 1464 1629 1463 1628 1463 1627 1463 1626
 1463 1626 1463 1625 1463 1624 1463 1623 1462 1622 1462 1621 1462 1620 1462 1619
 1462 1618 1462 1618 1462 1617 1462 1616 1461 1615 1461 1614 1461 1613 1461 1612
 1461 1611 1461 1610 1461 1610 1461 1609 1460 1608 1460 1607 1460 1606 1460 1605
 1460 1604 1460 1603 1460 1602 1460 1602 1460 1601 1460 1600 1459 1599 1459 1598
 1459 1597 1459 1596 1459 1595 1459 1594 1459 1593 1459 1593 1459 1592 1459 1591
 1459 1590 1459 1589 1458 1588 1458 1587 1458 1586 1458 1585 1458 1584 1458 1584
 1458 1583 1458 1582 1458 1581 1458 1580 1458 1579 1458 1578 1458 1577 1458 1576
 1458 1576 1458 1575 1458 1574 1458 1573 1457 1572 1457 1571 1457 1570 1457 1569
 1457 1568 1457 1567 1457 1567 1457 1566 1457 1565 1457 1564 1457 1563 1457 1562
 1457 1561 1457 1560 1457 1559 1457 1558 1457 1558 1457 1557 1457 1556 1457 1555
 1457 1554 1457 1553 1457 1552 1457 1551 100 rps

/Times-Roman axumfindfont 124 scalefont setfont
 1178 2083 moveto  (Star) show 
 1951 1515 moveto  (Galactic center) show 
 1683 1879 moveto  (Rotation) show 
 741 1428 moveto  (Sun) show 
 2247 1842 2293 1838 1 rps
 2293 1838
 2201 1823 2205 1868 2293 1838 3 3 1 roll cnp
 0.00 setgray
gsave eofill grestore  0.0 setgray
 stroke 0.0 setgray grestore showpage
%Trailer
%EOF
