%!PS-Adobe-2.0 EPSF-1.2
%%BoundingBox: 0 0 468 360
%%%%DocumentFonts: /Helvetica
%%Title: Axum PostScript file
%%Creator: TriMetrix, Inc.
%%Pages: 1
%%EndComments
% Copyright 1988-1991 by TriMetrix, Inc. All rights reserved.
/downdict 4 dict def
/sdown
 {downdict begin
  /thestring exch def
  /lineskip exch def
  thestring
   {
    /charcode exch def
    /thechar ( ) dup 0 charcode put def
    0 lineskip neg rmoveto
    gsave
     thechar stringwidth pop 2 div neg 0 rmoveto
     thechar show
    grestore
   } forall
   end
  } def

/updict 4 dict def
/sup
 {updict begin
  /thestring exch def
  /lineskip exch def
  thestring 
   {
    /charcode exch def
    /thechar ( ) dup 0 charcode put def
    0 lineskip rmoveto
    gsave
     thechar stringwidth pop 2 div neg 0 rmoveto
     thechar show
    grestore
   } forall
   end
  } def

/leftdict 4 dict def
/sleft
 {leftdict begin
  /thestring exch def
  thestring
   {
    /charcode exch def
    /thechar ( ) dup 0 charcode put def
    gsave
     thechar stringwidth pop neg 0 rmoveto
     thechar show
    grestore
   } forall

   thechar stringwidth pop neg 0 rmoveto
   end
  } def

/path{newpath moveto{lineto}repeat} bind def 
/cnp{newpath moveto{lineto}repeat closepath} bind def
/clp{moveto{lineto}repeat closepath} bind def
/rps{ 3 1 roll path stroke} bind def
/rcs{ 3 1 roll clp stroke} bind def
/setF { currentscreen 4 -2 roll pop 3 1 roll setscreen} bind def
% required due to WinWord 2.0 bug:
/II { } def

/reencodedict 5 dict def
/reencode
{
   reencodedict begin
   /newencoding exch def
   /newfontname exch def
   /basefontname exch def

   /basefontdict basefontname findfont def
   /newfont basefontdict maxlength dict def

   basefontdict
   {
      exch dup dup /FID ne exch /Encoding ne and
      { exch newfont 3 1 roll put }
      { pop pop }
      ifelse
   }
   forall

   newfont /FontName newfontname put
   newfont /Encoding newencoding put
   newfontname newfont definefont pop
   end
}
def

/axumencoding
[
/.notdef        %   0
/.notdef        %   1
/.notdef        %   2
/.notdef        %   3
/.notdef        %   4
/.notdef        %   5
/.notdef        %   6
/.notdef        %   7
/.notdef        %   8
/.notdef        %   9
/.notdef        %  10
/.notdef        %  11
/.notdef        %  12
/.notdef        %  13
/.notdef        %  14
/.notdef        %  15
/.notdef        %  16
/.notdef        %  17
/.notdef        %  18
/.notdef        %  19
/.notdef        %  20
/.notdef        %  21
/.notdef        %  22
/.notdef        %  23
/.notdef        %  24
/.notdef        %  25
/.notdef        %  26
/.notdef        %  27
/.notdef        %  28
/.notdef        %  29
/.notdef        %  30
/.notdef        %  31
/space          %  32
/exclam         %  33
/quotedbl       %  34
/numbersign     %  35
/dollar         %  36
/percent        %  37
/ampersand      %  38
/quoteright     %  39
/parenleft      %  40
/parenright     %  41
/asterisk       %  42
/plus           %  43
/comma          %  44
/hyphen         %  45
/period         %  46
/slash          %  47
/zero           %  48
/one            %  49
/two            %  50
/three          %  51
/four           %  52
/five           %  53
/six            %  54
/seven          %  55
/eight          %  56
/nine           %  57
/colon          %  58
/semicolon      %  59
/less           %  60
/equal          %  61
/greater        %  62
/question       %  63
/at             %  64
/A              %  65
/B              %  66
/C              %  67
/D              %  68
/E              %  69
/F              %  70
/G              %  71
/H              %  72
/I              %  73
/J              %  74
/K              %  75
/L              %  76
/M              %  77
/N              %  78
/O              %  79
/P              %  80
/Q              %  81
/R              %  82
/S              %  83
/T              %  84
/U              %  85
/V              %  86
/W              %  87
/X              %  88
/Y              %  89
/Z              %  90
/bracketleft    %  91
/backslash      %  92
/bracketright   %  93
/asciicircum    %  94
/underscore     %  95
/quoteleft      %  96
/a              %  97
/b              %  98
/c              %  99
/d              % 100
/e              % 101
/f              % 102
/g              % 103
/h              % 104
/i              % 105
/j              % 106
/k              % 107
/l              % 108
/m              % 109
/n              % 110
/o              % 111
/p              % 112
/q              % 113
/r              % 114
/s              % 115
/t              % 116
/u              % 117
/v              % 118
/w              % 119
/x              % 120
/y              % 121
/z              % 122
/braceleft      % 123
/bar            % 124
/braceright     % 125
/asciitilde     % 126
/.notdef        % 127
/Ccedilla       % 128
/udieresis      % 129
/eacute         % 130
/acircumflex    % 131
/adieresis      % 132
/agrave         % 133
/aring          % 134
/ccedilla       % 135
/ecircumflex    % 136
/edieresis      % 137
/egrave         % 138
/idieresis      % 139
/icircumflex    % 140
/igrave         % 141
/Adieresis      % 142
/Aring          % 143
/Eacute         % 144
/ae             % 145
/AE             % 146
/ocircumflex    % 147
/odieresis      % 148
/ograve         % 149
/ucircumflex    % 150
/ugrave         % 151
/ydieresis      % 152
/Odieresis      % 153
/Udieresis      % 154
/cent           % 155
/sterling       % 156
/yen            % 157
/currency       % 158
/florin         % 159
/aacute         % 160
/iacute         % 161
/oacute         % 162
/uacute         % 163
/ntilde         % 164
/Ntilde         % 165
/ordfeminine    % 166
/ordmasculine   % 167
/questiondown   % 168
/quotedblleft   % 169
/quotedblright  % 170
/Aacute         % 171
/Acircumflex    % 172
/exclamdown     % 173
/Egrave         % 174
/Ecircumflex    % 175
/atilde         % 176
/otilde         % 177
/Edieresis      % 178
/Igrave         % 179
/oe             % 180
/OE             % 181
/Agrave         % 182
/Atilde         % 183
/Otilde         % 184
/section        % 185
/Iacute         % 186
/Icircumflex    % 187
/Idieresis      % 188
/Ograve         % 189
/Oacute         % 190
/Ocircumflex    % 191
/Ugrave         % 192
/Uacute         % 193
/Ucircumflex    % 194
/Ydieresis      % 195
/germandbls     % 196
/guillemotleft  % 197
/guillemotright % 198
/bullet         % 199
/.notdef        % 200
/.notdef        % 201
/.notdef        % 202
/.notdef        % 203
/.notdef        % 204
/.notdef        % 205
/.notdef        % 206
/.notdef        % 207
/.notdef        % 208
/.notdef        % 209
/.notdef        % 210
/.notdef        % 211
/.notdef        % 212
/.notdef        % 213
/.notdef        % 214
/.notdef        % 215
/.notdef        % 216
/.notdef        % 217
/.notdef        % 218
/.notdef        % 219
/.notdef        % 220
/.notdef        % 221
/.notdef        % 222
/.notdef        % 223
/.notdef        % 224
/.notdef        % 225
/.notdef        % 226
/.notdef        % 227
/.notdef        % 228
/.notdef        % 229
/.notdef        % 230
/.notdef        % 231
/.notdef        % 232
/.notdef        % 233
/.notdef        % 234
/.notdef        % 235
/.notdef        % 236
/.notdef        % 237
/.notdef        % 238
/.notdef        % 239
/.notdef        % 240
/.notdef        % 241
/.notdef        % 242
/.notdef        % 243
/.notdef        % 244
/.notdef        % 245
/.notdef        % 246
/.notdef        % 247
/.notdef        % 248
/.notdef        % 249
/.notdef        % 250
/.notdef        % 251
/.notdef        % 252
/.notdef        % 253
/.notdef        % 254
/.notdef        % 255
] 
def

/axumfindfont
{
   /axumfont axumencoding reencode
   /axumfont findfont
}
def


/MainFont /Helvetica axumfindfont 98 scalefont def
MainFont setfont
1 setlinejoin 0 setlinecap 0 setgray
 gsave 72 630 div dup scale
 0.0 setgray [] 0 setdash

1 setlinewidth
 686 476 3654 476 1 rps
 686 476 3654 476 1 rps
 682 2750 3658 2750 1 rps
 685 475 3655 475 1 rps
 685 475 3654 475 1 rps
 682 2751 3658 2751 1 rps
 684 474 3656 474 1 rps
 684 474 3654 474 1 rps
 682 2752 3658 2752 1 rps
 683 473 3657 473 1 rps
 683 473 3654 473 1 rps
 682 2753 3658 2753 1 rps
 682 472 3658 472 1 rps
 682 472 3654 472 1 rps
 682 2754 3658 2754 1 rps
 686 476 686 512 1 rps
 686 2750 686 2714 1 rps
 834 476 834 494 1 rps
 834 2750 834 2732 1 rps
 982 476 982 494 1 rps
 982 2750 982 2732 1 rps
 1131 476 1131 494 1 rps
 1131 2750 1131 2732 1 rps
 1279 476 1279 494 1 rps
 1279 2750 1279 2732 1 rps
 1428 476 1428 512 1 rps
 1428 2750 1428 2714 1 rps
 1576 476 1576 494 1 rps
 1576 2750 1576 2732 1 rps
 1724 476 1724 494 1 rps
 1724 2750 1724 2732 1 rps
 1873 476 1873 494 1 rps
 1873 2750 1873 2732 1 rps
 2021 476 2021 494 1 rps
 2021 2750 2021 2732 1 rps
 2170 476 2170 512 1 rps
 2170 2750 2170 2714 1 rps
 2318 476 2318 494 1 rps
 2318 2750 2318 2732 1 rps
 2466 476 2466 494 1 rps
 2466 2750 2466 2732 1 rps
 2615 476 2615 494 1 rps
 2615 2750 2615 2732 1 rps
 2763 476 2763 494 1 rps
 2763 2750 2763 2732 1 rps
 2912 476 2912 512 1 rps
 2912 2750 2912 2714 1 rps
 3060 476 3060 494 1 rps
 3060 2750 3060 2732 1 rps
 3208 476 3208 494 1 rps
 3208 2750 3208 2732 1 rps
 3357 476 3357 494 1 rps
 3357 2750 3357 2732 1 rps
 3505 476 3505 494 1 rps
 3505 2750 3505 2732 1 rps
 3654 476 3654 512 1 rps
 3654 2750 3654 2714 1 rps

/Times-Roman axumfindfont 124 scalefont setfont
 561 341 moveto  (5000) show 
 1255 341 moveto  (10,000) show 
 1997 341 moveto  (15,000) show 
 2739 341 moveto  (20,000) show 
 3481 341 moveto  (25,000) show 
 686 476 686 2750 1 rps
 685 475 685 2751 1 rps
 684 474 684 2752 1 rps
 683 473 683 2753 1 rps
 682 472 682 2754 1 rps
 3654 476 3654 2750 1 rps
 3655 475 3655 2751 1 rps
 3656 474 3656 2752 1 rps
 3657 473 3657 2753 1 rps
 3658 472 3658 2754 1 rps
 686 476 722 476 1 rps
 3654 476 3618 476 1 rps
 686 584 704 584 1 rps
 3654 584 3636 584 1 rps
 686 693 722 693 1 rps
 3654 693 3618 693 1 rps
 686 801 704 801 1 rps
 3654 801 3636 801 1 rps
 686 909 722 909 1 rps
 3654 909 3618 909 1 rps
 686 1017 704 1017 1 rps
 3654 1017 3636 1017 1 rps
 686 1126 722 1126 1 rps
 3654 1126 3618 1126 1 rps
 686 1234 704 1234 1 rps
 3654 1234 3636 1234 1 rps
 686 1342 722 1342 1 rps
 3654 1342 3618 1342 1 rps
 686 1450 704 1450 1 rps
 3654 1450 3636 1450 1 rps
 686 1559 722 1559 1 rps
 3654 1559 3618 1559 1 rps
 686 1667 704 1667 1 rps
 3654 1667 3636 1667 1 rps
 686 1775 722 1775 1 rps
 3654 1775 3618 1775 1 rps
 686 1883 704 1883 1 rps
 3654 1883 3636 1883 1 rps
 686 1992 722 1992 1 rps
 3654 1992 3618 1992 1 rps
 686 2100 704 2100 1 rps
 3654 2100 3636 2100 1 rps
 686 2209 722 2209 1 rps
 3654 2209 3618 2209 1 rps
 686 2317 704 2317 1 rps
 3654 2317 3636 2317 1 rps
 686 2425 722 2425 1 rps
 3654 2425 3618 2425 1 rps
 686 2533 704 2533 1 rps
 3654 2533 3636 2533 1 rps
 686 2642 722 2642 1 rps
 3654 2642 3618 2642 1 rps
 686 2750 704 2750 1 rps
 3654 2750 3636 2750 1 rps
 476 436 moveto  (0.0) show 
 476 653 moveto  (0.1) show 
 476 869 moveto  (0.2) show 
 476 1086 moveto  (0.3) show 
 476 1302 moveto  (0.4) show 
 476 1519 moveto  (0.5) show 
 476 1735 moveto  (0.6) show 
 476 1952 moveto  (0.7) show 
 476 2169 moveto  (0.8) show 
 476 2385 moveto  (0.9) show 
 476 2602 moveto  (1.0) show 
 686 476 701 476 716 476 731 476 745 476 760 476 775 476 790 476 805 476
 820 476 834 476 849 476 864 476 879 476 894 476 909 476 923 477
 938 477 953 477 968 478 983 478 998 479 1012 481 1027 483 1042 485
 1057 489 1072 493 1087 499 1102 507 1116 517 1131 530 1146 547 1161 567
 1176 593 1191 625 1205 664 1220 711 1235 766 1250 830 1265 903 1280 986
 1294 1076 1309 1174 1324 1278 1339 1385 1354 1494 1369 1602 1383 1706 1398 1807
 1413 1901 1428 1988 1443 2068 1458 2140 1473 2204 1487 2261 1502 2311 1517 2355
 1532 2393 1547 2426 1562 2454 1576 2479 1591 2501 1606 2519 1621 2535 1636 2549
 1651 2561 1665 2571 1680 2580 1695 2587 1710 2594 1725 2600 1740 2605 1754 2609
 1769 2613 1784 2616 1799 2619 1814 2622 1829 2624 1844 2626 1858 2628 1873 2629
 1888 2630 1903 2632 1918 2633 1933 2634 1947 2634 1962 2635 1977 2636 1992 2636
 2007 2637 2022 2637 2036 2638 2051 2638 2066 2638 2081 2639 2096 2639 2111 2639
 2125 2639 2140 2640 2155 2640 2170 2640 2185 2640 101 rps
 2185 2640 2200 2640 2215 2640 2229 2640 2244 2641 2259 2641 2274 2641 2289 2641 2304 2641
 2318 2641 2333 2641 2348 2641 2363 2641 2378 2641 2393 2641 2407 2641 2422 2641
 2437 2641 2452 2641 2467 2641 2482 2641 2496 2641 2511 2641 2526 2641 2541 2641
 2556 2641 2571 2641 2586 2641 2600 2642 2615 2642 2630 2642 2645 2642 2660 2642
 2675 2642 2689 2642 2704 2642 2719 2642 2734 2642 2749 2642 2764 2642 2778 2642
 2793 2642 2808 2642 2823 2642 2838 2642 2853 2642 2867 2642 2882 2642 2897 2642
 2912 2642 2927 2642 2942 2642 2957 2642 2971 2642 2986 2642 3001 2642 3016 2642
 3031 2642 3046 2642 3060 2642 3075 2642 3090 2642 3105 2642 3120 2642 3135 2642
 3149 2642 3164 2642 3179 2642 3194 2642 3209 2642 3224 2642 3238 2642 3253 2642
 3268 2642 3283 2642 3298 2642 3313 2642 3328 2642 3342 2642 3357 2642 3372 2642
 3387 2642 3402 2642 3417 2642 3431 2642 3446 2642 3461 2642 3476 2642 3491 2642
 3506 2642 3520 2642 3535 2642 3550 2642 3565 2642 3580 2642 3595 2642 3609 2642
 3624 2642 3639 2642 3654 2642 99 rps
 1744 159 moveto  (Temperature \(K\)) show 

/Times-Italic axumfindfont 128 scalefont setfont
 368 1391 moveto  90 rotate (N) show  -90 rotate

/Times-Italic axumfindfont 95 scalefont setfont
 396 1476 moveto  90 rotate (II) show  -90 rotate

/Times-Roman axumfindfont 124 scalefont setfont
 367 1540 moveto  90 rotate (/) show  -90 rotate

/Times-Italic axumfindfont 128 scalefont setfont
 367 1575 moveto  90 rotate (N) show  -90 rotate

/Times-Roman axumfindfont 95 scalefont setfont
 395 1660 moveto  90 rotate (total) show  -90 rotate
 grestore showpage
%Trailer
%EOF
