%!PS-Adobe-2.0 EPSF-1.2
%%BoundingBox: 10 10 440 330
%%%%DocumentFonts: /Helvetica
%%Title: Axum PostScript file
%%Creator: TriMetrix, Inc.
%%Pages: 1
%%EndComments
% Copyright 1988-1991 by TriMetrix, Inc. All rights reserved.
/downdict 4 dict def
/sdown
 {downdict begin
  /thestring exch def
  /lineskip exch def
  thestring
   {
    /charcode exch def
    /thechar ( ) dup 0 charcode put def
    0 lineskip neg rmoveto
    gsave
     thechar stringwidth pop 2 div neg 0 rmoveto
     thechar show
    grestore
   } forall
   end
  } def

/updict 4 dict def
/sup
 {updict begin
  /thestring exch def
  /lineskip exch def
  thestring 
   {
    /charcode exch def
    /thechar ( ) dup 0 charcode put def
    0 lineskip rmoveto
    gsave
     thechar stringwidth pop 2 div neg 0 rmoveto
     thechar show
    grestore
   } forall
   end
  } def

/leftdict 4 dict def
/sleft
 {leftdict begin
  /thestring exch def
  thestring
   {
    /charcode exch def
    /thechar ( ) dup 0 charcode put def
    gsave
     thechar stringwidth pop neg 0 rmoveto
     thechar show
    grestore
   } forall

   thechar stringwidth pop neg 0 rmoveto
   end
  } def

/path{newpath moveto{lineto}repeat} bind def 
/cnp{newpath moveto{lineto}repeat closepath} bind def
/clp{moveto{lineto}repeat closepath} bind def
/rps{ 3 1 roll path stroke} bind def
/rcs{ 3 1 roll clp stroke} bind def
/setF { currentscreen 4 -2 roll pop 3 1 roll setscreen} bind def
% required due to WinWord 2.0 bug:
/II { } def

/reencodedict 5 dict def
/reencode
{
   reencodedict begin
   /newencoding exch def
   /newfontname exch def
   /basefontname exch def

   /basefontdict basefontname findfont def
   /newfont basefontdict maxlength dict def

   basefontdict
   {
      exch dup dup /FID ne exch /Encoding ne and
      { exch newfont 3 1 roll put }
      { pop pop }
      ifelse
   }
   forall

   newfont /FontName newfontname put
   newfont /Encoding newencoding put
   newfontname newfont definefont pop
   end
}
def

/axumencoding
[
/.notdef        %   0
/.notdef        %   1
/.notdef        %   2
/.notdef        %   3
/.notdef        %   4
/.notdef        %   5
/.notdef        %   6
/.notdef        %   7
/.notdef        %   8
/.notdef        %   9
/.notdef        %  10
/.notdef        %  11
/.notdef        %  12
/.notdef        %  13
/.notdef        %  14
/.notdef        %  15
/.notdef        %  16
/.notdef        %  17
/.notdef        %  18
/.notdef        %  19
/.notdef        %  20
/.notdef        %  21
/.notdef        %  22
/.notdef        %  23
/.notdef        %  24
/.notdef        %  25
/.notdef        %  26
/.notdef        %  27
/.notdef        %  28
/.notdef        %  29
/.notdef        %  30
/.notdef        %  31
/space          %  32
/exclam         %  33
/quotedbl       %  34
/numbersign     %  35
/dollar         %  36
/percent        %  37
/ampersand      %  38
/quoteright     %  39
/parenleft      %  40
/parenright     %  41
/asterisk       %  42
/plus           %  43
/comma          %  44
/hyphen         %  45
/period         %  46
/slash          %  47
/zero           %  48
/one            %  49
/two            %  50
/three          %  51
/four           %  52
/five           %  53
/six            %  54
/seven          %  55
/eight          %  56
/nine           %  57
/colon          %  58
/semicolon      %  59
/less           %  60
/equal          %  61
/greater        %  62
/question       %  63
/at             %  64
/A              %  65
/B              %  66
/C              %  67
/D              %  68
/E              %  69
/F              %  70
/G              %  71
/H              %  72
/I              %  73
/J              %  74
/K              %  75
/L              %  76
/M              %  77
/N              %  78
/O              %  79
/P              %  80
/Q              %  81
/R              %  82
/S              %  83
/T              %  84
/U              %  85
/V              %  86
/W              %  87
/X              %  88
/Y              %  89
/Z              %  90
/bracketleft    %  91
/backslash      %  92
/bracketright   %  93
/asciicircum    %  94
/underscore     %  95
/quoteleft      %  96
/a              %  97
/b              %  98
/c              %  99
/d              % 100
/e              % 101
/f              % 102
/g              % 103
/h              % 104
/i              % 105
/j              % 106
/k              % 107
/l              % 108
/m              % 109
/n              % 110
/o              % 111
/p              % 112
/q              % 113
/r              % 114
/s              % 115
/t              % 116
/u              % 117
/v              % 118
/w              % 119
/x              % 120
/y              % 121
/z              % 122
/braceleft      % 123
/bar            % 124
/braceright     % 125
/asciitilde     % 126
/.notdef        % 127
/Ccedilla       % 128
/udieresis      % 129
/eacute         % 130
/acircumflex    % 131
/adieresis      % 132
/agrave         % 133
/aring          % 134
/ccedilla       % 135
/ecircumflex    % 136
/edieresis      % 137
/egrave         % 138
/idieresis      % 139
/icircumflex    % 140
/igrave         % 141
/Adieresis      % 142
/Aring          % 143
/Eacute         % 144
/ae             % 145
/AE             % 146
/ocircumflex    % 147
/odieresis      % 148
/ograve         % 149
/ucircumflex    % 150
/ugrave         % 151
/ydieresis      % 152
/Odieresis      % 153
/Udieresis      % 154
/cent           % 155
/sterling       % 156
/yen            % 157
/currency       % 158
/florin         % 159
/aacute         % 160
/iacute         % 161
/oacute         % 162
/uacute         % 163
/ntilde         % 164
/Ntilde         % 165
/ordfeminine    % 166
/ordmasculine   % 167
/questiondown   % 168
/quotedblleft   % 169
/quotedblright  % 170
/Aacute         % 171
/Acircumflex    % 172
/exclamdown     % 173
/Egrave         % 174
/Ecircumflex    % 175
/atilde         % 176
/otilde         % 177
/Edieresis      % 178
/Igrave         % 179
/oe             % 180
/OE             % 181
/Agrave         % 182
/Atilde         % 183
/Otilde         % 184
/section        % 185
/Iacute         % 186
/Icircumflex    % 187
/Idieresis      % 188
/Ograve         % 189
/Oacute         % 190
/Ocircumflex    % 191
/Ugrave         % 192
/Uacute         % 193
/Ucircumflex    % 194
/Ydieresis      % 195
/germandbls     % 196
/guillemotleft  % 197
/guillemotright % 198
/bullet         % 199
/.notdef        % 200
/.notdef        % 201
/.notdef        % 202
/.notdef        % 203
/.notdef        % 204
/.notdef        % 205
/.notdef        % 206
/.notdef        % 207
/.notdef        % 208
/.notdef        % 209
/.notdef        % 210
/.notdef        % 211
/.notdef        % 212
/.notdef        % 213
/.notdef        % 214
/.notdef        % 215
/.notdef        % 216
/.notdef        % 217
/.notdef        % 218
/.notdef        % 219
/.notdef        % 220
/.notdef        % 221
/.notdef        % 222
/.notdef        % 223
/.notdef        % 224
/.notdef        % 225
/.notdef        % 226
/.notdef        % 227
/.notdef        % 228
/.notdef        % 229
/.notdef        % 230
/.notdef        % 231
/.notdef        % 232
/.notdef        % 233
/.notdef        % 234
/.notdef        % 235
/.notdef        % 236
/.notdef        % 237
/.notdef        % 238
/.notdef        % 239
/.notdef        % 240
/.notdef        % 241
/.notdef        % 242
/.notdef        % 243
/.notdef        % 244
/.notdef        % 245
/.notdef        % 246
/.notdef        % 247
/.notdef        % 248
/.notdef        % 249
/.notdef        % 250
/.notdef        % 251
/.notdef        % 252
/.notdef        % 253
/.notdef        % 254
/.notdef        % 255
] 
def

/axumfindfont
{
   /axumfont axumencoding reencode
   /axumfont findfont
}
def


/MainFont /Helvetica axumfindfont 98 scalefont def
MainFont setfont
1 setlinejoin 0 setlinecap 0 setgray
 gsave 72 630 div dup scale
 0.0 setgray [] 0 setdash

5 setlinewidth
 1802 2707 1793 2708 1784 2709 1774 2710 1764 2709 1755 2709 1745 2709 1735 2708 1725 2706
 1715 2705 1706 2703 1695 2700 1686 2698 1675 2695 1665 2692 1655 2688 1645 2684
 1635 2680 1625 2675 1614 2670 1604 2664 1594 2659 1583 2653 1573 2646 1563 2640
 1553 2633 1543 2625 1533 2618 1522 2610 1512 2601 1502 2593 1492 2584 1482 2575
 1472 2565 1462 2555 1451 2546 1441 2535 1431 2524 1421 2513 1411 2502 1401 2490
 1391 2479 1381 2466 1372 2454 1362 2441 1352 2429 1343 2415 1333 2401 1324 2388
 1315 2374 1305 2360 1296 2346 1286 2331 1277 2316 1268 2301 1260 2285 1250 2270
 1242 2254 1233 2238 1224 2222 1216 2206 1208 2189 1200 2172 1191 2155 1183 2138
 1175 2121 1167 2104 1160 2086 1152 2068 1145 2050 1137 2031 1130 2014 1123 1995
 1116 1977 1109 1958 1103 1939 1096 1920 1089 1902 1083 1882 1077 1863 1071 1844
 1065 1824 1060 1804 1054 1786 1049 1766 1043 1746 1038 1727 1033 1707 1029 1687
 1024 1667 1019 1647 1015 1627 1011 1607 1007 1587 1003 1567 999 1548 996 1528
 993 1508 990 1488 986 1468 984 1448 981 1428 101 rps
 981 1428 979 1409 976 1388 974 1369 972 1349 970 1329 969 1309 968 1290 966 1271
 965 1252 964 1232 964 1213 963 1194 962 1175 963 1156 962 1137 963 1119
 963 1101 964 1082 965 1064 965 1045 966 1028 967 1010 969 992 971 975
 972 957 974 940 976 923 979 907 982 890 984 874 987 858 990 842
 993 826 996 811 1000 796 1004 780 1008 766 1011 751 1016 737 1020 723
 1025 709 1029 695 1034 682 1039 669 1045 657 1050 644 1055 632 1061 619
 1066 608 1072 597 1079 586 1085 575 1091 565 1098 554 1105 544 1111 535
 1118 526 1125 517 1133 508 1140 500 1148 492 1155 484 1163 477 1170 470
 1179 463 1187 457 1195 451 1203 445 1212 439 1220 435 1229 430 1237 426
 1246 422 1255 418 1264 415 1273 412 1283 409 1292 408 1301 406 1311 404
 1320 403 1330 402 1339 402 1349 402 1359 402 1368 403 1379 404 1389 405
 1399 406 1409 409 1419 411 1430 414 1439 417 1449 420 1460 424 1471 428
 1481 433 1491 438 1501 443 1512 449 1523 455 101 rps
 1523 455 1532 461 1543 467 1553 474 1563 482 1573 489 1584 497 1594 506 1605 514
 1615 523 1626 532 1636 542 1646 552 1656 561 1667 572 1677 583 1688 594
 1697 606 1708 617 1718 629 1728 641 1738 654 1748 667 1758 679 1767 693
 1777 707 1787 721 1797 735 1806 749 1816 764 1825 779 1834 794 1843 809
 1853 826 1862 841 1870 857 1880 873 1888 890 1897 907 1906 924 1914 941
 1922 958 1930 975 1939 993 1946 1011 1954 1029 1961 1047 1969 1065 1977 1084
 1984 1102 1991 1121 1998 1140 2005 1159 2012 1178 2018 1197 2025 1217 2031 1237
 2037 1256 2044 1275 2050 1295 2055 1316 2061 1335 2066 1355 2072 1376 2077 1395
 2081 1415 2086 1436 2091 1456 2095 1476 2099 1496 2104 1517 2108 1537 2112 1558
 2115 1576 2118 1597 2122 1617 2125 1637 2128 1658 2131 1678 2133 1698 2135 1718
 2137 1739 2140 1758 2142 1778 2143 1798 2145 1818 2146 1837 2147 1857 2148 1876
 2149 1896 2149 1915 2150 1935 2149 1954 2150 1972 2150 1991 2149 2010 2149 2028
 2148 2047 2147 2065 2146 2083 2145 2101 2143 2119 101 rps
 2143 2119 2142 2136 2140 2153 2138 2171 2136 2188 2133 2205 2131 2222 2128 2238 2125 2254
 2122 2270 2119 2285 2115 2301 2112 2317 2108 2331 2104 2346 2100 2361 2096 2375
 2092 2389 2087 2403 2083 2417 2078 2430 2073 2443 2067 2456 2062 2468 2057 2480
 2051 2492 2045 2504 2039 2515 2033 2526 2026 2537 2020 2548 2014 2557 2007 2568
 2001 2577 1993 2586 1987 2595 1979 2604 1972 2612 1964 2620 1957 2628 1949 2635
 1942 2642 1933 2648 1925 2654 1918 2661 1909 2666 1901 2671 1892 2677 1884 2681
 1875 2685 1866 2689 1857 2693 1848 2696 1839 2699 1831 2702 1821 2704 1812 2705
 1802 2707 57 rps
 [40 20] 0 setdash
 1802 2707 1793 2708 1784 2709 1774 2710 1765 2710 1756 2710 1746 2710 1737 2709 1728 2708
 1718 2707 1710 2706 1700 2703 1691 2702 1682 2700 1673 2697 1663 2694 1654 2691
 1646 2687 1637 2683 1628 2679 1619 2674 1610 2670 1602 2665 1593 2660 1585 2654
 1576 2648 1568 2642 1560 2636 1552 2629 1544 2622 1536 2615 1528 2608 1520 2600
 1512 2592 1505 2584 1496 2576 1489 2567 1482 2558 1474 2548 1467 2539 1460 2529
 1453 2520 1446 2509 1439 2499 1433 2488 1426 2478 1420 2466 1413 2455 1407 2444
 1401 2432 1395 2420 1389 2408 1383 2396 1378 2383 1372 2371 1367 2357 1362 2345
 1356 2331 1352 2318 1347 2305 1342 2291 1338 2277 1334 2262 1329 2248 1325 2234
 1321 2220 1317 2205 1314 2191 1311 2176 1307 2161 1304 2145 1301 2130 1298 2115
 1296 2100 1293 2084 1290 2068 1288 2053 1286 2037 1284 2020 1283 2005 1281 1989
 1279 1973 1278 1956 1277 1940 1276 1924 1275 1907 1274 1891 1274 1875 1274 1858
 1273 1842 1273 1825 1273 1809 1274 1792 1274 1776 1275 1759 1275 1743 1277 1726
 1278 1709 1279 1693 1280 1676 1282 1660 1284 1643 101 rps
 1284 1643 1286 1627 1287 1611 1290 1594 1292 1578 1295 1562 1297 1546 1300 1531 1303 1515
 1306 1499 1309 1483 1313 1467 1316 1451 1319 1436 1323 1421 1327 1405 1331 1390
 1336 1375 1340 1359 1345 1344 1349 1329 1354 1315 1359 1300 1364 1286 1369 1272
 1375 1257 1380 1243 1385 1229 1391 1215 1397 1202 1403 1189 1409 1176 1415 1163
 1422 1150 1428 1137 1435 1125 1441 1112 1448 1100 1454 1088 1462 1077 1468 1065
 1476 1054 1483 1042 1490 1032 1497 1021 1505 1011 1513 1001 1521 990 1529 980
 1536 971 1544 962 1552 952 1559 943 1567 935 1575 926 1584 918 1592 911
 1601 903 1609 896 1618 889 1626 882 1635 875 1644 869 1652 862 1661 857
 1670 851 1679 846 1688 841 1697 836 1706 831 1715 827 1724 824 1733 820
 1742 816 1751 813 1760 811 1769 808 1779 805 1788 804 1797 802 1806 801
 1815 799 1825 798 1833 798 1843 798 1852 798 1861 798 1870 799 1879 799
 1888 800 1897 802 1906 804 1915 805 1924 808 1933 811 1942 813 1951 816
 1960 820 1968 824 1977 828 1986 832 1995 836 101 rps
 1995 836 2003 841 2012 846 2020 851 2028 857 2037 863 2045 869 2053 876 2061 882
 2069 889 2077 897 2085 904 2093 912 2100 920 2108 928 2116 936 2123 945
 2130 955 2138 964 2144 973 2152 983 2159 993 2166 1003 2173 1013 2179 1024
 2186 1035 2192 1046 2198 1057 2204 1069 2210 1080 2216 1092 2222 1105 2228 1117
 2233 1130 2239 1142 2244 1155 2249 1168 2254 1181 2259 1195 2264 1209 2268 1223
 2273 1237 2277 1250 2281 1265 2285 1279 2289 1294 2293 1309 2296 1323 2300 1339
 2303 1354 2306 1369 2309 1384 2312 1400 2315 1415 2317 1431 2319 1447 2321 1463
 2324 1479 2326 1495 2327 1511 2329 1528 2330 1544 2331 1561 2333 1576 2333 1592
 2334 1609 2335 1626 2335 1643 2335 1659 2335 1676 2335 1693 2335 1710 2335 1727
 2334 1743 2333 1760 2333 1777 2331 1793 2330 1811 2329 1828 2327 1844 2325 1861
 2323 1878 2321 1895 2319 1911 2317 1928 2314 1945 2312 1961 2309 1977 2306 1993
 2302 2010 2299 2026 2296 2042 2292 2059 2289 2074 2285 2090 2281 2106 2276 2121
 2272 2137 2267 2153 2262 2168 2258 2183 2252 2198 101 rps
 2252 2198 2248 2213 2242 2227 2237 2242 2232 2257 2225 2271 2220 2286 2214 2299 2208 2313
 2202 2327 2196 2340 2189 2354 2183 2367 2176 2379 2169 2392 2163 2405 2155 2417
 2148 2429 2141 2441 2134 2452 2126 2464 2119 2475 2111 2487 2103 2497 2096 2507
 2088 2518 2079 2528 2071 2538 2063 2547 2055 2557 2047 2566 2039 2574 2030 2583
 2021 2592 2013 2599 2004 2607 1996 2615 1987 2622 1978 2629 1969 2636 1960 2642
 1951 2648 1942 2654 1933 2659 1924 2665 1914 2670 1905 2674 1896 2679 1887 2683
 1877 2687 1868 2690 1859 2694 1849 2696 1840 2699 1831 2702 1821 2704 1812 2705
 1802 2707 57 rps
 [] 0 setdash

1 setlinewidth
 766 501 1844 310 2344 2630 2 rps
 766 501 1270 2783 2344 2630 2 rps
 [2 30] 0 setdash
 2326 712 2326 712 1 rps
 [] 0 setdash
 2326 712 1844 310 766 501 1276 891 3 rcs

 2326 712 2344 2630 1 rps
 [2 30] 0 setdash
 1276 891 1276 891 1 rps
 [] 0 setdash
 1276 891 1270 2783 1 rps
 1802 2707 1301 406 1 rps
 1019 1647 2095 1476 1 rps
 [40 20] 0 setdash
 1802 2707 1797 802 1 rps
 2335 1659 1273 1825 1 rps
 [] 0 setdash
 1767 2541
 1771 2541 1777 2544 1779 2546 1782 2552
 1782 2556 1779 2562 1777 2564 1771 2567
 1767 2567 1761 2564 1759 2562 1756 2556
 1756 2552 1759 2546 1761 2544 1767 2541
 16 3 1 roll cnp
 0.00 setgray
gsave eofill grestore  0.0 setgray
 stroke 0.0 setgray 1333 548
 1337 548 1343 551 1345 553 1348 559
 1348 563 1345 569 1343 571 1337 574
 1333 574 1327 571 1325 569 1322 563
 1322 559 1325 553 1327 551 1333 548
 16 3 1 roll cnp
 0.00 setgray
gsave eofill grestore  0.0 setgray
 stroke 0.0 setgray 1800 2564
 1804 2564 1810 2567 1812 2569 1815 2575
 1815 2579 1812 2585 1810 2587 1804 2590
 1800 2590 1794 2587 1792 2585 1789 2579
 1789 2575 1792 2569 1794 2567 1800 2564
 16 3 1 roll cnp
 0.00 setgray
gsave eofill grestore  0.0 setgray
 stroke 0.0 setgray 1795 914
 1799 914 1805 917 1807 919 1810 925
 1810 929 1807 935 1805 937 1799 940
 1795 940 1789 937 1787 935 1784 929
 1784 925 1787 919 1789 917 1795 914
 16 3 1 roll cnp
 0.00 setgray
gsave eofill grestore  0.0 setgray
 stroke 0.0 setgray 1800 2488
 1804 2488 1810 2491 1812 2493 1815 2499
 1815 2503 1812 2509 1810 2511 1804 2514
 1800 2514 1794 2511 1792 2509 1789 2503
 1789 2499 1792 2493 1794 2491 1800 2488
 16 3 1 roll cnp
 0.00 setgray
gsave eofill grestore  0.0 setgray
 stroke 0.0 setgray 1795 987
 1799 987 1805 990 1807 992 1810 998
 1810 1002 1807 1008 1805 1010 1799 1013
 1795 1013 1789 1010 1787 1008 1784 1002
 1784 998 1787 992 1789 990 1795 987
 16 3 1 roll cnp
 0.00 setgray
gsave eofill grestore  0.0 setgray
 stroke 0.0 setgray 0.0 setgray [20 20] 0 setdash
 1769 2554 1802 2577 1 rps
 1335 561 1797 927 1 rps
 [] 0 setdash
 2342 2460 2341 2459 2340 2458 2339 2457 2337 2457 2336 2456 2335 2455 2333 2455 2332 2455
 2331 2454 2330 2454 2328 2454 2327 2454 2326 2453 2325 2453 2323 2453 2322 2453
 2321 2453 2320 2452 2318 2453 2317 2453 2316 2453 2315 2453 2314 2454 2312 2454
 2312 2455 2310 2456 2309 2456 2308 2457 2307 2458 29 rps

/Times-Italic axumfindfont 128 scalefont setfont
 2447 2261 moveto  (i) show 

/Times-Roman axumfindfont 124 scalefont setfont
 2520 596 moveto  (Plane of the sky) show 
 1783 141 moveto  (Plane of the true orbit) show 
 2525 1192 moveto  (Focus of observed ellipse) show 
 2520 914 moveto  (Projected focus) show 
 213 323 moveto  (True focus) show 
 2320 2411 2411 2320 1 rps
 2183 818 2502 636 1 rps
 1637 409 1774 227 1 rps
 1829 1005 2502 1228 1 rps
 1829 928 2502 955 1 rps
 1287 555 773 363 1 rps
 grestore showpage
%Trailer
%EOF
