%!PS-Adobe-2.0 EPSF-1.2
%%BoundingBox: 0 0 468 360
%%%%DocumentFonts: /Helvetica
%%Title: Axum PostScript file
%%Creator: TriMetrix, Inc.
%%Pages: 1
%%EndComments
% Copyright 1988-1991 by TriMetrix, Inc. All rights reserved.
/downdict 4 dict def
/sdown
 {downdict begin
  /thestring exch def
  /lineskip exch def
  thestring
   {
    /charcode exch def
    /thechar ( ) dup 0 charcode put def
    0 lineskip neg rmoveto
    gsave
     thechar stringwidth pop 2 div neg 0 rmoveto
     thechar show
    grestore
   } forall
   end
  } def

/updict 4 dict def
/sup
 {updict begin
  /thestring exch def
  /lineskip exch def
  thestring 
   {
    /charcode exch def
    /thechar ( ) dup 0 charcode put def
    0 lineskip rmoveto
    gsave
     thechar stringwidth pop 2 div neg 0 rmoveto
     thechar show
    grestore
   } forall
   end
  } def

/leftdict 4 dict def
/sleft
 {leftdict begin
  /thestring exch def
  thestring
   {
    /charcode exch def
    /thechar ( ) dup 0 charcode put def
    gsave
     thechar stringwidth pop neg 0 rmoveto
     thechar show
    grestore
   } forall

   thechar stringwidth pop neg 0 rmoveto
   end
  } def

/path{newpath moveto{lineto}repeat} bind def 
/cnp{newpath moveto{lineto}repeat closepath} bind def
/clp{moveto{lineto}repeat closepath} bind def
/rps{ 3 1 roll path stroke} bind def
/rcs{ 3 1 roll clp stroke} bind def
/setF { currentscreen 4 -2 roll pop 3 1 roll setscreen} bind def
% required due to WinWord 2.0 bug:
/II { } def

/reencodedict 5 dict def
/reencode
{
   reencodedict begin
   /newencoding exch def
   /newfontname exch def
   /basefontname exch def

   /basefontdict basefontname findfont def
   /newfont basefontdict maxlength dict def

   basefontdict
   {
      exch dup dup /FID ne exch /Encoding ne and
      { exch newfont 3 1 roll put }
      { pop pop }
      ifelse
   }
   forall

   newfont /FontName newfontname put
   newfont /Encoding newencoding put
   newfontname newfont definefont pop
   end
}
def

/axumencoding
[
/.notdef        %   0
/.notdef        %   1
/.notdef        %   2
/.notdef        %   3
/.notdef        %   4
/.notdef        %   5
/.notdef        %   6
/.notdef        %   7
/.notdef        %   8
/.notdef        %   9
/.notdef        %  10
/.notdef        %  11
/.notdef        %  12
/.notdef        %  13
/.notdef        %  14
/.notdef        %  15
/.notdef        %  16
/.notdef        %  17
/.notdef        %  18
/.notdef        %  19
/.notdef        %  20
/.notdef        %  21
/.notdef        %  22
/.notdef        %  23
/.notdef        %  24
/.notdef        %  25
/.notdef        %  26
/.notdef        %  27
/.notdef        %  28
/.notdef        %  29
/.notdef        %  30
/.notdef        %  31
/space          %  32
/exclam         %  33
/quotedbl       %  34
/numbersign     %  35
/dollar         %  36
/percent        %  37
/ampersand      %  38
/quoteright     %  39
/parenleft      %  40
/parenright     %  41
/asterisk       %  42
/plus           %  43
/comma          %  44
/hyphen         %  45
/period         %  46
/slash          %  47
/zero           %  48
/one            %  49
/two            %  50
/three          %  51
/four           %  52
/five           %  53
/six            %  54
/seven          %  55
/eight          %  56
/nine           %  57
/colon          %  58
/semicolon      %  59
/less           %  60
/equal          %  61
/greater        %  62
/question       %  63
/at             %  64
/A              %  65
/B              %  66
/C              %  67
/D              %  68
/E              %  69
/F              %  70
/G              %  71
/H              %  72
/I              %  73
/J              %  74
/K              %  75
/L              %  76
/M              %  77
/N              %  78
/O              %  79
/P              %  80
/Q              %  81
/R              %  82
/S              %  83
/T              %  84
/U              %  85
/V              %  86
/W              %  87
/X              %  88
/Y              %  89
/Z              %  90
/bracketleft    %  91
/backslash      %  92
/bracketright   %  93
/asciicircum    %  94
/underscore     %  95
/quoteleft      %  96
/a              %  97
/b              %  98
/c              %  99
/d              % 100
/e              % 101
/f              % 102
/g              % 103
/h              % 104
/i              % 105
/j              % 106
/k              % 107
/l              % 108
/m              % 109
/n              % 110
/o              % 111
/p              % 112
/q              % 113
/r              % 114
/s              % 115
/t              % 116
/u              % 117
/v              % 118
/w              % 119
/x              % 120
/y              % 121
/z              % 122
/braceleft      % 123
/bar            % 124
/braceright     % 125
/asciitilde     % 126
/.notdef        % 127
/Ccedilla       % 128
/udieresis      % 129
/eacute         % 130
/acircumflex    % 131
/adieresis      % 132
/agrave         % 133
/aring          % 134
/ccedilla       % 135
/ecircumflex    % 136
/edieresis      % 137
/egrave         % 138
/idieresis      % 139
/icircumflex    % 140
/igrave         % 141
/Adieresis      % 142
/Aring          % 143
/Eacute         % 144
/ae             % 145
/AE             % 146
/ocircumflex    % 147
/odieresis      % 148
/ograve         % 149
/ucircumflex    % 150
/ugrave         % 151
/ydieresis      % 152
/Odieresis      % 153
/Udieresis      % 154
/cent           % 155
/sterling       % 156
/yen            % 157
/currency       % 158
/florin         % 159
/aacute         % 160
/iacute         % 161
/oacute         % 162
/uacute         % 163
/ntilde         % 164
/Ntilde         % 165
/ordfeminine    % 166
/ordmasculine   % 167
/questiondown   % 168
/quotedblleft   % 169
/quotedblright  % 170
/Aacute         % 171
/Acircumflex    % 172
/exclamdown     % 173
/Egrave         % 174
/Ecircumflex    % 175
/atilde         % 176
/otilde         % 177
/Edieresis      % 178
/Igrave         % 179
/oe             % 180
/OE             % 181
/Agrave         % 182
/Atilde         % 183
/Otilde         % 184
/section        % 185
/Iacute         % 186
/Icircumflex    % 187
/Idieresis      % 188
/Ograve         % 189
/Oacute         % 190
/Ocircumflex    % 191
/Ugrave         % 192
/Uacute         % 193
/Ucircumflex    % 194
/Ydieresis      % 195
/germandbls     % 196
/guillemotleft  % 197
/guillemotright % 198
/bullet         % 199
/.notdef        % 200
/.notdef        % 201
/.notdef        % 202
/.notdef        % 203
/.notdef        % 204
/.notdef        % 205
/.notdef        % 206
/.notdef        % 207
/.notdef        % 208
/.notdef        % 209
/.notdef        % 210
/.notdef        % 211
/.notdef        % 212
/.notdef        % 213
/.notdef        % 214
/.notdef        % 215
/.notdef        % 216
/.notdef        % 217
/.notdef        % 218
/.notdef        % 219
/.notdef        % 220
/.notdef        % 221
/.notdef        % 222
/.notdef        % 223
/.notdef        % 224
/.notdef        % 225
/.notdef        % 226
/.notdef        % 227
/.notdef        % 228
/.notdef        % 229
/.notdef        % 230
/.notdef        % 231
/.notdef        % 232
/.notdef        % 233
/.notdef        % 234
/.notdef        % 235
/.notdef        % 236
/.notdef        % 237
/.notdef        % 238
/.notdef        % 239
/.notdef        % 240
/.notdef        % 241
/.notdef        % 242
/.notdef        % 243
/.notdef        % 244
/.notdef        % 245
/.notdef        % 246
/.notdef        % 247
/.notdef        % 248
/.notdef        % 249
/.notdef        % 250
/.notdef        % 251
/.notdef        % 252
/.notdef        % 253
/.notdef        % 254
/.notdef        % 255
] 
def

/axumfindfont
{
   /axumfont axumencoding reencode
   /axumfont findfont
}
def


/MainFont /Helvetica axumfindfont 98 scalefont def
MainFont setfont
1 setlinejoin 0 setlinecap 0 setgray
 gsave 72 630 div dup scale
 0.0 setgray [] 0 setdash

1 setlinewidth
 3148 1423 3148 1443 3148 1462 3147 1481 3146 1500 3144 1520 3142 1539 3140 1558 3138 1577
 3135 1596 3132 1615 3128 1634 3124 1653 3120 1671 3116 1690 3111 1709 3106 1727
 3100 1746 3094 1764 3088 1782 3082 1800 3075 1818 3068 1836 3061 1854 3053 1872
 3045 1889 3037 1907 3028 1924 3019 1941 3010 1958 3001 1974 2991 1991 2981 2007
 2971 2024 2960 2040 2949 2056 2938 2071 2927 2087 2915 2102 2903 2117 2891 2132
 2878 2146 2865 2161 2852 2175 2839 2189 2826 2203 2812 2216 2798 2229 2784 2242
 2769 2255 2755 2268 2740 2280 2725 2292 2710 2304 2694 2315 2679 2326 2663 2337
 2647 2348 2630 2358 2614 2368 2597 2378 2581 2387 2564 2396 2547 2405 2530 2414
 2512 2422 2495 2430 2477 2438 2459 2445 2441 2452 2423 2459 2405 2465 2387 2472
 2369 2477 2350 2483 2332 2488 2313 2493 2294 2497 2276 2501 2257 2505 2238 2509
 2219 2512 2200 2515 2181 2517 2162 2519 2143 2521 2123 2523 2104 2524 2085 2525
 2066 2525 2046 2525 2027 2525 2008 2525 1989 2524 1970 2523 1950 2521 1931 2519
 1912 2517 1893 2515 1874 2512 1855 2509 1836 2505 101 rps
 1836 2505 1817 2501 1799 2497 1780 2493 1761 2488 1743 2483 1724 2477 1706 2472 1688 2465
 1670 2459 1652 2452 1634 2445 1616 2438 1598 2430 1581 2422 1563 2414 1546 2405
 1529 2396 1512 2387 1496 2378 1479 2368 1463 2358 1446 2348 1430 2337 1414 2326
 1399 2315 1383 2304 1368 2292 1353 2280 1338 2268 1324 2255 1309 2242 1295 2229
 1281 2216 1267 2203 1254 2189 1241 2175 1228 2161 1215 2146 1202 2132 1190 2117
 1178 2102 1166 2087 1155 2071 1144 2056 1133 2040 1122 2024 1112 2007 1102 1991
 1092 1974 1083 1958 1074 1941 1065 1924 1056 1907 1048 1889 1040 1872 1032 1854
 1025 1836 1018 1818 1011 1800 1005 1782 999 1764 993 1746 987 1727 982 1709
 977 1690 973 1671 969 1653 965 1634 961 1615 958 1596 955 1577 953 1558
 951 1539 949 1520 947 1500 946 1481 945 1462 945 1443 945 1423 945 1423
 945 1404 945 1385 946 1366 947 1347 949 1327 951 1308 953 1289 955 1270
 958 1251 961 1232 965 1213 969 1194 973 1176 977 1157 982 1138 987 1120
 993 1101 999 1083 1005 1065 1011 1047 1018 1029 101 rps
 1018 1029 1025 1011 1032 993 1040 975 1048 958 1056 940 1065 923 1074 906 1083 889
 1092 872 1102 856 1112 839 1122 823 1133 807 1144 791 1155 776 1166 760
 1178 745 1190 730 1202 715 1215 700 1228 686 1241 672 1254 658 1267 644
 1281 631 1295 617 1309 604 1324 592 1338 579 1353 567 1368 555 1383 543
 1399 532 1414 521 1430 510 1446 499 1463 489 1479 479 1496 469 1512 460
 1529 450 1546 442 1563 433 1581 425 1598 417 1616 409 1634 402 1652 395
 1670 388 1688 381 1706 375 1724 370 1743 364 1761 359 1780 354 1799 350
 1817 346 1836 342 1855 338 1874 335 1893 332 1912 330 1931 327 1950 326
 1970 324 1989 323 2008 322 2027 322 2046 321 2066 322 2085 322 2104 323
 2123 324 2143 326 2162 327 2181 330 2200 332 2219 335 2238 338 2257 342
 2276 346 2294 350 2313 354 2332 359 2350 364 2369 370 2387 375 2405 381
 2423 388 2441 395 2459 402 2477 409 2495 417 2512 425 2530 433 2547 442
 2564 450 2581 460 2597 469 2614 479 2630 489 101 rps
 2630 489 2647 499 2663 510 2679 521 2694 532 2710 543 2725 555 2740 567 2755 579
 2769 592 2784 604 2798 617 2812 631 2826 644 2839 658 2852 672 2865 686
 2878 700 2891 715 2903 730 2915 745 2927 760 2938 776 2949 791 2960 807
 2971 823 2981 839 2991 856 3001 872 3010 889 3019 906 3028 923 3037 940
 3045 958 3053 975 3061 993 3068 1011 3075 1029 3082 1047 3088 1065 3094 1083
 3100 1101 3106 1120 3111 1138 3116 1157 3120 1176 3124 1194 3128 1213 3132 1232
 3135 1251 3138 1270 3140 1289 3142 1308 3144 1327 3146 1347 3147 1366 3148 1385
 3148 1404 3148 1423 58 rps
 [20 20] 0 setdash
 2810 2187 2810 2191 2810 2194 2809 2197 2809 2201 4 rps
 [] 0 setdash
 2807 2190 2811 2190 2815 2192 2818 2195 2820 2199 2820 2203 2818 2207 2815 2210 2811 2212
 2807 2212 2803 2210 2800 2207 2798 2203 2798 2199 2800 2195 2803 2192 15 rcs

 [20 20] 0 setdash
 2809 2201 2807 2204 2806 2207 2805 2211 2803 2214 2801 2217 2799 2221 2796 2224 2794 2227
 2791 2230 2788 2234 10 rps
 [] 0 setdash
 2786 2223 2790 2223 2794 2225 2797 2228 2799 2232 2799 2236 2797 2240 2794 2243 2790 2245
 2786 2245 2782 2243 2779 2240 2777 2236 2777 2232 2779 2228 2782 2225 15 rcs

 [20 20] 0 setdash
 2788 2234 2784 2237 2781 2240 2777 2243 2773 2246 2769 2250 2764 2253 2760 2256 2755 2259
 2750 2262 2744 2265 10 rps
 [] 0 setdash
 2742 2254 2746 2254 2750 2256 2753 2259 2755 2263 2755 2267 2753 2271 2750 2274 2746 2276
 2742 2276 2738 2274 2735 2271 2733 2267 2733 2263 2735 2259 2738 2256 15 rcs

 [20 20] 0 setdash
 2744 2265 2739 2268 2733 2271 2727 2274 2721 2277 2715 2280 2708 2283 2701 2286 2694 2289
 2687 2291 2680 2294 10 rps
 [] 0 setdash
 2678 2283 2682 2283 2686 2285 2689 2288 2691 2292 2691 2296 2689 2300 2686 2303 2682 2305
 2678 2305 2674 2303 2671 2300 2669 2296 2669 2292 2671 2288 2674 2285 15 rcs

 [20 20] 0 setdash
 2680 2294 2672 2297 2665 2300 2657 2302 2648 2305 2640 2308 2632 2310 2623 2313 2614 2315
 2605 2318 2596 2320 10 rps
 [] 0 setdash
 2594 2309 2598 2309 2602 2311 2605 2314 2607 2318 2607 2322 2605 2326 2602 2329 2598 2331
 2594 2331 2590 2329 2587 2326 2585 2322 2585 2318 2587 2314 2590 2311 15 rcs

 [20 20] 0 setdash
 2596 2320 2587 2322 2577 2325 2567 2327 2558 2329 2548 2332 2538 2334 2527 2336 2517 2338
 2506 2340 2496 2342 10 rps
 [] 0 setdash
 2494 2331 2498 2331 2502 2333 2505 2336 2507 2340 2507 2344 2505 2348 2502 2351 2498 2353
 2494 2353 2490 2351 2487 2348 2485 2344 2485 2340 2487 2336 2490 2333 15 rcs

 [20 20] 0 setdash
 2496 2342 2485 2344 2474 2346 2463 2348 2451 2349 2440 2351 2428 2353 2417 2354 2405 2356
 2393 2358 2381 2359 10 rps
 [] 0 setdash
 2379 2348 2383 2348 2387 2350 2390 2353 2392 2357 2392 2361 2390 2365 2387 2368 2383 2370
 2379 2370 2375 2368 2372 2365 2370 2361 2370 2357 2372 2353 2375 2350 15 rcs

 [20 20] 0 setdash
 2381 2359 2369 2361 2357 2362 2345 2363 2333 2365 2320 2366 2308 2367 2295 2368 2283 2369
 2270 2370 2257 2371 10 rps
 [] 0 setdash
 2255 2360 2259 2360 2263 2362 2266 2365 2268 2369 2268 2373 2266 2377 2263 2380 2259 2382
 2255 2382 2251 2380 2248 2377 2246 2373 2246 2369 2248 2365 2251 2362 15 rcs

 [20 20] 0 setdash
 2257 2371 2244 2372 2231 2373 2218 2374 2205 2374 2192 2375 2179 2376 2166 2376 2153 2377
 2140 2377 2126 2377 10 rps
 [] 0 setdash
 2124 2366 2128 2366 2132 2368 2135 2371 2137 2375 2137 2379 2135 2383 2132 2386 2128 2388
 2124 2388 2120 2386 2117 2383 2115 2379 2115 2375 2117 2371 2120 2368 15 rcs

 [20 20] 0 setdash
 2126 2377 2113 2378 2100 2378 2086 2378 2073 2378 2060 2378 2046 2378 2033 2378 2020 2378
 2007 2378 1993 2378 10 rps
 [] 0 setdash
 1991 2367 1995 2367 1999 2369 2002 2372 2004 2376 2004 2380 2002 2384 1999 2387 1995 2389
 1991 2389 1987 2387 1984 2384 1982 2380 1982 2376 1984 2372 1987 2369 15 rcs

 [20 20] 0 setdash
 1993 2378 1980 2378 1967 2377 1953 2377 1940 2377 1927 2376 1914 2376 1901 2375 1888 2374
 1875 2374 1862 2373 10 rps
 [] 0 setdash
 1860 2362 1864 2362 1868 2364 1871 2367 1873 2371 1873 2375 1871 2379 1868 2382 1864 2384
 1860 2384 1856 2382 1853 2379 1851 2375 1851 2371 1853 2367 1856 2364 15 rcs

 [20 20] 0 setdash
 1862 2373 1849 2372 1836 2371 1823 2370 1810 2369 1798 2368 1785 2367 1773 2366 1760 2365
 1748 2363 1736 2362 10 rps
 [] 0 setdash
 1734 2351 1738 2351 1742 2353 1745 2356 1747 2360 1747 2364 1745 2368 1742 2371 1738 2373
 1734 2373 1730 2371 1727 2368 1725 2364 1725 2360 1727 2356 1730 2353 15 rcs

 [20 20] 0 setdash
 1736 2362 1724 2361 1712 2359 1700 2358 1688 2356 1676 2354 1665 2353 1653 2351 1642 2349
 1630 2348 1619 2346 10 rps
 [] 0 setdash
 1617 2335 1621 2335 1625 2337 1628 2340 1630 2344 1630 2348 1628 2352 1625 2355 1621 2357
 1617 2357 1613 2355 1610 2352 1608 2348 1608 2344 1610 2340 1613 2337 15 rcs

 [20 20] 0 setdash
 1619 2346 1608 2344 1597 2342 1587 2340 1576 2338 1566 2336 1555 2334 1545 2332 1535 2329
 1526 2327 1516 2325 10 rps
 [] 0 setdash
 1514 2314 1518 2314 1522 2316 1525 2319 1527 2323 1527 2327 1525 2331 1522 2334 1518 2336
 1514 2336 1510 2334 1507 2331 1505 2327 1505 2323 1507 2319 1510 2316 15 rcs

 [20 20] 0 setdash
 1516 2325 1506 2322 1497 2320 1488 2318 1479 2315 1470 2313 1461 2310 1453 2308 1445 2305
 1436 2302 1428 2300 10 rps
 [] 0 setdash
 1426 2289 1430 2289 1434 2291 1437 2294 1439 2298 1439 2302 1437 2306 1434 2309 1430 2311
 1426 2311 1422 2309 1419 2306 1417 2302 1417 2298 1419 2294 1422 2291 15 rcs

 [20 20] 0 setdash
 1428 2300 1421 2297 1413 2294 1406 2291 1399 2289 1392 2286 1385 2283 1378 2280 1372 2277
 1366 2274 1360 2271 10 rps
 [] 0 setdash
 1358 2260 1362 2260 1366 2262 1369 2265 1371 2269 1371 2273 1369 2277 1366 2280 1362 2282
 1358 2282 1354 2280 1351 2277 1349 2273 1349 2269 1351 2265 1354 2262 15 rcs

 [20 20] 0 setdash
 1360 2271 1354 2268 1349 2265 1343 2262 1338 2259 1333 2256 1329 2253 1324 2250 1320 2246
 1316 2243 1312 2240 10 rps
 [] 0 setdash
 1310 2229 1314 2229 1318 2231 1321 2234 1323 2238 1323 2242 1321 2246 1318 2249 1314 2251
 1310 2251 1306 2249 1303 2246 1301 2242 1301 2238 1303 2234 1306 2231 15 rcs

 [20 20] 0 setdash
 1312 2240 1309 2237 1305 2234 1302 2230 1299 2227 1297 2224 1294 2221 1292 2217 1290 2214
 1288 2211 1287 2207 10 rps
 [] 0 setdash
 1285 2196 1289 2196 1293 2198 1296 2201 1298 2205 1298 2209 1296 2213 1293 2216 1289 2218
 1285 2218 1281 2216 1278 2213 1276 2209 1276 2205 1278 2201 1281 2198 15 rcs

 [20 20] 0 setdash
 1287 2207 1286 2204 1284 2201 1284 2197 1283 2194 1283 2191 1283 2187 6 rps
 [] 0 setdash
 2025 2342
 2025 2450 2068 2450 2068 2342 2025 2342
 4 3 1 roll cnp
 1.00 setgray eofill 0.0 setgray 0.0 setgray 1283 2187 1283 2184 1283 2181 1284 2177 3 rps
 1282 2166
 1286 2166 1290 2168 1293 2171 1295 2175
 1295 2179 1293 2183 1290 2186 1286 2188
 1282 2188 1278 2186 1275 2183 1273 2179
 1273 2175 1275 2171 1278 2168 1282 2166
 16 3 1 roll cnp
 0.00 setgray
gsave eofill grestore  0.0 setgray
 stroke 0.0 setgray 0.0 setgray 1284 2177 1284 2174 1286 2171 1287 2167 1288 2164 1290 2161 1292 2158 1294 2154 1297 2151
 1299 2148 1302 2144 10 rps
 1300 2133
 1304 2133 1308 2135 1311 2138 1313 2142
 1313 2146 1311 2150 1308 2153 1304 2155
 1300 2155 1296 2153 1293 2150 1291 2146
 1291 2142 1293 2138 1296 2135 1300 2133
 16 3 1 roll cnp
 0.00 setgray
gsave eofill grestore  0.0 setgray
 stroke 0.0 setgray 0.0 setgray 1302 2144 1305 2141 1309 2138 1312 2135 1316 2132 1320 2128 1324 2125 1329 2122 1333 2119
 1338 2116 1343 2113 10 rps
 1341 2102
 1345 2102 1349 2104 1352 2107 1354 2111
 1354 2115 1352 2119 1349 2122 1345 2124
 1341 2124 1337 2122 1334 2119 1332 2115
 1332 2111 1334 2107 1337 2104 1341 2102
 16 3 1 roll cnp
 0.00 setgray
gsave eofill grestore  0.0 setgray
 stroke 0.0 setgray 0.0 setgray 1343 2113 1349 2110 1354 2107 1360 2104 1366 2101 1372 2098 1378 2095 1385 2092 1392 2089
 1399 2086 1406 2083 10 rps
 1404 2072
 1408 2072 1412 2074 1415 2077 1417 2081
 1417 2085 1415 2089 1412 2092 1408 2094
 1404 2094 1400 2092 1397 2089 1395 2085
 1395 2081 1397 2077 1400 2074 1404 2072
 16 3 1 roll cnp
 0.00 setgray
gsave eofill grestore  0.0 setgray
 stroke 0.0 setgray 0.0 setgray 1406 2083 1413 2081 1421 2078 1428 2075 1436 2072 1445 2070 1453 2067 1461 2065 1470 2062
 1479 2060 1488 2057 10 rps
 1486 2046
 1490 2046 1494 2048 1497 2051 1499 2055
 1499 2059 1497 2063 1494 2066 1490 2068
 1486 2068 1482 2066 1479 2063 1477 2059
 1477 2055 1479 2051 1482 2048 1486 2046
 16 3 1 roll cnp
 0.00 setgray
gsave eofill grestore  0.0 setgray
 stroke 0.0 setgray 0.0 setgray 1488 2057 1497 2055 1506 2052 1516 2050 1526 2048 1535 2045 1545 2043 1555 2041 1566 2039
 1576 2037 1587 2035 10 rps
 1585 2024
 1589 2024 1593 2026 1596 2029 1598 2033
 1598 2037 1596 2041 1593 2044 1589 2046
 1585 2046 1581 2044 1578 2041 1576 2037
 1576 2033 1578 2029 1581 2026 1585 2024
 16 3 1 roll cnp
 0.00 setgray
gsave eofill grestore  0.0 setgray
 stroke 0.0 setgray 0.0 setgray 1587 2035 1597 2033 1608 2031 1619 2029 1630 2027 1642 2025 1653 2024 1665 2022 1676 2020
 1688 2019 1700 2017 10 rps
 1698 2006
 1702 2006 1706 2008 1709 2011 1711 2015
 1711 2019 1709 2023 1706 2026 1702 2028
 1698 2028 1694 2026 1691 2023 1689 2019
 1689 2015 1691 2011 1694 2008 1698 2006
 16 3 1 roll cnp
 0.00 setgray
gsave eofill grestore  0.0 setgray
 stroke 0.0 setgray 0.0 setgray 1700 2017 1712 2016 1724 2014 1736 2013 1748 2012 1760 2010 1773 2009 1785 2008 1798 2007
 1810 2006 1823 2005 10 rps
 1821 1994
 1825 1994 1829 1996 1832 1999 1834 2003
 1834 2007 1832 2011 1829 2014 1825 2016
 1821 2016 1817 2014 1814 2011 1812 2007
 1812 2003 1814 1999 1817 1996 1821 1994
 16 3 1 roll cnp
 0.00 setgray
gsave eofill grestore  0.0 setgray
 stroke 0.0 setgray 0.0 setgray 1823 2005 1836 2004 1849 2003 1862 2002 1875 2001 1888 2001 1901 2000 1914 1999 1927 1999
 1940 1998 1953 1998 10 rps
 1951 1987
 1955 1987 1959 1989 1962 1992 1964 1996
 1964 2000 1962 2004 1959 2007 1955 2009
 1951 2009 1947 2007 1944 2004 1942 2000
 1942 1996 1944 1992 1947 1989 1951 1987
 16 3 1 roll cnp
 0.00 setgray
gsave eofill grestore  0.0 setgray
 stroke 0.0 setgray 0.0 setgray 1953 1998 1967 1997 1980 1997 1993 1997 2007 1997 2020 1997 2033 1996 2046 1996 2060 1996
 2073 1997 2086 1997 10 rps
 2084 1986
 2088 1986 2092 1988 2095 1991 2097 1995
 2097 1999 2095 2003 2092 2006 2088 2008
 2084 2008 2080 2006 2077 2003 2075 1999
 2075 1995 2077 1991 2080 1988 2084 1986
 16 3 1 roll cnp
 0.00 setgray
gsave eofill grestore  0.0 setgray
 stroke 0.0 setgray 0.0 setgray 2086 1997 2100 1997 2113 1997 2126 1997 2140 1998 2153 1998 2166 1999 2179 1999 2192 2000
 2205 2001 2218 2001 10 rps
 2216 1990
 2220 1990 2224 1992 2227 1995 2229 1999
 2229 2003 2227 2007 2224 2010 2220 2012
 2216 2012 2212 2010 2209 2007 2207 2003
 2207 1999 2209 1995 2212 1992 2216 1990
 16 3 1 roll cnp
 0.00 setgray
gsave eofill grestore  0.0 setgray
 stroke 0.0 setgray 0.0 setgray 2218 2001 2231 2002 2244 2003 2257 2004 2270 2005 2283 2006 2295 2007 2308 2008 2320 2009
 2333 2010 2345 2012 10 rps
 2343 2001
 2347 2001 2351 2003 2354 2006 2356 2010
 2356 2014 2354 2018 2351 2021 2347 2023
 2343 2023 2339 2021 2336 2018 2334 2014
 2334 2010 2336 2006 2339 2003 2343 2001
 16 3 1 roll cnp
 0.00 setgray
gsave eofill grestore  0.0 setgray
 stroke 0.0 setgray 0.0 setgray 2345 2012 2357 2013 2369 2014 2381 2016 2393 2017 2405 2019 2417 2020 2428 2022 2440 2024
 2451 2025 2463 2027 10 rps
 2461 2016
 2465 2016 2469 2018 2472 2021 2474 2025
 2474 2029 2472 2033 2469 2036 2465 2038
 2461 2038 2457 2036 2454 2033 2452 2029
 2452 2025 2454 2021 2457 2018 2461 2016
 16 3 1 roll cnp
 0.00 setgray
gsave eofill grestore  0.0 setgray
 stroke 0.0 setgray 0.0 setgray 2463 2027 2474 2029 2485 2031 2496 2033 2506 2035 2517 2037 2527 2039 2538 2041 2548 2043
 2558 2045 2567 2048 10 rps
 2565 2037
 2569 2037 2573 2039 2576 2042 2578 2046
 2578 2050 2576 2054 2573 2057 2569 2059
 2565 2059 2561 2057 2558 2054 2556 2050
 2556 2046 2558 2042 2561 2039 2565 2037
 16 3 1 roll cnp
 0.00 setgray
gsave eofill grestore  0.0 setgray
 stroke 0.0 setgray 0.0 setgray 2567 2048 2577 2050 2587 2052 2596 2055 2605 2057 2614 2060 2623 2062 2632 2065 2640 2067
 2648 2070 2657 2072 10 rps
 2655 2061
 2659 2061 2663 2063 2666 2066 2668 2070
 2668 2074 2666 2078 2663 2081 2659 2083
 2655 2083 2651 2081 2648 2078 2646 2074
 2646 2070 2648 2066 2651 2063 2655 2061
 16 3 1 roll cnp
 0.00 setgray
gsave eofill grestore  0.0 setgray
 stroke 0.0 setgray 0.0 setgray 2657 2072 2665 2075 2672 2078 2680 2081 2687 2083 2694 2086 2701 2089 2708 2092 2715 2095
 2721 2098 2727 2101 10 rps
 2725 2090
 2729 2090 2733 2092 2736 2095 2738 2099
 2738 2103 2736 2107 2733 2110 2729 2112
 2725 2112 2721 2110 2718 2107 2716 2103
 2716 2099 2718 2095 2721 2092 2725 2090
 16 3 1 roll cnp
 0.00 setgray
gsave eofill grestore  0.0 setgray
 stroke 0.0 setgray 0.0 setgray 2727 2101 2733 2104 2739 2107 2744 2110 2750 2113 2755 2116 2760 2119 2764 2122 2769 2125
 2773 2128 2777 2132 10 rps
 2775 2121
 2779 2121 2783 2123 2786 2126 2788 2130
 2788 2134 2786 2138 2783 2141 2779 2143
 2775 2143 2771 2141 2768 2138 2766 2134
 2766 2130 2768 2126 2771 2123 2775 2121
 16 3 1 roll cnp
 0.00 setgray
gsave eofill grestore  0.0 setgray
 stroke 0.0 setgray 0.0 setgray 2777 2132 2781 2135 2784 2138 2788 2141 2791 2144 2794 2148 2796 2151 2799 2154 2801 2158
 2803 2161 2805 2164 10 rps
 2803 2153
 2807 2153 2811 2155 2814 2158 2816 2162
 2816 2166 2814 2170 2811 2173 2807 2175
 2803 2175 2799 2173 2796 2170 2794 2166
 2794 2162 2796 2158 2799 2155 2803 2153
 16 3 1 roll cnp
 0.00 setgray
gsave eofill grestore  0.0 setgray
 stroke 0.0 setgray 0.0 setgray 2805 2164 2806 2167 2807 2171 2809 2174 2809 2177 2810 2181 2810 2184 2810 2187 7 rps

/Times-Italic axumfindfont 128 scalefont setfont
 2133 2220 moveto  (R ) show 

/Times-Roman axumfindfont 124 scalefont setfont
 2243 2220 moveto  (sin) show 

/Symbol findfont 124 scalefont setfont
 2390 2220 moveto  (q) show 

/Times-Italic axumfindfont 128 scalefont setfont
 2479 1738 moveto  (R) show 

/Symbol findfont 124 scalefont setfont
 2138 1706 moveto  (q) show 

/Times-Italic axumfindfont 128 scalefont setfont
 2507 2634 moveto  (D) show 
 1906 2730 moveto  (P) show 
 2848 2375 2925 2302 1 rps
 2925 2302
 2844 2347 2875 2380 2925 2302 3 3 1 roll cnp
 0.00 setgray
gsave eofill grestore  0.0 setgray
 stroke 0.0 setgray 0.0 setgray [20 20] 0 setdash
 2047 1424 2047 1997 1 rps
 2047 2202 2047 2525 1 rps
 [] 0 setdash
 2047 2202 2825 2202 1 rps

8 setlinewidth
 2047 2493 2047 2720 1 rps

1 setlinewidth
 2047 1424 2825 2202 1 rps
 2237 1613 2235 1615 2234 1616 2232 1618 2230 1619 2229 1621 2227 1622 2226 1624 2224 1625
 2223 1626 2221 1628 2219 1629 2218 1630 2216 1632 2215 1633 2213 1634 2211 1636
 2210 1637 2208 1638 2206 1640 2205 1641 2203 1642 2201 1643 2199 1644 2198 1646
 2196 1647 2194 1648 2192 1649 2191 1650 2189 1651 2187 1652 2185 1654 2183 1655
 2182 1656 2180 1657 2178 1658 2176 1659 2174 1660 2172 1661 2171 1662 2169 1663
 2167 1664 2165 1665 2163 1666 2161 1666 2159 1667 2157 1668 2155 1669 2153 1670
 2152 1671 2150 1672 2148 1672 2146 1673 2144 1674 2142 1675 2140 1675 2138 1676
 2136 1677 2134 1678 2132 1678 2130 1679 2128 1680 2126 1680 2124 1681 2122 1681
 2120 1682 2118 1682 2116 1683 2114 1684 2112 1684 2110 1685 2108 1685 2106 1686
 2103 1686 2101 1686 2099 1687 2097 1687 2095 1688 2093 1688 2091 1688 2089 1689
 2087 1689 2085 1689 2083 1690 2081 1690 2079 1690 2076 1690 2074 1691 2072 1691
 2070 1691 2068 1691 2066 1691 2064 1691 2062 1692 2060 1692 2058 1692 2055 1692
 2053 1692 2051 1692 2049 1692 2047 1692 100 rps
 2919 2308 2912 2315 2905 2322 2898 2328 2891 2335 2884 2341 2877 2348 2870 2354 2862 2361
 2855 2367 2848 2373 2840 2380 2833 2386 2825 2392 2818 2398 2810 2404 2803 2410
 2795 2416 2787 2421 2779 2427 2772 2433 2764 2438 2756 2444 2748 2449 2740 2455
 2732 2460 2724 2465 2716 2471 2707 2476 2699 2481 2691 2486 2683 2491 2674 2496
 2666 2501 2658 2506 2649 2510 2641 2515 2632 2520 2624 2524 2615 2528 2606 2533
 2598 2537 2589 2541 2580 2546 2572 2550 2563 2554 2554 2558 2545 2562 2536 2566
 2527 2569 2519 2573 2510 2577 2501 2580 2492 2584 2483 2587 2473 2590 2464 2594
 2455 2597 2446 2600 2437 2603 2428 2606 2419 2609 2409 2612 2400 2615 2391 2617
 2382 2620 2372 2623 2363 2625 2353 2628 2344 2630 2335 2632 2325 2634 2316 2637
 2306 2639 2297 2641 2287 2642 2278 2644 2268 2646 2259 2648 2249 2649 2240 2651
 2230 2652 2221 2654 2211 2655 2202 2656 2192 2658 2182 2659 2173 2660 2163 2661
 2154 2661 2144 2662 2134 2663 2125 2664 2115 2664 2105 2665 2096 2665 2086 2665
 2076 2666 2067 2666 2057 2666 2047 2666 100 rps
 [20 20] 0 setdash
 2848 2224 2964 2340 1 rps
 grestore showpage
%Trailer
%EOF
