%!PS-Adobe-2.0 EPSF-1.2
%%BoundingBox: 0 0 468 360
%%%%DocumentFonts: /Helvetica
%%Title: Axum PostScript file
%%Creator: TriMetrix, Inc.
%%Pages: 1
%%EndComments
% Copyright 1988-1991 by TriMetrix, Inc. All rights reserved.
/downdict 4 dict def
/sdown
 {downdict begin
  /thestring exch def
  /lineskip exch def
  thestring
   {
    /charcode exch def
    /thechar ( ) dup 0 charcode put def
    0 lineskip neg rmoveto
    gsave
     thechar stringwidth pop 2 div neg 0 rmoveto
     thechar show
    grestore
   } forall
   end
  } def

/updict 4 dict def
/sup
 {updict begin
  /thestring exch def
  /lineskip exch def
  thestring 
   {
    /charcode exch def
    /thechar ( ) dup 0 charcode put def
    0 lineskip rmoveto
    gsave
     thechar stringwidth pop 2 div neg 0 rmoveto
     thechar show
    grestore
   } forall
   end
  } def

/leftdict 4 dict def
/sleft
 {leftdict begin
  /thestring exch def
  thestring
   {
    /charcode exch def
    /thechar ( ) dup 0 charcode put def
    gsave
     thechar stringwidth pop neg 0 rmoveto
     thechar show
    grestore
   } forall

   thechar stringwidth pop neg 0 rmoveto
   end
  } def

/path{newpath moveto{lineto}repeat} bind def 
/cnp{newpath moveto{lineto}repeat closepath} bind def
/clp{moveto{lineto}repeat closepath} bind def
/rps{ 3 1 roll path stroke} bind def
/rcs{ 3 1 roll clp stroke} bind def
/setF { currentscreen 4 -2 roll pop 3 1 roll setscreen} bind def
% required due to WinWord 2.0 bug:
/II { } def

/reencodedict 5 dict def
/reencode
{
   reencodedict begin
   /newencoding exch def
   /newfontname exch def
   /basefontname exch def

   /basefontdict basefontname findfont def
   /newfont basefontdict maxlength dict def

   basefontdict
   {
      exch dup dup /FID ne exch /Encoding ne and
      { exch newfont 3 1 roll put }
      { pop pop }
      ifelse
   }
   forall

   newfont /FontName newfontname put
   newfont /Encoding newencoding put
   newfontname newfont definefont pop
   end
}
def

/axumencoding
[
/.notdef        %   0
/.notdef        %   1
/.notdef        %   2
/.notdef        %   3
/.notdef        %   4
/.notdef        %   5
/.notdef        %   6
/.notdef        %   7
/.notdef        %   8
/.notdef        %   9
/.notdef        %  10
/.notdef        %  11
/.notdef        %  12
/.notdef        %  13
/.notdef        %  14
/.notdef        %  15
/.notdef        %  16
/.notdef        %  17
/.notdef        %  18
/.notdef        %  19
/.notdef        %  20
/.notdef        %  21
/.notdef        %  22
/.notdef        %  23
/.notdef        %  24
/.notdef        %  25
/.notdef        %  26
/.notdef        %  27
/.notdef        %  28
/.notdef        %  29
/.notdef        %  30
/.notdef        %  31
/space          %  32
/exclam         %  33
/quotedbl       %  34
/numbersign     %  35
/dollar         %  36
/percent        %  37
/ampersand      %  38
/quoteright     %  39
/parenleft      %  40
/parenright     %  41
/asterisk       %  42
/plus           %  43
/comma          %  44
/hyphen         %  45
/period         %  46
/slash          %  47
/zero           %  48
/one            %  49
/two            %  50
/three          %  51
/four           %  52
/five           %  53
/six            %  54
/seven          %  55
/eight          %  56
/nine           %  57
/colon          %  58
/semicolon      %  59
/less           %  60
/equal          %  61
/greater        %  62
/question       %  63
/at             %  64
/A              %  65
/B              %  66
/C              %  67
/D              %  68
/E              %  69
/F              %  70
/G              %  71
/H              %  72
/I              %  73
/J              %  74
/K              %  75
/L              %  76
/M              %  77
/N              %  78
/O              %  79
/P              %  80
/Q              %  81
/R              %  82
/S              %  83
/T              %  84
/U              %  85
/V              %  86
/W              %  87
/X              %  88
/Y              %  89
/Z              %  90
/bracketleft    %  91
/backslash      %  92
/bracketright   %  93
/asciicircum    %  94
/underscore     %  95
/quoteleft      %  96
/a              %  97
/b              %  98
/c              %  99
/d              % 100
/e              % 101
/f              % 102
/g              % 103
/h              % 104
/i              % 105
/j              % 106
/k              % 107
/l              % 108
/m              % 109
/n              % 110
/o              % 111
/p              % 112
/q              % 113
/r              % 114
/s              % 115
/t              % 116
/u              % 117
/v              % 118
/w              % 119
/x              % 120
/y              % 121
/z              % 122
/braceleft      % 123
/bar            % 124
/braceright     % 125
/asciitilde     % 126
/.notdef        % 127
/Ccedilla       % 128
/udieresis      % 129
/eacute         % 130
/acircumflex    % 131
/adieresis      % 132
/agrave         % 133
/aring          % 134
/ccedilla       % 135
/ecircumflex    % 136
/edieresis      % 137
/egrave         % 138
/idieresis      % 139
/icircumflex    % 140
/igrave         % 141
/Adieresis      % 142
/Aring          % 143
/Eacute         % 144
/ae             % 145
/AE             % 146
/ocircumflex    % 147
/odieresis      % 148
/ograve         % 149
/ucircumflex    % 150
/ugrave         % 151
/ydieresis      % 152
/Odieresis      % 153
/Udieresis      % 154
/cent           % 155
/sterling       % 156
/yen            % 157
/currency       % 158
/florin         % 159
/aacute         % 160
/iacute         % 161
/oacute         % 162
/uacute         % 163
/ntilde         % 164
/Ntilde         % 165
/ordfeminine    % 166
/ordmasculine   % 167
/questiondown   % 168
/quotedblleft   % 169
/quotedblright  % 170
/Aacute         % 171
/Acircumflex    % 172
/exclamdown     % 173
/Egrave         % 174
/Ecircumflex    % 175
/atilde         % 176
/otilde         % 177
/Edieresis      % 178
/Igrave         % 179
/oe             % 180
/OE             % 181
/Agrave         % 182
/Atilde         % 183
/Otilde         % 184
/section        % 185
/Iacute         % 186
/Icircumflex    % 187
/Idieresis      % 188
/Ograve         % 189
/Oacute         % 190
/Ocircumflex    % 191
/Ugrave         % 192
/Uacute         % 193
/Ucircumflex    % 194
/Ydieresis      % 195
/germandbls     % 196
/guillemotleft  % 197
/guillemotright % 198
/bullet         % 199
/.notdef        % 200
/.notdef        % 201
/.notdef        % 202
/.notdef        % 203
/.notdef        % 204
/.notdef        % 205
/.notdef        % 206
/.notdef        % 207
/.notdef        % 208
/.notdef        % 209
/.notdef        % 210
/.notdef        % 211
/.notdef        % 212
/.notdef        % 213
/.notdef        % 214
/.notdef        % 215
/.notdef        % 216
/.notdef        % 217
/.notdef        % 218
/.notdef        % 219
/.notdef        % 220
/.notdef        % 221
/.notdef        % 222
/.notdef        % 223
/.notdef        % 224
/.notdef        % 225
/.notdef        % 226
/.notdef        % 227
/.notdef        % 228
/.notdef        % 229
/.notdef        % 230
/.notdef        % 231
/.notdef        % 232
/.notdef        % 233
/.notdef        % 234
/.notdef        % 235
/.notdef        % 236
/.notdef        % 237
/.notdef        % 238
/.notdef        % 239
/.notdef        % 240
/.notdef        % 241
/.notdef        % 242
/.notdef        % 243
/.notdef        % 244
/.notdef        % 245
/.notdef        % 246
/.notdef        % 247
/.notdef        % 248
/.notdef        % 249
/.notdef        % 250
/.notdef        % 251
/.notdef        % 252
/.notdef        % 253
/.notdef        % 254
/.notdef        % 255
] 
def

/axumfindfont
{
   /axumfont axumencoding reencode
   /axumfont findfont
}
def


/MainFont /Helvetica axumfindfont 98 scalefont def
MainFont setfont
1 setlinejoin 0 setlinecap 0 setgray
 gsave 72 630 div dup scale
 [] 0 setdash

1 setlinewidth

 newpath
 2707 1683 moveto 2707 1683 lineto
 2707 1693 lineto 2707 1702 lineto
 2706 1711 lineto 2706 1720 lineto
 2706 1730 lineto 2706 1739 lineto
 2706 1748 lineto 2705 1757 lineto
 2705 1766 lineto 2705 1775 lineto
 2704 1785 lineto 2704 1794 lineto
 2704 1803 lineto 2703 1812 lineto
 2703 1821 lineto 2702 1830 lineto
 2702 1839 lineto 2701 1848 lineto
 2700 1857 lineto 2700 1866 lineto
 2699 1875 lineto 2698 1884 lineto
 2697 1892 lineto 2697 1901 lineto
 2696 1910 lineto 2695 1919 lineto
 2694 1927 lineto 2693 1936 lineto
 2692 1945 lineto 2691 1953 lineto
 2690 1962 lineto 2689 1970 lineto
 2688 1979 lineto 2687 1987 lineto
 2685 1996 lineto 2684 2004 lineto
 2683 2012 lineto 2682 2020 lineto
 2680 2028 lineto 2679 2036 lineto
 2678 2044 lineto 2676 2052 lineto
 2675 2060 lineto 2673 2068 lineto
 2672 2076 lineto 2670 2084 lineto
 2669 2091 lineto 2667 2099 lineto
 2666 2106 lineto 2664 2114 lineto
 2662 2121 lineto 2661 2129 lineto
 2659 2136 lineto 2657 2143 lineto
 2656 2150 lineto 2654 2157 lineto
 2652 2164 lineto 2650 2171 lineto
 2648 2178 lineto 2646 2184 lineto
 2644 2191 lineto 2642 2197 lineto
 2640 2204 lineto 2638 2210 lineto
 2636 2217 lineto 2634 2223 lineto
 2632 2229 lineto 2630 2235 lineto
 2628 2241 lineto 2626 2247 lineto
 2624 2252 lineto 2622 2258 lineto
 2619 2264 lineto 2617 2269 lineto
 2615 2274 lineto 2613 2280 lineto
 2610 2285 lineto 2608 2290 lineto
 2606 2295 lineto 2603 2300 lineto
 2601 2305 lineto 2599 2309 lineto
 2596 2314 lineto 2594 2318 lineto
 2591 2323 lineto 2589 2327 lineto
 2587 2331 lineto 2584 2335 lineto
 2582 2339 lineto 2579 2343 lineto
 2577 2347 lineto 2574 2351 lineto
 2571 2354 lineto 2569 2358 lineto
 2566 2361 lineto 2564 2364 lineto
 2561 2367 lineto 2558 2370 lineto
 2556 2373 lineto 2553 2376 lineto
 2551 2378 lineto 2548 2381 lineto
 2545 2383 lineto 2543 2386 lineto
 2540 2388 lineto 2537 2390 lineto
 2534 2392 lineto 2532 2394 lineto
 2529 2396 lineto 2526 2397 lineto
 2524 2399 lineto 2521 2400 lineto
 2518 2401 lineto 2515 2403 lineto
 2513 2404 lineto 2510 2405 lineto
 2507 2405 lineto 2504 2406 lineto
 2502 2407 lineto 2499 2407 lineto
 2496 2407 lineto 2493 2408 lineto
 2491 2408 lineto 2488 2408 lineto
 2485 2408 lineto 2482 2407 lineto
 2480 2407 lineto 2477 2407 lineto
 2474 2406 lineto 2471 2405 lineto
 2469 2404 lineto 2466 2403 lineto
 2463 2402 lineto 2460 2401 lineto
 2458 2400 lineto 2455 2399 lineto
 2452 2397 lineto 2449 2395 lineto
 2447 2394 lineto 2444 2392 lineto
 2441 2390 lineto 2439 2388 lineto
 2436 2385 lineto 2433 2383 lineto
 2431 2381 lineto 2428 2378 lineto
 2425 2375 lineto 2423 2373 lineto
 2420 2370 lineto 2417 2367 lineto
 2415 2364 lineto 2412 2360 lineto
 2410 2357 lineto 2407 2354 lineto
 2404 2350 lineto 2402 2346 lineto
 2399 2343 lineto 2397 2339 lineto
 2394 2335 lineto 2392 2331 lineto
 2389 2327 lineto 2387 2322 lineto
 2385 2318 lineto 2382 2313 lineto
 2380 2309 lineto 2377 2304 lineto
 2375 2299 lineto 2373 2294 lineto
 2370 2289 lineto 2368 2284 lineto
 2366 2279 lineto 2364 2274 lineto
 2361 2268 lineto 2359 2263 lineto
 2357 2257 lineto 2355 2252 lineto
 2353 2246 lineto 2350 2240 lineto
 2348 2234 lineto 2346 2228 lineto
 2344 2222 lineto 2342 2216 lineto
 2340 2209 lineto 2338 2203 lineto
 2336 2197 lineto 2334 2190 lineto
 2332 2183 lineto 2330 2177 lineto
 2328 2170 lineto 2327 2163 lineto
 2325 2156 lineto 2323 2149 lineto
 2321 2142 lineto 2320 2135 lineto
 2318 2128 lineto 2316 2120 lineto
 2314 2113 lineto 2313 2105 lineto
 2311 2098 lineto 2310 2090 lineto
 2308 2083 lineto 2307 2075 lineto
 2305 2067 lineto 2304 2059 lineto
 2302 2051 lineto 2301 2043 lineto
 2300 2035 lineto 2298 2027 lineto
 2297 2019 lineto 2296 2011 lineto
 2294 2003 lineto 2293 1994 lineto
 2292 1986 lineto 2291 1978 lineto
 2290 1969 lineto 2289 1961 lineto
 2288 1952 lineto 2287 1944 lineto
 2286 1935 lineto 2285 1926 lineto
 2284 1918 lineto 2283 1909 lineto
 2282 1900 lineto 2281 1891 lineto
 2281 1883 lineto 2280 1874 lineto
 2279 1865 lineto 2278 1856 lineto
 2278 1847 lineto 2277 1838 lineto
 2277 1829 lineto 2276 1820 lineto
 2276 1811 lineto 2275 1802 lineto
 2275 1793 lineto 2274 1783 lineto
 2274 1774 lineto 2274 1765 lineto
 2273 1756 lineto 2273 1747 lineto
 2273 1738 lineto 2273 1728 lineto
 2272 1719 lineto 2272 1710 lineto
 2272 1701 lineto 2272 1692 lineto
 2272 1682 lineto 2272 1673 lineto
 2272 1664 lineto 2272 1655 lineto
 2272 1645 lineto 2273 1636 lineto
 2273 1627 lineto 2273 1618 lineto
 2273 1609 lineto 2274 1600 lineto
 2274 1590 lineto 2274 1581 lineto
 2275 1572 lineto 2275 1563 lineto
 2276 1554 lineto 2276 1545 lineto
 2277 1536 lineto 2277 1527 lineto
 2278 1518 lineto 2279 1509 lineto
 2279 1500 lineto 2280 1491 lineto
 2281 1482 lineto 2282 1473 lineto
 2282 1465 lineto 2283 1456 lineto
 2284 1447 lineto 2285 1438 lineto
 2286 1430 lineto 2287 1421 lineto
 2288 1413 lineto 2289 1404 lineto
 2290 1396 lineto 2291 1387 lineto
 2292 1379 lineto 2294 1370 lineto
 2295 1362 lineto 2296 1354 lineto
 2297 1346 lineto 2299 1338 lineto
 2300 1330 lineto 2301 1322 lineto
 2303 1314 lineto 2304 1306 lineto
 2306 1298 lineto 2307 1290 lineto
 2309 1282 lineto 2310 1275 lineto
 2312 1267 lineto 2313 1260 lineto
 2315 1252 lineto 2317 1245 lineto
 2318 1238 lineto 2320 1230 lineto
 2322 1223 lineto 2323 1216 lineto
 2325 1209 lineto 2327 1202 lineto
 2329 1195 lineto 2331 1189 lineto
 2333 1182 lineto 2335 1175 lineto
 2337 1169 lineto 2339 1162 lineto
 2341 1156 lineto 2343 1150 lineto
 2345 1143 lineto 2347 1137 lineto
 2349 1131 lineto 2351 1125 lineto
 2353 1120 lineto 2355 1114 lineto
 2357 1108 lineto 2360 1103 lineto
 2362 1097 lineto 2364 1092 lineto
 2366 1087 lineto 2369 1081 lineto
 2371 1076 lineto 2373 1071 lineto
 2376 1066 lineto 2378 1062 lineto
 2380 1057 lineto 2383 1052 lineto
 2385 1048 lineto 2388 1044 lineto
 2390 1039 lineto 2393 1035 lineto
 2395 1031 lineto 2398 1027 lineto
 2400 1023 lineto 2403 1020 lineto
 2405 1016 lineto 2408 1012 lineto
 2410 1009 lineto 2413 1006 lineto
 2415 1003 lineto 2418 999 lineto
 2421 996 lineto 2423 994 lineto
 2426 991 lineto 2429 988 lineto
 2431 986 lineto 2434 983 lineto
 2437 981 lineto 2439 979 lineto
 2442 977 lineto 2445 975 lineto
 2447 973 lineto 2450 971 lineto
 2453 970 lineto 2455 968 lineto
 2458 967 lineto 2461 965 lineto
 2464 964 lineto 2466 963 lineto
 2469 962 lineto 2472 962 lineto
 2475 961 lineto 2477 960 lineto
 2480 960 lineto 2483 960 lineto
 2486 959 lineto 2489 959 lineto
 2491 959 lineto 2494 959 lineto
 2497 960 lineto 2500 960 lineto
 2502 961 lineto 2505 961 lineto
 2508 962 lineto 2511 963 lineto
 2513 964 lineto 2516 965 lineto
 2519 966 lineto 2522 967 lineto
 2524 969 lineto 2707 1683 lineto
 closepath
 0.93 setgray eofill 0.0 setgray 2524 969
 2527 970 2530 972 2532 974 2535 976
 2538 978 2541 980 2543 982 2546 984
 2549 987 2551 989 2554 992 2557 995
 2559 998 2562 1001 2564 1004 2567 1007
 2570 1010 2572 1014 2575 1017 2577 1021
 2580 1025 2582 1029 2585 1033 2587 1037
 2590 1041 2592 1045 2594 1050 2597 1054
 2599 1059 2602 1064 2604 1068 2606 1073
 2609 1078 2611 1083 2613 1089 2616 1094
 2618 1099 2620 1105 2622 1110 2624 1116
 2627 1122 2629 1128 2631 1134 2633 1140
 2635 1146 2637 1152 2639 1158 2641 1165
 2643 1171 2645 1178 2647 1184 2649 1191
 2651 1198 2652 1205 2654 1212 2656 1219
 2658 1226 2659 1233 2661 1240 2663 1248
 2665 1255 2666 1262 2668 1270 2669 1278
 2671 1285 2672 1293 2674 1301 2675 1309
 2677 1317 2678 1325 2679 1333 2681 1341
 2682 1349 2683 1357 2685 1365 2686 1374
 2687 1382 2688 1390 2689 1399 2690 1407
 2691 1416 2692 1424 2693 1433 2694 1442
 2695 1450 2696 1459 2697 1468 2698 1477
 2698 1486 2699 1494 2700 1503 2700 1512
 2701 1521 2702 1530 2702 1539 2703 1548
 2703 1557 2704 1567 2704 1576 2705 1585
 2705 1594 2705 1603 2706 1612 2706 1621
 2706 1631 2706 1640 2706 1649 2706 1658
 2707 1667 2707 1677 2707 1683 1146 1683
 2524 969 113 3 1 roll cnp
 0.93 setgray eofill 0.0 setgray
 newpath
 374 2408 moveto 374 2408 lineto
 2491 2408 lineto 2488 2408 lineto
 2485 2408 lineto 2482 2407 lineto
 2480 2407 lineto 2477 2407 lineto
 2474 2406 lineto 2471 2405 lineto
 2469 2404 lineto 2466 2403 lineto
 2463 2402 lineto 2460 2401 lineto
 2458 2400 lineto 2455 2399 lineto
 2452 2397 lineto 2449 2395 lineto
 2447 2394 lineto 2444 2392 lineto
 2441 2390 lineto 2439 2388 lineto
 2436 2385 lineto 2433 2383 lineto
 2431 2381 lineto 2428 2378 lineto
 2425 2375 lineto 2423 2373 lineto
 2420 2370 lineto 2417 2367 lineto
 2415 2364 lineto 2412 2360 lineto
 2410 2357 lineto 2407 2354 lineto
 2404 2350 lineto 2402 2346 lineto
 2399 2343 lineto 2397 2339 lineto
 2394 2335 lineto 2392 2331 lineto
 2389 2327 lineto 2387 2322 lineto
 2385 2318 lineto 2382 2313 lineto
 2380 2309 lineto 2377 2304 lineto
 2375 2299 lineto 2373 2294 lineto
 2370 2289 lineto 2368 2284 lineto
 2366 2279 lineto 2364 2274 lineto
 2361 2268 lineto 2359 2263 lineto
 2357 2257 lineto 2355 2252 lineto
 2353 2246 lineto 2350 2240 lineto
 2348 2234 lineto 2346 2228 lineto
 2344 2222 lineto 2342 2216 lineto
 2340 2209 lineto 2338 2203 lineto
 2336 2197 lineto 2334 2190 lineto
 2332 2183 lineto 2330 2177 lineto
 2328 2170 lineto 2327 2163 lineto
 2325 2156 lineto 2323 2149 lineto
 2321 2142 lineto 2320 2135 lineto
 2318 2128 lineto 2316 2120 lineto
 2314 2113 lineto 2313 2105 lineto
 2311 2098 lineto 2310 2090 lineto
 2308 2083 lineto 2307 2075 lineto
 2305 2067 lineto 2304 2059 lineto
 2302 2051 lineto 2301 2043 lineto
 2300 2035 lineto 2298 2027 lineto
 2297 2019 lineto 2296 2011 lineto
 2294 2003 lineto 2293 1994 lineto
 2292 1986 lineto 2291 1978 lineto
 2290 1969 lineto 2289 1961 lineto
 2288 1952 lineto 2287 1944 lineto
 2286 1935 lineto 2285 1926 lineto
 2284 1918 lineto 2283 1909 lineto
 2282 1900 lineto 2281 1891 lineto
 2281 1883 lineto 2280 1874 lineto
 2279 1865 lineto 2278 1856 lineto
 2278 1847 lineto 2277 1838 lineto
 2277 1829 lineto 2276 1820 lineto
 2276 1811 lineto 2275 1802 lineto
 2275 1793 lineto 2274 1783 lineto
 2274 1774 lineto 2274 1765 lineto
 2273 1756 lineto 2273 1747 lineto
 2273 1738 lineto 2273 1728 lineto
 2272 1719 lineto 2272 1710 lineto
 2272 1701 lineto 2272 1692 lineto
 2272 1682 lineto 2272 1673 lineto
 2272 1664 lineto 2272 1655 lineto
 2272 1645 lineto 2273 1636 lineto
 2273 1627 lineto 2273 1618 lineto
 2273 1609 lineto 2274 1600 lineto
 2274 1590 lineto 2274 1581 lineto
 2275 1572 lineto 2275 1563 lineto
 2276 1554 lineto 2276 1545 lineto
 2277 1536 lineto 2277 1527 lineto
 2278 1518 lineto 2279 1509 lineto
 2279 1500 lineto 2280 1491 lineto
 2281 1482 lineto 2282 1473 lineto
 2282 1465 lineto 2283 1456 lineto
 2284 1447 lineto 2285 1438 lineto
 2286 1430 lineto 2287 1421 lineto
 2288 1413 lineto 2289 1404 lineto
 2290 1396 lineto 2291 1387 lineto
 2292 1379 lineto 2294 1370 lineto
 2295 1362 lineto 2296 1354 lineto
 2297 1346 lineto 2299 1338 lineto
 2300 1330 lineto 2301 1322 lineto
 2303 1314 lineto 2304 1306 lineto
 2306 1298 lineto 2307 1290 lineto
 2309 1282 lineto 2310 1275 lineto
 2312 1267 lineto 2313 1260 lineto
 2315 1252 lineto 2317 1245 lineto
 2318 1238 lineto 2320 1230 lineto
 2322 1223 lineto 2323 1216 lineto
 2325 1209 lineto 2327 1202 lineto
 2329 1195 lineto 2331 1189 lineto
 2333 1182 lineto 2335 1175 lineto
 2337 1169 lineto 2339 1162 lineto
 2341 1156 lineto 2343 1150 lineto
 2345 1143 lineto 2347 1137 lineto
 2349 1131 lineto 2351 1125 lineto
 2353 1120 lineto 2355 1114 lineto
 2357 1108 lineto 2360 1103 lineto
 2362 1097 lineto 2364 1092 lineto
 2366 1087 lineto 2369 1081 lineto
 2371 1076 lineto 2373 1071 lineto
 2376 1066 lineto 2378 1062 lineto
 2380 1057 lineto 2383 1052 lineto
 2385 1048 lineto 2388 1044 lineto
 2390 1039 lineto 2393 1035 lineto
 2395 1031 lineto 2398 1027 lineto
 2400 1023 lineto 2403 1020 lineto
 2405 1016 lineto 2408 1012 lineto
 2410 1009 lineto 2413 1006 lineto
 2415 1003 lineto 2418 999 lineto
 2421 996 lineto 2423 994 lineto
 2426 991 lineto 2429 988 lineto
 2431 986 lineto 2434 983 lineto
 2437 981 lineto 2439 979 lineto
 2442 977 lineto 2445 975 lineto
 2447 973 lineto 2450 971 lineto
 2453 970 lineto 2455 968 lineto
 2458 967 lineto 2461 965 lineto
 2464 964 lineto 2466 963 lineto
 2469 962 lineto 2472 962 lineto
 2475 961 lineto 2477 960 lineto
 2480 960 lineto 2483 960 lineto
 2486 959 lineto 2489 959 lineto
 374 959 lineto 374 2408 lineto
 closepath
 1.00 setgray eofill 0.0 setgray 0.0 setgray 2707 1683 2707 1693 2707 1702 2706 1711 2706 1720 2706 1730 2706 1739 2706 1748 2705 1757
 2705 1766 2705 1775 2704 1785 2704 1794 2704 1803 2703 1812 2703 1821 2702 1830
 2702 1839 2701 1848 2700 1857 2700 1866 2699 1875 2698 1884 2697 1892 2697 1901
 2696 1910 2695 1919 2694 1927 2693 1936 2692 1945 2691 1953 2690 1962 2689 1970
 2688 1979 2687 1987 2685 1996 2684 2004 2683 2012 2682 2020 2680 2028 2679 2036
 2678 2044 2676 2052 2675 2060 2673 2068 2672 2076 2670 2084 2669 2091 2667 2099
 2666 2106 2664 2114 2662 2121 2661 2129 2659 2136 2657 2143 2656 2150 2654 2157
 2652 2164 2650 2171 2648 2178 2646 2184 2644 2191 2642 2197 2640 2204 2638 2210
 2636 2217 2634 2223 2632 2229 2630 2235 2628 2241 2626 2247 2624 2252 2622 2258
 2619 2264 2617 2269 2615 2274 2613 2280 2610 2285 2608 2290 2606 2295 2603 2300
 2601 2305 2599 2309 2596 2314 2594 2318 2591 2323 2589 2327 2587 2331 2584 2335
 2582 2339 2579 2343 2577 2347 2574 2351 2571 2354 2569 2358 2566 2361 2564 2364
 2561 2367 2558 2370 2556 2373 2553 2376 2551 2378 101 rps
 2551 2378 2548 2381 2545 2383 2543 2386 2540 2388 2537 2390 2534 2392 2532 2394 2529 2396
 2526 2397 2524 2399 2521 2400 2518 2401 2515 2403 2513 2404 2510 2405 2507 2405
 2504 2406 2502 2407 2499 2407 2496 2407 2493 2408 2491 2408 2488 2408 2485 2408
 2482 2407 2480 2407 2477 2407 2474 2406 2471 2405 2469 2404 2466 2403 2463 2402
 2460 2401 2458 2400 2455 2399 2452 2397 2449 2395 2447 2394 2444 2392 2441 2390
 2439 2388 2436 2385 2433 2383 2431 2381 2428 2378 2425 2375 2423 2373 2420 2370
 2417 2367 2415 2364 2412 2360 2410 2357 2407 2354 2404 2350 2402 2346 2399 2343
 2397 2339 2394 2335 2392 2331 2389 2327 2387 2322 2385 2318 2382 2313 2380 2309
 2377 2304 2375 2299 2373 2294 2370 2289 2368 2284 2366 2279 2364 2274 2361 2268
 2359 2263 2357 2257 2355 2252 2353 2246 2350 2240 2348 2234 2346 2228 2344 2222
 2342 2216 2340 2209 2338 2203 2336 2197 2334 2190 2332 2183 2330 2177 2328 2170
 2327 2163 2325 2156 2323 2149 2321 2142 2320 2135 2318 2128 2316 2120 2314 2113
 2313 2105 2311 2098 2310 2090 2308 2083 2307 2075 101 rps
 2307 2075 2305 2067 2304 2059 2302 2051 2301 2043 2300 2035 2298 2027 2297 2019 2296 2011
 2294 2003 2293 1994 2292 1986 2291 1978 2290 1969 2289 1961 2288 1952 2287 1944
 2286 1935 2285 1926 2284 1918 2283 1909 2282 1900 2281 1891 2281 1883 2280 1874
 2279 1865 2278 1856 2278 1847 2277 1838 2277 1829 2276 1820 2276 1811 2275 1802
 2275 1793 2274 1783 2274 1774 2274 1765 2273 1756 2273 1747 2273 1738 2273 1728
 2272 1719 2272 1710 2272 1701 2272 1692 2272 1682 2272 1673 2272 1664 2272 1655
 2272 1645 2273 1636 2273 1627 2273 1618 2273 1609 2274 1600 2274 1590 2274 1581
 2275 1572 2275 1563 2276 1554 2276 1545 2277 1536 2277 1527 2278 1518 2279 1509
 2279 1500 2280 1491 2281 1482 2282 1473 2282 1465 2283 1456 2284 1447 2285 1438
 2286 1430 2287 1421 2288 1413 2289 1404 2290 1396 2291 1387 2292 1379 2294 1370
 2295 1362 2296 1354 2297 1346 2299 1338 2300 1330 2301 1322 2303 1314 2304 1306
 2306 1298 2307 1290 2309 1282 2310 1275 2312 1267 2313 1260 2315 1252 2317 1245
 2318 1238 2320 1230 2322 1223 2323 1216 2325 1209 101 rps
 2325 1209 2327 1202 2329 1195 2331 1189 2333 1182 2335 1175 2337 1169 2339 1162 2341 1156
 2343 1150 2345 1143 2347 1137 2349 1131 2351 1125 2353 1120 2355 1114 2357 1108
 2360 1103 2362 1097 2364 1092 2366 1087 2369 1081 2371 1076 2373 1071 2376 1066
 2378 1062 2380 1057 2383 1052 2385 1048 2388 1044 2390 1039 2393 1035 2395 1031
 2398 1027 2400 1023 2403 1020 2405 1016 2408 1012 2410 1009 2413 1006 2415 1003
 2418 999 2421 996 2423 994 2426 991 2429 988 2431 986 2434 983 2437 981
 2439 979 2442 977 2445 975 2447 973 2450 971 2453 970 2455 968 2458 967
 2461 965 2464 964 2466 963 2469 962 2472 962 2475 961 2477 960 2480 960
 2483 960 2486 959 2489 959 2491 959 2494 959 2497 960 2500 960 2502 961
 2505 961 2508 962 2511 963 2513 964 2516 965 2519 966 2522 967 2524 969
 2527 970 81 rps
 2527 970 2530 972 2532 974 2535 976 2538 978 2541 980 2543 982 2546 984 2549 987
 2551 989 2554 992 2557 995 2559 998 2562 1001 2564 1004 2567 1007 2570 1010
 2572 1014 2575 1017 2577 1021 2580 1025 2582 1029 2585 1033 2587 1037 2590 1041
 2592 1045 2594 1050 2597 1054 2599 1059 2602 1064 2604 1068 2606 1073 2609 1078
 2611 1083 2613 1089 2616 1094 2618 1099 2620 1105 2622 1110 2624 1116 2627 1122
 2629 1128 2631 1134 2633 1140 2635 1146 2637 1152 2639 1158 2641 1165 2643 1171
 2645 1178 2647 1184 2649 1191 2651 1198 2652 1205 2654 1212 2656 1219 2658 1226
 2659 1233 2661 1240 2663 1248 2665 1255 2666 1262 2668 1270 2669 1278 2671 1285
 2672 1293 2674 1301 2675 1309 2677 1317 2678 1325 2679 1333 2681 1341 2682 1349
 2683 1357 2685 1365 2686 1374 2687 1382 2688 1390 2689 1399 2690 1407 2691 1416
 2692 1424 2693 1433 2694 1442 2695 1450 2696 1459 2697 1468 2698 1477 2698 1486
 2699 1494 2700 1503 2700 1512 2701 1521 2702 1530 2702 1539 2703 1548 2703 1557
 2704 1567 2704 1576 2705 1585 2705 1594 2705 1603 101 rps
 2705 1603 2706 1612 2706 1621 2706 1631 2706 1640 2706 1649 2706 1658 2707 1667 2707 1677
 2707 1683 9 rps
 1331 1722
 1333 1722 1336 1723 1337 1724 1338 1727
 1338 1729 1337 1732 1336 1733 1333 1734
 1331 1734 1328 1733 1327 1732 1326 1729
 1326 1727 1327 1724 1328 1723 1331 1722
 16 3 1 roll cnp
 0.00 setgray
gsave eofill grestore  0.0 setgray
 stroke 0.0 setgray 2370 1203
 2372 1203 2375 1204 2376 1205 2377 1208
 2377 1210 2376 1213 2375 1214 2372 1215
 2370 1215 2367 1214 2366 1213 2365 1210
 2365 1208 2366 1205 2367 1204 2370 1203
 16 3 1 roll cnp
 0.00 setgray
gsave eofill grestore  0.0 setgray
 stroke 0.0 setgray 1984 1642
 1986 1642 1989 1643 1990 1644 1991 1647
 1991 1649 1990 1652 1989 1653 1986 1654
 1984 1654 1981 1653 1980 1652 1979 1649
 1979 1647 1980 1644 1981 1643 1984 1642
 16 3 1 roll cnp
 0.00 setgray
gsave eofill grestore  0.0 setgray
 stroke 0.0 setgray 2160 1504
 2162 1504 2165 1505 2166 1506 2167 1509
 2167 1511 2166 1514 2165 1515 2162 1516
 2160 1516 2157 1515 2156 1514 2155 1511
 2155 1509 2156 1506 2157 1505 2160 1504
 16 3 1 roll cnp
 0.00 setgray
gsave eofill grestore  0.0 setgray
 stroke 0.0 setgray 1819 1834
 1821 1834 1824 1835 1825 1836 1826 1839
 1826 1841 1825 1844 1824 1845 1821 1846
 1819 1846 1816 1845 1815 1844 1814 1841
 1814 1839 1815 1836 1816 1835 1819 1834
 16 3 1 roll cnp
 0.00 setgray
gsave eofill grestore  0.0 setgray
 stroke 0.0 setgray 1459 1699
 1461 1699 1464 1700 1465 1701 1466 1704
 1466 1706 1465 1709 1464 1710 1461 1711
 1459 1711 1456 1710 1455 1709 1454 1706
 1454 1704 1455 1701 1456 1700 1459 1699
 16 3 1 roll cnp
 0.00 setgray
gsave eofill grestore  0.0 setgray
 stroke 0.0 setgray 2024 1550
 2026 1550 2029 1551 2030 1552 2031 1555
 2031 1557 2030 1560 2029 1561 2026 1562
 2024 1562 2021 1561 2020 1560 2019 1557
 2019 1555 2020 1552 2021 1551 2024 1550
 16 3 1 roll cnp
 0.00 setgray
gsave eofill grestore  0.0 setgray
 stroke 0.0 setgray 1998 1590
 2000 1590 2003 1591 2004 1592 2005 1595
 2005 1597 2004 1600 2003 1601 2000 1602
 1998 1602 1995 1601 1994 1600 1993 1597
 1993 1595 1994 1592 1995 1591 1998 1590
 16 3 1 roll cnp
 0.00 setgray
gsave eofill grestore  0.0 setgray
 stroke 0.0 setgray 1744 1432
 1746 1432 1749 1433 1750 1434 1751 1437
 1751 1439 1750 1442 1749 1443 1746 1444
 1744 1444 1741 1443 1740 1442 1739 1439
 1739 1437 1740 1434 1741 1433 1744 1432
 16 3 1 roll cnp
 0.00 setgray
gsave eofill grestore  0.0 setgray
 stroke 0.0 setgray 2154 1244
 2156 1244 2159 1245 2160 1246 2161 1249
 2161 1251 2160 1254 2159 1255 2156 1256
 2154 1256 2151 1255 2150 1254 2149 1251
 2149 1249 2150 1246 2151 1245 2154 1244
 16 3 1 roll cnp
 0.00 setgray
gsave eofill grestore  0.0 setgray
 stroke 0.0 setgray 1173 1689
 1175 1689 1178 1690 1179 1691 1180 1694
 1180 1696 1179 1699 1178 1700 1175 1701
 1173 1701 1170 1700 1169 1699 1168 1696
 1168 1694 1169 1691 1170 1690 1173 1689
 16 3 1 roll cnp
 0.00 setgray
gsave eofill grestore  0.0 setgray
 stroke 0.0 setgray 1643 1817
 1645 1817 1648 1818 1649 1819 1650 1822
 1650 1824 1649 1827 1648 1828 1645 1829
 1643 1829 1640 1828 1639 1827 1638 1824
 1638 1822 1639 1819 1640 1818 1643 1817
 16 3 1 roll cnp
 0.00 setgray
gsave eofill grestore  0.0 setgray
 stroke 0.0 setgray 1786 1612
 1788 1612 1791 1613 1792 1614 1793 1617
 1793 1619 1792 1622 1791 1623 1788 1624
 1786 1624 1783 1623 1782 1622 1781 1619
 1781 1617 1782 1614 1783 1613 1786 1612
 16 3 1 roll cnp
 0.00 setgray
gsave eofill grestore  0.0 setgray
 stroke 0.0 setgray 1722 1843
 1724 1843 1727 1844 1728 1845 1729 1848
 1729 1850 1728 1853 1727 1854 1724 1855
 1722 1855 1719 1854 1718 1853 1717 1850
 1717 1848 1718 1845 1719 1844 1722 1843
 16 3 1 roll cnp
 0.00 setgray
gsave eofill grestore  0.0 setgray
 stroke 0.0 setgray 1478 1742
 1480 1742 1483 1743 1484 1744 1485 1747
 1485 1749 1484 1752 1483 1753 1480 1754
 1478 1754 1475 1753 1474 1752 1473 1749
 1473 1747 1474 1744 1475 1743 1478 1742
 16 3 1 roll cnp
 0.00 setgray
gsave eofill grestore  0.0 setgray
 stroke 0.0 setgray 1497 1634
 1499 1634 1502 1635 1503 1636 1504 1639
 1504 1641 1503 1644 1502 1645 1499 1646
 1497 1646 1494 1645 1493 1644 1492 1641
 1492 1639 1493 1636 1494 1635 1497 1634
 16 3 1 roll cnp
 0.00 setgray
gsave eofill grestore  0.0 setgray
 stroke 0.0 setgray 2243 1694
 2245 1694 2248 1695 2249 1696 2250 1699
 2250 1701 2249 1704 2248 1705 2245 1706
 2243 1706 2240 1705 2239 1704 2238 1701
 2238 1699 2239 1696 2240 1695 2243 1694
 16 3 1 roll cnp
 0.00 setgray
gsave eofill grestore  0.0 setgray
 stroke 0.0 setgray 1264 1645
 1266 1645 1269 1646 1270 1647 1271 1650
 1271 1652 1270 1655 1269 1656 1266 1657
 1264 1657 1261 1656 1260 1655 1259 1652
 1259 1650 1260 1647 1261 1646 1264 1645
 16 3 1 roll cnp
 0.00 setgray
gsave eofill grestore  0.0 setgray
 stroke 0.0 setgray 2163 1283
 2165 1283 2168 1284 2169 1285 2170 1288
 2170 1290 2169 1293 2168 1294 2165 1295
 2163 1295 2160 1294 2159 1293 2158 1290
 2158 1288 2159 1285 2160 1284 2163 1283
 16 3 1 roll cnp
 0.00 setgray
gsave eofill grestore  0.0 setgray
 stroke 0.0 setgray 2481 1778
 2483 1778 2486 1779 2487 1780 2488 1783
 2488 1785 2487 1788 2486 1789 2483 1790
 2481 1790 2478 1789 2477 1788 2476 1785
 2476 1783 2477 1780 2478 1779 2481 1778
 16 3 1 roll cnp
 0.00 setgray
gsave eofill grestore  0.0 setgray
 stroke 0.0 setgray 1616 1626
 1618 1626 1621 1627 1622 1628 1623 1631
 1623 1633 1622 1636 1621 1637 1618 1638
 1616 1638 1613 1637 1612 1636 1611 1633
 1611 1631 1612 1628 1613 1627 1616 1626
 16 3 1 roll cnp
 0.00 setgray
gsave eofill grestore  0.0 setgray
 stroke 0.0 setgray 2251 1262
 2253 1262 2256 1263 2257 1264 2258 1267
 2258 1269 2257 1272 2256 1273 2253 1274
 2251 1274 2248 1273 2247 1272 2246 1269
 2246 1267 2247 1264 2248 1263 2251 1262
 16 3 1 roll cnp
 0.00 setgray
gsave eofill grestore  0.0 setgray
 stroke 0.0 setgray 1400 1722
 1402 1722 1405 1723 1406 1724 1407 1727
 1407 1729 1406 1732 1405 1733 1402 1734
 1400 1734 1397 1733 1396 1732 1395 1729
 1395 1727 1396 1724 1397 1723 1400 1722
 16 3 1 roll cnp
 0.00 setgray
gsave eofill grestore  0.0 setgray
 stroke 0.0 setgray 2431 1950
 2433 1950 2436 1951 2437 1952 2438 1955
 2438 1957 2437 1960 2436 1961 2433 1962
 2431 1962 2428 1961 2427 1960 2426 1957
 2426 1955 2427 1952 2428 1951 2431 1950
 16 3 1 roll cnp
 0.00 setgray
gsave eofill grestore  0.0 setgray
 stroke 0.0 setgray 1634 1432
 1636 1432 1639 1433 1640 1434 1641 1437
 1641 1439 1640 1442 1639 1443 1636 1444
 1634 1444 1631 1443 1630 1442 1629 1439
 1629 1437 1630 1434 1631 1433 1634 1432
 16 3 1 roll cnp
 0.00 setgray
gsave eofill grestore  0.0 setgray
 stroke 0.0 setgray 1942 1775
 1944 1775 1947 1776 1948 1777 1949 1780
 1949 1782 1948 1785 1947 1786 1944 1787
 1942 1787 1939 1786 1938 1785 1937 1782
 1937 1780 1938 1777 1939 1776 1942 1775
 16 3 1 roll cnp
 0.00 setgray
gsave eofill grestore  0.0 setgray
 stroke 0.0 setgray 2385 1644
 2387 1644 2390 1645 2391 1646 2392 1649
 2392 1651 2391 1654 2390 1655 2387 1656
 2385 1656 2382 1655 2381 1654 2380 1651
 2380 1649 2381 1646 2382 1645 2385 1644
 16 3 1 roll cnp
 0.00 setgray
gsave eofill grestore  0.0 setgray
 stroke 0.0 setgray 1409 1694
 1411 1694 1414 1695 1415 1696 1416 1699
 1416 1701 1415 1704 1414 1705 1411 1706
 1409 1706 1406 1705 1405 1704 1404 1701
 1404 1699 1405 1696 1406 1695 1409 1694
 16 3 1 roll cnp
 0.00 setgray
gsave eofill grestore  0.0 setgray
 stroke 0.0 setgray 1967 1280
 1969 1280 1972 1281 1973 1282 1974 1285
 1974 1287 1973 1290 1972 1291 1969 1292
 1967 1292 1964 1291 1963 1290 1962 1287
 1962 1285 1963 1282 1964 1281 1967 1280
 16 3 1 roll cnp
 0.00 setgray
gsave eofill grestore  0.0 setgray
 stroke 0.0 setgray 2307 1863
 2309 1863 2312 1864 2313 1865 2314 1868
 2314 1870 2313 1873 2312 1874 2309 1875
 2307 1875 2304 1874 2303 1873 2302 1870
 2302 1868 2303 1865 2304 1864 2307 1863
 16 3 1 roll cnp
 0.00 setgray
gsave eofill grestore  0.0 setgray
 stroke 0.0 setgray 1807 1425
 1809 1425 1812 1426 1813 1427 1814 1430
 1814 1432 1813 1435 1812 1436 1809 1437
 1807 1437 1804 1436 1803 1435 1802 1432
 1802 1430 1803 1427 1804 1426 1807 1425
 16 3 1 roll cnp
 0.00 setgray
gsave eofill grestore  0.0 setgray
 stroke 0.0 setgray 2359 2307
 2361 2307 2364 2308 2365 2309 2366 2312
 2366 2314 2365 2317 2364 2318 2361 2319
 2359 2319 2356 2318 2355 2317 2354 2314
 2354 2312 2355 2309 2356 2308 2359 2307
 16 3 1 roll cnp
 0.00 setgray
gsave eofill grestore  0.0 setgray
 stroke 0.0 setgray 1692 1395
 1694 1395 1697 1396 1698 1397 1699 1400
 1699 1402 1698 1405 1697 1406 1694 1407
 1692 1407 1689 1406 1688 1405 1687 1402
 1687 1400 1688 1397 1689 1396 1692 1395
 16 3 1 roll cnp
 0.00 setgray
gsave eofill grestore  0.0 setgray
 stroke 0.0 setgray 1944 1781
 1946 1781 1949 1782 1950 1783 1951 1786
 1951 1788 1950 1791 1949 1792 1946 1793
 1944 1793 1941 1792 1940 1791 1939 1788
 1939 1786 1940 1783 1941 1782 1944 1781
 16 3 1 roll cnp
 0.00 setgray
gsave eofill grestore  0.0 setgray
 stroke 0.0 setgray 2111 1352
 2113 1352 2116 1353 2117 1354 2118 1357
 2118 1359 2117 1362 2116 1363 2113 1364
 2111 1364 2108 1363 2107 1362 2106 1359
 2106 1357 2107 1354 2108 1353 2111 1352
 16 3 1 roll cnp
 0.00 setgray
gsave eofill grestore  0.0 setgray
 stroke 0.0 setgray 2417 1399
 2419 1399 2422 1400 2423 1401 2424 1404
 2424 1406 2423 1409 2422 1410 2419 1411
 2417 1411 2414 1410 2413 1409 2412 1406
 2412 1404 2413 1401 2414 1400 2417 1399
 16 3 1 roll cnp
 0.00 setgray
gsave eofill grestore  0.0 setgray
 stroke 0.0 setgray 1846 1615
 1848 1615 1851 1616 1852 1617 1853 1620
 1853 1622 1852 1625 1851 1626 1848 1627
 1846 1627 1843 1626 1842 1625 1841 1622
 1841 1620 1842 1617 1843 1616 1846 1615
 16 3 1 roll cnp
 0.00 setgray
gsave eofill grestore  0.0 setgray
 stroke 0.0 setgray 1876 2040
 1878 2040 1881 2041 1882 2042 1883 2045
 1883 2047 1882 2050 1881 2051 1878 2052
 1876 2052 1873 2051 1872 2050 1871 2047
 1871 2045 1872 2042 1873 2041 1876 2040
 16 3 1 roll cnp
 0.00 setgray
gsave eofill grestore  0.0 setgray
 stroke 0.0 setgray 2355 1874
 2357 1874 2360 1875 2361 1876 2362 1879
 2362 1881 2361 1884 2360 1885 2357 1886
 2355 1886 2352 1885 2351 1884 2350 1881
 2350 1879 2351 1876 2352 1875 2355 1874
 16 3 1 roll cnp
 0.00 setgray
gsave eofill grestore  0.0 setgray
 stroke 0.0 setgray 1720 1632
 1722 1632 1725 1633 1726 1634 1727 1637
 1727 1639 1726 1642 1725 1643 1722 1644
 1720 1644 1717 1643 1716 1642 1715 1639
 1715 1637 1716 1634 1717 1633 1720 1632
 16 3 1 roll cnp
 0.00 setgray
gsave eofill grestore  0.0 setgray
 stroke 0.0 setgray 2551 1658
 2553 1658 2556 1659 2557 1660 2558 1663
 2558 1665 2557 1668 2556 1669 2553 1670
 2551 1670 2548 1669 2547 1668 2546 1665
 2546 1663 2547 1660 2548 1659 2551 1658
 16 3 1 roll cnp
 0.00 setgray
gsave eofill grestore  0.0 setgray
 stroke 0.0 setgray 2052 2106
 2054 2106 2057 2107 2058 2108 2059 2111
 2059 2113 2058 2116 2057 2117 2054 2118
 2052 2118 2049 2117 2048 2116 2047 2113
 2047 2111 2048 2108 2049 2107 2052 2106
 16 3 1 roll cnp
 0.00 setgray
gsave eofill grestore  0.0 setgray
 stroke 0.0 setgray 2020 2106
 2022 2106 2025 2107 2026 2108 2027 2111
 2027 2113 2026 2116 2025 2117 2022 2118
 2020 2118 2017 2117 2016 2116 2015 2113
 2015 2111 2016 2108 2017 2107 2020 2106
 16 3 1 roll cnp
 0.00 setgray
gsave eofill grestore  0.0 setgray
 stroke 0.0 setgray 1878 1998
 1880 1998 1883 1999 1884 2000 1885 2003
 1885 2005 1884 2008 1883 2009 1880 2010
 1878 2010 1875 2009 1874 2008 1873 2005
 1873 2003 1874 2000 1875 1999 1878 1998
 16 3 1 roll cnp
 0.00 setgray
gsave eofill grestore  0.0 setgray
 stroke 0.0 setgray 2334 1264
 2336 1264 2339 1265 2340 1266 2341 1269
 2341 1271 2340 1274 2339 1275 2336 1276
 2334 1276 2331 1275 2330 1274 2329 1271
 2329 1269 2330 1266 2331 1265 2334 1264
 16 3 1 roll cnp
 0.00 setgray
gsave eofill grestore  0.0 setgray
 stroke 0.0 setgray 2249 1807
 2251 1807 2254 1808 2255 1809 2256 1812
 2256 1814 2255 1817 2254 1818 2251 1819
 2249 1819 2246 1818 2245 1817 2244 1814
 2244 1812 2245 1809 2246 1808 2249 1807
 16 3 1 roll cnp
 0.00 setgray
gsave eofill grestore  0.0 setgray
 stroke 0.0 setgray 1886 1864
 1888 1864 1891 1865 1892 1866 1893 1869
 1893 1871 1892 1874 1891 1875 1888 1876
 1886 1876 1883 1875 1882 1874 1881 1871
 1881 1869 1882 1866 1883 1865 1886 1864
 16 3 1 roll cnp
 0.00 setgray
gsave eofill grestore  0.0 setgray
 stroke 0.0 setgray 2559 1197
 2561 1197 2564 1198 2565 1199 2566 1202
 2566 1204 2565 1207 2564 1208 2561 1209
 2559 1209 2556 1208 2555 1207 2554 1204
 2554 1202 2555 1199 2556 1198 2559 1197
 16 3 1 roll cnp
 0.00 setgray
gsave eofill grestore  0.0 setgray
 stroke 0.0 setgray 2396 1134
 2398 1134 2401 1135 2402 1136 2403 1139
 2403 1141 2402 1144 2401 1145 2398 1146
 2396 1146 2393 1145 2392 1144 2391 1141
 2391 1139 2392 1136 2393 1135 2396 1134
 16 3 1 roll cnp
 0.00 setgray
gsave eofill grestore  0.0 setgray
 stroke 0.0 setgray 2187 1750
 2189 1750 2192 1751 2193 1752 2194 1755
 2194 1757 2193 1760 2192 1761 2189 1762
 2187 1762 2184 1761 2183 1760 2182 1757
 2182 1755 2183 1752 2184 1751 2187 1750
 16 3 1 roll cnp
 0.00 setgray
gsave eofill grestore  0.0 setgray
 stroke 0.0 setgray 2290 1498
 2292 1498 2295 1499 2296 1500 2297 1503
 2297 1505 2296 1508 2295 1509 2292 1510
 2290 1510 2287 1509 2286 1508 2285 1505
 2285 1503 2286 1500 2287 1499 2290 1498
 16 3 1 roll cnp
 0.00 setgray
gsave eofill grestore  0.0 setgray
 stroke 0.0 setgray 1744 1388
 1746 1388 1749 1389 1750 1390 1751 1393
 1751 1395 1750 1398 1749 1399 1746 1400
 1744 1400 1741 1399 1740 1398 1739 1395
 1739 1393 1740 1390 1741 1389 1744 1388
 16 3 1 roll cnp
 0.00 setgray
gsave eofill grestore  0.0 setgray
 stroke 0.0 setgray 2177 1766
 2179 1766 2182 1767 2183 1768 2184 1771
 2184 1773 2183 1776 2182 1777 2179 1778
 2177 1778 2174 1777 2173 1776 2172 1773
 2172 1771 2173 1768 2174 1767 2177 1766
 16 3 1 roll cnp
 0.00 setgray
gsave eofill grestore  0.0 setgray
 stroke 0.0 setgray 1841 1571
 1843 1571 1846 1572 1847 1573 1848 1576
 1848 1578 1847 1581 1846 1582 1843 1583
 1841 1583 1838 1582 1837 1581 1836 1578
 1836 1576 1837 1573 1838 1572 1841 1571
 16 3 1 roll cnp
 0.00 setgray
gsave eofill grestore  0.0 setgray
 stroke 0.0 setgray 2660 1383
 2662 1383 2665 1384 2666 1385 2667 1388
 2667 1390 2666 1393 2665 1394 2662 1395
 2660 1395 2657 1394 2656 1393 2655 1390
 2655 1388 2656 1385 2657 1384 2660 1383
 16 3 1 roll cnp
 0.00 setgray
gsave eofill grestore  0.0 setgray
 stroke 0.0 setgray 2492 1452
 2494 1452 2497 1453 2498 1454 2499 1457
 2499 1459 2498 1462 2497 1463 2494 1464
 2492 1464 2489 1463 2488 1462 2487 1459
 2487 1457 2488 1454 2489 1453 2492 1452
 16 3 1 roll cnp
 0.00 setgray
gsave eofill grestore  0.0 setgray
 stroke 0.0 setgray 2062 1220
 2064 1220 2067 1221 2068 1222 2069 1225
 2069 1227 2068 1230 2067 1231 2064 1232
 2062 1232 2059 1231 2058 1230 2057 1227
 2057 1225 2058 1222 2059 1221 2062 1220
 16 3 1 roll cnp
 0.00 setgray
gsave eofill grestore  0.0 setgray
 stroke 0.0 setgray 1589 1866
 1591 1866 1594 1867 1595 1868 1596 1871
 1596 1873 1595 1876 1594 1877 1591 1878
 1589 1878 1586 1877 1585 1876 1584 1873
 1584 1871 1585 1868 1586 1867 1589 1866
 16 3 1 roll cnp
 0.00 setgray
gsave eofill grestore  0.0 setgray
 stroke 0.0 setgray 1991 1801
 1993 1801 1996 1802 1997 1803 1998 1806
 1998 1808 1997 1811 1996 1812 1993 1813
 1991 1813 1988 1812 1987 1811 1986 1808
 1986 1806 1987 1803 1988 1802 1991 1801
 16 3 1 roll cnp
 0.00 setgray
gsave eofill grestore  0.0 setgray
 stroke 0.0 setgray 2071 1791
 2073 1791 2076 1792 2077 1793 2078 1796
 2078 1798 2077 1801 2076 1802 2073 1803
 2071 1803 2068 1802 2067 1801 2066 1798
 2066 1796 2067 1793 2068 1792 2071 1791
 16 3 1 roll cnp
 0.00 setgray
gsave eofill grestore  0.0 setgray
 stroke 0.0 setgray 2349 1774
 2351 1774 2354 1775 2355 1776 2356 1779
 2356 1781 2355 1784 2354 1785 2351 1786
 2349 1786 2346 1785 2345 1784 2344 1781
 2344 1779 2345 1776 2346 1775 2349 1774
 16 3 1 roll cnp
 0.00 setgray
gsave eofill grestore  0.0 setgray
 stroke 0.0 setgray 2342 1114
 2344 1114 2347 1115 2348 1116 2349 1119
 2349 1121 2348 1124 2347 1125 2344 1126
 2342 1126 2339 1125 2338 1124 2337 1121
 2337 1119 2338 1116 2339 1115 2342 1114
 16 3 1 roll cnp
 0.00 setgray
gsave eofill grestore  0.0 setgray
 stroke 0.0 setgray 1979 1975
 1981 1975 1984 1976 1985 1977 1986 1980
 1986 1982 1985 1985 1984 1986 1981 1987
 1979 1987 1976 1986 1975 1985 1974 1982
 1974 1980 1975 1977 1976 1976 1979 1975
 16 3 1 roll cnp
 0.00 setgray
gsave eofill grestore  0.0 setgray
 stroke 0.0 setgray 2275 1479
 2277 1479 2280 1480 2281 1481 2282 1484
 2282 1486 2281 1489 2280 1490 2277 1491
 2275 1491 2272 1490 2271 1489 2270 1486
 2270 1484 2271 1481 2272 1480 2275 1479
 16 3 1 roll cnp
 0.00 setgray
gsave eofill grestore  0.0 setgray
 stroke 0.0 setgray 2120 1714
 2122 1714 2125 1715 2126 1716 2127 1719
 2127 1721 2126 1724 2125 1725 2122 1726
 2120 1726 2117 1725 2116 1724 2115 1721
 2115 1719 2116 1716 2117 1715 2120 1714
 16 3 1 roll cnp
 0.00 setgray
gsave eofill grestore  0.0 setgray
 stroke 0.0 setgray 2464 1637
 2466 1637 2469 1638 2470 1639 2471 1642
 2471 1644 2470 1647 2469 1648 2466 1649
 2464 1649 2461 1648 2460 1647 2459 1644
 2459 1642 2460 1639 2461 1638 2464 1637
 16 3 1 roll cnp
 0.00 setgray
gsave eofill grestore  0.0 setgray
 stroke 0.0 setgray 1653 1574
 1655 1574 1658 1575 1659 1576 1660 1579
 1660 1581 1659 1584 1658 1585 1655 1586
 1653 1586 1650 1585 1649 1584 1648 1581
 1648 1579 1649 1576 1650 1575 1653 1574
 16 3 1 roll cnp
 0.00 setgray
gsave eofill grestore  0.0 setgray
 stroke 0.0 setgray 2538 1442
 2540 1442 2543 1443 2544 1444 2545 1447
 2545 1449 2544 1452 2543 1453 2540 1454
 2538 1454 2535 1453 2534 1452 2533 1449
 2533 1447 2534 1444 2535 1443 2538 1442
 16 3 1 roll cnp
 0.00 setgray
gsave eofill grestore  0.0 setgray
 stroke 0.0 setgray 2599 1928
 2601 1928 2604 1929 2605 1930 2606 1933
 2606 1935 2605 1938 2604 1939 2601 1940
 2599 1940 2596 1939 2595 1938 2594 1935
 2594 1933 2595 1930 2596 1929 2599 1928
 16 3 1 roll cnp
 0.00 setgray
gsave eofill grestore  0.0 setgray
 stroke 0.0 setgray 1889 1931
 1891 1931 1894 1932 1895 1933 1896 1936
 1896 1938 1895 1941 1894 1942 1891 1943
 1889 1943 1886 1942 1885 1941 1884 1938
 1884 1936 1885 1933 1886 1932 1889 1931
 16 3 1 roll cnp
 0.00 setgray
gsave eofill grestore  0.0 setgray
 stroke 0.0 setgray 2029 2042
 2031 2042 2034 2043 2035 2044 2036 2047
 2036 2049 2035 2052 2034 2053 2031 2054
 2029 2054 2026 2053 2025 2052 2024 2049
 2024 2047 2025 2044 2026 2043 2029 2042
 16 3 1 roll cnp
 0.00 setgray
gsave eofill grestore  0.0 setgray
 stroke 0.0 setgray 1755 1433
 1757 1433 1760 1434 1761 1435 1762 1438
 1762 1440 1761 1443 1760 1444 1757 1445
 1755 1445 1752 1444 1751 1443 1750 1440
 1750 1438 1751 1435 1752 1434 1755 1433
 16 3 1 roll cnp
 0.00 setgray
gsave eofill grestore  0.0 setgray
 stroke 0.0 setgray 1537 1825
 1539 1825 1542 1826 1543 1827 1544 1830
 1544 1832 1543 1835 1542 1836 1539 1837
 1537 1837 1534 1836 1533 1835 1532 1832
 1532 1830 1533 1827 1534 1826 1537 1825
 16 3 1 roll cnp
 0.00 setgray
gsave eofill grestore  0.0 setgray
 stroke 0.0 setgray 1809 2028
 1811 2028 1814 2029 1815 2030 1816 2033
 1816 2035 1815 2038 1814 2039 1811 2040
 1809 2040 1806 2039 1805 2038 1804 2035
 1804 2033 1805 2030 1806 2029 1809 2028
 16 3 1 roll cnp
 0.00 setgray
gsave eofill grestore  0.0 setgray
 stroke 0.0 setgray 1220 1705
 1222 1705 1225 1706 1226 1707 1227 1710
 1227 1712 1226 1715 1225 1716 1222 1717
 1220 1717 1217 1716 1216 1715 1215 1712
 1215 1710 1216 1707 1217 1706 1220 1705
 16 3 1 roll cnp
 0.00 setgray
gsave eofill grestore  0.0 setgray
 stroke 0.0 setgray 2576 1289
 2578 1289 2581 1290 2582 1291 2583 1294
 2583 1296 2582 1299 2581 1300 2578 1301
 2576 1301 2573 1300 2572 1299 2571 1296
 2571 1294 2572 1291 2573 1290 2576 1289
 16 3 1 roll cnp
 0.00 setgray
gsave eofill grestore  0.0 setgray
 stroke 0.0 setgray 2517 2160
 2519 2160 2522 2161 2523 2162 2524 2165
 2524 2167 2523 2170 2522 2171 2519 2172
 2517 2172 2514 2171 2513 2170 2512 2167
 2512 2165 2513 2162 2514 2161 2517 2160
 16 3 1 roll cnp
 0.00 setgray
gsave eofill grestore  0.0 setgray
 stroke 0.0 setgray 2030 1376
 2032 1376 2035 1377 2036 1378 2037 1381
 2037 1383 2036 1386 2035 1387 2032 1388
 2030 1388 2027 1387 2026 1386 2025 1383
 2025 1381 2026 1378 2027 1377 2030 1376
 16 3 1 roll cnp
 0.00 setgray
gsave eofill grestore  0.0 setgray
 stroke 0.0 setgray 1403 1566
 1405 1566 1408 1567 1409 1568 1410 1571
 1410 1573 1409 1576 1408 1577 1405 1578
 1403 1578 1400 1577 1399 1576 1398 1573
 1398 1571 1399 1568 1400 1567 1403 1566
 16 3 1 roll cnp
 0.00 setgray
gsave eofill grestore  0.0 setgray
 stroke 0.0 setgray 1678 1704
 1680 1704 1683 1705 1684 1706 1685 1709
 1685 1711 1684 1714 1683 1715 1680 1716
 1678 1716 1675 1715 1674 1714 1673 1711
 1673 1709 1674 1706 1675 1705 1678 1704
 16 3 1 roll cnp
 0.00 setgray
gsave eofill grestore  0.0 setgray
 stroke 0.0 setgray 1710 1853
 1712 1853 1715 1854 1716 1855 1717 1858
 1717 1860 1716 1863 1715 1864 1712 1865
 1710 1865 1707 1864 1706 1863 1705 1860
 1705 1858 1706 1855 1707 1854 1710 1853
 16 3 1 roll cnp
 0.00 setgray
gsave eofill grestore  0.0 setgray
 stroke 0.0 setgray 2369 1179
 2371 1179 2374 1180 2375 1181 2376 1184
 2376 1186 2375 1189 2374 1190 2371 1191
 2369 1191 2366 1190 2365 1189 2364 1186
 2364 1184 2365 1181 2366 1180 2369 1179
 16 3 1 roll cnp
 0.00 setgray
gsave eofill grestore  0.0 setgray
 stroke 0.0 setgray 1897 1864
 1899 1864 1902 1865 1903 1866 1904 1869
 1904 1871 1903 1874 1902 1875 1899 1876
 1897 1876 1894 1875 1893 1874 1892 1871
 1892 1869 1893 1866 1894 1865 1897 1864
 16 3 1 roll cnp
 0.00 setgray
gsave eofill grestore  0.0 setgray
 stroke 0.0 setgray 2117 1527
 2119 1527 2122 1528 2123 1529 2124 1532
 2124 1534 2123 1537 2122 1538 2119 1539
 2117 1539 2114 1538 2113 1537 2112 1534
 2112 1532 2113 1529 2114 1528 2117 1527
 16 3 1 roll cnp
 0.00 setgray
gsave eofill grestore  0.0 setgray
 stroke 0.0 setgray 2156 1536
 2158 1536 2161 1537 2162 1538 2163 1541
 2163 1543 2162 1546 2161 1547 2158 1548
 2156 1548 2153 1547 2152 1546 2151 1543
 2151 1541 2152 1538 2153 1537 2156 1536
 16 3 1 roll cnp
 0.00 setgray
gsave eofill grestore  0.0 setgray
 stroke 0.0 setgray 2385 1851
 2387 1851 2390 1852 2391 1853 2392 1856
 2392 1858 2391 1861 2390 1862 2387 1863
 2385 1863 2382 1862 2381 1861 2380 1858
 2380 1856 2381 1853 2382 1852 2385 1851
 16 3 1 roll cnp
 0.00 setgray
gsave eofill grestore  0.0 setgray
 stroke 0.0 setgray 1747 1908
 1749 1908 1752 1909 1753 1910 1754 1913
 1754 1915 1753 1918 1752 1919 1749 1920
 1747 1920 1744 1919 1743 1918 1742 1915
 1742 1913 1743 1910 1744 1909 1747 1908
 16 3 1 roll cnp
 0.00 setgray
gsave eofill grestore  0.0 setgray
 stroke 0.0 setgray 1177 1669
 1179 1669 1182 1670 1183 1671 1184 1674
 1184 1676 1183 1679 1182 1680 1179 1681
 1177 1681 1174 1680 1173 1679 1172 1676
 1172 1674 1173 1671 1174 1670 1177 1669
 16 3 1 roll cnp
 0.00 setgray
gsave eofill grestore  0.0 setgray
 stroke 0.0 setgray 2556 2085
 2558 2085 2561 2086 2562 2087 2563 2090
 2563 2092 2562 2095 2561 2096 2558 2097
 2556 2097 2553 2096 2552 2095 2551 2092
 2551 2090 2552 2087 2553 2086 2556 2085
 16 3 1 roll cnp
 0.00 setgray
gsave eofill grestore  0.0 setgray
 stroke 0.0 setgray 2292 1811
 2294 1811 2297 1812 2298 1813 2299 1816
 2299 1818 2298 1821 2297 1822 2294 1823
 2292 1823 2289 1822 2288 1821 2287 1818
 2287 1816 2288 1813 2289 1812 2292 1811
 16 3 1 roll cnp
 0.00 setgray
gsave eofill grestore  0.0 setgray
 stroke 0.0 setgray 2319 1525
 2321 1525 2324 1526 2325 1527 2326 1530
 2326 1532 2325 1535 2324 1536 2321 1537
 2319 1537 2316 1536 2315 1535 2314 1532
 2314 1530 2315 1527 2316 1526 2319 1525
 16 3 1 roll cnp
 0.00 setgray
gsave eofill grestore  0.0 setgray
 stroke 0.0 setgray 2129 1323
 2131 1323 2134 1324 2135 1325 2136 1328
 2136 1330 2135 1333 2134 1334 2131 1335
 2129 1335 2126 1334 2125 1333 2124 1330
 2124 1328 2125 1325 2126 1324 2129 1323
 16 3 1 roll cnp
 0.00 setgray
gsave eofill grestore  0.0 setgray
 stroke 0.0 setgray 1295 1645
 1297 1645 1300 1646 1301 1647 1302 1650
 1302 1652 1301 1655 1300 1656 1297 1657
 1295 1657 1292 1656 1291 1655 1290 1652
 1290 1650 1291 1647 1292 1646 1295 1645
 16 3 1 roll cnp
 0.00 setgray
gsave eofill grestore  0.0 setgray
 stroke 0.0 setgray 1941 1521
 1943 1521 1946 1522 1947 1523 1948 1526
 1948 1528 1947 1531 1946 1532 1943 1533
 1941 1533 1938 1532 1937 1531 1936 1528
 1936 1526 1937 1523 1938 1522 1941 1521
 16 3 1 roll cnp
 0.00 setgray
gsave eofill grestore  0.0 setgray
 stroke 0.0 setgray 2116 2004
 2118 2004 2121 2005 2122 2006 2123 2009
 2123 2011 2122 2014 2121 2015 2118 2016
 2116 2016 2113 2015 2112 2014 2111 2011
 2111 2009 2112 2006 2113 2005 2116 2004
 16 3 1 roll cnp
 0.00 setgray
gsave eofill grestore  0.0 setgray
 stroke 0.0 setgray 1485 1620
 1487 1620 1490 1621 1491 1622 1492 1625
 1492 1627 1491 1630 1490 1631 1487 1632
 1485 1632 1482 1631 1481 1630 1480 1627
 1480 1625 1481 1622 1482 1621 1485 1620
 16 3 1 roll cnp
 0.00 setgray
gsave eofill grestore  0.0 setgray
 stroke 0.0 setgray 1877 1913
 1879 1913 1882 1914 1883 1915 1884 1918
 1884 1920 1883 1923 1882 1924 1879 1925
 1877 1925 1874 1924 1873 1923 1872 1920
 1872 1918 1873 1915 1874 1914 1877 1913
 16 3 1 roll cnp
 0.00 setgray
gsave eofill grestore  0.0 setgray
 stroke 0.0 setgray 1872 1390
 1874 1390 1877 1391 1878 1392 1879 1395
 1879 1397 1878 1400 1877 1401 1874 1402
 1872 1402 1869 1401 1868 1400 1867 1397
 1867 1395 1868 1392 1869 1391 1872 1390
 16 3 1 roll cnp
 0.00 setgray
gsave eofill grestore  0.0 setgray
 stroke 0.0 setgray 2522 1189
 2524 1189 2527 1190 2528 1191 2529 1194
 2529 1196 2528 1199 2527 1200 2524 1201
 2522 1201 2519 1200 2518 1199 2517 1196
 2517 1194 2518 1191 2519 1190 2522 1189
 16 3 1 roll cnp
 0.00 setgray
gsave eofill grestore  0.0 setgray
 stroke 0.0 setgray 1559 1766
 1561 1766 1564 1767 1565 1768 1566 1771
 1566 1773 1565 1776 1564 1777 1561 1778
 1559 1778 1556 1777 1555 1776 1554 1773
 1554 1771 1555 1768 1556 1767 1559 1766
 16 3 1 roll cnp
 0.00 setgray
gsave eofill grestore  0.0 setgray
 stroke 0.0 setgray 0.0 setgray
/Symbol findfont 124 scalefont setfont
 2898 1970 moveto  (W) show 

/Times-Italic axumfindfont 128 scalefont setfont
 1692 1210 moveto  330 rotate (d) show  -330 rotate

/Times-Roman axumfindfont 124 scalefont setfont
 664 1883 moveto  (Observer) show 
 1637 1287 1091 1592 1 rps
 1091 1592
 1180 1567 1158 1528 1091 1592 3 3 1 roll cnp
 0.00 setgray
gsave eofill grestore  0.0 setgray
 stroke 0.0 setgray 0.0 setgray 1865 1169 2416 873 1 rps
 2416 873
 2326 895 2347 935 2416 873 3 3 1 roll cnp
 0.00 setgray
gsave eofill grestore  0.0 setgray
 stroke 0.0 setgray 1045 1674
 1047 1674 1051 1676 1053 1678 1055 1682
 1055 1684 1053 1688 1051 1690 1047 1692
 1045 1692 1041 1690 1039 1688 1037 1684
 1037 1682 1039 1678 1041 1676 1045 1674
 16 3 1 roll cnp
 0.00 setgray
gsave eofill grestore  0.0 setgray
 stroke 0.0 setgray 0.0 setgray 1142 1683 2466 2406 1 rps
 1142 1683 2466 964 1 rps
 2598 1774 2871 2001 1 rps
 1048 1657 1048 1658 1049 1658 1049 1659 1049 1659 1049 1660 1049 1660 1050 1661 1050 1661
 1050 1662 1050 1662 1050 1663 1051 1663 1051 1664 1051 1665 1051 1665 1051 1666
 1051 1666 1052 1667 1052 1667 1052 1668 1052 1668 1052 1669 1052 1669 1052 1670
 1053 1670 1053 1671 1053 1671 1053 1672 1053 1673 1053 1673 1053 1674 1053 1674
 1053 1675 1053 1675 1053 1676 1054 1676 1054 1677 1054 1677 1054 1678 1054 1679
 1054 1679 1054 1680 1054 1680 1054 1681 1054 1681 1054 1682 1054 1682 1054 1683
 1054 1683 1054 1683 1054 1684 1054 1684 1054 1685 1054 1685 1054 1686 1054 1686
 1054 1687 1054 1687 1054 1688 1054 1688 1054 1689 1054 1690 1054 1690 1054 1691
 1053 1691 1053 1692 1053 1692 1053 1693 1053 1693 1053 1694 1053 1694 1053 1695
 1053 1696 1053 1696 1053 1697 1052 1697 1052 1698 1052 1698 1052 1699 1052 1699
 1052 1700 1052 1700 1051 1701 1051 1701 1051 1702 1051 1702 1051 1703 1051 1704
 1050 1704 1050 1705 1050 1705 1050 1706 1050 1706 1049 1707 1049 1707 1049 1708
 1049 1708 1049 1709 1048 1709 1048 1710 100 rps
 991 1683 1061 1716 1 rps
 991 1683 1061 1651 1 rps
 864 1856 1000 1728 1 rps
 grestore showpage
%Trailer
%EOF
