%!PS-Adobe-2.0 EPSF-1.2
%%BoundingBox: 0 0 468 360
%%%%DocumentFonts: /Helvetica
%%Title: Axum PostScript file
%%Creator: TriMetrix, Inc.
%%Pages: 1
%%EndComments
% Copyright 1988-1991 by TriMetrix, Inc. All rights reserved.
/downdict 4 dict def
/sdown
 {downdict begin
  /thestring exch def
  /lineskip exch def
  thestring
   {
    /charcode exch def
    /thechar ( ) dup 0 charcode put def
    0 lineskip neg rmoveto
    gsave
     thechar stringwidth pop 2 div neg 0 rmoveto
     thechar show
    grestore
   } forall
   end
  } def

/updict 4 dict def
/sup
 {updict begin
  /thestring exch def
  /lineskip exch def
  thestring 
   {
    /charcode exch def
    /thechar ( ) dup 0 charcode put def
    0 lineskip rmoveto
    gsave
     thechar stringwidth pop 2 div neg 0 rmoveto
     thechar show
    grestore
   } forall
   end
  } def

/leftdict 4 dict def
/sleft
 {leftdict begin
  /thestring exch def
  thestring
   {
    /charcode exch def
    /thechar ( ) dup 0 charcode put def
    gsave
     thechar stringwidth pop neg 0 rmoveto
     thechar show
    grestore
   } forall

   thechar stringwidth pop neg 0 rmoveto
   end
  } def

/path{newpath moveto{lineto}repeat} bind def 
/cnp{newpath moveto{lineto}repeat closepath} bind def
/clp{moveto{lineto}repeat closepath} bind def
/rps{ 3 1 roll path stroke} bind def
/rcs{ 3 1 roll clp stroke} bind def
/setF { currentscreen 4 -2 roll pop 3 1 roll setscreen} bind def
% required due to WinWord 2.0 bug:
/II { } def

/reencodedict 5 dict def
/reencode
{
   reencodedict begin
   /newencoding exch def
   /newfontname exch def
   /basefontname exch def

   /basefontdict basefontname findfont def
   /newfont basefontdict maxlength dict def

   basefontdict
   {
      exch dup dup /FID ne exch /Encoding ne and
      { exch newfont 3 1 roll put }
      { pop pop }
      ifelse
   }
   forall

   newfont /FontName newfontname put
   newfont /Encoding newencoding put
   newfontname newfont definefont pop
   end
}
def

/axumencoding
[
/.notdef        %   0
/.notdef        %   1
/.notdef        %   2
/.notdef        %   3
/.notdef        %   4
/.notdef        %   5
/.notdef        %   6
/.notdef        %   7
/.notdef        %   8
/.notdef        %   9
/.notdef        %  10
/.notdef        %  11
/.notdef        %  12
/.notdef        %  13
/.notdef        %  14
/.notdef        %  15
/.notdef        %  16
/.notdef        %  17
/.notdef        %  18
/.notdef        %  19
/.notdef        %  20
/.notdef        %  21
/.notdef        %  22
/.notdef        %  23
/.notdef        %  24
/.notdef        %  25
/.notdef        %  26
/.notdef        %  27
/.notdef        %  28
/.notdef        %  29
/.notdef        %  30
/.notdef        %  31
/space          %  32
/exclam         %  33
/quotedbl       %  34
/numbersign     %  35
/dollar         %  36
/percent        %  37
/ampersand      %  38
/quoteright     %  39
/parenleft      %  40
/parenright     %  41
/asterisk       %  42
/plus           %  43
/comma          %  44
/hyphen         %  45
/period         %  46
/slash          %  47
/zero           %  48
/one            %  49
/two            %  50
/three          %  51
/four           %  52
/five           %  53
/six            %  54
/seven          %  55
/eight          %  56
/nine           %  57
/colon          %  58
/semicolon      %  59
/less           %  60
/equal          %  61
/greater        %  62
/question       %  63
/at             %  64
/A              %  65
/B              %  66
/C              %  67
/D              %  68
/E              %  69
/F              %  70
/G              %  71
/H              %  72
/I              %  73
/J              %  74
/K              %  75
/L              %  76
/M              %  77
/N              %  78
/O              %  79
/P              %  80
/Q              %  81
/R              %  82
/S              %  83
/T              %  84
/U              %  85
/V              %  86
/W              %  87
/X              %  88
/Y              %  89
/Z              %  90
/bracketleft    %  91
/backslash      %  92
/bracketright   %  93
/asciicircum    %  94
/underscore     %  95
/quoteleft      %  96
/a              %  97
/b              %  98
/c              %  99
/d              % 100
/e              % 101
/f              % 102
/g              % 103
/h              % 104
/i              % 105
/j              % 106
/k              % 107
/l              % 108
/m              % 109
/n              % 110
/o              % 111
/p              % 112
/q              % 113
/r              % 114
/s              % 115
/t              % 116
/u              % 117
/v              % 118
/w              % 119
/x              % 120
/y              % 121
/z              % 122
/braceleft      % 123
/bar            % 124
/braceright     % 125
/asciitilde     % 126
/.notdef        % 127
/Ccedilla       % 128
/udieresis      % 129
/eacute         % 130
/acircumflex    % 131
/adieresis      % 132
/agrave         % 133
/aring          % 134
/ccedilla       % 135
/ecircumflex    % 136
/edieresis      % 137
/egrave         % 138
/idieresis      % 139
/icircumflex    % 140
/igrave         % 141
/Adieresis      % 142
/Aring          % 143
/Eacute         % 144
/ae             % 145
/AE             % 146
/ocircumflex    % 147
/odieresis      % 148
/ograve         % 149
/ucircumflex    % 150
/ugrave         % 151
/ydieresis      % 152
/Odieresis      % 153
/Udieresis      % 154
/cent           % 155
/sterling       % 156
/yen            % 157
/currency       % 158
/florin         % 159
/aacute         % 160
/iacute         % 161
/oacute         % 162
/uacute         % 163
/ntilde         % 164
/Ntilde         % 165
/ordfeminine    % 166
/ordmasculine   % 167
/questiondown   % 168
/quotedblleft   % 169
/quotedblright  % 170
/Aacute         % 171
/Acircumflex    % 172
/exclamdown     % 173
/Egrave         % 174
/Ecircumflex    % 175
/atilde         % 176
/otilde         % 177
/Edieresis      % 178
/Igrave         % 179
/oe             % 180
/OE             % 181
/Agrave         % 182
/Atilde         % 183
/Otilde         % 184
/section        % 185
/Iacute         % 186
/Icircumflex    % 187
/Idieresis      % 188
/Ograve         % 189
/Oacute         % 190
/Ocircumflex    % 191
/Ugrave         % 192
/Uacute         % 193
/Ucircumflex    % 194
/Ydieresis      % 195
/germandbls     % 196
/guillemotleft  % 197
/guillemotright % 198
/bullet         % 199
/.notdef        % 200
/.notdef        % 201
/.notdef        % 202
/.notdef        % 203
/.notdef        % 204
/.notdef        % 205
/.notdef        % 206
/.notdef        % 207
/.notdef        % 208
/.notdef        % 209
/.notdef        % 210
/.notdef        % 211
/.notdef        % 212
/.notdef        % 213
/.notdef        % 214
/.notdef        % 215
/.notdef        % 216
/.notdef        % 217
/.notdef        % 218
/.notdef        % 219
/.notdef        % 220
/.notdef        % 221
/.notdef        % 222
/.notdef        % 223
/.notdef        % 224
/.notdef        % 225
/.notdef        % 226
/.notdef        % 227
/.notdef        % 228
/.notdef        % 229
/.notdef        % 230
/.notdef        % 231
/.notdef        % 232
/.notdef        % 233
/.notdef        % 234
/.notdef        % 235
/.notdef        % 236
/.notdef        % 237
/.notdef        % 238
/.notdef        % 239
/.notdef        % 240
/.notdef        % 241
/.notdef        % 242
/.notdef        % 243
/.notdef        % 244
/.notdef        % 245
/.notdef        % 246
/.notdef        % 247
/.notdef        % 248
/.notdef        % 249
/.notdef        % 250
/.notdef        % 251
/.notdef        % 252
/.notdef        % 253
/.notdef        % 254
/.notdef        % 255
] 
def

/axumfindfont
{
   /axumfont axumencoding reencode
   /axumfont findfont
}
def


/MainFont /Helvetica axumfindfont 98 scalefont def
MainFont setfont
1 setlinejoin 0 setlinecap 0 setgray
 gsave 72 630 div dup scale
 0.0 setgray [] 0 setdash

1 setlinewidth
 2872 235 2872 246 2871 256 2871 268 2869 279 2867 290 2866 300 2863 311 2859 323
 2857 334 2853 344 2849 355 2844 365 2839 376 2834 388 2829 398 2823 409
 2817 419 2811 430 2804 440 2797 451 2789 461 2781 471 2773 483 2764 493
 2754 503 2746 513 2736 523 2726 533 2716 543 2704 553 2693 563 2682 573
 2671 583 2658 593 2646 602 2633 612 2621 622 2607 630 2593 640 2579 649
 2566 658 2550 668 2535 677 2520 685 2505 694 2490 703 2474 712 2458 720
 2442 728 2425 737 2408 744 2392 753 2374 760 2357 769 2339 777 2320 784
 2303 792 2284 799 2265 807 2246 814 2228 822 2208 828 2189 835 2169 842
 2150 849 2130 855 2110 862 2090 868 2069 874 2049 881 2029 887 2008 892
 1986 898 1966 903 1945 909 1924 914 1902 919 1881 924 1860 929 1839 934
 1816 939 1795 943 1774 948 1752 952 1730 957 1709 961 1686 964 1665 968
 1642 972 1621 976 1600 979 1577 982 1556 986 1533 988 1512 992 1490 994
 1468 997 1447 999 1426 1002 1403 1004 1382 1006 101 rps
 1382 1006 1361 1008 1340 1009 1318 1012 1297 1013 1276 1014 1256 1016 1234 1017 1213 1018
 1193 1019 1173 1021 1152 1021 1132 1022 1112 1022 1092 1022 1073 1023 1053 1023
 1034 1023 1014 1023 995 1023 977 1022 958 1022 939 1022 922 1021 903 1019
 885 1019 868 1018 850 1017 834 1016 817 1014 800 1013 784 1012 768 1011
 752 1008 737 1007 722 1004 707 1003 692 1001 676 998 663 997 649 994
 635 992 621 989 609 987 596 984 584 982 571 979 560 976 549 973
 538 971 526 967 516 964 506 961 496 958 488 954 478 951 469 948
 461 944 453 941 445 937 438 934 431 931 425 927 419 923 413 919
 408 916 403 912 398 908 393 904 389 901 385 897 383 892 379 888
 376 884 375 881 373 877 371 873 371 868 370 864 370 860 79 rps
 1571 860
 1671 860 1671 986 1571 986 1571 860
 4 3 1 roll cnp
 1.00 setgray eofill 0.0 setgray 2059 798
 2159 798 2159 923 2059 923 2059 798
 4 3 1 roll cnp
 1.00 setgray eofill 0.0 setgray 0.0 setgray 370 860 370 857 371 853 371 848 373 844 375 840 376 837 379 833 383 829
 385 824 389 820 393 817 398 813 403 809 408 805 413 802 419 798
 425 794 431 790 438 787 445 784 453 780 461 777 469 773 478 770
 488 767 496 763 506 760 516 757 526 754 538 750 549 748 560 745
 571 742 584 739 596 737 609 734 621 732 635 729 649 727 663 724
 676 723 692 720 707 718 722 717 737 714 752 713 768 710 784 709
 800 708 817 707 834 705 850 704 868 703 885 702 903 702 922 700
 939 699 958 699 977 699 995 698 1014 698 1034 698 1053 698 1073 698
 1092 699 1112 699 1132 699 1152 700 1173 700 1193 702 1213 703 1234 704
 1256 705 1276 707 1297 708 1318 709 1340 712 1361 713 1382 715 1403 717
 1426 719 1447 722 1468 724 1490 727 1512 729 1533 733 1556 735 1577 739
 1600 742 1621 745 1642 749 1665 753 1686 757 1709 760 1730 764 1752 769
 1774 773 1795 778 1816 782 1839 787 1860 792 101 rps
 1860 792 1881 797 1902 802 1924 807 1945 812 1966 818 1986 823 2008 829 2029 834
 2049 840 2069 847 2090 853 2110 859 2130 866 2150 872 2169 879 2189 886
 2208 893 2228 899 2246 907 2265 914 2284 922 2303 929 2320 937 2339 944
 2357 952 2374 961 2392 968 2408 977 2425 984 2442 993 2458 1001 2474 1009
 2490 1018 2505 1027 2520 1036 2535 1044 2550 1053 2566 1063 2579 1072 2593 1081
 2607 1091 2621 1099 2633 1109 2646 1119 2658 1128 2671 1138 2682 1148 2693 1158
 2704 1168 2716 1178 2726 1188 2736 1198 2746 1208 2754 1218 2764 1228 2773 1238
 2781 1250 2789 1260 2797 1270 2804 1281 2811 1291 2817 1302 2823 1312 2829 1323
 2834 1333 2839 1345 2844 1356 2849 1366 2853 1377 2857 1387 2859 1398 2863 1410
 2866 1421 2867 1431 2869 1442 2871 1453 2871 1465 2872 1475 2872 1486 2872 1497
 2871 1507 2871 1519 2869 1530 2867 1541 2866 1551 2863 1562 2859 1574 2857 1585
 2853 1595 2849 1606 2844 1616 2839 1627 2834 1639 2829 1649 2823 1660 2817 1670
 2811 1681 2804 1691 2797 1702 2789 1712 2781 1722 101 rps
 2781 1722 2773 1734 2764 1744 2754 1754 2746 1764 2736 1774 2726 1784 2716 1794 2704 1804
 2693 1814 2682 1824 2671 1834 2658 1844 2646 1853 2633 1863 2621 1873 2607 1881
 2593 1891 2579 1900 2566 1909 2550 1919 2535 1928 2520 1936 2505 1945 2490 1954
 2474 1963 2458 1971 2442 1979 2425 1988 2408 1995 2392 2004 2374 2011 2357 2020
 2339 2028 2320 2035 2303 2043 2284 2050 2265 2058 2246 2065 2228 2073 2208 2079
 2189 2086 2169 2093 2150 2100 2130 2106 2110 2113 2090 2119 2069 2125 2049 2132
 2029 2138 2008 2143 1986 2149 1966 2154 1945 2160 1924 2165 1902 2170 1881 2175
 1860 2180 1839 2185 1816 2190 1795 2194 1774 2199 1752 2203 1730 2208 1709 2212
 1686 2215 1665 2219 1642 2223 1621 2227 1600 2230 1577 2233 1556 2237 1533 2239
 1512 2243 1490 2245 1468 2248 1447 2250 1426 2253 1403 2255 1382 2257 1361 2259
 1340 2260 1318 2263 1297 2264 1276 2265 1256 2267 1234 2268 1213 2269 1193 2270
 1173 2272 1152 2272 1132 2273 1112 2273 1092 2273 1073 2274 1053 2274 1034 2274
 1014 2274 995 2274 977 2273 958 2273 939 2273 101 rps
 939 2273 922 2272 903 2270 885 2270 868 2269 850 2268 834 2267 817 2265 800 2264
 784 2263 768 2262 752 2259 737 2258 722 2255 707 2254 692 2252 676 2249
 663 2248 649 2245 635 2243 621 2240 609 2238 596 2235 584 2233 571 2230
 560 2227 549 2224 538 2222 526 2218 516 2215 506 2212 496 2209 488 2205
 478 2202 469 2199 461 2195 453 2192 445 2188 438 2185 431 2182 425 2178
 419 2174 413 2170 408 2167 403 2163 398 2159 393 2155 389 2152 385 2148
 383 2143 379 2139 376 2135 375 2132 373 2128 371 2124 371 2119 370 2115
 370 2111 57 rps
 1571 2111
 1671 2111 1671 2237 1571 2237 1571 2111
 4 3 1 roll cnp
 1.00 setgray eofill 0.0 setgray 2059 2049
 2159 2049 2159 2174 2059 2174 2059 2049
 4 3 1 roll cnp
 1.00 setgray eofill 0.0 setgray 0.0 setgray 370 2111 370 2108 371 2104 371 2099 373 2095 375 2091 376 2088 379 2084 383 2080
 385 2075 389 2071 393 2068 398 2064 403 2060 408 2056 413 2053 419 2049
 425 2045 431 2041 438 2038 445 2035 453 2031 461 2028 469 2024 478 2021
 488 2018 496 2014 506 2011 516 2008 526 2005 538 2001 549 1999 560 1996
 571 1993 584 1990 596 1988 609 1985 621 1983 635 1980 649 1978 663 1975
 676 1974 692 1971 707 1969 722 1968 737 1965 752 1964 768 1961 784 1960
 800 1959 817 1958 834 1956 850 1955 868 1954 885 1953 903 1953 922 1951
 939 1950 958 1950 977 1950 995 1949 1014 1949 1034 1949 1053 1949 1073 1949
 1092 1950 1112 1950 1132 1950 1152 1951 1173 1951 1193 1953 1213 1954 1234 1955
 1256 1956 1276 1958 1297 1959 1318 1960 1340 1963 1361 1964 1382 1966 1403 1968
 1426 1970 1447 1973 1468 1975 1490 1978 1512 1980 1533 1984 1556 1986 1577 1990
 1600 1993 1621 1996 1642 2000 1665 2004 1686 2008 1709 2011 1730 2015 1752 2020
 1774 2024 1795 2029 1816 2033 1839 2038 1860 2043 101 rps
 1860 2043 1881 2048 1902 2053 1924 2058 1945 2063 1966 2069 1986 2074 2008 2080 2029 2085
 2049 2091 2069 2098 2090 2104 2110 2110 2130 2117 2150 2123 2169 2130 2189 2137
 2208 2144 2228 2150 2246 2158 2265 2165 2284 2173 2303 2180 2320 2188 2339 2195
 2357 2203 2374 2212 2392 2219 2408 2228 2425 2235 2442 2244 2458 2252 2474 2260
 2490 2269 2505 2278 2520 2287 2535 2295 2550 2304 2566 2314 2579 2323 2593 2332
 2607 2342 2621 2350 2633 2360 2646 2370 2658 2379 2671 2389 2682 2399 2693 2409
 2704 2419 2716 2429 2726 2439 2736 2449 2746 2459 2754 2469 2764 2479 2773 2489
 2781 2501 2789 2511 2797 2521 2804 2532 2811 2542 2817 2553 2823 2563 2829 2574
 2834 2584 2839 2596 2844 2607 2849 2617 2853 2628 2857 2638 2859 2649 2863 2661
 2866 2672 2867 2682 2869 2693 2871 2704 2871 2716 2872 2726 2872 2737 79 rps
 1053 1949
 2622 2074 2622 1824 1053 1949 3 3 1 roll cnp
 1.00 setgray eofill 0.0 setgray 2622 2074
 2623 2074 2624 2074 2625 2074 2625 2073
 2626 2073 2627 2073 2628 2073 2628 2072
 2629 2072 2630 2071 2631 2071 2631 2070
 2632 2070 2632 2069 2633 2069 2633 2068
 2634 2068 2634 2067 2635 2067 2635 2066
 2636 2066 2636 2065 2637 2065 2637 2064
 2638 2063 2638 2062 2639 2062 2639 2061
 2640 2060 2640 2059 2641 2059 2641 2058
 2641 2057 2642 2057 2642 2056 2642 2055
 2643 2055 2643 2054 2643 2053 2644 2052
 2644 2051 2645 2051 2645 2050 2645 2049
 2646 2048 2646 2046 2647 2045 2647 2044
 2648 2043 2648 2041 2649 2040 2649 2038
 2650 2037 2650 2035 2651 2033 2651 2031
 2652 2029 2652 2027 2653 2025 2653 2023
 2654 2020 2654 2017 2655 2014 2656 2011
 2656 2008 2657 2005 2657 2001 2658 1997
 2658 1993 2659 1988 2659 1983 2660 1978
 2660 1973 2660 1967 2661 1961 2661 1954
 2661 1948 2661 1940 2661 1933 2660 1925
 2660 1916 2659 1908 2658 1899 2656 1890
 2655 1881 2653 1872 2650 1864 2648 1856
 2645 1848 2642 1841 2638 1835 2634 1830
 2630 1827 2626 1825 2622 1824 2618 1825
 2613 1827 2609 1830 2606 1835 2602 1841
 2599 1848 2596 1856 2593 1864 2591 1872
 2589 1881 2587 1890 2586 1899 2585 1908
 2584 1916 2583 1925 2583 1933 2583 1940
 2583 1948 2583 1954 2583 1961 2583 1967
 2583 1973 2584 1978 2584 1983 2585 1988
 2585 1993 2586 1997 2586 2001 2587 2005
 2587 2008 2588 2011 2589 2014 2589 2017
 2590 2020 2590 2023 2591 2025 2591 2027
 2592 2029 2592 2031 2593 2033 2594 2035
 2594 2037 2595 2038 2595 2040 2596 2041
 2596 2043 2596 2044 2597 2045 2597 2046
 2598 2048 2598 2049 2599 2050 2599 2051
 2600 2052 2600 2053 2601 2054 2601 2055
 2602 2056 2602 2057 2603 2058 2603 2059
 2604 2060 2604 2061 2605 2061 2605 2062
 2606 2063 2606 2064 2607 2064 2607 2065
 2608 2065 2608 2066 2609 2067 2609 2068
 2610 2068 2610 2069 2611 2069 2611 2070
 2612 2070 2613 2070 2613 2071 2614 2071
 2614 2072 2615 2072 2616 2072 2616 2073
 2617 2073 2618 2073 2618 2074 2619 2074
 2620 2074 2621 2074 2622 2074 187 3 1 roll cnp
 1.00 setgray eofill 0.0 setgray 0.0 setgray 2622 2074 2622 2074 1 rcs

 2622 2074 2622 2074 1 rcs

 2622 2074 2622 2074 1 rcs

 2622 2074 2623 2074 2623 2074 2623 2074 2623 2074 2623 2074 2623 2074 2623 2074 2623 2074
 2623 2074 2624 2074 2624 2074 2624 2074 2624 2074 2624 2074 2624 2074 2624 2074
 2624 2074 2624 2074 2625 2074 2625 2074 2625 2074 2625 2074 2625 2074 2625 2074
 2625 2073 2625 2073 2626 2073 2626 2073 2626 2073 2626 2073 2626 2073 2626 2073
 2626 2073 2626 2073 2626 2073 2627 2073 2627 2073 2627 2073 2627 2073 2627 2073
 2627 2073 2627 2073 2627 2073 2628 2073 2628 2073 2628 2072 2628 2072 2628 2072
 2628 2072 2628 2072 2629 2072 2629 2072 2629 2072 2629 2072 2629 2072 2629 2072
 2629 2072 2630 2071 2630 2071 2630 2071 2630 2071 2630 2071 2630 2071 2630 2071
 2631 2071 2631 2071 2631 2071 2631 2070 2631 2070 2631 2070 2632 2070 2632 2070
 2632 2070 2632 2070 2632 2069 2632 2069 2633 2069 2633 2069 2633 2069 2633 2069
 2633 2068 2634 2068 2634 2068 2634 2068 2634 2068 2634 2067 2635 2067 2635 2067
 2635 2067 2635 2066 2635 2066 2636 2066 2636 2065 2636 2065 2636 2065 2637 2065
 2637 2064 2637 2064 2637 2064 2638 2063 2638 2063 101 rps
 2638 2063 2638 2062 2639 2062 2639 2062 2639 2061 2639 2061 2640 2060 2640 2060 2640 2059
 2641 2059 2641 2058 2641 2057 2642 2057 2642 2056 2642 2055 2643 2055 2643 2054
 2643 2053 2644 2052 2644 2051 2645 2051 2645 2050 2645 2049 2646 2048 2646 2046
 2647 2045 2647 2044 2648 2043 2648 2041 2649 2040 2649 2038 2650 2037 2650 2035
 2651 2033 2651 2031 2652 2029 2652 2027 2653 2025 2653 2023 2654 2020 2654 2017
 2655 2014 2656 2011 2656 2008 2657 2005 2657 2001 2658 1997 2658 1993 2659 1988
 2659 1983 2660 1978 2660 1973 2660 1967 2661 1961 2661 1954 2661 1948 2661 1940
 2661 1933 2660 1925 2660 1916 2659 1908 2658 1899 2656 1890 2655 1881 2653 1872
 2650 1864 2648 1856 2645 1848 2642 1841 2638 1835 2634 1830 2630 1827 2626 1825
 2622 1824 2618 1825 2613 1827 2609 1830 2606 1835 2602 1841 2599 1848 2596 1856
 2593 1864 2591 1872 2589 1881 2587 1890 2586 1899 2585 1908 2584 1916 2583 1925
 2583 1933 2583 1940 2583 1948 2583 1954 2583 1961 2583 1967 2583 1973 2584 1978
 2584 1983 2585 1988 2585 1993 2586 1997 2586 2001 101 rps
 2586 2001 2587 2005 2587 2008 2588 2011 2589 2014 2589 2017 2590 2020 2590 2023 2591 2025
 2591 2027 2592 2029 2592 2031 2593 2033 2594 2035 2594 2037 2595 2038 2595 2040
 2596 2041 2596 2043 2596 2044 2597 2045 2597 2046 2598 2048 2598 2049 2599 2050
 2599 2051 2599 2051 2600 2052 2600 2053 2601 2054 2601 2055 2601 2055 2602 2056
 2602 2057 2602 2057 2603 2058 2603 2059 2603 2059 2604 2060 2604 2060 2604 2061
 2605 2061 2605 2062 2605 2062 2605 2062 2606 2063 2606 2063 2606 2064 2606 2064
 2607 2064 2607 2065 2607 2065 2607 2065 2608 2065 2608 2066 2608 2066 2608 2066
 2609 2067 2609 2067 2609 2067 2609 2067 2609 2068 2610 2068 2610 2068 2610 2068
 2610 2068 2610 2069 2611 2069 2611 2069 2611 2069 2611 2069 2611 2069 2611 2070
 2612 2070 2612 2070 2612 2070 2612 2070 2612 2070 2613 2070 2613 2071 2613 2071
 2613 2071 2613 2071 2613 2071 2613 2071 2614 2071 2614 2071 2614 2071 2614 2071
 2614 2072 2614 2072 2614 2072 2615 2072 2615 2072 2615 2072 2615 2072 2615 2072
 2615 2072 2615 2072 2616 2072 2616 2072 2616 2073 101 rps
 2616 2073 2616 2073 1 rcs

 2616 2073 2616 2073 1 rcs

 2616 2073 2617 2073 2617 2073 2617 2073 2617 2073 2617 2073 2617 2073 2617 2073 2617 2073
 2618 2073 2618 2073 2618 2073 2618 2073 2618 2073 2618 2073 2618 2073 2618 2073
 2618 2074 2619 2074 2619 2074 2619 2074 2619 2074 2619 2074 2619 2074 2619 2074
 2619 2074 2619 2074 2620 2074 2620 2074 2620 2074 2620 2074 2620 2074 2620 2074
 2620 2074 2620 2074 2620 2074 2621 2074 2621 2074 2621 2074 2621 2074 2621 2074
 2621 2074 2621 2074 2621 2074 2621 2074 2622 2074 2622 2074 2622 2074 47 rps
 2622 1974
 2747 1974 2747 1924 2622 1924 2622 1974
 4 3 1 roll cnp
 1.00 setgray eofill 0.0 setgray 0.0 setgray
7 setlinewidth
 1619 2033 1619 2734 1 rps

1 setlinewidth
 1619 2734
 1652 2621 1585 2621 1619 2734 3 3 1 roll cnp
 0.00 setgray
gsave eofill grestore  0.0 setgray
 stroke 0.0 setgray 0.0 setgray 2557 2302 2629 2356 1 rps
 2629 2356
 2558 2261 2518 2315 2629 2356 3 3 1 roll cnp
 0.00 setgray
gsave eofill grestore  0.0 setgray
 stroke 0.0 setgray 0.0 setgray 3403 2029 2839 1865 1 rps
 3403 2029
 3322 1982 3310 2025 3403 2029 3 3 1 roll cnp
 0.00 setgray
gsave eofill grestore  0.0 setgray
 stroke 0.0 setgray 0.0 setgray 2620 1947 3558 1947 1 rps
 3558 1947
 3468 1924 3468 1969 3558 1947 3 3 1 roll cnp
 0.00 setgray
gsave eofill grestore  0.0 setgray
 stroke 0.0 setgray 0.0 setgray 3121 1651 3121 2243 1 rps
 3121 2243
 3143 2153 3098 2153 3121 2243 3 3 1 roll cnp
 0.00 setgray
gsave eofill grestore  0.0 setgray
 stroke 0.0 setgray 1047 1925
 1055 1925 1064 1929 1069 1934 1073 1943
 1073 1951 1069 1960 1064 1965 1055 1969
 1047 1969 1038 1965 1033 1960 1029 1951
 1029 1943 1033 1934 1038 1929 1047 1925
 16 3 1 roll cnp
 0.00 setgray
gsave eofill grestore  0.0 setgray
 stroke 0.0 setgray 0.0 setgray
7 setlinewidth
 1619 236 1619 696 1 rps
 1619 782 1619 1860 1 rps

1 setlinewidth
 1051 1947 2620 2074 1 rps
 1051 1947 2620 1824 1 rps

/Times-Roman axumfindfont 124 scalefont setfont
 682 1788 moveto  (Electron) show 
 1146 2857 moveto  (Magnetic field line) show 

/Times-Bold axumfindfont 121 scalefont setfont
 2993 2252 moveto  (B) show 
 3426 2074 moveto  (E) show 

/Times-Roman axumfindfont 124 scalefont setfont
 2998 1487 moveto  (Polarization of) show 
 2998 1378 moveto  (synchrotron) show 
 2998 1269 moveto  (radiation) show 
 grestore showpage
%Trailer
%EOF
