%!PS-Adobe-2.0 EPSF-1.2
%%BoundingBox: 0 0 468 360
%%%%DocumentFonts: /Helvetica
%%Title: Axum PostScript file
%%Creator: TriMetrix, Inc.
%%Pages: 1
%%EndComments
% Copyright 1988-1991 by TriMetrix, Inc. All rights reserved.
/downdict 4 dict def
/sdown
 {downdict begin
  /thestring exch def
  /lineskip exch def
  thestring
   {
    /charcode exch def
    /thechar ( ) dup 0 charcode put def
    0 lineskip neg rmoveto
    gsave
     thechar stringwidth pop 2 div neg 0 rmoveto
     thechar show
    grestore
   } forall
   end
  } def

/updict 4 dict def
/sup
 {updict begin
  /thestring exch def
  /lineskip exch def
  thestring 
   {
    /charcode exch def
    /thechar ( ) dup 0 charcode put def
    0 lineskip rmoveto
    gsave
     thechar stringwidth pop 2 div neg 0 rmoveto
     thechar show
    grestore
   } forall
   end
  } def

/leftdict 4 dict def
/sleft
 {leftdict begin
  /thestring exch def
  thestring
   {
    /charcode exch def
    /thechar ( ) dup 0 charcode put def
    gsave
     thechar stringwidth pop neg 0 rmoveto
     thechar show
    grestore
   } forall

   thechar stringwidth pop neg 0 rmoveto
   end
  } def

/path{newpath moveto{lineto}repeat} bind def 
/cnp{newpath moveto{lineto}repeat closepath} bind def
/clp{moveto{lineto}repeat closepath} bind def
/rps{ 3 1 roll path stroke} bind def
/rcs{ 3 1 roll clp stroke} bind def
/setF { currentscreen 4 -2 roll pop 3 1 roll setscreen} bind def
% required due to WinWord 2.0 bug:
/II { } def

/reencodedict 5 dict def
/reencode
{
   reencodedict begin
   /newencoding exch def
   /newfontname exch def
   /basefontname exch def

   /basefontdict basefontname findfont def
   /newfont basefontdict maxlength dict def

   basefontdict
   {
      exch dup dup /FID ne exch /Encoding ne and
      { exch newfont 3 1 roll put }
      { pop pop }
      ifelse
   }
   forall

   newfont /FontName newfontname put
   newfont /Encoding newencoding put
   newfontname newfont definefont pop
   end
}
def

/axumencoding
[
/.notdef        %   0
/.notdef        %   1
/.notdef        %   2
/.notdef        %   3
/.notdef        %   4
/.notdef        %   5
/.notdef        %   6
/.notdef        %   7
/.notdef        %   8
/.notdef        %   9
/.notdef        %  10
/.notdef        %  11
/.notdef        %  12
/.notdef        %  13
/.notdef        %  14
/.notdef        %  15
/.notdef        %  16
/.notdef        %  17
/.notdef        %  18
/.notdef        %  19
/.notdef        %  20
/.notdef        %  21
/.notdef        %  22
/.notdef        %  23
/.notdef        %  24
/.notdef        %  25
/.notdef        %  26
/.notdef        %  27
/.notdef        %  28
/.notdef        %  29
/.notdef        %  30
/.notdef        %  31
/space          %  32
/exclam         %  33
/quotedbl       %  34
/numbersign     %  35
/dollar         %  36
/percent        %  37
/ampersand      %  38
/quoteright     %  39
/parenleft      %  40
/parenright     %  41
/asterisk       %  42
/plus           %  43
/comma          %  44
/hyphen         %  45
/period         %  46
/slash          %  47
/zero           %  48
/one            %  49
/two            %  50
/three          %  51
/four           %  52
/five           %  53
/six            %  54
/seven          %  55
/eight          %  56
/nine           %  57
/colon          %  58
/semicolon      %  59
/less           %  60
/equal          %  61
/greater        %  62
/question       %  63
/at             %  64
/A              %  65
/B              %  66
/C              %  67
/D              %  68
/E              %  69
/F              %  70
/G              %  71
/H              %  72
/I              %  73
/J              %  74
/K              %  75
/L              %  76
/M              %  77
/N              %  78
/O              %  79
/P              %  80
/Q              %  81
/R              %  82
/S              %  83
/T              %  84
/U              %  85
/V              %  86
/W              %  87
/X              %  88
/Y              %  89
/Z              %  90
/bracketleft    %  91
/backslash      %  92
/bracketright   %  93
/asciicircum    %  94
/underscore     %  95
/quoteleft      %  96
/a              %  97
/b              %  98
/c              %  99
/d              % 100
/e              % 101
/f              % 102
/g              % 103
/h              % 104
/i              % 105
/j              % 106
/k              % 107
/l              % 108
/m              % 109
/n              % 110
/o              % 111
/p              % 112
/q              % 113
/r              % 114
/s              % 115
/t              % 116
/u              % 117
/v              % 118
/w              % 119
/x              % 120
/y              % 121
/z              % 122
/braceleft      % 123
/bar            % 124
/braceright     % 125
/asciitilde     % 126
/.notdef        % 127
/Ccedilla       % 128
/udieresis      % 129
/eacute         % 130
/acircumflex    % 131
/adieresis      % 132
/agrave         % 133
/aring          % 134
/ccedilla       % 135
/ecircumflex    % 136
/edieresis      % 137
/egrave         % 138
/idieresis      % 139
/icircumflex    % 140
/igrave         % 141
/Adieresis      % 142
/Aring          % 143
/Eacute         % 144
/ae             % 145
/AE             % 146
/ocircumflex    % 147
/odieresis      % 148
/ograve         % 149
/ucircumflex    % 150
/ugrave         % 151
/ydieresis      % 152
/Odieresis      % 153
/Udieresis      % 154
/cent           % 155
/sterling       % 156
/yen            % 157
/currency       % 158
/florin         % 159
/aacute         % 160
/iacute         % 161
/oacute         % 162
/uacute         % 163
/ntilde         % 164
/Ntilde         % 165
/ordfeminine    % 166
/ordmasculine   % 167
/questiondown   % 168
/quotedblleft   % 169
/quotedblright  % 170
/Aacute         % 171
/Acircumflex    % 172
/exclamdown     % 173
/Egrave         % 174
/Ecircumflex    % 175
/atilde         % 176
/otilde         % 177
/Edieresis      % 178
/Igrave         % 179
/oe             % 180
/OE             % 181
/Agrave         % 182
/Atilde         % 183
/Otilde         % 184
/section        % 185
/Iacute         % 186
/Icircumflex    % 187
/Idieresis      % 188
/Ograve         % 189
/Oacute         % 190
/Ocircumflex    % 191
/Ugrave         % 192
/Uacute         % 193
/Ucircumflex    % 194
/Ydieresis      % 195
/germandbls     % 196
/guillemotleft  % 197
/guillemotright % 198
/bullet         % 199
/.notdef        % 200
/.notdef        % 201
/.notdef        % 202
/.notdef        % 203
/.notdef        % 204
/.notdef        % 205
/.notdef        % 206
/.notdef        % 207
/.notdef        % 208
/.notdef        % 209
/.notdef        % 210
/.notdef        % 211
/.notdef        % 212
/.notdef        % 213
/.notdef        % 214
/.notdef        % 215
/.notdef        % 216
/.notdef        % 217
/.notdef        % 218
/.notdef        % 219
/.notdef        % 220
/.notdef        % 221
/.notdef        % 222
/.notdef        % 223
/.notdef        % 224
/.notdef        % 225
/.notdef        % 226
/.notdef        % 227
/.notdef        % 228
/.notdef        % 229
/.notdef        % 230
/.notdef        % 231
/.notdef        % 232
/.notdef        % 233
/.notdef        % 234
/.notdef        % 235
/.notdef        % 236
/.notdef        % 237
/.notdef        % 238
/.notdef        % 239
/.notdef        % 240
/.notdef        % 241
/.notdef        % 242
/.notdef        % 243
/.notdef        % 244
/.notdef        % 245
/.notdef        % 246
/.notdef        % 247
/.notdef        % 248
/.notdef        % 249
/.notdef        % 250
/.notdef        % 251
/.notdef        % 252
/.notdef        % 253
/.notdef        % 254
/.notdef        % 255
] 
def

/axumfindfont
{
   /axumfont axumencoding reencode
   /axumfont findfont
}
def


/MainFont /Helvetica axumfindfont 98 scalefont def
MainFont setfont
1 setlinejoin 0 setlinecap 0 setgray
 gsave 72 630 div dup scale
 0.0 setgray
/Times-Roman axumfindfont 124 scalefont setfont
 1051 705 moveto  (Earth) show 
 3298 1228 moveto  (Moon) show 

/Times-Italic axumfindfont 128 scalefont setfont
 1637 1419 moveto  (m) show 

/Times-Roman axumfindfont 95 scalefont setfont
 1729 1391 moveto  (1) show 

/Times-Italic axumfindfont 128 scalefont setfont
 1278 1419 moveto  (m) show 

/Times-Roman axumfindfont 95 scalefont setfont
 1370 1391 moveto  (2) show 

/Times-Italic axumfindfont 128 scalefont setfont
 1474 1597 moveto  (dr) show 
 2507 1601 moveto  (r) show 
 [] 0 setdash

1 setlinewidth
 1355 1556 1701 1556 1 rps
 1701 1556
 1633 1540 1633 1571 1701 1556 3 3 1 roll cnp
 0.00 setgray
gsave eofill grestore  0.0 setgray
 stroke 0.0 setgray 1355 1556
 1423 1571 1423 1540 1355 1556 3 3 1 roll cnp
 0.00 setgray
gsave eofill grestore  0.0 setgray
 stroke 0.0 setgray 1352 1541
 1358 1541 1364 1544 1367 1547 1370 1553
 1370 1559 1367 1565 1364 1568 1358 1571
 1352 1571 1346 1568 1343 1565 1340 1559
 1340 1553 1343 1547 1346 1544 1352 1541
 16 3 1 roll cnp
 0.00 setgray
gsave eofill grestore  0.0 setgray
 stroke 0.0 setgray 1698 1541
 1704 1541 1710 1544 1713 1547 1716 1553
 1716 1559 1713 1565 1710 1568 1704 1571
 1698 1571 1692 1568 1689 1565 1686 1559
 1686 1553 1689 1547 1692 1544 1698 1541
 16 3 1 roll cnp
 0.00 setgray
gsave eofill grestore  0.0 setgray
 stroke 0.0 setgray 0.0 setgray 1355 1556 3430 1556 1 rps
 1873 1556 1872 1599 1868 1643 1861 1685 1851 1728 1839 1769 1824 1810 1807 1850 1788 1889
 1765 1926 1741 1962 1714 1996 1686 2029 1655 2060 1623 2088 1588 2115 1552 2139
 1515 2161 1476 2181 1437 2198 1396 2213 1354 2225 1312 2235 1269 2242 1226 2246
 1182 2247 1140 2246 1097 2242 1054 2235 1011 2225 970 2213 929 2199 889 2181
 850 2162 813 2140 777 2115 743 2089 710 2060 679 2029 651 1997 624 1962
 600 1927 578 1889 558 1851 541 1811 526 1770 514 1728 504 1686 497 1643
 493 1600 492 1556 493 1514 497 1471 504 1428 514 1386 526 1344 540 1303
 558 1263 577 1225 599 1187 624 1151 650 1117 679 1084 710 1054 742 1025
 776 998 812 974 850 952 888 932 928 915 969 900 1011 888 1053 878
 1096 872 1139 867 1182 866 1225 867 1268 871 1311 878 1353 888 1395 900
 1436 914 1476 931 1514 951 1552 973 1588 998 1622 1024 1655 1053 1685 1083
 1714 1116 1741 1150 1765 1186 1787 1223 1807 1262 1824 1302 1839 1343 1851 1384
 1861 1427 1867 1470 1872 1513 99 rcs

 3602 1556 3602 1567 3601 1578 3599 1588 3597 1599 3594 1609 3590 1619 3586 1629 3581 1639
 3575 1648 3569 1657 3563 1666 3555 1674 3548 1681 3540 1689 3531 1695 3522 1701
 3513 1707 3503 1712 3493 1716 3483 1720 3473 1723 3462 1725 3452 1727 3441 1728
 3430 1728 3420 1728 3409 1727 3399 1725 3388 1723 3378 1720 3368 1716 3358 1712
 3348 1707 3339 1701 3330 1695 3321 1689 3313 1681 3306 1674 3299 1666 3292 1657
 3286 1648 3280 1639 3275 1629 3271 1619 3267 1609 3264 1599 3262 1588 3260 1578
 3259 1567 3259 1556 3259 1546 3260 1536 3262 1525 3264 1514 3267 1504 3271 1494
 3275 1484 3280 1474 3286 1465 3292 1456 3298 1447 3306 1439 3313 1432 3321 1425
 3330 1418 3339 1412 3348 1406 3358 1401 3368 1397 3378 1393 3388 1390 3399 1388
 3409 1386 3420 1385 3430 1385 3441 1385 3451 1386 3462 1388 3473 1390 3483 1393
 3493 1397 3503 1401 3513 1406 3522 1412 3531 1418 3540 1424 3548 1431 3555 1439
 3562 1447 3569 1456 3575 1465 3581 1474 3586 1484 3590 1494 3594 1504 3597 1514
 3599 1525 3601 1535 3602 1546 99 rcs

 grestore showpage
%Trailer
%EOF
