%!PS-Adobe-2.0 EPSF-1.2
%%BoundingBox: 0 0 468 360
%%%%DocumentFonts: /Helvetica
%%Title: Axum PostScript file
%%Creator: TriMetrix, Inc.
%%Pages: 1
%%EndComments
% Copyright 1988-1991 by TriMetrix, Inc. All rights reserved.
/downdict 4 dict def
/sdown
 {downdict begin
  /thestring exch def
  /lineskip exch def
  thestring
   {
    /charcode exch def
    /thechar ( ) dup 0 charcode put def
    0 lineskip neg rmoveto
    gsave
     thechar stringwidth pop 2 div neg 0 rmoveto
     thechar show
    grestore
   } forall
   end
  } def

/updict 4 dict def
/sup
 {updict begin
  /thestring exch def
  /lineskip exch def
  thestring 
   {
    /charcode exch def
    /thechar ( ) dup 0 charcode put def
    0 lineskip rmoveto
    gsave
     thechar stringwidth pop 2 div neg 0 rmoveto
     thechar show
    grestore
   } forall
   end
  } def

/leftdict 4 dict def
/sleft
 {leftdict begin
  /thestring exch def
  thestring
   {
    /charcode exch def
    /thechar ( ) dup 0 charcode put def
    gsave
     thechar stringwidth pop neg 0 rmoveto
     thechar show
    grestore
   } forall

   thechar stringwidth pop neg 0 rmoveto
   end
  } def

/path{newpath moveto{lineto}repeat} bind def 
/cnp{newpath moveto{lineto}repeat closepath} bind def
/clp{moveto{lineto}repeat closepath} bind def
/rps{ 3 1 roll path stroke} bind def
/rcs{ 3 1 roll clp stroke} bind def
/setF { currentscreen 4 -2 roll pop 3 1 roll setscreen} bind def
% required due to WinWord 2.0 bug:
/II { } def

/reencodedict 5 dict def
/reencode
{
   reencodedict begin
   /newencoding exch def
   /newfontname exch def
   /basefontname exch def

   /basefontdict basefontname findfont def
   /newfont basefontdict maxlength dict def

   basefontdict
   {
      exch dup dup /FID ne exch /Encoding ne and
      { exch newfont 3 1 roll put }
      { pop pop }
      ifelse
   }
   forall

   newfont /FontName newfontname put
   newfont /Encoding newencoding put
   newfontname newfont definefont pop
   end
}
def

/axumencoding
[
/.notdef        %   0
/.notdef        %   1
/.notdef        %   2
/.notdef        %   3
/.notdef        %   4
/.notdef        %   5
/.notdef        %   6
/.notdef        %   7
/.notdef        %   8
/.notdef        %   9
/.notdef        %  10
/.notdef        %  11
/.notdef        %  12
/.notdef        %  13
/.notdef        %  14
/.notdef        %  15
/.notdef        %  16
/.notdef        %  17
/.notdef        %  18
/.notdef        %  19
/.notdef        %  20
/.notdef        %  21
/.notdef        %  22
/.notdef        %  23
/.notdef        %  24
/.notdef        %  25
/.notdef        %  26
/.notdef        %  27
/.notdef        %  28
/.notdef        %  29
/.notdef        %  30
/.notdef        %  31
/space          %  32
/exclam         %  33
/quotedbl       %  34
/numbersign     %  35
/dollar         %  36
/percent        %  37
/ampersand      %  38
/quoteright     %  39
/parenleft      %  40
/parenright     %  41
/asterisk       %  42
/plus           %  43
/comma          %  44
/hyphen         %  45
/period         %  46
/slash          %  47
/zero           %  48
/one            %  49
/two            %  50
/three          %  51
/four           %  52
/five           %  53
/six            %  54
/seven          %  55
/eight          %  56
/nine           %  57
/colon          %  58
/semicolon      %  59
/less           %  60
/equal          %  61
/greater        %  62
/question       %  63
/at             %  64
/A              %  65
/B              %  66
/C              %  67
/D              %  68
/E              %  69
/F              %  70
/G              %  71
/H              %  72
/I              %  73
/J              %  74
/K              %  75
/L              %  76
/M              %  77
/N              %  78
/O              %  79
/P              %  80
/Q              %  81
/R              %  82
/S              %  83
/T              %  84
/U              %  85
/V              %  86
/W              %  87
/X              %  88
/Y              %  89
/Z              %  90
/bracketleft    %  91
/backslash      %  92
/bracketright   %  93
/asciicircum    %  94
/underscore     %  95
/quoteleft      %  96
/a              %  97
/b              %  98
/c              %  99
/d              % 100
/e              % 101
/f              % 102
/g              % 103
/h              % 104
/i              % 105
/j              % 106
/k              % 107
/l              % 108
/m              % 109
/n              % 110
/o              % 111
/p              % 112
/q              % 113
/r              % 114
/s              % 115
/t              % 116
/u              % 117
/v              % 118
/w              % 119
/x              % 120
/y              % 121
/z              % 122
/braceleft      % 123
/bar            % 124
/braceright     % 125
/asciitilde     % 126
/.notdef        % 127
/Ccedilla       % 128
/udieresis      % 129
/eacute         % 130
/acircumflex    % 131
/adieresis      % 132
/agrave         % 133
/aring          % 134
/ccedilla       % 135
/ecircumflex    % 136
/edieresis      % 137
/egrave         % 138
/idieresis      % 139
/icircumflex    % 140
/igrave         % 141
/Adieresis      % 142
/Aring          % 143
/Eacute         % 144
/ae             % 145
/AE             % 146
/ocircumflex    % 147
/odieresis      % 148
/ograve         % 149
/ucircumflex    % 150
/ugrave         % 151
/ydieresis      % 152
/Odieresis      % 153
/Udieresis      % 154
/cent           % 155
/sterling       % 156
/yen            % 157
/currency       % 158
/florin         % 159
/aacute         % 160
/iacute         % 161
/oacute         % 162
/uacute         % 163
/ntilde         % 164
/Ntilde         % 165
/ordfeminine    % 166
/ordmasculine   % 167
/questiondown   % 168
/quotedblleft   % 169
/quotedblright  % 170
/Aacute         % 171
/Acircumflex    % 172
/exclamdown     % 173
/Egrave         % 174
/Ecircumflex    % 175
/atilde         % 176
/otilde         % 177
/Edieresis      % 178
/Igrave         % 179
/oe             % 180
/OE             % 181
/Agrave         % 182
/Atilde         % 183
/Otilde         % 184
/section        % 185
/Iacute         % 186
/Icircumflex    % 187
/Idieresis      % 188
/Ograve         % 189
/Oacute         % 190
/Ocircumflex    % 191
/Ugrave         % 192
/Uacute         % 193
/Ucircumflex    % 194
/Ydieresis      % 195
/germandbls     % 196
/guillemotleft  % 197
/guillemotright % 198
/bullet         % 199
/.notdef        % 200
/.notdef        % 201
/.notdef        % 202
/.notdef        % 203
/.notdef        % 204
/.notdef        % 205
/.notdef        % 206
/.notdef        % 207
/.notdef        % 208
/.notdef        % 209
/.notdef        % 210
/.notdef        % 211
/.notdef        % 212
/.notdef        % 213
/.notdef        % 214
/.notdef        % 215
/.notdef        % 216
/.notdef        % 217
/.notdef        % 218
/.notdef        % 219
/.notdef        % 220
/.notdef        % 221
/.notdef        % 222
/.notdef        % 223
/.notdef        % 224
/.notdef        % 225
/.notdef        % 226
/.notdef        % 227
/.notdef        % 228
/.notdef        % 229
/.notdef        % 230
/.notdef        % 231
/.notdef        % 232
/.notdef        % 233
/.notdef        % 234
/.notdef        % 235
/.notdef        % 236
/.notdef        % 237
/.notdef        % 238
/.notdef        % 239
/.notdef        % 240
/.notdef        % 241
/.notdef        % 242
/.notdef        % 243
/.notdef        % 244
/.notdef        % 245
/.notdef        % 246
/.notdef        % 247
/.notdef        % 248
/.notdef        % 249
/.notdef        % 250
/.notdef        % 251
/.notdef        % 252
/.notdef        % 253
/.notdef        % 254
/.notdef        % 255
] 
def

/axumfindfont
{
   /axumfont axumencoding reencode
   /axumfont findfont
}
def


/MainFont /Helvetica axumfindfont 98 scalefont def
MainFont setfont
1 setlinejoin 0 setlinecap 0 setgray
 gsave 72 630 div dup scale
 0.0 setgray [] 0 setdash

1 setlinewidth
 2825 1556 2825 1560 2825 1564 2825 1568 2825 1572 2825 1575 2825 1579 2824 1583 2824 1587
 2824 1591 2824 1595 2823 1599 2823 1603 2823 1607 2822 1610 2822 1614 2822 1618
 2821 1622 2821 1626 2820 1630 2820 1634 2819 1638 2819 1642 2818 1645 2817 1649
 2817 1653 2816 1657 2815 1661 2815 1665 2814 1669 2813 1673 2812 1677 2812 1680
 2811 1684 2810 1688 2809 1692 2808 1696 2807 1700 2806 1704 2805 1708 2804 1712
 2803 1715 2802 1719 2801 1723 2799 1727 2798 1731 2797 1735 2796 1739 2795 1743
 2793 1747 2792 1750 2791 1754 2789 1758 2788 1762 2786 1766 2785 1770 2783 1774
 2782 1778 2780 1781 2779 1785 2777 1789 2775 1793 2774 1797 2772 1801 2770 1805
 2768 1809 2766 1812 2765 1816 2763 1820 2761 1824 2759 1828 2757 1832 2755 1836
 2753 1839 2751 1843 2749 1847 2746 1851 2744 1855 2742 1859 2740 1863 2737 1866
 2735 1870 2733 1874 2730 1878 2728 1882 2726 1886 2723 1889 2721 1893 2718 1897
 2715 1901 2713 1905 2710 1909 2707 1912 2705 1916 2702 1920 2699 1924 2696 1927
 2693 1931 2690 1935 2687 1939 2684 1943 2681 1946 101 rps
 2681 1946 2678 1950 2675 1954 2672 1958 2668 1961 2665 1965 2662 1969 2659 1972 2655 1976
 2652 1980 2648 1984 2645 1987 2641 1991 2638 1995 2634 1998 2630 2002 2626 2006
 2623 2009 2619 2013 2615 2016 2611 2020 2607 2024 2603 2027 2599 2031 2595 2034
 2591 2038 2587 2041 2582 2045 2578 2048 2574 2052 2569 2055 2565 2059 2560 2062
 2556 2066 2551 2069 2547 2073 2542 2076 2537 2079 2532 2083 2527 2086 2522 2089
 2518 2093 2513 2096 2507 2099 2502 2102 2497 2106 2492 2109 2487 2112 2481 2115
 2476 2118 2470 2121 2465 2124 2459 2127 2454 2130 2448 2133 2442 2136 2436 2139
 2431 2142 2425 2145 2419 2148 2413 2151 2407 2153 2400 2156 2394 2159 2388 2162
 2382 2164 2375 2167 2369 2169 2362 2172 2356 2174 2349 2177 2342 2179 2336 2182
 2329 2184 2322 2186 2315 2189 2308 2191 2301 2193 2294 2195 2286 2197 2279 2199
 2272 2201 2264 2203 2257 2205 2249 2207 2242 2208 2234 2210 2227 2212 2219 2213
 2211 2215 2203 2216 2195 2217 2187 2219 2179 2220 2171 2221 2163 2222 2154 2223
 2146 2224 2138 2225 2129 2226 2121 2227 2112 2227 101 rps
 2112 2227 2104 2228 2095 2228 2086 2229 2078 2229 2069 2230 2060 2230 2051 2230 2042 2230
 2033 2230 2024 2229 2015 2229 2006 2229 1996 2228 1987 2228 1978 2227 1968 2226
 1959 2225 1949 2224 1940 2223 1930 2222 1921 2221 1911 2219 1902 2218 1892 2216
 1882 2214 1873 2213 1863 2211 1853 2208 1843 2206 1833 2204 1824 2201 1814 2199
 1804 2196 1794 2193 1784 2190 1774 2187 1764 2184 1754 2180 1745 2177 1735 2173
 1725 2169 1715 2165 1705 2161 1695 2157 1685 2153 1676 2148 1666 2143 1656 2139
 1646 2134 1637 2128 1627 2123 1618 2118 1608 2112 1599 2107 1589 2101 1580 2095
 1570 2089 1561 2082 1552 2076 1543 2069 1534 2062 1525 2056 1516 2049 1507 2041
 1499 2034 1490 2027 1482 2019 1473 2011 1465 2003 1457 1995 1449 1987 1441 1979
 1433 1970 1426 1961 1418 1953 1411 1944 1404 1935 1396 1926 1390 1916 1383 1907
 1376 1897 1370 1888 1364 1878 1357 1868 1352 1858 1346 1848 1340 1838 1335 1827
 1330 1817 1325 1806 1320 1796 1315 1785 1311 1774 1307 1763 1303 1752 1299 1741
 1295 1730 1292 1719 1289 1708 1286 1697 1283 1685 101 rps
 1283 1685 1281 1674 1279 1662 1277 1651 1275 1639 1273 1628 1272 1616 1271 1604 1270 1593
 1270 1581 1269 1570 1269 1558 1269 1546 1269 1535 1270 1523 1271 1511 1272 1500
 1273 1488 1274 1476 1276 1465 1278 1453 1280 1442 1283 1430 1285 1419 1288 1408
 1291 1397 1294 1385 1298 1374 1302 1363 1305 1352 1310 1341 1314 1330 1318 1320
 1323 1309 1328 1298 1333 1288 1339 1278 1344 1267 1350 1257 1356 1247 1362 1237
 1368 1227 1374 1218 1381 1208 1387 1199 1394 1189 1401 1180 1408 1171 1416 1162
 1423 1153 1431 1145 1439 1136 1446 1128 1454 1119 1462 1111 1471 1103 1479 1096
 1487 1088 1496 1080 1505 1073 1513 1066 1522 1059 1531 1052 1540 1045 1549 1038
 1558 1032 1567 1025 1577 1019 1586 1013 1596 1007 1605 1002 1615 996 1624 990
 1634 985 1643 980 1653 975 1663 970 1673 965 1682 961 1692 956 1702 952
 1712 948 81 rps
 1712 948 1722 944 1732 940 1741 936 1751 933 1761 929 1771 926 1781 923 1791 920
 1801 917 1811 914 1820 911 1830 909 1840 906 1850 904 1860 902 1869 900
 1879 898 1889 896 1899 895 1908 893 1918 892 1927 890 1937 889 1946 888
 1956 887 1965 886 1975 885 1984 884 1993 884 2003 883 2012 883 2021 883
 2030 882 2039 882 2048 882 2057 882 2066 882 2075 883 2084 883 2092 883
 2101 884 2110 884 2118 885 2127 886 2135 887 2144 887 2152 888 2160 889
 2168 890 2176 892 2185 893 2193 894 2201 895 2208 897 2216 898 2224 900
 2232 902 2239 903 2247 905 2255 907 2262 908 2270 910 2277 912 2284 914
 2291 916 2299 918 2306 921 2313 923 2320 925 2327 927 2333 930 2340 932
 2347 934 2354 937 2360 939 2367 942 2373 944 2380 947 2386 950 2392 952
 2398 955 2405 958 2411 960 2417 963 2423 966 2429 969 2435 972 2440 975
 2446 978 2452 981 2458 984 2463 987 2469 990 2474 993 2480 996 2485 999
 2490 1002 2495 1005 2501 1009 2506 1012 2511 1015 101 rps
 2511 1015 2516 1018 2521 1022 2526 1025 2531 1028 2536 1032 2540 1035 2545 1038 2550 1042
 2554 1045 2559 1049 2563 1052 2568 1056 2572 1059 2577 1062 2581 1066 2585 1069
 2589 1073 2594 1077 2598 1080 2602 1084 2606 1087 2610 1091 2614 1094 2618 1098
 2621 1102 2625 1105 2629 1109 2633 1113 2636 1116 2640 1120 2644 1124 2647 1127
 2651 1131 2654 1135 2657 1138 2661 1142 2664 1146 2667 1150 2671 1153 2674 1157
 2677 1161 2680 1164 2683 1168 2686 1172 2689 1176 2692 1180 2695 1183 2698 1187
 2701 1191 2704 1195 2706 1198 2709 1202 2712 1206 2715 1210 2717 1214 2720 1218
 2722 1221 2725 1225 2727 1229 2730 1233 2732 1237 2734 1241 2737 1244 2739 1248
 2741 1252 2744 1256 2746 1260 2748 1264 2750 1267 2752 1271 2754 1275 2756 1279
 2758 1283 2760 1287 2762 1291 2764 1294 2766 1298 2768 1302 2769 1306 2771 1310
 2773 1314 2775 1318 2776 1322 2778 1325 2780 1329 2781 1333 2783 1337 2784 1341
 2786 1345 2787 1349 2789 1353 2790 1356 2791 1360 2793 1364 2794 1368 2795 1372
 2797 1376 2798 1380 2799 1384 2800 1388 2801 1391 101 rps
 2801 1391 2803 1395 2804 1399 2805 1403 2806 1407 2807 1411 2808 1415 2809 1419 2810 1423
 2810 1426 2811 1430 2812 1434 2813 1438 2814 1442 2815 1446 2815 1450 2816 1454
 2817 1458 2817 1461 2818 1465 2819 1469 2819 1473 2820 1477 2820 1481 2821 1485
 2821 1489 2822 1493 2822 1496 2822 1500 2823 1504 2823 1508 2823 1512 2824 1516
 2824 1520 2824 1524 2824 1528 2824 1531 2825 1535 2825 1539 2825 1543 2825 1547
 2825 1551 2825 1555 42 rps
 2825 1556 3603 1556 1 rps
 3603 1556
 3535 1540 3535 1571 3603 1556 3 3 1 roll cnp
 0.00 setgray
gsave eofill grestore  0.0 setgray
 stroke 0.0 setgray 0.0 setgray 2047 1556 2484 1556 1 rps
 2484 1556
 2416 1540 2416 1571 2484 1556 3 3 1 roll cnp
 0.00 setgray
gsave eofill grestore  0.0 setgray
 stroke 0.0 setgray 0.0 setgray 1269 1556 1546 1556 1 rps
 1546 1556
 1478 1540 1478 1571 1546 1556 3 3 1 roll cnp
 0.00 setgray
gsave eofill grestore  0.0 setgray
 stroke 0.0 setgray 0.0 setgray 2047 2229 2456 2138 1 rps
 2456 2138
 2386 2137 2393 2168 2456 2138 3 3 1 roll cnp
 0.00 setgray
gsave eofill grestore  0.0 setgray
 stroke 0.0 setgray 0.0 setgray 2047 882 2456 969 1 rps
 2456 969
 2392 939 2386 970 2456 969 3 3 1 roll cnp
 0.00 setgray
gsave eofill grestore  0.0 setgray
 stroke 0.0 setgray 0.0 setgray 2679 1947 3344 1842 1 rps
 3344 1842
 3274 1836 3279 1868 3344 1842 3 3 1 roll cnp
 0.00 setgray
gsave eofill grestore  0.0 setgray
 stroke 0.0 setgray 0.0 setgray 2679 1164 3344 1269 1 rps
 3344 1269
 3279 1242 3274 1274 3344 1269 3 3 1 roll cnp
 0.00 setgray
gsave eofill grestore  0.0 setgray
 stroke 0.0 setgray 0.0 setgray 1410 1947 1710 1915 1 rps
 1710 1915
 1640 1906 1644 1937 1710 1915 3 3 1 roll cnp
 0.00 setgray
gsave eofill grestore  0.0 setgray
 stroke 0.0 setgray 0.0 setgray 1410 1164 1710 1196 1 rps
 1710 1196
 1644 1173 1640 1204 1710 1196 3 3 1 roll cnp
 0.00 setgray
gsave eofill grestore  0.0 setgray
 stroke 0.0 setgray 2044 1541
 2050 1541 2056 1544 2059 1547 2062 1553
 2062 1559 2059 1565 2056 1568 2050 1571
 2044 1571 2038 1568 2035 1565 2032 1559
 2032 1553 2035 1547 2038 1544 2044 1541
 16 3 1 roll cnp
 0.00 setgray
gsave eofill grestore  0.0 setgray
 stroke 0.0 setgray 2822 1541
 2828 1541 2834 1544 2837 1547 2840 1553
 2840 1559 2837 1565 2834 1568 2828 1571
 2822 1571 2816 1568 2813 1565 2810 1559
 2810 1553 2813 1547 2816 1544 2822 1541
 16 3 1 roll cnp
 0.00 setgray
gsave eofill grestore  0.0 setgray
 stroke 0.0 setgray 1266 1541
 1272 1541 1278 1544 1281 1547 1284 1553
 1284 1559 1281 1565 1278 1568 1272 1571
 1266 1571 1260 1568 1257 1565 1254 1559
 1254 1553 1257 1547 1260 1544 1266 1541
 16 3 1 roll cnp
 0.00 setgray
gsave eofill grestore  0.0 setgray
 stroke 0.0 setgray 2044 2214
 2050 2214 2056 2217 2059 2220 2062 2226
 2062 2232 2059 2238 2056 2241 2050 2244
 2044 2244 2038 2241 2035 2238 2032 2232
 2032 2226 2035 2220 2038 2217 2044 2214
 16 3 1 roll cnp
 0.00 setgray
gsave eofill grestore  0.0 setgray
 stroke 0.0 setgray 2044 867
 2050 867 2056 870 2059 873 2062 879
 2062 885 2059 891 2056 894 2050 897
 2044 897 2038 894 2035 891 2032 885
 2032 879 2035 873 2038 870 2044 867
 16 3 1 roll cnp
 0.00 setgray
gsave eofill grestore  0.0 setgray
 stroke 0.0 setgray 2676 1932
 2682 1932 2688 1935 2691 1938 2694 1944
 2694 1950 2691 1956 2688 1959 2682 1962
 2676 1962 2670 1959 2667 1956 2664 1950
 2664 1944 2667 1938 2670 1935 2676 1932
 16 3 1 roll cnp
 0.00 setgray
gsave eofill grestore  0.0 setgray
 stroke 0.0 setgray 2676 1149
 2682 1149 2688 1152 2691 1155 2694 1161
 2694 1167 2691 1173 2688 1176 2682 1179
 2676 1179 2670 1176 2667 1173 2664 1167
 2664 1161 2667 1155 2670 1152 2676 1149
 16 3 1 roll cnp
 0.00 setgray
gsave eofill grestore  0.0 setgray
 stroke 0.0 setgray 1407 1932
 1413 1932 1419 1935 1422 1938 1425 1944
 1425 1950 1422 1956 1419 1959 1413 1962
 1407 1962 1401 1959 1398 1956 1395 1950
 1395 1944 1398 1938 1401 1935 1407 1932
 16 3 1 roll cnp
 0.00 setgray
gsave eofill grestore  0.0 setgray
 stroke 0.0 setgray 1407 1149
 1413 1149 1419 1152 1422 1155 1425 1161
 1425 1167 1422 1173 1419 1176 1413 1179
 1407 1179 1401 1176 1398 1173 1395 1167
 1395 1161 1398 1155 1401 1152 1407 1149
 16 3 1 roll cnp
 0.00 setgray
gsave eofill grestore  0.0 setgray
 stroke 0.0 setgray grestore showpage
%Trailer
%EOF
