%!PS-Adobe-2.0 EPSF-1.2
%%BoundingBox: 0 0 468 360
%%%%DocumentFonts: /Helvetica
%%Title: Axum PostScript file
%%Creator: TriMetrix, Inc.
%%Pages: 1
%%EndComments
% Copyright 1988-1991 by TriMetrix, Inc. All rights reserved.
/downdict 4 dict def
/sdown
 {downdict begin
  /thestring exch def
  /lineskip exch def
  thestring
   {
    /charcode exch def
    /thechar ( ) dup 0 charcode put def
    0 lineskip neg rmoveto
    gsave
     thechar stringwidth pop 2 div neg 0 rmoveto
     thechar show
    grestore
   } forall
   end
  } def

/updict 4 dict def
/sup
 {updict begin
  /thestring exch def
  /lineskip exch def
  thestring 
   {
    /charcode exch def
    /thechar ( ) dup 0 charcode put def
    0 lineskip rmoveto
    gsave
     thechar stringwidth pop 2 div neg 0 rmoveto
     thechar show
    grestore
   } forall
   end
  } def

/leftdict 4 dict def
/sleft
 {leftdict begin
  /thestring exch def
  thestring
   {
    /charcode exch def
    /thechar ( ) dup 0 charcode put def
    gsave
     thechar stringwidth pop neg 0 rmoveto
     thechar show
    grestore
   } forall

   thechar stringwidth pop neg 0 rmoveto
   end
  } def

/path{newpath moveto{lineto}repeat} bind def 
/cnp{newpath moveto{lineto}repeat closepath} bind def
/clp{moveto{lineto}repeat closepath} bind def
/rps{ 3 1 roll path stroke} bind def
/rcs{ 3 1 roll clp stroke} bind def
/setF { currentscreen 4 -2 roll pop 3 1 roll setscreen} bind def
% required due to WinWord 2.0 bug:
/II { } def

/reencodedict 5 dict def
/reencode
{
   reencodedict begin
   /newencoding exch def
   /newfontname exch def
   /basefontname exch def

   /basefontdict basefontname findfont def
   /newfont basefontdict maxlength dict def

   basefontdict
   {
      exch dup dup /FID ne exch /Encoding ne and
      { exch newfont 3 1 roll put }
      { pop pop }
      ifelse
   }
   forall

   newfont /FontName newfontname put
   newfont /Encoding newencoding put
   newfontname newfont definefont pop
   end
}
def

/axumencoding
[
/.notdef        %   0
/.notdef        %   1
/.notdef        %   2
/.notdef        %   3
/.notdef        %   4
/.notdef        %   5
/.notdef        %   6
/.notdef        %   7
/.notdef        %   8
/.notdef        %   9
/.notdef        %  10
/.notdef        %  11
/.notdef        %  12
/.notdef        %  13
/.notdef        %  14
/.notdef        %  15
/.notdef        %  16
/.notdef        %  17
/.notdef        %  18
/.notdef        %  19
/.notdef        %  20
/.notdef        %  21
/.notdef        %  22
/.notdef        %  23
/.notdef        %  24
/.notdef        %  25
/.notdef        %  26
/.notdef        %  27
/.notdef        %  28
/.notdef        %  29
/.notdef        %  30
/.notdef        %  31
/space          %  32
/exclam         %  33
/quotedbl       %  34
/numbersign     %  35
/dollar         %  36
/percent        %  37
/ampersand      %  38
/quoteright     %  39
/parenleft      %  40
/parenright     %  41
/asterisk       %  42
/plus           %  43
/comma          %  44
/hyphen         %  45
/period         %  46
/slash          %  47
/zero           %  48
/one            %  49
/two            %  50
/three          %  51
/four           %  52
/five           %  53
/six            %  54
/seven          %  55
/eight          %  56
/nine           %  57
/colon          %  58
/semicolon      %  59
/less           %  60
/equal          %  61
/greater        %  62
/question       %  63
/at             %  64
/A              %  65
/B              %  66
/C              %  67
/D              %  68
/E              %  69
/F              %  70
/G              %  71
/H              %  72
/I              %  73
/J              %  74
/K              %  75
/L              %  76
/M              %  77
/N              %  78
/O              %  79
/P              %  80
/Q              %  81
/R              %  82
/S              %  83
/T              %  84
/U              %  85
/V              %  86
/W              %  87
/X              %  88
/Y              %  89
/Z              %  90
/bracketleft    %  91
/backslash      %  92
/bracketright   %  93
/asciicircum    %  94
/underscore     %  95
/quoteleft      %  96
/a              %  97
/b              %  98
/c              %  99
/d              % 100
/e              % 101
/f              % 102
/g              % 103
/h              % 104
/i              % 105
/j              % 106
/k              % 107
/l              % 108
/m              % 109
/n              % 110
/o              % 111
/p              % 112
/q              % 113
/r              % 114
/s              % 115
/t              % 116
/u              % 117
/v              % 118
/w              % 119
/x              % 120
/y              % 121
/z              % 122
/braceleft      % 123
/bar            % 124
/braceright     % 125
/asciitilde     % 126
/.notdef        % 127
/Ccedilla       % 128
/udieresis      % 129
/eacute         % 130
/acircumflex    % 131
/adieresis      % 132
/agrave         % 133
/aring          % 134
/ccedilla       % 135
/ecircumflex    % 136
/edieresis      % 137
/egrave         % 138
/idieresis      % 139
/icircumflex    % 140
/igrave         % 141
/Adieresis      % 142
/Aring          % 143
/Eacute         % 144
/ae             % 145
/AE             % 146
/ocircumflex    % 147
/odieresis      % 148
/ograve         % 149
/ucircumflex    % 150
/ugrave         % 151
/ydieresis      % 152
/Odieresis      % 153
/Udieresis      % 154
/cent           % 155
/sterling       % 156
/yen            % 157
/currency       % 158
/florin         % 159
/aacute         % 160
/iacute         % 161
/oacute         % 162
/uacute         % 163
/ntilde         % 164
/Ntilde         % 165
/ordfeminine    % 166
/ordmasculine   % 167
/questiondown   % 168
/quotedblleft   % 169
/quotedblright  % 170
/Aacute         % 171
/Acircumflex    % 172
/exclamdown     % 173
/Egrave         % 174
/Ecircumflex    % 175
/atilde         % 176
/otilde         % 177
/Edieresis      % 178
/Igrave         % 179
/oe             % 180
/OE             % 181
/Agrave         % 182
/Atilde         % 183
/Otilde         % 184
/section        % 185
/Iacute         % 186
/Icircumflex    % 187
/Idieresis      % 188
/Ograve         % 189
/Oacute         % 190
/Ocircumflex    % 191
/Ugrave         % 192
/Uacute         % 193
/Ucircumflex    % 194
/Ydieresis      % 195
/germandbls     % 196
/guillemotleft  % 197
/guillemotright % 198
/bullet         % 199
/.notdef        % 200
/.notdef        % 201
/.notdef        % 202
/.notdef        % 203
/.notdef        % 204
/.notdef        % 205
/.notdef        % 206
/.notdef        % 207
/.notdef        % 208
/.notdef        % 209
/.notdef        % 210
/.notdef        % 211
/.notdef        % 212
/.notdef        % 213
/.notdef        % 214
/.notdef        % 215
/.notdef        % 216
/.notdef        % 217
/.notdef        % 218
/.notdef        % 219
/.notdef        % 220
/.notdef        % 221
/.notdef        % 222
/.notdef        % 223
/.notdef        % 224
/.notdef        % 225
/.notdef        % 226
/.notdef        % 227
/.notdef        % 228
/.notdef        % 229
/.notdef        % 230
/.notdef        % 231
/.notdef        % 232
/.notdef        % 233
/.notdef        % 234
/.notdef        % 235
/.notdef        % 236
/.notdef        % 237
/.notdef        % 238
/.notdef        % 239
/.notdef        % 240
/.notdef        % 241
/.notdef        % 242
/.notdef        % 243
/.notdef        % 244
/.notdef        % 245
/.notdef        % 246
/.notdef        % 247
/.notdef        % 248
/.notdef        % 249
/.notdef        % 250
/.notdef        % 251
/.notdef        % 252
/.notdef        % 253
/.notdef        % 254
/.notdef        % 255
] 
def

/axumfindfont
{
   /axumfont axumencoding reencode
   /axumfont findfont
}
def


/MainFont /Helvetica axumfindfont 98 scalefont def
MainFont setfont
1 setlinejoin 0 setlinecap 0 setgray
 gsave 72 630 div dup scale
 0.0 setgray [] 0 setdash

1 setlinewidth
 614 476 3645 476 1 rps
 614 476 3645 476 1 rps
 610 2750 3649 2750 1 rps
 613 475 3646 475 1 rps
 613 475 3645 475 1 rps
 610 2751 3649 2751 1 rps
 612 474 3647 474 1 rps
 612 474 3645 474 1 rps
 610 2752 3649 2752 1 rps
 611 473 3648 473 1 rps
 611 473 3645 473 1 rps
 610 2753 3649 2753 1 rps
 610 472 3649 472 1 rps
 610 472 3645 472 1 rps
 610 2754 3649 2754 1 rps
 614 476 614 512 1 rps
 614 2750 614 2714 1 rps
 917 476 917 494 1 rps
 917 2750 917 2732 1 rps
 1220 476 1220 512 1 rps
 1220 2750 1220 2714 1 rps
 1523 476 1523 494 1 rps
 1523 2750 1523 2732 1 rps
 1826 476 1826 512 1 rps
 1826 2750 1826 2714 1 rps
 2129 476 2129 494 1 rps
 2129 2750 2129 2732 1 rps
 2433 476 2433 512 1 rps
 2433 2750 2433 2714 1 rps
 2736 476 2736 494 1 rps
 2736 2750 2736 2732 1 rps
 3039 476 3039 512 1 rps
 3039 2750 3039 2714 1 rps
 3342 476 3342 494 1 rps
 3342 2750 3342 2732 1 rps
 3645 476 3645 512 1 rps
 3645 2750 3645 2714 1 rps

/Times-Roman axumfindfont 124 scalefont setfont
 583 341 moveto  (0) show 
 1189 341 moveto  (1) show 
 1795 341 moveto  (2) show 
 2402 341 moveto  (3) show 
 3008 341 moveto  (4) show 
 3614 341 moveto  (5) show 
 614 476 614 2750 1 rps
 613 475 613 2751 1 rps
 612 474 612 2752 1 rps
 611 473 611 2753 1 rps
 610 472 610 2754 1 rps
 3645 476 3645 2750 1 rps
 3646 475 3646 2751 1 rps
 3647 474 3647 2752 1 rps
 3648 473 3648 2753 1 rps
 3649 472 3649 2754 1 rps
 614 476 650 476 1 rps
 614 602 632 602 1 rps
 614 729 650 729 1 rps
 614 855 632 855 1 rps
 614 981 650 981 1 rps
 614 1107 632 1107 1 rps
 614 1234 650 1234 1 rps
 614 1360 632 1360 1 rps
 614 1487 650 1487 1 rps
 614 1613 632 1613 1 rps
 614 1739 650 1739 1 rps
 614 1865 632 1865 1 rps
 614 1992 650 1992 1 rps
 614 2118 632 2118 1 rps
 614 2245 650 2245 1 rps
 614 2371 632 2371 1 rps
 614 2497 650 2497 1 rps
 614 2623 632 2623 1 rps
 614 2750 650 2750 1 rps
 404 436 moveto  (0.0) show 
 404 689 moveto  (0.1) show 
 404 941 moveto  (0.2) show 
 404 1194 moveto  (0.3) show 
 404 1447 moveto  (0.4) show 
 404 1699 moveto  (0.5) show 
 404 1952 moveto  (0.6) show 
 404 2205 moveto  (0.7) show 
 404 2457 moveto  (0.8) show 
 404 2710 moveto  (0.9) show 
 614 476 644 596 675 705 705 805 735 896 766 980 796 1057 826 1129 856 1195
 887 1256 917 1314 947 1367 978 1418 1008 1465 1038 1509 1069 1551 1099 1590
 1129 1627 1160 1662 1190 1696 1220 1727 1251 1757 1281 1786 1311 1813 1341 1839
 1372 1864 1402 1888 1432 1910 1463 1932 1493 1953 1523 1973 1554 1992 1584 2010
 1614 2028 1645 2045 1675 2061 1705 2077 1735 2092 1766 2106 1796 2121 1826 2134
 1857 2147 1887 2160 1917 2172 1948 2184 1978 2196 2008 2207 2039 2218 2069 2228
 2099 2238 2129 2248 2160 2258 2190 2267 2220 2276 2251 2285 2281 2294 2311 2302
 2342 2310 2372 2318 2402 2325 2433 2333 2463 2340 2493 2347 2524 2354 2554 2361
 2584 2368 2614 2374 2645 2380 2675 2386 2705 2392 2736 2398 2766 2404 2796 2409
 2827 2415 2857 2420 2887 2425 2918 2430 2948 2435 2978 2440 3008 2445 3039 2450
 3069 2454 3099 2459 3130 2463 3160 2467 3190 2472 3221 2476 3251 2480 3281 2484
 3312 2488 3342 2491 3372 2495 3403 2499 3433 2502 3463 2506 3493 2509 3524 2513
 3554 2516 3584 2519 3615 2523 3645 2526 100 rps
 614 476 644 596 675 705 705 804 735 895 766 978 796 1055 826 1126 856 1192
 887 1253 917 1309 947 1362 978 1412 1008 1458 1038 1502 1069 1543 1099 1581
 1129 1618 1160 1652 1190 1685 1220 1716 1251 1745 1281 1773 1311 1800 1341 1825
 1372 1849 1402 1872 1432 1894 1463 1915 1493 1935 1523 1954 1554 1973 1584 1991
 1614 2008 1645 2024 1675 2040 1705 2055 1735 2069 1766 2083 1796 2097 1826 2110
 1857 2122 1887 2135 1917 2146 1948 2158 1978 2169 2008 2179 2039 2190 2069 2200
 2099 2209 2129 2219 2160 2228 2190 2237 2220 2245 2251 2253 2281 2261 2311 2269
 2342 2277 2372 2284 2402 2292 2433 2299 2463 2305 2493 2312 2524 2319 2554 2325
 2584 2331 2614 2337 2645 2343 2675 2349 2705 2354 2736 2360 2766 2365 2796 2370
 2827 2375 2857 2380 2887 2385 2918 2390 2948 2394 2978 2399 3008 2403 3039 2408
 3069 2412 3099 2416 3130 2420 3160 2424 3190 2428 3221 2432 3251 2435 3281 2439
 3312 2443 3342 2446 3372 2449 3403 2453 3433 2456 3463 2459 3493 2463 3524 2466
 3554 2469 3584 2472 3615 2475 3645 2478 100 rps
 614 476 644 596 675 703 705 800 735 888 766 968 796 1040 826 1107 856 1169
 887 1225 917 1277 947 1326 978 1371 1008 1412 1038 1451 1069 1488 1099 1522
 1129 1554 1160 1584 1190 1612 1220 1638 1251 1663 1281 1687 1311 1709 1341 1731
 1372 1751 1402 1770 1432 1788 1463 1805 1493 1822 1523 1837 1554 1852 1584 1866
 1614 1880 1645 1893 1675 1906 1705 1918 1735 1929 1766 1940 1796 1950 1826 1961
 1857 1970 1887 1980 1917 1989 1948 1997 1978 2006 2008 2014 2039 2022 2069 2029
 2099 2036 2129 2043 2160 2050 2190 2057 2220 2063 2251 2069 2281 2075 2311 2081
 2342 2086 2372 2092 2402 2097 2433 2102 2463 2107 2493 2112 2524 2116 2554 2121
 2584 2125 2614 2129 2645 2134 2675 2138 2705 2142 2736 2145 2766 2149 2796 2153
 2827 2156 2857 2160 2887 2163 2918 2166 2948 2169 2978 2172 3008 2176 3039 2178
 3069 2181 3099 2184 3130 2187 3160 2190 3190 2192 3221 2195 3251 2197 3281 2200
 3312 2202 3342 2204 3372 2207 3403 2209 3433 2211 3463 2213 3493 2215 3524 2218
 3554 2220 3584 2221 3615 2223 3645 2225 100 rps
 614 476 644 595 675 700 705 795 735 879 766 955 796 1024 826 1087 856 1144
 887 1196 917 1244 947 1288 978 1328 1008 1366 1038 1401 1069 1433 1099 1463
 1129 1491 1160 1517 1190 1542 1220 1565 1251 1587 1281 1607 1311 1626 1341 1644
 1372 1661 1402 1678 1432 1693 1463 1707 1493 1721 1523 1734 1554 1747 1584 1759
 1614 1770 1645 1781 1675 1791 1705 1801 1735 1810 1766 1819 1796 1828 1826 1836
 1857 1844 1887 1852 1917 1859 1948 1866 1978 1873 2008 1879 2039 1886 2069 1892
 2099 1898 2129 1903 2160 1909 2190 1914 2220 1919 2251 1924 2281 1928 2311 1933
 2342 1937 2372 1942 2402 1946 2433 1950 2463 1954 2493 1958 2524 1961 2554 1965
 2584 1968 2614 1972 2645 1975 2675 1978 2705 1981 2736 1984 2766 1987 2796 1990
 2827 1992 2857 1995 2887 1998 2918 2000 2948 2003 2978 2005 3008 2007 3039 2010
 3069 2012 3099 2014 3130 2016 3160 2018 3190 2020 3221 2022 3251 2024 3281 2026
 3312 2028 3342 2030 3372 2032 3403 2033 3433 2035 3463 2037 3493 2038 3524 2040
 3554 2041 3584 2043 3615 2044 3645 2046 100 rps
 614 476 644 593 675 693 705 781 735 857 766 924 796 984 826 1038 856 1086
 887 1129 917 1168 947 1204 978 1237 1008 1267 1038 1294 1069 1319 1099 1343
 1129 1365 1160 1385 1190 1403 1220 1421 1251 1437 1281 1452 1311 1467 1341 1480
 1372 1493 1402 1505 1432 1516 1463 1527 1493 1537 1523 1546 1554 1555 1584 1564
 1614 1572 1645 1580 1675 1587 1705 1594 1735 1601 1766 1607 1796 1614 1826 1619
 1857 1625 1887 1630 1917 1635 1948 1640 1978 1645 2008 1650 2039 1654 2069 1658
 2099 1662 2129 1666 2160 1670 2190 1674 2220 1677 2251 1681 2281 1684 2311 1687
 2342 1690 2372 1693 2402 1696 2433 1699 2463 1701 2493 1704 2524 1706 2554 1709
 2584 1711 2614 1713 2645 1716 2675 1718 2705 1720 2736 1722 2766 1724 2796 1726
 2827 1728 2857 1729 2887 1731 2918 1733 2948 1735 2978 1736 3008 1738 3039 1739
 3069 1741 3099 1742 3130 1744 3160 1745 3190 1746 3221 1748 3251 1749 3281 1750
 3312 1752 3342 1753 3372 1754 3403 1755 3433 1756 3463 1757 3493 1758 3524 1759
 3554 1760 3584 1761 3615 1762 3645 1763 100 rps
 3645 476 3645 2750 1 rps
 3646 475 3646 2751 1 rps
 3647 474 3647 2752 1 rps
 3648 473 3648 2753 1 rps
 3649 472 3649 2754 1 rps
 3645 476 3609 476 1 rps
 3645 605 3627 605 1 rps
 3645 734 3609 734 1 rps
 3645 863 3627 863 1 rps
 3645 993 3609 993 1 rps
 3645 1122 3627 1122 1 rps
 3645 1251 3609 1251 1 rps
 3645 1380 3627 1380 1 rps
 3645 1509 3609 1509 1 rps
 3645 1638 3627 1638 1 rps
 3645 1768 3609 1768 1 rps
 3645 1897 3627 1897 1 rps
 3645 2026 3609 2026 1 rps
 3645 2155 3627 2155 1 rps
 3645 2284 3609 2284 1 rps
 3645 2413 3627 2413 1 rps
 3645 2543 3609 2543 1 rps
 3645 2672 3627 2672 1 rps
 3695 436 moveto  (0) show 
 3695 694 moveto  (1) show 
 3695 953 moveto  (2) show 
 3695 1211 moveto  (3) show 
 3695 1469 moveto  (4) show 
 3695 1728 moveto  (5) show 
 3695 1986 moveto  (6) show 
 3695 2244 moveto  (7) show 
 3695 2503 moveto  (8) show 
 1875 159 moveto  (Redshift ) show 

/Times-Italic axumfindfont 128 scalefont setfont
 2333 159 moveto  (z) show 
 293 1495 moveto  90 rotate (t) show  -90 rotate

/Times-Italic axumfindfont 95 scalefont setfont
 321 1530 moveto  90 rotate (L) show  -90 rotate

/Times-Roman axumfindfont 124 scalefont setfont
 292 1584 moveto  90 rotate (/) show  -90 rotate

/Times-Italic axumfindfont 128 scalefont setfont
 292 1619 moveto  90 rotate (t) show  -90 rotate

/Times-Italic axumfindfont 95 scalefont setfont
 320 1654 moveto  90 rotate (H) show  -90 rotate

/Times-Italic axumfindfont 141 scalefont setfont
 3949 1126 moveto  90 rotate (t) show  -90 rotate

/Times-Italic axumfindfont 105 scalefont setfont
 3980 1165 moveto  90 rotate (L) show  -90 rotate

/Times-Roman axumfindfont 137 scalefont setfont
 3948 1225 moveto  90 rotate ( \(Gyr\) for ) show  -90 rotate

/Times-Italic axumfindfont 141 scalefont setfont
 3948 1804 moveto  90 rotate (h) show  -90 rotate

/Times-Roman axumfindfont 137 scalefont setfont
 3948 1875 moveto  90 rotate ( = 1) show  -90 rotate

/Symbol findfont 124 scalefont setfont
 2884 2557 moveto  (W) show 

/Times-Roman axumfindfont 95 scalefont setfont
 2979 2529 moveto  (0) show 

/Times-Roman axumfindfont 124 scalefont setfont
 3025 2557 moveto  ( = 0.05) show 
 3157 2338 moveto  (0.1) show 
 3157 2088 moveto  (0.5) show 
 3157 1915 moveto  (1.0) show 
 3157 1628 moveto  (2.5) show 
 grestore showpage
%Trailer
%EOF
