%!PS-Adobe-2.0 EPSF-1.2
%%BoundingBox: 0 0 468 360
%%%%DocumentFonts: /Helvetica
%%Title: Axum PostScript file
%%Creator: TriMetrix, Inc.
%%Pages: 1
%%EndComments
% Copyright 1988-1991 by TriMetrix, Inc. All rights reserved.
/downdict 4 dict def
/sdown
 {downdict begin
  /thestring exch def
  /lineskip exch def
  thestring
   {
    /charcode exch def
    /thechar ( ) dup 0 charcode put def
    0 lineskip neg rmoveto
    gsave
     thechar stringwidth pop 2 div neg 0 rmoveto
     thechar show
    grestore
   } forall
   end
  } def

/updict 4 dict def
/sup
 {updict begin
  /thestring exch def
  /lineskip exch def
  thestring 
   {
    /charcode exch def
    /thechar ( ) dup 0 charcode put def
    0 lineskip rmoveto
    gsave
     thechar stringwidth pop 2 div neg 0 rmoveto
     thechar show
    grestore
   } forall
   end
  } def

/leftdict 4 dict def
/sleft
 {leftdict begin
  /thestring exch def
  thestring
   {
    /charcode exch def
    /thechar ( ) dup 0 charcode put def
    gsave
     thechar stringwidth pop neg 0 rmoveto
     thechar show
    grestore
   } forall

   thechar stringwidth pop neg 0 rmoveto
   end
  } def

/path{newpath moveto{lineto}repeat} bind def 
/cnp{newpath moveto{lineto}repeat closepath} bind def
/clp{moveto{lineto}repeat closepath} bind def
/rps{ 3 1 roll path stroke} bind def
/rcs{ 3 1 roll clp stroke} bind def
/setF { currentscreen 4 -2 roll pop 3 1 roll setscreen} bind def
% required due to WinWord 2.0 bug:
/II { } def

/reencodedict 5 dict def
/reencode
{
   reencodedict begin
   /newencoding exch def
   /newfontname exch def
   /basefontname exch def

   /basefontdict basefontname findfont def
   /newfont basefontdict maxlength dict def

   basefontdict
   {
      exch dup dup /FID ne exch /Encoding ne and
      { exch newfont 3 1 roll put }
      { pop pop }
      ifelse
   }
   forall

   newfont /FontName newfontname put
   newfont /Encoding newencoding put
   newfontname newfont definefont pop
   end
}
def

/axumencoding
[
/.notdef        %   0
/.notdef        %   1
/.notdef        %   2
/.notdef        %   3
/.notdef        %   4
/.notdef        %   5
/.notdef        %   6
/.notdef        %   7
/.notdef        %   8
/.notdef        %   9
/.notdef        %  10
/.notdef        %  11
/.notdef        %  12
/.notdef        %  13
/.notdef        %  14
/.notdef        %  15
/.notdef        %  16
/.notdef        %  17
/.notdef        %  18
/.notdef        %  19
/.notdef        %  20
/.notdef        %  21
/.notdef        %  22
/.notdef        %  23
/.notdef        %  24
/.notdef        %  25
/.notdef        %  26
/.notdef        %  27
/.notdef        %  28
/.notdef        %  29
/.notdef        %  30
/.notdef        %  31
/space          %  32
/exclam         %  33
/quotedbl       %  34
/numbersign     %  35
/dollar         %  36
/percent        %  37
/ampersand      %  38
/quoteright     %  39
/parenleft      %  40
/parenright     %  41
/asterisk       %  42
/plus           %  43
/comma          %  44
/hyphen         %  45
/period         %  46
/slash          %  47
/zero           %  48
/one            %  49
/two            %  50
/three          %  51
/four           %  52
/five           %  53
/six            %  54
/seven          %  55
/eight          %  56
/nine           %  57
/colon          %  58
/semicolon      %  59
/less           %  60
/equal          %  61
/greater        %  62
/question       %  63
/at             %  64
/A              %  65
/B              %  66
/C              %  67
/D              %  68
/E              %  69
/F              %  70
/G              %  71
/H              %  72
/I              %  73
/J              %  74
/K              %  75
/L              %  76
/M              %  77
/N              %  78
/O              %  79
/P              %  80
/Q              %  81
/R              %  82
/S              %  83
/T              %  84
/U              %  85
/V              %  86
/W              %  87
/X              %  88
/Y              %  89
/Z              %  90
/bracketleft    %  91
/backslash      %  92
/bracketright   %  93
/asciicircum    %  94
/underscore     %  95
/quoteleft      %  96
/a              %  97
/b              %  98
/c              %  99
/d              % 100
/e              % 101
/f              % 102
/g              % 103
/h              % 104
/i              % 105
/j              % 106
/k              % 107
/l              % 108
/m              % 109
/n              % 110
/o              % 111
/p              % 112
/q              % 113
/r              % 114
/s              % 115
/t              % 116
/u              % 117
/v              % 118
/w              % 119
/x              % 120
/y              % 121
/z              % 122
/braceleft      % 123
/bar            % 124
/braceright     % 125
/asciitilde     % 126
/.notdef        % 127
/Ccedilla       % 128
/udieresis      % 129
/eacute         % 130
/acircumflex    % 131
/adieresis      % 132
/agrave         % 133
/aring          % 134
/ccedilla       % 135
/ecircumflex    % 136
/edieresis      % 137
/egrave         % 138
/idieresis      % 139
/icircumflex    % 140
/igrave         % 141
/Adieresis      % 142
/Aring          % 143
/Eacute         % 144
/ae             % 145
/AE             % 146
/ocircumflex    % 147
/odieresis      % 148
/ograve         % 149
/ucircumflex    % 150
/ugrave         % 151
/ydieresis      % 152
/Odieresis      % 153
/Udieresis      % 154
/cent           % 155
/sterling       % 156
/yen            % 157
/currency       % 158
/florin         % 159
/aacute         % 160
/iacute         % 161
/oacute         % 162
/uacute         % 163
/ntilde         % 164
/Ntilde         % 165
/ordfeminine    % 166
/ordmasculine   % 167
/questiondown   % 168
/quotedblleft   % 169
/quotedblright  % 170
/Aacute         % 171
/Acircumflex    % 172
/exclamdown     % 173
/Egrave         % 174
/Ecircumflex    % 175
/atilde         % 176
/otilde         % 177
/Edieresis      % 178
/Igrave         % 179
/oe             % 180
/OE             % 181
/Agrave         % 182
/Atilde         % 183
/Otilde         % 184
/section        % 185
/Iacute         % 186
/Icircumflex    % 187
/Idieresis      % 188
/Ograve         % 189
/Oacute         % 190
/Ocircumflex    % 191
/Ugrave         % 192
/Uacute         % 193
/Ucircumflex    % 194
/Ydieresis      % 195
/germandbls     % 196
/guillemotleft  % 197
/guillemotright % 198
/bullet         % 199
/.notdef        % 200
/.notdef        % 201
/.notdef        % 202
/.notdef        % 203
/.notdef        % 204
/.notdef        % 205
/.notdef        % 206
/.notdef        % 207
/.notdef        % 208
/.notdef        % 209
/.notdef        % 210
/.notdef        % 211
/.notdef        % 212
/.notdef        % 213
/.notdef        % 214
/.notdef        % 215
/.notdef        % 216
/.notdef        % 217
/.notdef        % 218
/.notdef        % 219
/.notdef        % 220
/.notdef        % 221
/.notdef        % 222
/.notdef        % 223
/.notdef        % 224
/.notdef        % 225
/.notdef        % 226
/.notdef        % 227
/.notdef        % 228
/.notdef        % 229
/.notdef        % 230
/.notdef        % 231
/.notdef        % 232
/.notdef        % 233
/.notdef        % 234
/.notdef        % 235
/.notdef        % 236
/.notdef        % 237
/.notdef        % 238
/.notdef        % 239
/.notdef        % 240
/.notdef        % 241
/.notdef        % 242
/.notdef        % 243
/.notdef        % 244
/.notdef        % 245
/.notdef        % 246
/.notdef        % 247
/.notdef        % 248
/.notdef        % 249
/.notdef        % 250
/.notdef        % 251
/.notdef        % 252
/.notdef        % 253
/.notdef        % 254
/.notdef        % 255
] 
def

/axumfindfont
{
   /axumfont axumencoding reencode
   /axumfont findfont
}
def


/MainFont /Helvetica axumfindfont 98 scalefont def
MainFont setfont
1 setlinejoin 0 setlinecap 0 setgray
 gsave 72 630 div dup scale
 0.0 setgray [] 0 setdash

1 setlinewidth
 436 463 3775 463 1 rps
 435 462 3775 462 1 rps
 434 461 3775 461 1 rps
 433 460 3775 460 1 rps
 432 459 3775 459 1 rps
 436 463 436 499 1 rps
 603 463 603 481 1 rps
 770 463 770 499 1 rps
 937 463 937 481 1 rps
 1104 463 1104 499 1 rps
 1271 463 1271 481 1 rps
 1438 463 1438 499 1 rps
 1605 463 1605 481 1 rps
 1772 463 1772 499 1 rps
 1939 463 1939 481 1 rps
 2105 463 2105 499 1 rps
 2272 463 2272 481 1 rps
 2439 463 2439 499 1 rps
 2606 463 2606 481 1 rps
 2773 463 2773 499 1 rps
 2940 463 2940 481 1 rps
 3107 463 3107 499 1 rps
 3274 463 3274 481 1 rps
 3441 463 3441 499 1 rps
 3608 463 3608 481 1 rps
 3775 463 3775 499 1 rps

/Times-Roman axumfindfont 105 scalefont setfont
 410 341 moveto  (0) show 
 744 341 moveto  (2) show 
 1078 341 moveto  (4) show 
 1412 341 moveto  (6) show 
 1746 341 moveto  (8) show 
 2053 341 moveto  (10) show 
 2387 341 moveto  (12) show 
 2721 341 moveto  (14) show 
 3055 341 moveto  (16) show 
 3389 341 moveto  (18) show 
 3723 341 moveto  (20) show 
 436 463 436 2965 1 rps
 435 462 435 2965 1 rps
 434 461 434 2965 1 rps
 433 460 433 2965 1 rps
 432 459 432 2965 1 rps
 436 463 472 463 1 rps
 436 671 454 671 1 rps
 436 880 472 880 1 rps
 436 1088 454 1088 1 rps
 436 1297 472 1297 1 rps
 436 1505 454 1505 1 rps
 436 1714 472 1714 1 rps
 436 1922 454 1922 1 rps
 436 2131 472 2131 1 rps
 436 2339 454 2339 1 rps
 436 2548 472 2548 1 rps
 436 2756 454 2756 1 rps
 436 2965 472 2965 1 rps
 436 463
 436 2965 837 2965 837 463 436 463
 4 3 1 roll cnp
 0.93 setgray eofill 0.0 setgray 0.0 setgray 770 463 770 499 1 rps
 603 463 603 481 1 rps

/Times-Roman axumfindfont 124 scalefont setfont
 1674 159 moveto  (Log) show 

/Times-Roman axumfindfont 95 scalefont setfont
 1876 131 moveto  (10) show 

/Times-Roman axumfindfont 124 scalefont setfont
 1970 159 moveto  (\() show 

/Times-Italic axumfindfont 128 scalefont setfont
 2012 159 moveto  (kT) show 

/Times-Roman axumfindfont 124 scalefont setfont
 2140 159 moveto  (\) \(GeV\)) show 
 228 1285 moveto  90 rotate (Relative strength) show  -90 rotate
 1105 2507 moveto  350 rotate (Strong) show  -350 rotate
 1105 2088 moveto  5 rotate (Electroweak) show  -5 rotate
 536 1546 moveto  40 rotate (Weak) show  -40 rotate
 1137 1128 moveto  19 rotate (Gravity) show  -19 rotate
 1988 3021 moveto  (Time) show 
 2684 2962 1542 2962 1 rps
 1542 2962
 1655 2995 1655 2928 1542 2962 3 3 1 roll cnp
 0.00 setgray
gsave eofill grestore  0.0 setgray
 stroke 0.0 setgray 2603 2166
 2611 2166 2620 2170 2625 2175 2629 2184
 2629 2192 2625 2201 2620 2206 2611 2210
 2603 2210 2594 2206 2589 2201 2585 2192
 2585 2184 2589 2175 2594 2170 2603 2166
 16 3 1 roll cnp
 0.00 setgray
gsave eofill grestore  0.0 setgray
 stroke 0.0 setgray 3604 2002
 3612 2002 3621 2006 3626 2011 3630 2020
 3630 2028 3626 2037 3621 2042 3612 2046
 3604 2046 3595 2042 3590 2037 3586 2028
 3586 2020 3590 2011 3595 2006 3604 2002
 16 3 1 roll cnp
 0.00 setgray
gsave eofill grestore  0.0 setgray
 stroke 0.0 setgray 846 1984
 854 1984 863 1988 868 1993 872 2002
 872 2010 868 2019 863 2024 854 2028
 846 2028 837 2024 832 2019 828 2010
 828 2002 832 1993 837 1988 846 1984
 16 3 1 roll cnp
 0.00 setgray
gsave eofill grestore  0.0 setgray
 stroke 0.0 setgray 0.0 setgray 436 2547 3608 2024 1 rps
 436 1965 2607 2188 1 rps
 436 778 3608 2024 1 rps
 436 1651 850 2006 1 rps
 464 2020 moveto  6 rotate (E&M) show  -6 rotate

/Times-Roman axumfindfont 95 scalefont setfont
 743 2099 moveto  6 rotate (*) show  -6 rotate
 2455 672 moveto  (*) show 

/Times-Roman axumfindfont 124 scalefont setfont
 2502 623 moveto  ( E&M = electromagnetic) show 
 2607 2234 moveto  (Grand unification) show 
 3107 1706 moveto  (Theory of) show 
 3107 1583 moveto  (Everything) show 
 grestore showpage
%Trailer
%EOF
