%!PS-Adobe-2.0 EPSF-1.2
%%BoundingBox: 0 0 468 360
%%%%DocumentFonts: /Helvetica
%%Title: Axum PostScript file
%%Creator: TriMetrix, Inc.
%%Pages: 1
%%EndComments
% Copyright 1988-1991 by TriMetrix, Inc. All rights reserved.
/downdict 4 dict def
/sdown
 {downdict begin
  /thestring exch def
  /lineskip exch def
  thestring
   {
    /charcode exch def
    /thechar ( ) dup 0 charcode put def
    0 lineskip neg rmoveto
    gsave
     thechar stringwidth pop 2 div neg 0 rmoveto
     thechar show
    grestore
   } forall
   end
  } def

/updict 4 dict def
/sup
 {updict begin
  /thestring exch def
  /lineskip exch def
  thestring 
   {
    /charcode exch def
    /thechar ( ) dup 0 charcode put def
    0 lineskip rmoveto
    gsave
     thechar stringwidth pop 2 div neg 0 rmoveto
     thechar show
    grestore
   } forall
   end
  } def

/leftdict 4 dict def
/sleft
 {leftdict begin
  /thestring exch def
  thestring
   {
    /charcode exch def
    /thechar ( ) dup 0 charcode put def
    gsave
     thechar stringwidth pop neg 0 rmoveto
     thechar show
    grestore
   } forall

   thechar stringwidth pop neg 0 rmoveto
   end
  } def

/path{newpath moveto{lineto}repeat} bind def 
/cnp{newpath moveto{lineto}repeat closepath} bind def
/clp{moveto{lineto}repeat closepath} bind def
/rps{ 3 1 roll path stroke} bind def
/rcs{ 3 1 roll clp stroke} bind def
/setF { currentscreen 4 -2 roll pop 3 1 roll setscreen} bind def
% required due to WinWord 2.0 bug:
/II { } def

/reencodedict 5 dict def
/reencode
{
   reencodedict begin
   /newencoding exch def
   /newfontname exch def
   /basefontname exch def

   /basefontdict basefontname findfont def
   /newfont basefontdict maxlength dict def

   basefontdict
   {
      exch dup dup /FID ne exch /Encoding ne and
      { exch newfont 3 1 roll put }
      { pop pop }
      ifelse
   }
   forall

   newfont /FontName newfontname put
   newfont /Encoding newencoding put
   newfontname newfont definefont pop
   end
}
def

/axumencoding
[
/.notdef        %   0
/.notdef        %   1
/.notdef        %   2
/.notdef        %   3
/.notdef        %   4
/.notdef        %   5
/.notdef        %   6
/.notdef        %   7
/.notdef        %   8
/.notdef        %   9
/.notdef        %  10
/.notdef        %  11
/.notdef        %  12
/.notdef        %  13
/.notdef        %  14
/.notdef        %  15
/.notdef        %  16
/.notdef        %  17
/.notdef        %  18
/.notdef        %  19
/.notdef        %  20
/.notdef        %  21
/.notdef        %  22
/.notdef        %  23
/.notdef        %  24
/.notdef        %  25
/.notdef        %  26
/.notdef        %  27
/.notdef        %  28
/.notdef        %  29
/.notdef        %  30
/.notdef        %  31
/space          %  32
/exclam         %  33
/quotedbl       %  34
/numbersign     %  35
/dollar         %  36
/percent        %  37
/ampersand      %  38
/quoteright     %  39
/parenleft      %  40
/parenright     %  41
/asterisk       %  42
/plus           %  43
/comma          %  44
/hyphen         %  45
/period         %  46
/slash          %  47
/zero           %  48
/one            %  49
/two            %  50
/three          %  51
/four           %  52
/five           %  53
/six            %  54
/seven          %  55
/eight          %  56
/nine           %  57
/colon          %  58
/semicolon      %  59
/less           %  60
/equal          %  61
/greater        %  62
/question       %  63
/at             %  64
/A              %  65
/B              %  66
/C              %  67
/D              %  68
/E              %  69
/F              %  70
/G              %  71
/H              %  72
/I              %  73
/J              %  74
/K              %  75
/L              %  76
/M              %  77
/N              %  78
/O              %  79
/P              %  80
/Q              %  81
/R              %  82
/S              %  83
/T              %  84
/U              %  85
/V              %  86
/W              %  87
/X              %  88
/Y              %  89
/Z              %  90
/bracketleft    %  91
/backslash      %  92
/bracketright   %  93
/asciicircum    %  94
/underscore     %  95
/quoteleft      %  96
/a              %  97
/b              %  98
/c              %  99
/d              % 100
/e              % 101
/f              % 102
/g              % 103
/h              % 104
/i              % 105
/j              % 106
/k              % 107
/l              % 108
/m              % 109
/n              % 110
/o              % 111
/p              % 112
/q              % 113
/r              % 114
/s              % 115
/t              % 116
/u              % 117
/v              % 118
/w              % 119
/x              % 120
/y              % 121
/z              % 122
/braceleft      % 123
/bar            % 124
/braceright     % 125
/asciitilde     % 126
/.notdef        % 127
/Ccedilla       % 128
/udieresis      % 129
/eacute         % 130
/acircumflex    % 131
/adieresis      % 132
/agrave         % 133
/aring          % 134
/ccedilla       % 135
/ecircumflex    % 136
/edieresis      % 137
/egrave         % 138
/idieresis      % 139
/icircumflex    % 140
/igrave         % 141
/Adieresis      % 142
/Aring          % 143
/Eacute         % 144
/ae             % 145
/AE             % 146
/ocircumflex    % 147
/odieresis      % 148
/ograve         % 149
/ucircumflex    % 150
/ugrave         % 151
/ydieresis      % 152
/Odieresis      % 153
/Udieresis      % 154
/cent           % 155
/sterling       % 156
/yen            % 157
/currency       % 158
/florin         % 159
/aacute         % 160
/iacute         % 161
/oacute         % 162
/uacute         % 163
/ntilde         % 164
/Ntilde         % 165
/ordfeminine    % 166
/ordmasculine   % 167
/questiondown   % 168
/quotedblleft   % 169
/quotedblright  % 170
/Aacute         % 171
/Acircumflex    % 172
/exclamdown     % 173
/Egrave         % 174
/Ecircumflex    % 175
/atilde         % 176
/otilde         % 177
/Edieresis      % 178
/Igrave         % 179
/oe             % 180
/OE             % 181
/Agrave         % 182
/Atilde         % 183
/Otilde         % 184
/section        % 185
/Iacute         % 186
/Icircumflex    % 187
/Idieresis      % 188
/Ograve         % 189
/Oacute         % 190
/Ocircumflex    % 191
/Ugrave         % 192
/Uacute         % 193
/Ucircumflex    % 194
/Ydieresis      % 195
/germandbls     % 196
/guillemotleft  % 197
/guillemotright % 198
/bullet         % 199
/.notdef        % 200
/.notdef        % 201
/.notdef        % 202
/.notdef        % 203
/.notdef        % 204
/.notdef        % 205
/.notdef        % 206
/.notdef        % 207
/.notdef        % 208
/.notdef        % 209
/.notdef        % 210
/.notdef        % 211
/.notdef        % 212
/.notdef        % 213
/.notdef        % 214
/.notdef        % 215
/.notdef        % 216
/.notdef        % 217
/.notdef        % 218
/.notdef        % 219
/.notdef        % 220
/.notdef        % 221
/.notdef        % 222
/.notdef        % 223
/.notdef        % 224
/.notdef        % 225
/.notdef        % 226
/.notdef        % 227
/.notdef        % 228
/.notdef        % 229
/.notdef        % 230
/.notdef        % 231
/.notdef        % 232
/.notdef        % 233
/.notdef        % 234
/.notdef        % 235
/.notdef        % 236
/.notdef        % 237
/.notdef        % 238
/.notdef        % 239
/.notdef        % 240
/.notdef        % 241
/.notdef        % 242
/.notdef        % 243
/.notdef        % 244
/.notdef        % 245
/.notdef        % 246
/.notdef        % 247
/.notdef        % 248
/.notdef        % 249
/.notdef        % 250
/.notdef        % 251
/.notdef        % 252
/.notdef        % 253
/.notdef        % 254
/.notdef        % 255
] 
def

/axumfindfont
{
   /axumfont axumencoding reencode
   /axumfont findfont
}
def


/MainFont /Helvetica axumfindfont 98 scalefont def
MainFont setfont
1 setlinejoin 0 setlinecap 0 setgray
 gsave 72 630 div dup scale
 0.0 setgray [] 0 setdash

1 setlinewidth
 786 476 3733 476 1 rps
 786 476 3733 476 1 rps
 782 2449 3737 2449 1 rps
 785 475 3734 475 1 rps
 785 475 3733 475 1 rps
 782 2450 3737 2450 1 rps
 784 474 3735 474 1 rps
 784 474 3733 474 1 rps
 782 2451 3737 2451 1 rps
 783 473 3736 473 1 rps
 783 473 3733 473 1 rps
 782 2452 3737 2452 1 rps
 782 472 3737 472 1 rps
 782 472 3733 472 1 rps
 782 2453 3737 2453 1 rps
 786 476 786 512 1 rps
 786 2449 786 2413 1 rps
 970 476 970 494 1 rps
 970 2449 970 2431 1 rps
 1154 476 1154 512 1 rps
 1154 2449 1154 2413 1 rps
 1338 476 1338 494 1 rps
 1338 2449 1338 2431 1 rps
 1523 476 1523 512 1 rps
 1523 2449 1523 2413 1 rps
 1707 476 1707 494 1 rps
 1707 2449 1707 2431 1 rps
 1891 476 1891 512 1 rps
 1891 2449 1891 2413 1 rps
 2075 476 2075 494 1 rps
 2075 2449 2075 2431 1 rps
 2259 476 2259 512 1 rps
 2259 2449 2259 2413 1 rps
 2443 476 2443 494 1 rps
 2443 2449 2443 2431 1 rps
 2628 476 2628 512 1 rps
 2628 2449 2628 2413 1 rps
 2812 476 2812 494 1 rps
 2812 2449 2812 2431 1 rps
 2996 476 2996 512 1 rps
 2996 2449 2996 2413 1 rps
 3180 476 3180 494 1 rps
 3180 2449 3180 2431 1 rps
 3365 476 3365 512 1 rps
 3365 2449 3365 2413 1 rps
 3549 476 3549 494 1 rps
 3549 2449 3549 2431 1 rps
 3733 476 3733 512 1 rps
 3733 2449 3733 2413 1 rps

/Symbol findfont 124 scalefont setfont
 658 341 moveto  (-) show 

/Times-Roman axumfindfont 124 scalefont setfont
 726 341 moveto  (250) show 

/Symbol findfont 124 scalefont setfont
 1026 341 moveto  (-) show 

/Times-Roman axumfindfont 124 scalefont setfont
 1094 341 moveto  (200) show 

/Symbol findfont 124 scalefont setfont
 1395 341 moveto  (-) show 

/Times-Roman axumfindfont 124 scalefont setfont
 1463 341 moveto  (150) show 

/Symbol findfont 124 scalefont setfont
 1763 341 moveto  (-) show 

/Times-Roman axumfindfont 124 scalefont setfont
 1831 341 moveto  (100) show 

/Symbol findfont 124 scalefont setfont
 2162 341 moveto  (-) show 

/Times-Roman axumfindfont 124 scalefont setfont
 2230 341 moveto  (50) show 
 2597 341 moveto  (0) show 
 2934 341 moveto  (50) show 
 3271 341 moveto  (100) show 
 3639 341 moveto  (150) show 
 786 476 786 2449 1 rps
 785 475 785 2450 1 rps
 784 474 784 2451 1 rps
 783 473 783 2452 1 rps
 782 472 782 2453 1 rps
 3733 476 3733 2449 1 rps
 3734 475 3734 2450 1 rps
 3735 474 3735 2451 1 rps
 3736 473 3736 2452 1 rps
 3737 472 3737 2453 1 rps
 786 476 822 476 1 rps
 3733 476 3697 476 1 rps
 786 640 804 640 1 rps
 3733 640 3715 640 1 rps
 786 805 822 805 1 rps
 3733 805 3697 805 1 rps
 786 969 804 969 1 rps
 3733 969 3715 969 1 rps
 786 1134 822 1134 1 rps
 3733 1134 3697 1134 1 rps
 786 1298 804 1298 1 rps
 3733 1298 3715 1298 1 rps
 786 1462 822 1462 1 rps
 3733 1462 3697 1462 1 rps
 786 1626 804 1626 1 rps
 3733 1626 3715 1626 1 rps
 786 1791 822 1791 1 rps
 3733 1791 3697 1791 1 rps
 786 1955 804 1955 1 rps
 3733 1955 3715 1955 1 rps
 786 2120 822 2120 1 rps
 3733 2120 3697 2120 1 rps
 786 2284 804 2284 1 rps
 3733 2284 3715 2284 1 rps
 786 2449 822 2449 1 rps
 3733 2449 3697 2449 1 rps

/Symbol findfont 124 scalefont setfont
 476 436 moveto  (-) show 

/Times-Roman axumfindfont 124 scalefont setfont
 544 436 moveto  (150) show 

/Symbol findfont 124 scalefont setfont
 476 765 moveto  (-) show 

/Times-Roman axumfindfont 124 scalefont setfont
 544 765 moveto  (100) show 

/Symbol findfont 124 scalefont setfont
 538 1094 moveto  (-) show 

/Times-Roman axumfindfont 124 scalefont setfont
 606 1094 moveto  (50) show 
 670 1422 moveto  (0) show 
 608 1751 moveto  (50) show 
 544 2080 moveto  (100) show 
 544 2409 moveto  (150) show 
 3107 1515
 3085 1594 3070 1712 3033 1739 2996 1824
 2959 1857 2923 1910 2886 1923 2849 1962
 2812 2041 2775 2068 2738 2120 2702 2153
 2665 2173 2628 2199 2591 2219 2554 2265
 2481 2304 2407 2350 2333 2370 2259 2396
 2186 2416 2112 2429 2038 2436 1965 2429
 1891 2423 1817 2350 1744 2304 1670 2219
 1633 2054 1596 2002 1560 1890 1537 1824
 1530 1660 1537 1495 1534 1397 1527 1167
 1545 1068 1560 1035 1589 936 1633 871
 1670 857 1744 673 1817 608 1891 542
 1965 522 2038 496 2112 483 2186 496
 2259 515 2333 522 2407 548 2481 555
 2554 575 2628 640 2702 673 2775 706
 2849 772 2886 838 2923 857 2959 936
 2996 1002 3033 1061 3070 1173 3085 1265
 3099 1384 3107 1403 3099 1462 3107 1515
 68 3 1 roll cnp
 0.93 setgray eofill 0.0 setgray 0.0 setgray 3107 1515 3085 1594 3070 1712 3033 1739 2996 1824 2959 1857 2923 1910 2886 1923 2849 1962
 2812 2041 2775 2068 2738 2120 2702 2153 2665 2173 2628 2199 2591 2219 2554 2265
 2481 2304 2407 2350 2333 2370 2259 2396 2186 2416 2112 2429 2038 2436 1965 2429
 1891 2423 1817 2350 1744 2304 1670 2219 1633 2054 1596 2002 1560 1890 1537 1824
 1530 1660 1537 1495 1534 1397 1527 1167 1545 1068 1560 1035 1589 936 1633 871
 1670 857 1744 673 1817 608 1891 542 1965 522 2038 496 2112 483 2186 496
 2259 515 2333 522 2407 548 2481 555 2554 575 2628 640 2702 673 2775 706
 2849 772 2886 838 2923 857 2959 936 2996 1002 3033 1061 3070 1173 3085 1265
 3099 1384 3107 1403 3099 1462 67 rcs

 2849 1384
 2834 1430 2812 1515 2790 1594 2775 1673
 2738 1778 2702 1844 2665 1857 2628 1923
 2591 1975 2554 1989 2517 2002 2481 2015
 2444 2022 2407 2015 2370 2002 2333 1989
 2296 1956 2259 1870 2223 1857 2186 1824
 2178 1712 2171 1693 2167 1594 2164 1515
 2171 1410 2178 1318 2186 1232 2223 1101
 2259 1002 2296 956 2333 943 2370 936
 2407 930 2444 903 2481 884 2517 877
 2554 910 2591 930 2628 936 2665 950
 2702 989 2738 1015 2775 1028 2812 1101
 2827 1134 2849 1147 2842 1173 2838 1232
 2842 1331 2845 1364 2849 1384 51 3 1 roll cnp
 0.87 setgray eofill 0.0 setgray 0.0 setgray 2849 1384 2834 1430 2812 1515 2790 1594 2775 1673 2738 1778 2702 1844 2665 1857 2628 1923
 2591 1975 2554 1989 2517 2002 2481 2015 2444 2022 2407 2015 2370 2002 2333 1989
 2296 1956 2259 1870 2223 1857 2186 1824 2178 1712 2171 1693 2167 1594 2164 1515
 2171 1410 2178 1318 2186 1232 2223 1101 2259 1002 2296 956 2333 943 2370 936
 2407 930 2444 903 2481 884 2517 877 2554 910 2591 930 2628 936 2665 950
 2702 989 2738 1015 2775 1028 2812 1101 2827 1134 2849 1147 2842 1173 2838 1232
 2842 1331 2845 1364 50 rcs

 2797 1199
 2805 1384 2775 1528 2738 1627 2702 1680
 2665 1712 2628 1739 2591 1758 2554 1739
 2517 1732 2481 1726 2444 1706 2422 1647
 2407 1594 2392 1515 2399 1462 2407 1397
 2444 1318 2481 1285 2517 1213 2554 1167
 2591 1147 2628 1140 2665 1134 2702 1160
 2738 1173 2775 1180 2783 1193 2797 1199
 28 3 1 roll cnp
 0.80 setgray eofill 0.0 setgray 0.0 setgray 2797 1199 2805 1384 2775 1528 2738 1627 2702 1680 2665 1712 2628 1739 2591 1758 2554 1739
 2517 1732 2481 1726 2444 1706 2422 1647 2407 1594 2392 1515 2399 1462 2407 1397
 2444 1318 2481 1285 2517 1213 2554 1167 2591 1147 2628 1140 2665 1134 2702 1160
 2738 1173 2775 1180 2783 1193 27 rcs

 [40 20] 0 setdash
 2921 476 2927 485 2933 494 2938 503 2944 512 2950 521 2955 530 2961 540 2966 549
 2971 558 2977 567 2982 577 2987 586 2992 595 2997 604 3002 614 3007 623
 3012 633 3017 642 3022 651 3027 661 3031 670 3036 680 3041 690 3045 699
 3050 709 3054 718 3058 728 3063 738 3067 747 3071 757 3075 767 3079 776
 3083 786 3087 796 3091 806 3095 815 3099 825 3103 835 3106 845 3110 855
 3113 865 3117 875 3120 884 3124 894 3127 904 3130 914 3133 924 3137 934
 3140 944 3143 954 3146 964 3149 974 3151 985 3154 995 3157 1005 3160 1015
 3162 1025 3165 1035 3167 1045 3170 1055 3172 1066 3174 1076 3177 1086 3179 1096
 3181 1106 3183 1116 3185 1127 3187 1137 3189 1147 3191 1157 3192 1168 3194 1178
 3196 1188 3197 1199 3199 1209 3200 1219 3202 1229 3203 1240 3204 1250 3206 1260
 3207 1271 3208 1281 3209 1291 3210 1302 3211 1312 3212 1322 3212 1333 3213 1343
 3214 1354 3215 1364 3215 1374 3216 1385 3216 1395 3216 1405 3217 1416 3217 1426
 3217 1437 3217 1447 3217 1457 3217 1468 3217 1478 101 rps
 3217 1478 3217 1488 3217 1499 3217 1509 3216 1520 3216 1530 3216 1540 3215 1551 3215 1561
 3214 1571 3213 1582 3212 1592 3212 1603 3211 1613 3210 1623 3209 1634 3208 1644
 3207 1654 3206 1665 3204 1675 3203 1685 3202 1696 3200 1706 3199 1716 3197 1726
 3196 1737 3194 1747 3192 1757 3191 1768 3189 1778 3187 1788 3185 1798 3183 1809
 3181 1819 3179 1829 3177 1839 3174 1849 3172 1859 3170 1870 3167 1880 3165 1890
 3162 1900 3160 1910 3157 1920 3154 1930 3151 1940 3149 1951 3146 1961 3143 1971
 3140 1981 3137 1991 3133 2001 3130 2011 3127 2021 3124 2031 3120 2041 3117 2050
 3113 2060 3110 2070 3106 2080 3103 2090 3099 2100 3095 2110 3091 2119 3087 2129
 3083 2139 3079 2149 3075 2158 3071 2168 3067 2178 3063 2187 3058 2197 3054 2207
 3050 2216 3045 2226 3041 2235 3036 2245 3031 2255 3027 2264 3022 2274 3017 2283
 3012 2292 3007 2302 3002 2311 2997 2321 2992 2330 2987 2339 2982 2348 2977 2358
 2971 2367 2966 2376 2961 2385 2955 2395 2950 2404 2944 2413 2938 2422 2933 2431
 2927 2440 2921 2449 98 rps

/Times-Italic axumfindfont 128 scalefont setfont
 2003 159 moveto  (v ) show 

/Times-Roman axumfindfont 124 scalefont setfont
 2091 159 moveto  (\(km s) show 

/Symbol findfont 91 scalefont setfont
 2374 208 moveto  (-) show 

/Times-Roman axumfindfont 95 scalefont setfont
 2425 208 moveto  (1) show 

/Times-Roman axumfindfont 124 scalefont setfont
 2472 159 moveto  (\)) show 

/Times-Italic axumfindfont 128 scalefont setfont
 294 1203 moveto  90 rotate (u ) show  -90 rotate

/Times-Roman axumfindfont 124 scalefont setfont
 294 1298 moveto  90 rotate (\(km s) show  -90 rotate

/Symbol findfont 91 scalefont setfont
 244 1582 moveto  90 rotate (-) show  -90 rotate

/Times-Roman axumfindfont 95 scalefont setfont
 244 1633 moveto  90 rotate (1) show  -90 rotate

/Times-Roman axumfindfont 124 scalefont setfont
 293 1681 moveto  90 rotate (\)) show  -90 rotate
 [] 0 setdash
 2621 1438
 2629 1438 2638 1442 2643 1447 2647 1456
 2647 1464 2643 1473 2638 1478 2629 1482
 2621 1482 2612 1478 2607 1473 2603 1464
 2603 1456 2607 1447 2612 1442 2621 1438
 16 3 1 roll cnp
 0.00 setgray
gsave eofill grestore  0.0 setgray
 stroke 0.0 setgray 1001 1438
 1009 1438 1018 1442 1023 1447 1027 1456
 1027 1464 1023 1473 1018 1478 1009 1482
 1001 1482 992 1478 987 1473 983 1464
 983 1456 987 1447 992 1442 1001 1438
 16 3 1 roll cnp
 0.00 setgray
gsave eofill grestore  0.0 setgray
 stroke 0.0 setgray 0.0 setgray 2538 1342 moveto  (LSR) show 
 832 1319 moveto  (Center of) show 
 828 1196 moveto  (envelope) show 
 3185 2270 moveto  (Envelope) show 
 828 2275 moveto  (Old, metal-poor) show 
 828 2147 moveto  (red dwarfs) show 
 832 896 moveto  (Intermediate) show 
 828 773 moveto  (population) show 
 828 636 moveto  (K giants) show 
 3185 896 moveto  (Young,) show 
 3185 773 moveto  (metal-rich) show 
 3185 636 moveto  (A dwarfs) show 
 1455 2183 1910 2001 1 rps
 1501 955 2320 1228 1 rps
 3139 2092 3275 2229 1 rps
 2684 1228 3175 928 1 rps
 grestore showpage
%Trailer
%EOF
