%!PS-Adobe-2.0 EPSF-1.2
%%BoundingBox: 0 0 468 360
%%%%DocumentFonts: /Helvetica
%%Title: Axum PostScript file
%%Creator: TriMetrix, Inc.
%%Pages: 1
%%EndComments
% Copyright 1988-1991 by TriMetrix, Inc. All rights reserved.
/downdict 4 dict def
/sdown
 {downdict begin
  /thestring exch def
  /lineskip exch def
  thestring
   {
    /charcode exch def
    /thechar ( ) dup 0 charcode put def
    0 lineskip neg rmoveto
    gsave
     thechar stringwidth pop 2 div neg 0 rmoveto
     thechar show
    grestore
   } forall
   end
  } def

/updict 4 dict def
/sup
 {updict begin
  /thestring exch def
  /lineskip exch def
  thestring 
   {
    /charcode exch def
    /thechar ( ) dup 0 charcode put def
    0 lineskip rmoveto
    gsave
     thechar stringwidth pop 2 div neg 0 rmoveto
     thechar show
    grestore
   } forall
   end
  } def

/leftdict 4 dict def
/sleft
 {leftdict begin
  /thestring exch def
  thestring
   {
    /charcode exch def
    /thechar ( ) dup 0 charcode put def
    gsave
     thechar stringwidth pop neg 0 rmoveto
     thechar show
    grestore
   } forall

   thechar stringwidth pop neg 0 rmoveto
   end
  } def

/path{newpath moveto{lineto}repeat} bind def 
/cnp{newpath moveto{lineto}repeat closepath} bind def
/clp{moveto{lineto}repeat closepath} bind def
/rps{ 3 1 roll path stroke} bind def
/rcs{ 3 1 roll clp stroke} bind def
/setF { currentscreen 4 -2 roll pop 3 1 roll setscreen} bind def
% required due to WinWord 2.0 bug:
/II { } def

/reencodedict 5 dict def
/reencode
{
   reencodedict begin
   /newencoding exch def
   /newfontname exch def
   /basefontname exch def

   /basefontdict basefontname findfont def
   /newfont basefontdict maxlength dict def

   basefontdict
   {
      exch dup dup /FID ne exch /Encoding ne and
      { exch newfont 3 1 roll put }
      { pop pop }
      ifelse
   }
   forall

   newfont /FontName newfontname put
   newfont /Encoding newencoding put
   newfontname newfont definefont pop
   end
}
def

/axumencoding
[
/.notdef        %   0
/.notdef        %   1
/.notdef        %   2
/.notdef        %   3
/.notdef        %   4
/.notdef        %   5
/.notdef        %   6
/.notdef        %   7
/.notdef        %   8
/.notdef        %   9
/.notdef        %  10
/.notdef        %  11
/.notdef        %  12
/.notdef        %  13
/.notdef        %  14
/.notdef        %  15
/.notdef        %  16
/.notdef        %  17
/.notdef        %  18
/.notdef        %  19
/.notdef        %  20
/.notdef        %  21
/.notdef        %  22
/.notdef        %  23
/.notdef        %  24
/.notdef        %  25
/.notdef        %  26
/.notdef        %  27
/.notdef        %  28
/.notdef        %  29
/.notdef        %  30
/.notdef        %  31
/space          %  32
/exclam         %  33
/quotedbl       %  34
/numbersign     %  35
/dollar         %  36
/percent        %  37
/ampersand      %  38
/quoteright     %  39
/parenleft      %  40
/parenright     %  41
/asterisk       %  42
/plus           %  43
/comma          %  44
/hyphen         %  45
/period         %  46
/slash          %  47
/zero           %  48
/one            %  49
/two            %  50
/three          %  51
/four           %  52
/five           %  53
/six            %  54
/seven          %  55
/eight          %  56
/nine           %  57
/colon          %  58
/semicolon      %  59
/less           %  60
/equal          %  61
/greater        %  62
/question       %  63
/at             %  64
/A              %  65
/B              %  66
/C              %  67
/D              %  68
/E              %  69
/F              %  70
/G              %  71
/H              %  72
/I              %  73
/J              %  74
/K              %  75
/L              %  76
/M              %  77
/N              %  78
/O              %  79
/P              %  80
/Q              %  81
/R              %  82
/S              %  83
/T              %  84
/U              %  85
/V              %  86
/W              %  87
/X              %  88
/Y              %  89
/Z              %  90
/bracketleft    %  91
/backslash      %  92
/bracketright   %  93
/asciicircum    %  94
/underscore     %  95
/quoteleft      %  96
/a              %  97
/b              %  98
/c              %  99
/d              % 100
/e              % 101
/f              % 102
/g              % 103
/h              % 104
/i              % 105
/j              % 106
/k              % 107
/l              % 108
/m              % 109
/n              % 110
/o              % 111
/p              % 112
/q              % 113
/r              % 114
/s              % 115
/t              % 116
/u              % 117
/v              % 118
/w              % 119
/x              % 120
/y              % 121
/z              % 122
/braceleft      % 123
/bar            % 124
/braceright     % 125
/asciitilde     % 126
/.notdef        % 127
/Ccedilla       % 128
/udieresis      % 129
/eacute         % 130
/acircumflex    % 131
/adieresis      % 132
/agrave         % 133
/aring          % 134
/ccedilla       % 135
/ecircumflex    % 136
/edieresis      % 137
/egrave         % 138
/idieresis      % 139
/icircumflex    % 140
/igrave         % 141
/Adieresis      % 142
/Aring          % 143
/Eacute         % 144
/ae             % 145
/AE             % 146
/ocircumflex    % 147
/odieresis      % 148
/ograve         % 149
/ucircumflex    % 150
/ugrave         % 151
/ydieresis      % 152
/Odieresis      % 153
/Udieresis      % 154
/cent           % 155
/sterling       % 156
/yen            % 157
/currency       % 158
/florin         % 159
/aacute         % 160
/iacute         % 161
/oacute         % 162
/uacute         % 163
/ntilde         % 164
/Ntilde         % 165
/ordfeminine    % 166
/ordmasculine   % 167
/questiondown   % 168
/quotedblleft   % 169
/quotedblright  % 170
/Aacute         % 171
/Acircumflex    % 172
/exclamdown     % 173
/Egrave         % 174
/Ecircumflex    % 175
/atilde         % 176
/otilde         % 177
/Edieresis      % 178
/Igrave         % 179
/oe             % 180
/OE             % 181
/Agrave         % 182
/Atilde         % 183
/Otilde         % 184
/section        % 185
/Iacute         % 186
/Icircumflex    % 187
/Idieresis      % 188
/Ograve         % 189
/Oacute         % 190
/Ocircumflex    % 191
/Ugrave         % 192
/Uacute         % 193
/Ucircumflex    % 194
/Ydieresis      % 195
/germandbls     % 196
/guillemotleft  % 197
/guillemotright % 198
/bullet         % 199
/.notdef        % 200
/.notdef        % 201
/.notdef        % 202
/.notdef        % 203
/.notdef        % 204
/.notdef        % 205
/.notdef        % 206
/.notdef        % 207
/.notdef        % 208
/.notdef        % 209
/.notdef        % 210
/.notdef        % 211
/.notdef        % 212
/.notdef        % 213
/.notdef        % 214
/.notdef        % 215
/.notdef        % 216
/.notdef        % 217
/.notdef        % 218
/.notdef        % 219
/.notdef        % 220
/.notdef        % 221
/.notdef        % 222
/.notdef        % 223
/.notdef        % 224
/.notdef        % 225
/.notdef        % 226
/.notdef        % 227
/.notdef        % 228
/.notdef        % 229
/.notdef        % 230
/.notdef        % 231
/.notdef        % 232
/.notdef        % 233
/.notdef        % 234
/.notdef        % 235
/.notdef        % 236
/.notdef        % 237
/.notdef        % 238
/.notdef        % 239
/.notdef        % 240
/.notdef        % 241
/.notdef        % 242
/.notdef        % 243
/.notdef        % 244
/.notdef        % 245
/.notdef        % 246
/.notdef        % 247
/.notdef        % 248
/.notdef        % 249
/.notdef        % 250
/.notdef        % 251
/.notdef        % 252
/.notdef        % 253
/.notdef        % 254
/.notdef        % 255
] 
def

/axumfindfont
{
   /axumfont axumencoding reencode
   /axumfont findfont
}
def


/MainFont /Helvetica axumfindfont 98 scalefont def
MainFont setfont
1 setlinejoin 0 setlinecap 0 setgray
 gsave 72 630 div dup scale
 0.0 setgray [] 0 setdash

5 setlinewidth
 363 1935 371 1935 379 1938 387 1943 392 1951 394 1958 394 1966 392 1974 387 1982
 379 1987 371 1990 363 1990 355 1987 348 1982 342 1974 340 1966 340 1958
 342 1951 348 1943 355 1938 19 rcs

 366 1958 368 1958 371 1961 371 1964 368 1966 366 1966 363 1964 363 1961 7 rcs

 366 1961 368 1961 368 1964 366 1964 3 rcs

 1182 1257 1190 1257 1198 1260 1206 1265 1211 1273 1213 1280 1213 1288 1211 1296 1206 1304
 1198 1309 1190 1312 1182 1312 1174 1309 1167 1304 1161 1296 1159 1288 1159 1280
 1161 1273 1167 1265 1174 1260 19 rcs

 1185 1280 1187 1280 1190 1283 1190 1286 1187 1288 1185 1288 1182 1286 1182 1283 7 rcs

 1185 1283 1187 1283 1187 1286 1185 1286 3 rcs

 2888 970 2896 970 2904 973 2912 978 2917 986 2919 993 2919 1001 2917 1009 2912 1017
 2904 1022 2896 1025 2888 1025 2880 1022 2873 1017 2867 1009 2865 1001 2865 993
 2867 986 2873 978 2880 973 19 rcs

 2891 993 2893 993 2896 996 2896 999 2893 1001 2891 1001 2888 999 2888 996 7 rcs

 2891 996 2893 996 2893 999 2891 999 3 rcs


1 setlinewidth
 660 567 3867 567 1 rps
 656 2842 3871 2842 1 rps
 660 566 3867 566 1 rps
 656 2843 3871 2843 1 rps
 660 565 3867 565 1 rps
 656 2844 3871 2844 1 rps
 660 564 3867 564 1 rps
 656 2845 3871 2845 1 rps
 660 563 3867 563 1 rps
 656 2846 3871 2846 1 rps
 660 568 660 2842 1 rps
 659 568 659 2842 1 rps
 658 568 658 2842 1 rps
 657 568 657 2842 1 rps
 656 568 656 2842 1 rps
 3867 568 3867 2842 1 rps
 3868 568 3868 2842 1 rps
 3869 568 3869 2842 1 rps
 3870 568 3870 2842 1 rps
 3871 568 3871 2842 1 rps
 660 568 696 568 1 rps
 660 754 678 754 1 rps
 660 941 696 941 1 rps
 660 1127 678 1127 1 rps
 660 1314 696 1314 1 rps
 660 1500 678 1500 1 rps
 660 1686 696 1686 1 rps
 660 1872 678 1872 1 rps
 660 2059 696 2059 1 rps
 660 2245 678 2245 1 rps
 660 2432 696 2432 1 rps
 660 2618 678 2618 1 rps
 660 2805 696 2805 1 rps

/Symbol findfont 124 scalefont setfont
 476 528 moveto  (-) show 

/Times-Roman axumfindfont 124 scalefont setfont
 544 528 moveto  (3) show 

/Symbol findfont 124 scalefont setfont
 476 901 moveto  (-) show 

/Times-Roman axumfindfont 124 scalefont setfont
 544 901 moveto  (2) show 

/Symbol findfont 124 scalefont setfont
 476 1274 moveto  (-) show 

/Times-Roman axumfindfont 124 scalefont setfont
 544 1274 moveto  (1) show 
 544 1646 moveto  (0) show 
 544 2019 moveto  (1) show 
 544 2392 moveto  (2) show 
 544 2765 moveto  (3) show 
 2848 2764
 2852 2764 2856 2766 2859 2769 2861 2773
 2861 2777 2859 2781 2856 2784 2852 2786
 2848 2786 2844 2784 2841 2781 2839 2777
 2839 2773 2841 2769 2844 2766 2848 2764
 16 3 1 roll cnp
 0.00 setgray
gsave eofill grestore  0.0 setgray
 stroke 0.0 setgray 3025 2682
 3029 2682 3033 2684 3036 2687 3038 2691
 3038 2695 3036 2699 3033 2702 3029 2704
 3025 2704 3021 2702 3018 2699 3016 2695
 3016 2691 3018 2687 3021 2684 3025 2682
 16 3 1 roll cnp
 0.00 setgray
gsave eofill grestore  0.0 setgray
 stroke 0.0 setgray 3163 2609
 3167 2609 3171 2611 3174 2614 3176 2618
 3176 2622 3174 2626 3171 2629 3167 2631
 3163 2631 3159 2629 3156 2626 3154 2622
 3154 2618 3156 2614 3159 2611 3163 2609
 16 3 1 roll cnp
 0.00 setgray
gsave eofill grestore  0.0 setgray
 stroke 0.0 setgray 3327 2516
 3331 2516 3335 2518 3338 2521 3340 2525
 3340 2529 3338 2533 3335 2536 3331 2538
 3327 2538 3323 2536 3320 2533 3318 2529
 3318 2525 3320 2521 3323 2518 3327 2516
 16 3 1 roll cnp
 0.00 setgray
gsave eofill grestore  0.0 setgray
 stroke 0.0 setgray 3560 2413
 3564 2413 3568 2415 3571 2418 3573 2422
 3573 2426 3571 2430 3568 2433 3564 2435
 3560 2435 3556 2433 3553 2430 3551 2426
 3551 2422 3553 2418 3556 2415 3560 2413
 16 3 1 roll cnp
 0.00 setgray
gsave eofill grestore  0.0 setgray
 stroke 0.0 setgray 3700 2321
 3704 2321 3708 2323 3711 2326 3713 2330
 3713 2334 3711 2338 3708 2341 3704 2343
 3700 2343 3696 2341 3693 2338 3691 2334
 3691 2330 3693 2326 3696 2323 3700 2321
 16 3 1 roll cnp
 0.00 setgray
gsave eofill grestore  0.0 setgray
 stroke 0.0 setgray 3800 2251
 3804 2251 3808 2253 3811 2256 3813 2260
 3813 2264 3811 2268 3808 2271 3804 2273
 3800 2273 3796 2271 3793 2268 3791 2264
 3791 2260 3793 2256 3796 2253 3800 2251
 16 3 1 roll cnp
 0.00 setgray
gsave eofill grestore  0.0 setgray
 stroke 0.0 setgray 0.0 setgray 3867 568 3867 2842 1 rps
 3868 568 3868 2842 1 rps
 3869 568 3869 2842 1 rps
 3870 568 3870 2842 1 rps
 3871 568 3871 2842 1 rps
 3867 568 3831 568 1 rps
 3867 754 3849 754 1 rps
 3867 941 3831 941 1 rps
 3867 1127 3849 1127 1 rps
 3867 1314 3831 1314 1 rps
 3867 1500 3849 1500 1 rps
 3867 1686 3831 1686 1 rps
 3867 1872 3849 1872 1 rps
 3867 2059 3831 2059 1 rps
 3867 2245 3849 2245 1 rps
 3867 2432 3831 2432 1 rps
 3867 2618 3849 2618 1 rps
 3867 2805 3831 2805 1 rps

/Times-Roman axumfindfont 124 scalefont setfont
 3138 2716 moveto  (B7) show 
 3302 2623 moveto  (B8) show 
 3535 2520 moveto  (B9) show 
 3671 2428 moveto  (A0) show 

/Times-Roman axumfindfont 68 scalefont setfont
 3178 2643 moveto  (/) show 
 3342 2550 moveto  (/) show 
 3575 2447 moveto  (/) show 
 3715 2355 moveto  (/) show 
 1075 565 1075 609 1 rps
 1610 565 1610 609 1 rps
 2364 565 2364 609 1 rps
 3653 565 3653 609 1 rps
 1075 2801 1075 2845 1 rps
 1610 2801 1610 2845 1 rps
 2364 2801 2364 2845 1 rps
 3653 2801 3653 2845 1 rps
 2331 1049
 2335 1049 2339 1051 2342 1054 2344 1058
 2344 1062 2342 1066 2339 1069 2335 1071
 2331 1071 2327 1069 2324 1066 2322 1062
 2322 1058 2324 1054 2327 1051 2331 1049
 16 3 1 roll cnp
 0.00 setgray
gsave eofill grestore  0.0 setgray
 stroke 0.0 setgray 2705 911
 2709 911 2713 913 2716 916 2718 920
 2718 924 2716 928 2713 931 2709 933
 2705 933 2701 931 2698 928 2696 924
 2696 920 2698 916 2701 913 2705 911
 16 3 1 roll cnp
 0.00 setgray
gsave eofill grestore  0.0 setgray
 stroke 0.0 setgray 1926 1206
 1930 1206 1934 1208 1937 1211 1939 1215
 1939 1219 1937 1223 1934 1226 1930 1228
 1926 1228 1922 1226 1919 1223 1917 1219
 1917 1215 1919 1211 1922 1208 1926 1206
 16 3 1 roll cnp
 0.00 setgray
gsave eofill grestore  0.0 setgray
 stroke 0.0 setgray 3167 747
 3171 747 3175 749 3178 752 3180 756
 3180 760 3178 764 3175 767 3171 769
 3167 769 3163 767 3160 764 3158 760
 3158 756 3160 752 3163 749 3167 747
 16 3 1 roll cnp
 0.00 setgray
gsave eofill grestore  0.0 setgray
 stroke 0.0 setgray 1625 1340
 1629 1340 1633 1342 1636 1345 1638 1349
 1638 1353 1636 1357 1633 1360 1629 1362
 1625 1362 1621 1360 1618 1357 1616 1353
 1616 1349 1618 1345 1621 1342 1625 1340
 16 3 1 roll cnp
 0.00 setgray
gsave eofill grestore  0.0 setgray
 stroke 0.0 setgray 2150 1146
 2154 1146 2158 1148 2161 1151 2163 1155
 2163 1159 2161 1163 2158 1166 2154 1168
 2150 1168 2146 1166 2143 1163 2141 1159
 2141 1155 2143 1151 2146 1148 2150 1146
 16 3 1 roll cnp
 0.00 setgray
gsave eofill grestore  0.0 setgray
 stroke 0.0 setgray 1901 1247
 1905 1247 1909 1249 1912 1252 1914 1256
 1914 1260 1912 1264 1909 1267 1905 1269
 1901 1269 1897 1267 1894 1264 1892 1260
 1892 1256 1894 1252 1897 1249 1901 1247
 16 3 1 roll cnp
 0.00 setgray
gsave eofill grestore  0.0 setgray
 stroke 0.0 setgray 2484 975
 2488 975 2492 977 2495 980 2497 984
 2497 988 2495 992 2492 995 2488 997
 2484 997 2480 995 2477 992 2475 988
 2475 984 2477 980 2480 977 2484 975
 16 3 1 roll cnp
 0.00 setgray
gsave eofill grestore  0.0 setgray
 stroke 0.0 setgray 2748 956
 2752 956 2756 958 2759 961 2761 965
 2761 969 2759 973 2756 976 2752 978
 2748 978 2744 976 2741 973 2739 969
 2739 965 2741 961 2744 958 2748 956
 16 3 1 roll cnp
 0.00 setgray
gsave eofill grestore  0.0 setgray
 stroke 0.0 setgray 1565 1399
 1569 1399 1573 1401 1576 1404 1578 1408
 1578 1412 1576 1416 1573 1419 1569 1421
 1565 1421 1561 1419 1558 1416 1556 1412
 1556 1408 1558 1404 1561 1401 1565 1399
 16 3 1 roll cnp
 0.00 setgray
gsave eofill grestore  0.0 setgray
 stroke 0.0 setgray 3027 822
 3031 822 3035 824 3038 827 3040 831
 3040 835 3038 839 3035 842 3031 844
 3027 844 3023 842 3020 839 3018 835
 3018 831 3020 827 3023 824 3027 822
 16 3 1 roll cnp
 0.00 setgray
gsave eofill grestore  0.0 setgray
 stroke 0.0 setgray 2702 922
 2706 922 2710 924 2713 927 2715 931
 2715 935 2713 939 2710 942 2706 944
 2702 944 2698 942 2695 939 2693 935
 2693 931 2695 927 2698 924 2702 922
 16 3 1 roll cnp
 0.00 setgray
gsave eofill grestore  0.0 setgray
 stroke 0.0 setgray 2255 1105
 2259 1105 2263 1107 2266 1110 2268 1114
 2268 1118 2266 1122 2263 1125 2259 1127
 2255 1127 2251 1125 2248 1122 2246 1118
 2246 1114 2248 1110 2251 1107 2255 1105
 16 3 1 roll cnp
 0.00 setgray
gsave eofill grestore  0.0 setgray
 stroke 0.0 setgray 1758 1291
 1762 1291 1766 1293 1769 1296 1771 1300
 1771 1304 1769 1308 1766 1311 1762 1313
 1758 1313 1754 1311 1751 1308 1749 1304
 1749 1300 1751 1296 1754 1293 1758 1291
 16 3 1 roll cnp
 0.00 setgray
gsave eofill grestore  0.0 setgray
 stroke 0.0 setgray 2451 1045
 2455 1045 2459 1047 2462 1050 2464 1054
 2464 1058 2462 1062 2459 1065 2455 1067
 2451 1067 2447 1065 2444 1062 2442 1058
 2442 1054 2444 1050 2447 1047 2451 1045
 16 3 1 roll cnp
 0.00 setgray
gsave eofill grestore  0.0 setgray
 stroke 0.0 setgray 1982 1191
 1986 1191 1990 1193 1993 1196 1995 1200
 1995 1204 1993 1208 1990 1211 1986 1213
 1982 1213 1978 1211 1975 1208 1973 1204
 1973 1200 1975 1196 1978 1193 1982 1191
 16 3 1 roll cnp
 0.00 setgray
gsave eofill grestore  0.0 setgray
 stroke 0.0 setgray 2659 866
 2663 866 2667 868 2670 871 2672 875
 2672 879 2670 883 2667 886 2663 888
 2659 888 2655 886 2652 883 2650 879
 2650 875 2652 871 2655 868 2659 866
 16 3 1 roll cnp
 0.00 setgray
gsave eofill grestore  0.0 setgray
 stroke 0.0 setgray 1504 1399
 1508 1399 1512 1401 1515 1404 1517 1408
 1517 1412 1515 1416 1512 1419 1508 1421
 1504 1421 1500 1419 1497 1416 1495 1412
 1495 1408 1497 1404 1500 1401 1504 1399
 16 3 1 roll cnp
 0.00 setgray
gsave eofill grestore  0.0 setgray
 stroke 0.0 setgray 1278 1467
 1282 1467 1286 1469 1289 1472 1291 1476
 1291 1480 1289 1484 1286 1487 1282 1489
 1278 1489 1274 1487 1271 1484 1269 1480
 1269 1476 1271 1472 1274 1469 1278 1467
 16 3 1 roll cnp
 0.00 setgray
gsave eofill grestore  0.0 setgray
 stroke 0.0 setgray 2519 1023
 2523 1023 2527 1025 2530 1028 2532 1032
 2532 1036 2530 1040 2527 1043 2523 1045
 2519 1045 2515 1043 2512 1040 2510 1036
 2510 1032 2512 1028 2515 1025 2519 1023
 16 3 1 roll cnp
 0.00 setgray
gsave eofill grestore  0.0 setgray
 stroke 0.0 setgray 2912 919
 2916 919 2920 921 2923 924 2925 928
 2925 932 2923 936 2920 939 2916 941
 2912 941 2908 939 2905 936 2903 932
 2903 928 2905 924 2908 921 2912 919
 16 3 1 roll cnp
 0.00 setgray
gsave eofill grestore  0.0 setgray
 stroke 0.0 setgray 3114 878
 3118 878 3122 880 3125 883 3127 887
 3127 891 3125 895 3122 898 3118 900
 3114 900 3110 898 3107 895 3105 891
 3105 887 3107 883 3110 880 3114 878
 16 3 1 roll cnp
 0.00 setgray
gsave eofill grestore  0.0 setgray
 stroke 0.0 setgray 2945 848
 2949 848 2953 850 2956 853 2958 857
 2958 861 2956 865 2953 868 2949 870
 2945 870 2941 868 2938 865 2936 861
 2936 857 2938 853 2941 850 2945 848
 16 3 1 roll cnp
 0.00 setgray
gsave eofill grestore  0.0 setgray
 stroke 0.0 setgray 1048 1157
 1052 1157 1056 1159 1059 1162 1061 1166
 1061 1170 1059 1174 1056 1177 1052 1179
 1048 1179 1044 1177 1041 1174 1039 1170
 1039 1166 1041 1162 1044 1159 1048 1157
 16 3 1 roll cnp
 0.00 setgray
gsave eofill grestore  0.0 setgray
 stroke 0.0 setgray 1435 1209
 1439 1209 1443 1211 1446 1214 1448 1218
 1448 1222 1446 1226 1443 1229 1439 1231
 1435 1231 1431 1229 1428 1226 1426 1222
 1426 1218 1428 1214 1431 1211 1435 1209
 16 3 1 roll cnp
 0.00 setgray
gsave eofill grestore  0.0 setgray
 stroke 0.0 setgray 2897 840
 2901 840 2905 842 2908 845 2910 849
 2910 853 2908 857 2905 860 2901 862
 2897 862 2893 860 2890 857 2888 853
 2888 849 2890 845 2893 842 2897 840
 16 3 1 roll cnp
 0.00 setgray
gsave eofill grestore  0.0 setgray
 stroke 0.0 setgray 2290 1068
 2294 1068 2298 1070 2301 1073 2303 1077
 2303 1081 2301 1085 2298 1088 2294 1090
 2290 1090 2286 1088 2283 1085 2281 1081
 2281 1077 2283 1073 2286 1070 2290 1068
 16 3 1 roll cnp
 0.00 setgray
gsave eofill grestore  0.0 setgray
 stroke 0.0 setgray 2731 934
 2735 934 2739 936 2742 939 2744 943
 2744 947 2742 951 2739 954 2735 956
 2731 956 2727 954 2724 951 2722 947
 2722 943 2724 939 2727 936 2731 934
 16 3 1 roll cnp
 0.00 setgray
gsave eofill grestore  0.0 setgray
 stroke 0.0 setgray 2461 997
 2465 997 2469 999 2472 1002 2474 1006
 2474 1010 2472 1014 2469 1017 2465 1019
 2461 1019 2457 1017 2454 1014 2452 1010
 2452 1006 2454 1002 2457 999 2461 997
 16 3 1 roll cnp
 0.00 setgray
gsave eofill grestore  0.0 setgray
 stroke 0.0 setgray 2039 1131
 2043 1131 2047 1133 2050 1136 2052 1140
 2052 1144 2050 1148 2047 1151 2043 1153
 2039 1153 2035 1151 2032 1148 2030 1144
 2030 1140 2032 1136 2035 1133 2039 1131
 16 3 1 roll cnp
 0.00 setgray
gsave eofill grestore  0.0 setgray
 stroke 0.0 setgray 2258 1057
 2262 1057 2266 1059 2269 1062 2271 1066
 2271 1070 2269 1074 2266 1077 2262 1079
 2258 1079 2254 1077 2251 1074 2249 1070
 2249 1066 2251 1062 2254 1059 2258 1057
 16 3 1 roll cnp
 0.00 setgray
gsave eofill grestore  0.0 setgray
 stroke 0.0 setgray 1788 1224
 1792 1224 1796 1226 1799 1229 1801 1233
 1801 1237 1799 1241 1796 1244 1792 1246
 1788 1246 1784 1244 1781 1241 1779 1237
 1779 1233 1781 1229 1784 1226 1788 1224
 16 3 1 roll cnp
 0.00 setgray
gsave eofill grestore  0.0 setgray
 stroke 0.0 setgray 2991 866
 2995 866 2999 868 3002 871 3004 875
 3004 879 3002 883 2999 886 2995 888
 2991 888 2987 886 2984 883 2982 879
 2982 875 2984 871 2987 868 2991 866
 16 3 1 roll cnp
 0.00 setgray
gsave eofill grestore  0.0 setgray
 stroke 0.0 setgray 1973 1183
 1977 1183 1981 1185 1984 1188 1986 1192
 1986 1196 1984 1200 1981 1203 1977 1205
 1973 1205 1969 1203 1966 1200 1964 1196
 1964 1192 1966 1188 1969 1185 1973 1183
 16 3 1 roll cnp
 0.00 setgray
gsave eofill grestore  0.0 setgray
 stroke 0.0 setgray 2674 926
 2678 926 2682 928 2685 931 2687 935
 2687 939 2685 943 2682 946 2678 948
 2674 948 2670 946 2667 943 2665 939
 2665 935 2667 931 2670 928 2674 926
 16 3 1 roll cnp
 0.00 setgray
gsave eofill grestore  0.0 setgray
 stroke 0.0 setgray 2266 1045
 2270 1045 2274 1047 2277 1050 2279 1054
 2279 1058 2277 1062 2274 1065 2270 1067
 2266 1067 2262 1065 2259 1062 2257 1058
 2257 1054 2259 1050 2262 1047 2266 1045
 16 3 1 roll cnp
 0.00 setgray
gsave eofill grestore  0.0 setgray
 stroke 0.0 setgray 2464 1112
 2468 1112 2472 1114 2475 1117 2477 1121
 2477 1125 2475 1129 2472 1132 2468 1134
 2464 1134 2460 1132 2457 1129 2455 1125
 2455 1121 2457 1117 2460 1114 2464 1112
 16 3 1 roll cnp
 0.00 setgray
gsave eofill grestore  0.0 setgray
 stroke 0.0 setgray 2835 751
 2839 751 2843 753 2846 756 2848 760
 2848 764 2846 768 2843 771 2839 773
 2835 773 2831 771 2828 768 2826 764
 2826 760 2828 756 2831 753 2835 751
 16 3 1 roll cnp
 0.00 setgray
gsave eofill grestore  0.0 setgray
 stroke 0.0 setgray 1879 1202
 1883 1202 1887 1204 1890 1207 1892 1211
 1892 1215 1890 1219 1887 1222 1883 1224
 1879 1224 1875 1222 1872 1219 1870 1215
 1870 1211 1872 1207 1875 1204 1879 1202
 16 3 1 roll cnp
 0.00 setgray
gsave eofill grestore  0.0 setgray
 stroke 0.0 setgray 1942 1239
 1946 1239 1950 1241 1953 1244 1955 1248
 1955 1252 1953 1256 1950 1259 1946 1261
 1942 1261 1938 1259 1935 1256 1933 1252
 1933 1248 1935 1244 1938 1241 1942 1239
 16 3 1 roll cnp
 0.00 setgray
gsave eofill grestore  0.0 setgray
 stroke 0.0 setgray 2140 1139
 2144 1139 2148 1141 2151 1144 2153 1148
 2153 1152 2151 1156 2148 1159 2144 1161
 2140 1161 2136 1159 2133 1156 2131 1152
 2131 1148 2133 1144 2136 1141 2140 1139
 16 3 1 roll cnp
 0.00 setgray
gsave eofill grestore  0.0 setgray
 stroke 0.0 setgray 2165 1034
 2169 1034 2173 1036 2176 1039 2178 1043
 2178 1047 2176 1051 2173 1054 2169 1056
 2165 1056 2161 1054 2158 1051 2156 1047
 2156 1043 2158 1039 2161 1036 2165 1034
 16 3 1 roll cnp
 0.00 setgray
gsave eofill grestore  0.0 setgray
 stroke 0.0 setgray 2345 1057
 2349 1057 2353 1059 2356 1062 2358 1066
 2358 1070 2356 1074 2353 1077 2349 1079
 2345 1079 2341 1077 2338 1074 2336 1070
 2336 1066 2338 1062 2341 1059 2345 1057
 16 3 1 roll cnp
 0.00 setgray
gsave eofill grestore  0.0 setgray
 stroke 0.0 setgray 2384 1042
 2388 1042 2392 1044 2395 1047 2397 1051
 2397 1055 2395 1059 2392 1062 2388 1064
 2384 1064 2380 1062 2377 1059 2375 1055
 2375 1051 2377 1047 2380 1044 2384 1042
 16 3 1 roll cnp
 0.00 setgray
gsave eofill grestore  0.0 setgray
 stroke 0.0 setgray 2381 1012
 2385 1012 2389 1014 2392 1017 2394 1021
 2394 1025 2392 1029 2389 1032 2385 1034
 2381 1034 2377 1032 2374 1029 2372 1025
 2372 1021 2374 1017 2377 1014 2381 1012
 16 3 1 roll cnp
 0.00 setgray
gsave eofill grestore  0.0 setgray
 stroke 0.0 setgray 2525 982
 2529 982 2533 984 2536 987 2538 991
 2538 995 2536 999 2533 1002 2529 1004
 2525 1004 2521 1002 2518 999 2516 995
 2516 991 2518 987 2521 984 2525 982
 16 3 1 roll cnp
 0.00 setgray
gsave eofill grestore  0.0 setgray
 stroke 0.0 setgray 2291 1030
 2295 1030 2299 1032 2302 1035 2304 1039
 2304 1043 2302 1047 2299 1050 2295 1052
 2291 1052 2287 1050 2284 1047 2282 1043
 2282 1039 2284 1035 2287 1032 2291 1030
 16 3 1 roll cnp
 0.00 setgray
gsave eofill grestore  0.0 setgray
 stroke 0.0 setgray 1569 1366
 1573 1366 1577 1368 1580 1371 1582 1375
 1582 1379 1580 1383 1577 1386 1573 1388
 1569 1388 1565 1386 1562 1383 1560 1379
 1560 1375 1562 1371 1565 1368 1569 1366
 16 3 1 roll cnp
 0.00 setgray
gsave eofill grestore  0.0 setgray
 stroke 0.0 setgray 2122 1019
 2126 1019 2130 1021 2133 1024 2135 1028
 2135 1032 2133 1036 2130 1039 2126 1041
 2122 1041 2118 1039 2115 1036 2113 1032
 2113 1028 2115 1024 2118 1021 2122 1019
 16 3 1 roll cnp
 0.00 setgray
gsave eofill grestore  0.0 setgray
 stroke 0.0 setgray 3078 907
 3082 907 3086 909 3089 912 3091 916
 3091 920 3089 924 3086 927 3082 929
 3078 929 3074 927 3071 924 3069 920
 3069 916 3071 912 3074 909 3078 907
 16 3 1 roll cnp
 0.00 setgray
gsave eofill grestore  0.0 setgray
 stroke 0.0 setgray 2381 941
 2385 941 2389 943 2392 946 2394 950
 2394 954 2392 958 2389 961 2385 963
 2381 963 2377 961 2374 958 2372 954
 2372 950 2374 946 2377 943 2381 941
 16 3 1 roll cnp
 0.00 setgray
gsave eofill grestore  0.0 setgray
 stroke 0.0 setgray 2535 963
 2539 963 2543 965 2546 968 2548 972
 2548 976 2546 980 2543 983 2539 985
 2535 985 2531 983 2528 980 2526 976
 2526 972 2528 968 2531 965 2535 963
 16 3 1 roll cnp
 0.00 setgray
gsave eofill grestore  0.0 setgray
 stroke 0.0 setgray 2831 904
 2835 904 2839 906 2842 909 2844 913
 2844 917 2842 921 2839 924 2835 926
 2831 926 2827 924 2824 921 2822 917
 2822 913 2824 909 2827 906 2831 904
 16 3 1 roll cnp
 0.00 setgray
gsave eofill grestore  0.0 setgray
 stroke 0.0 setgray 1883 1243
 1887 1243 1891 1245 1894 1248 1896 1252
 1896 1256 1894 1260 1891 1263 1887 1265
 1883 1265 1879 1263 1876 1260 1874 1256
 1874 1252 1876 1248 1879 1245 1883 1243
 16 3 1 roll cnp
 0.00 setgray
gsave eofill grestore  0.0 setgray
 stroke 0.0 setgray 1523 1288
 1527 1288 1531 1290 1534 1293 1536 1297
 1536 1301 1534 1305 1531 1308 1527 1310
 1523 1310 1519 1308 1516 1305 1514 1301
 1514 1297 1516 1293 1519 1290 1523 1288
 16 3 1 roll cnp
 0.00 setgray
gsave eofill grestore  0.0 setgray
 stroke 0.0 setgray 1913 1206
 1917 1206 1921 1208 1924 1211 1926 1215
 1926 1219 1924 1223 1921 1226 1917 1228
 1913 1228 1909 1226 1906 1223 1904 1219
 1904 1215 1906 1211 1909 1208 1913 1206
 16 3 1 roll cnp
 0.00 setgray
gsave eofill grestore  0.0 setgray
 stroke 0.0 setgray 2065 1180
 2069 1180 2073 1182 2076 1185 2078 1189
 2078 1193 2076 1197 2073 1200 2069 1202
 2065 1202 2061 1200 2058 1197 2056 1193
 2056 1189 2058 1185 2061 1182 2065 1180
 16 3 1 roll cnp
 0.00 setgray
gsave eofill grestore  0.0 setgray
 stroke 0.0 setgray 2211 971
 2215 971 2219 973 2222 976 2224 980
 2224 984 2222 988 2219 991 2215 993
 2211 993 2207 991 2204 988 2202 984
 2202 980 2204 976 2207 973 2211 971
 16 3 1 roll cnp
 0.00 setgray
gsave eofill grestore  0.0 setgray
 stroke 0.0 setgray 2853 859
 2857 859 2861 861 2864 864 2866 868
 2866 872 2864 876 2861 879 2857 881
 2853 881 2849 879 2846 876 2844 872
 2844 868 2846 864 2849 861 2853 859
 16 3 1 roll cnp
 0.00 setgray
gsave eofill grestore  0.0 setgray
 stroke 0.0 setgray 1787 1288
 1791 1288 1795 1290 1798 1293 1800 1297
 1800 1301 1798 1305 1795 1308 1791 1310
 1787 1310 1783 1308 1780 1305 1778 1301
 1778 1297 1780 1293 1783 1290 1787 1288
 16 3 1 roll cnp
 0.00 setgray
gsave eofill grestore  0.0 setgray
 stroke 0.0 setgray 2366 971
 2370 971 2374 973 2377 976 2379 980
 2379 984 2377 988 2374 991 2370 993
 2366 993 2362 991 2359 988 2357 984
 2357 980 2359 976 2362 973 2366 971
 16 3 1 roll cnp
 0.00 setgray
gsave eofill grestore  0.0 setgray
 stroke 0.0 setgray 1663 1329
 1667 1329 1671 1331 1674 1334 1676 1338
 1676 1342 1674 1346 1671 1349 1667 1351
 1663 1351 1659 1349 1656 1346 1654 1342
 1654 1338 1656 1334 1659 1331 1663 1329
 16 3 1 roll cnp
 0.00 setgray
gsave eofill grestore  0.0 setgray
 stroke 0.0 setgray 2102 1180
 2106 1180 2110 1182 2113 1185 2115 1189
 2115 1193 2113 1197 2110 1200 2106 1202
 2102 1202 2098 1200 2095 1197 2093 1193
 2093 1189 2095 1185 2098 1182 2102 1180
 16 3 1 roll cnp
 0.00 setgray
gsave eofill grestore  0.0 setgray
 stroke 0.0 setgray 2935 852
 2939 852 2943 854 2946 857 2948 861
 2948 865 2946 869 2943 872 2939 874
 2935 874 2931 872 2928 869 2926 865
 2926 861 2928 857 2931 854 2935 852
 16 3 1 roll cnp
 0.00 setgray
gsave eofill grestore  0.0 setgray
 stroke 0.0 setgray 2022 1336
 2026 1336 2030 1338 2033 1341 2035 1345
 2035 1349 2033 1353 2030 1356 2026 1358
 2022 1358 2018 1356 2015 1353 2013 1349
 2013 1345 2015 1341 2018 1338 2022 1336
 16 3 1 roll cnp
 0.00 setgray
gsave eofill grestore  0.0 setgray
 stroke 0.0 setgray 2370 1079
 2374 1079 2378 1081 2381 1084 2383 1088
 2383 1092 2381 1096 2378 1099 2374 1101
 2370 1101 2366 1099 2363 1096 2361 1092
 2361 1088 2363 1084 2366 1081 2370 1079
 16 3 1 roll cnp
 0.00 setgray
gsave eofill grestore  0.0 setgray
 stroke 0.0 setgray 2608 1004
 2612 1004 2616 1006 2619 1009 2621 1013
 2621 1017 2619 1021 2616 1024 2612 1026
 2608 1026 2604 1024 2601 1021 2599 1017
 2599 1013 2601 1009 2604 1006 2608 1004
 16 3 1 roll cnp
 0.00 setgray
gsave eofill grestore  0.0 setgray
 stroke 0.0 setgray 2159 1116
 2163 1116 2167 1118 2170 1121 2172 1125
 2172 1129 2170 1133 2167 1136 2163 1138
 2159 1138 2155 1136 2152 1133 2150 1129
 2150 1125 2152 1121 2155 1118 2159 1116
 16 3 1 roll cnp
 0.00 setgray
gsave eofill grestore  0.0 setgray
 stroke 0.0 setgray 1374 1377
 1378 1377 1382 1379 1385 1382 1387 1386
 1387 1390 1385 1394 1382 1397 1378 1399
 1374 1399 1370 1397 1367 1394 1365 1390
 1365 1386 1367 1382 1370 1379 1374 1377
 16 3 1 roll cnp
 0.00 setgray
gsave eofill grestore  0.0 setgray
 stroke 0.0 setgray 1644 1325
 1648 1325 1652 1327 1655 1330 1657 1334
 1657 1338 1655 1342 1652 1345 1648 1347
 1644 1347 1640 1345 1637 1342 1635 1338
 1635 1334 1637 1330 1640 1327 1644 1325
 16 3 1 roll cnp
 0.00 setgray
gsave eofill grestore  0.0 setgray
 stroke 0.0 setgray 3025 919
 3029 919 3033 921 3036 924 3038 928
 3038 932 3036 936 3033 939 3029 941
 3025 941 3021 939 3018 936 3016 932
 3016 928 3018 924 3021 921 3025 919
 16 3 1 roll cnp
 0.00 setgray
gsave eofill grestore  0.0 setgray
 stroke 0.0 setgray 2942 788
 2946 788 2950 790 2953 793 2955 797
 2955 801 2953 805 2950 808 2946 810
 2942 810 2938 808 2935 805 2933 801
 2933 797 2935 793 2938 790 2942 788
 16 3 1 roll cnp
 0.00 setgray
gsave eofill grestore  0.0 setgray
 stroke 0.0 setgray 2979 829
 2983 829 2987 831 2990 834 2992 838
 2992 842 2990 846 2987 849 2983 851
 2979 851 2975 849 2972 846 2970 842
 2970 838 2972 834 2975 831 2979 829
 16 3 1 roll cnp
 0.00 setgray
gsave eofill grestore  0.0 setgray
 stroke 0.0 setgray 2137 1135
 2141 1135 2145 1137 2148 1140 2150 1144
 2150 1148 2148 1152 2145 1155 2141 1157
 2137 1157 2133 1155 2130 1152 2128 1148
 2128 1144 2130 1140 2133 1137 2137 1135
 16 3 1 roll cnp
 0.00 setgray
gsave eofill grestore  0.0 setgray
 stroke 0.0 setgray 1617 1303
 1621 1303 1625 1305 1628 1308 1630 1312
 1630 1316 1628 1320 1625 1323 1621 1325
 1617 1325 1613 1323 1610 1320 1608 1316
 1608 1312 1610 1308 1613 1305 1617 1303
 16 3 1 roll cnp
 0.00 setgray
gsave eofill grestore  0.0 setgray
 stroke 0.0 setgray 2458 926
 2462 926 2466 928 2469 931 2471 935
 2471 939 2469 943 2466 946 2462 948
 2458 948 2454 946 2451 943 2449 939
 2449 935 2451 931 2454 928 2458 926
 16 3 1 roll cnp
 0.00 setgray
gsave eofill grestore  0.0 setgray
 stroke 0.0 setgray 1575 1258
 1579 1258 1583 1260 1586 1263 1588 1267
 1588 1271 1586 1275 1583 1278 1579 1280
 1575 1280 1571 1278 1568 1275 1566 1271
 1566 1267 1568 1263 1571 1260 1575 1258
 16 3 1 roll cnp
 0.00 setgray
gsave eofill grestore  0.0 setgray
 stroke 0.0 setgray 2341 1064
 2345 1064 2349 1066 2352 1069 2354 1073
 2354 1077 2352 1081 2349 1084 2345 1086
 2341 1086 2337 1084 2334 1081 2332 1077
 2332 1073 2334 1069 2337 1066 2341 1064
 16 3 1 roll cnp
 0.00 setgray
gsave eofill grestore  0.0 setgray
 stroke 0.0 setgray 3017 807
 3021 807 3025 809 3028 812 3030 816
 3030 820 3028 824 3025 827 3021 829
 3017 829 3013 827 3010 824 3008 820
 3008 816 3010 812 3013 809 3017 807
 16 3 1 roll cnp
 0.00 setgray
gsave eofill grestore  0.0 setgray
 stroke 0.0 setgray 2056 1243
 2060 1243 2064 1245 2067 1248 2069 1252
 2069 1256 2067 1260 2064 1263 2060 1265
 2056 1265 2052 1263 2049 1260 2047 1256
 2047 1252 2049 1248 2052 1245 2056 1243
 16 3 1 roll cnp
 0.00 setgray
gsave eofill grestore  0.0 setgray
 stroke 0.0 setgray 2516 986
 2520 986 2524 988 2527 991 2529 995
 2529 999 2527 1003 2524 1006 2520 1008
 2516 1008 2512 1006 2509 1003 2507 999
 2507 995 2509 991 2512 988 2516 986
 16 3 1 roll cnp
 0.00 setgray
gsave eofill grestore  0.0 setgray
 stroke 0.0 setgray 1762 1250
 1766 1250 1770 1252 1773 1255 1775 1259
 1775 1263 1773 1267 1770 1270 1766 1272
 1762 1272 1758 1270 1755 1267 1753 1263
 1753 1259 1755 1255 1758 1252 1762 1250
 16 3 1 roll cnp
 0.00 setgray
gsave eofill grestore  0.0 setgray
 stroke 0.0 setgray 2107 1038
 2111 1038 2115 1040 2118 1043 2120 1047
 2120 1051 2118 1055 2115 1058 2111 1060
 2107 1060 2103 1058 2100 1055 2098 1051
 2098 1047 2100 1043 2103 1040 2107 1038
 16 3 1 roll cnp
 0.00 setgray
gsave eofill grestore  0.0 setgray
 stroke 0.0 setgray 2227 1109
 2231 1109 2235 1111 2238 1114 2240 1118
 2240 1122 2238 1126 2235 1129 2231 1131
 2227 1131 2223 1129 2220 1126 2218 1122
 2218 1118 2220 1114 2223 1111 2227 1109
 16 3 1 roll cnp
 0.00 setgray
gsave eofill grestore  0.0 setgray
 stroke 0.0 setgray 1898 1235
 1902 1235 1906 1237 1909 1240 1911 1244
 1911 1248 1909 1252 1906 1255 1902 1257
 1898 1257 1894 1255 1891 1252 1889 1248
 1889 1244 1891 1240 1894 1237 1898 1235
 16 3 1 roll cnp
 0.00 setgray
gsave eofill grestore  0.0 setgray
 stroke 0.0 setgray 1862 1232
 1866 1232 1870 1234 1873 1237 1875 1241
 1875 1245 1873 1249 1870 1252 1866 1254
 1862 1254 1858 1252 1855 1249 1853 1245
 1853 1241 1855 1237 1858 1234 1862 1232
 16 3 1 roll cnp
 0.00 setgray
gsave eofill grestore  0.0 setgray
 stroke 0.0 setgray 2421 1053
 2425 1053 2429 1055 2432 1058 2434 1062
 2434 1066 2432 1070 2429 1073 2425 1075
 2421 1075 2417 1073 2414 1070 2412 1066
 2412 1062 2414 1058 2417 1055 2421 1053
 16 3 1 roll cnp
 0.00 setgray
gsave eofill grestore  0.0 setgray
 stroke 0.0 setgray 2940 829
 2944 829 2948 831 2951 834 2953 838
 2953 842 2951 846 2948 849 2944 851
 2940 851 2936 849 2933 846 2931 842
 2931 838 2933 834 2936 831 2940 829
 16 3 1 roll cnp
 0.00 setgray
gsave eofill grestore  0.0 setgray
 stroke 0.0 setgray 1627 1332
 1631 1332 1635 1334 1638 1337 1640 1341
 1640 1345 1638 1349 1635 1352 1631 1354
 1627 1354 1623 1352 1620 1349 1618 1345
 1618 1341 1620 1337 1623 1334 1627 1332
 16 3 1 roll cnp
 0.00 setgray
gsave eofill grestore  0.0 setgray
 stroke 0.0 setgray 1842 1239
 1846 1239 1850 1241 1853 1244 1855 1248
 1855 1252 1853 1256 1850 1259 1846 1261
 1842 1261 1838 1259 1835 1256 1833 1252
 1833 1248 1835 1244 1838 1241 1842 1239
 16 3 1 roll cnp
 0.00 setgray
gsave eofill grestore  0.0 setgray
 stroke 0.0 setgray 2470 904
 2474 904 2478 906 2481 909 2483 913
 2483 917 2481 921 2478 924 2474 926
 2470 926 2466 924 2463 921 2461 917
 2461 913 2463 909 2466 906 2470 904
 16 3 1 roll cnp
 0.00 setgray
gsave eofill grestore  0.0 setgray
 stroke 0.0 setgray 2289 1090
 2293 1090 2297 1092 2300 1095 2302 1099
 2302 1103 2300 1107 2297 1110 2293 1112
 2289 1112 2285 1110 2282 1107 2280 1103
 2280 1099 2282 1095 2285 1092 2289 1090
 16 3 1 roll cnp
 0.00 setgray
gsave eofill grestore  0.0 setgray
 stroke 0.0 setgray 1858 1254
 1862 1254 1866 1256 1869 1259 1871 1263
 1871 1267 1869 1271 1866 1274 1862 1276
 1858 1276 1854 1274 1851 1271 1849 1267
 1849 1263 1851 1259 1854 1256 1858 1254
 16 3 1 roll cnp
 0.00 setgray
gsave eofill grestore  0.0 setgray
 stroke 0.0 setgray 1789 1262
 1793 1262 1797 1264 1800 1267 1802 1271
 1802 1275 1800 1279 1797 1282 1793 1284
 1789 1284 1785 1282 1782 1279 1780 1275
 1780 1271 1782 1267 1785 1264 1789 1262
 16 3 1 roll cnp
 0.00 setgray
gsave eofill grestore  0.0 setgray
 stroke 0.0 setgray 2320 1068
 2324 1068 2328 1070 2331 1073 2333 1077
 2333 1081 2331 1085 2328 1088 2324 1090
 2320 1090 2316 1088 2313 1085 2311 1081
 2311 1077 2313 1073 2316 1070 2320 1068
 16 3 1 roll cnp
 0.00 setgray
gsave eofill grestore  0.0 setgray
 stroke 0.0 setgray 1625 1314
 1629 1314 1633 1316 1636 1319 1638 1323
 1638 1327 1636 1331 1633 1334 1629 1336
 1625 1336 1621 1334 1618 1331 1616 1327
 1616 1323 1618 1319 1621 1316 1625 1314
 16 3 1 roll cnp
 0.00 setgray
gsave eofill grestore  0.0 setgray
 stroke 0.0 setgray 2149 1254
 2153 1254 2157 1256 2160 1259 2162 1263
 2162 1267 2160 1271 2157 1274 2153 1276
 2149 1276 2145 1274 2142 1271 2140 1267
 2140 1263 2142 1259 2145 1256 2149 1254
 16 3 1 roll cnp
 0.00 setgray
gsave eofill grestore  0.0 setgray
 stroke 0.0 setgray 1625 1306
 1629 1306 1633 1308 1636 1311 1638 1315
 1638 1319 1636 1323 1633 1326 1629 1328
 1625 1328 1621 1326 1618 1323 1616 1319
 1616 1315 1618 1311 1621 1308 1625 1306
 16 3 1 roll cnp
 0.00 setgray
gsave eofill grestore  0.0 setgray
 stroke 0.0 setgray 2206 1109
 2210 1109 2214 1111 2217 1114 2219 1118
 2219 1122 2217 1126 2214 1129 2210 1131
 2206 1131 2202 1129 2199 1126 2197 1122
 2197 1118 2199 1114 2202 1111 2206 1109
 16 3 1 roll cnp
 0.00 setgray
gsave eofill grestore  0.0 setgray
 stroke 0.0 setgray 2182 1232
 2186 1232 2190 1234 2193 1237 2195 1241
 2195 1245 2193 1249 2190 1252 2186 1254
 2182 1254 2178 1252 2175 1249 2173 1245
 2173 1241 2175 1237 2178 1234 2182 1232
 16 3 1 roll cnp
 0.00 setgray
gsave eofill grestore  0.0 setgray
 stroke 0.0 setgray 2824 889
 2828 889 2832 891 2835 894 2837 898
 2837 902 2835 906 2832 909 2828 911
 2824 911 2820 909 2817 906 2815 902
 2815 898 2817 894 2820 891 2824 889
 16 3 1 roll cnp
 0.00 setgray
gsave eofill grestore  0.0 setgray
 stroke 0.0 setgray 1618 1347
 1622 1347 1626 1349 1629 1352 1631 1356
 1631 1360 1629 1364 1626 1367 1622 1369
 1618 1369 1614 1367 1611 1364 1609 1360
 1609 1356 1611 1352 1614 1349 1618 1347
 16 3 1 roll cnp
 0.00 setgray
gsave eofill grestore  0.0 setgray
 stroke 0.0 setgray 3056 822
 3060 822 3064 824 3067 827 3069 831
 3069 835 3067 839 3064 842 3060 844
 3056 844 3052 842 3049 839 3047 835
 3047 831 3049 827 3052 824 3056 822
 16 3 1 roll cnp
 0.00 setgray
gsave eofill grestore  0.0 setgray
 stroke 0.0 setgray 2155 1131
 2159 1131 2163 1133 2166 1136 2168 1140
 2168 1144 2166 1148 2163 1151 2159 1153
 2155 1153 2151 1151 2148 1148 2146 1144
 2146 1140 2148 1136 2151 1133 2155 1131
 16 3 1 roll cnp
 0.00 setgray
gsave eofill grestore  0.0 setgray
 stroke 0.0 setgray 2248 1109
 2252 1109 2256 1111 2259 1114 2261 1118
 2261 1122 2259 1126 2256 1129 2252 1131
 2248 1131 2244 1129 2241 1126 2239 1122
 2239 1118 2241 1114 2244 1111 2248 1109
 16 3 1 roll cnp
 0.00 setgray
gsave eofill grestore  0.0 setgray
 stroke 0.0 setgray 2418 1053
 2422 1053 2426 1055 2429 1058 2431 1062
 2431 1066 2429 1070 2426 1073 2422 1075
 2418 1075 2414 1073 2411 1070 2409 1066
 2409 1062 2411 1058 2414 1055 2418 1053
 16 3 1 roll cnp
 0.00 setgray
gsave eofill grestore  0.0 setgray
 stroke 0.0 setgray 1883 1269
 1887 1269 1891 1271 1894 1274 1896 1278
 1896 1282 1894 1286 1891 1289 1887 1291
 1883 1291 1879 1289 1876 1286 1874 1282
 1874 1278 1876 1274 1879 1271 1883 1269
 16 3 1 roll cnp
 0.00 setgray
gsave eofill grestore  0.0 setgray
 stroke 0.0 setgray 1975 1198
 1979 1198 1983 1200 1986 1203 1988 1207
 1988 1211 1986 1215 1983 1218 1979 1220
 1975 1220 1971 1218 1968 1215 1966 1211
 1966 1207 1968 1203 1971 1200 1975 1198
 16 3 1 roll cnp
 0.00 setgray
gsave eofill grestore  0.0 setgray
 stroke 0.0 setgray 2503 1094
 2507 1094 2511 1096 2514 1099 2516 1103
 2516 1107 2514 1111 2511 1114 2507 1116
 2503 1116 2499 1114 2496 1111 2494 1107
 2494 1103 2496 1099 2499 1096 2503 1094
 16 3 1 roll cnp
 0.00 setgray
gsave eofill grestore  0.0 setgray
 stroke 0.0 setgray 2364 1068
 2368 1068 2372 1070 2375 1073 2377 1077
 2377 1081 2375 1085 2372 1088 2368 1090
 2364 1090 2360 1088 2357 1085 2355 1081
 2355 1077 2357 1073 2360 1070 2364 1068
 16 3 1 roll cnp
 0.00 setgray
gsave eofill grestore  0.0 setgray
 stroke 0.0 setgray 2371 1045
 2375 1045 2379 1047 2382 1050 2384 1054
 2384 1058 2382 1062 2379 1065 2375 1067
 2371 1067 2367 1065 2364 1062 2362 1058
 2362 1054 2364 1050 2367 1047 2371 1045
 16 3 1 roll cnp
 0.00 setgray
gsave eofill grestore  0.0 setgray
 stroke 0.0 setgray 1099 1523
 1103 1523 1107 1525 1110 1528 1112 1532
 1112 1536 1110 1540 1107 1543 1103 1545
 1099 1545 1095 1543 1092 1540 1090 1536
 1090 1532 1092 1528 1095 1525 1099 1523
 16 3 1 roll cnp
 0.00 setgray
gsave eofill grestore  0.0 setgray
 stroke 0.0 setgray 1911 1228
 1915 1228 1919 1230 1922 1233 1924 1237
 1924 1241 1922 1245 1919 1248 1915 1250
 1911 1250 1907 1248 1904 1245 1902 1241
 1902 1237 1904 1233 1907 1230 1911 1228
 16 3 1 roll cnp
 0.00 setgray
gsave eofill grestore  0.0 setgray
 stroke 0.0 setgray 2961 852
 2965 852 2969 854 2972 857 2974 861
 2974 865 2972 869 2969 872 2965 874
 2961 874 2957 872 2954 869 2952 865
 2952 861 2954 857 2957 854 2961 852
 16 3 1 roll cnp
 0.00 setgray
gsave eofill grestore  0.0 setgray
 stroke 0.0 setgray 2526 960
 2530 960 2534 962 2537 965 2539 969
 2539 973 2537 977 2534 980 2530 982
 2526 982 2522 980 2519 977 2517 973
 2517 969 2519 965 2522 962 2526 960
 16 3 1 roll cnp
 0.00 setgray
gsave eofill grestore  0.0 setgray
 stroke 0.0 setgray 2671 956
 2675 956 2679 958 2682 961 2684 965
 2684 969 2682 973 2679 976 2675 978
 2671 978 2667 976 2664 973 2662 969
 2662 965 2664 961 2667 958 2671 956
 16 3 1 roll cnp
 0.00 setgray
gsave eofill grestore  0.0 setgray
 stroke 0.0 setgray 1901 1228
 1905 1228 1909 1230 1912 1233 1914 1237
 1914 1241 1912 1245 1909 1248 1905 1250
 1901 1250 1897 1248 1894 1245 1892 1241
 1892 1237 1894 1233 1897 1230 1901 1228
 16 3 1 roll cnp
 0.00 setgray
gsave eofill grestore  0.0 setgray
 stroke 0.0 setgray 2532 967
 2536 967 2540 969 2543 972 2545 976
 2545 980 2543 984 2540 987 2536 989
 2532 989 2528 987 2525 984 2523 980
 2523 976 2525 972 2528 969 2532 967
 16 3 1 roll cnp
 0.00 setgray
gsave eofill grestore  0.0 setgray
 stroke 0.0 setgray 2569 986
 2573 986 2577 988 2580 991 2582 995
 2582 999 2580 1003 2577 1006 2573 1008
 2569 1008 2565 1006 2562 1003 2560 999
 2560 995 2562 991 2565 988 2569 986
 16 3 1 roll cnp
 0.00 setgray
gsave eofill grestore  0.0 setgray
 stroke 0.0 setgray 2057 1153
 2061 1153 2065 1155 2068 1158 2070 1162
 2070 1166 2068 1170 2065 1173 2061 1175
 2057 1175 2053 1173 2050 1170 2048 1166
 2048 1162 2050 1158 2053 1155 2057 1153
 16 3 1 roll cnp
 0.00 setgray
gsave eofill grestore  0.0 setgray
 stroke 0.0 setgray 2796 945
 2800 945 2804 947 2807 950 2809 954
 2809 958 2807 962 2804 965 2800 967
 2796 967 2792 965 2789 962 2787 958
 2787 954 2789 950 2792 947 2796 945
 16 3 1 roll cnp
 0.00 setgray
gsave eofill grestore  0.0 setgray
 stroke 0.0 setgray 2059 1161
 2063 1161 2067 1163 2070 1166 2072 1170
 2072 1174 2070 1178 2067 1181 2063 1183
 2059 1183 2055 1181 2052 1178 2050 1174
 2050 1170 2052 1166 2055 1163 2059 1161
 16 3 1 roll cnp
 0.00 setgray
gsave eofill grestore  0.0 setgray
 stroke 0.0 setgray 2403 1038
 2407 1038 2411 1040 2414 1043 2416 1047
 2416 1051 2414 1055 2411 1058 2407 1060
 2403 1060 2399 1058 2396 1055 2394 1051
 2394 1047 2396 1043 2399 1040 2403 1038
 16 3 1 roll cnp
 0.00 setgray
gsave eofill grestore  0.0 setgray
 stroke 0.0 setgray 2092 1165
 2096 1165 2100 1167 2103 1170 2105 1174
 2105 1178 2103 1182 2100 1185 2096 1187
 2092 1187 2088 1185 2085 1182 2083 1178
 2083 1174 2085 1170 2088 1167 2092 1165
 16 3 1 roll cnp
 0.00 setgray
gsave eofill grestore  0.0 setgray
 stroke 0.0 setgray 2789 900
 2793 900 2797 902 2800 905 2802 909
 2802 913 2800 917 2797 920 2793 922
 2789 922 2785 920 2782 917 2780 913
 2780 909 2782 905 2785 902 2789 900
 16 3 1 roll cnp
 0.00 setgray
gsave eofill grestore  0.0 setgray
 stroke 0.0 setgray 1748 1362
 1752 1362 1756 1364 1759 1367 1761 1371
 1761 1375 1759 1379 1756 1382 1752 1384
 1748 1384 1744 1382 1741 1379 1739 1375
 1739 1371 1741 1367 1744 1364 1748 1362
 16 3 1 roll cnp
 0.00 setgray
gsave eofill grestore  0.0 setgray
 stroke 0.0 setgray 2664 922
 2668 922 2672 924 2675 927 2677 931
 2677 935 2675 939 2672 942 2668 944
 2664 944 2660 942 2657 939 2655 935
 2655 931 2657 927 2660 924 2664 922
 16 3 1 roll cnp
 0.00 setgray
gsave eofill grestore  0.0 setgray
 stroke 0.0 setgray 0.0 setgray 2963 861 2950 866 2936 871 2923 876 2909 881 2896 886 2882 891 2869 896 2855 901
 2842 906 2828 911 2815 916 2801 921 2788 926 2774 930 2761 935 2747 940
 2734 945 2720 950 2707 955 2693 960 2680 965 2666 970 2653 975 2639 980
 2626 985 2612 990 2599 995 2585 1000 2572 1005 2558 1010 2545 1015 2531 1020
 2518 1025 2504 1030 2491 1035 2477 1040 2464 1045 2450 1050 2437 1055 2423 1060
 2410 1065 2396 1070 2383 1075 2369 1080 2356 1085 2342 1090 2329 1095 2315 1100
 2302 1105 2288 1110 2275 1115 2261 1120 2248 1125 2234 1130 2221 1135 2207 1140
 2194 1145 2180 1150 2167 1155 2153 1160 2140 1165 2126 1170 2113 1175 2099 1180
 2086 1185 2072 1190 2059 1195 2045 1200 2032 1205 2018 1210 2005 1215 1991 1220
 1978 1225 1964 1230 1951 1235 1937 1240 1924 1245 1910 1250 1897 1255 1883 1260
 1870 1265 1856 1270 1843 1275 1829 1280 1816 1285 1802 1290 1789 1295 1775 1300
 1762 1305 1748 1310 1735 1315 1721 1320 1708 1325 1694 1330 1681 1335 1667 1340
 1654 1345 1640 1350 1627 1355 99 rps
 [20 20] 0 setdash
 660 1594 3607 568 1 rps

/Times-Italic axumfindfont 128 scalefont setfont
 2104 181 moveto  (T) show 

/Times-Italic axumfindfont 95 scalefont setfont
 2175 153 moveto  (e) show 

/Times-Roman axumfindfont 124 scalefont setfont
 2217 181 moveto  ( \(K\)) show 
 368 1382 moveto  90 rotate (Log) show  -90 rotate

/Times-Roman axumfindfont 95 scalefont setfont
 396 1584 moveto  90 rotate (10) show  -90 rotate

/Times-Roman axumfindfont 124 scalefont setfont
 367 1679 moveto  90 rotate ( \() show  -90 rotate

/Times-Italic axumfindfont 128 scalefont setfont
 367 1753 moveto  90 rotate (L) show  -90 rotate

/Times-Roman axumfindfont 124 scalefont setfont
 367 1824 moveto  90 rotate (/) show  -90 rotate

/Times-Italic axumfindfont 128 scalefont setfont
 367 1859 moveto  90 rotate (L) show  -90 rotate

/Times-Roman axumfindfont 124 scalefont setfont
 367 1930 moveto  90 rotate (  \)) show  -90 rotate
 891 418 moveto  (40,000) show 
 2179 418 moveto  (20,000) show 
 3462 418 moveto  (10,000) show 
 1424 418 moveto  (30,000) show 
 837 1401 moveto  341 rotate (0.01 R) show  -341 rotate
 2579 1110 moveto  340 rotate (0.5 M) show  -340 rotate
 [] 0 setdash
 659 568 3653 568 1 rps
 grestore showpage
%Trailer
%EOF
