%!PS-Adobe-2.0 EPSF-1.2
%%BoundingBox: 0 0 468 360
%%%%DocumentFonts: /Helvetica
%%Title: Axum PostScript file
%%Creator: TriMetrix, Inc.
%%Pages: 1
%%EndComments
% Copyright 1988-1991 by TriMetrix, Inc. All rights reserved.
/downdict 4 dict def
/sdown
 {downdict begin
  /thestring exch def
  /lineskip exch def
  thestring
   {
    /charcode exch def
    /thechar ( ) dup 0 charcode put def
    0 lineskip neg rmoveto
    gsave
     thechar stringwidth pop 2 div neg 0 rmoveto
     thechar show
    grestore
   } forall
   end
  } def

/updict 4 dict def
/sup
 {updict begin
  /thestring exch def
  /lineskip exch def
  thestring 
   {
    /charcode exch def
    /thechar ( ) dup 0 charcode put def
    0 lineskip rmoveto
    gsave
     thechar stringwidth pop 2 div neg 0 rmoveto
     thechar show
    grestore
   } forall
   end
  } def

/leftdict 4 dict def
/sleft
 {leftdict begin
  /thestring exch def
  thestring
   {
    /charcode exch def
    /thechar ( ) dup 0 charcode put def
    gsave
     thechar stringwidth pop neg 0 rmoveto
     thechar show
    grestore
   } forall

   thechar stringwidth pop neg 0 rmoveto
   end
  } def

/path{newpath moveto{lineto}repeat} bind def 
/cnp{newpath moveto{lineto}repeat closepath} bind def
/clp{moveto{lineto}repeat closepath} bind def
/rps{ 3 1 roll path stroke} bind def
/rcs{ 3 1 roll clp stroke} bind def
/setF { currentscreen 4 -2 roll pop 3 1 roll setscreen} bind def
% required due to WinWord 2.0 bug:
/II { } def

/reencodedict 5 dict def
/reencode
{
   reencodedict begin
   /newencoding exch def
   /newfontname exch def
   /basefontname exch def

   /basefontdict basefontname findfont def
   /newfont basefontdict maxlength dict def

   basefontdict
   {
      exch dup dup /FID ne exch /Encoding ne and
      { exch newfont 3 1 roll put }
      { pop pop }
      ifelse
   }
   forall

   newfont /FontName newfontname put
   newfont /Encoding newencoding put
   newfontname newfont definefont pop
   end
}
def

/axumencoding
[
/.notdef        %   0
/.notdef        %   1
/.notdef        %   2
/.notdef        %   3
/.notdef        %   4
/.notdef        %   5
/.notdef        %   6
/.notdef        %   7
/.notdef        %   8
/.notdef        %   9
/.notdef        %  10
/.notdef        %  11
/.notdef        %  12
/.notdef        %  13
/.notdef        %  14
/.notdef        %  15
/.notdef        %  16
/.notdef        %  17
/.notdef        %  18
/.notdef        %  19
/.notdef        %  20
/.notdef        %  21
/.notdef        %  22
/.notdef        %  23
/.notdef        %  24
/.notdef        %  25
/.notdef        %  26
/.notdef        %  27
/.notdef        %  28
/.notdef        %  29
/.notdef        %  30
/.notdef        %  31
/space          %  32
/exclam         %  33
/quotedbl       %  34
/numbersign     %  35
/dollar         %  36
/percent        %  37
/ampersand      %  38
/quoteright     %  39
/parenleft      %  40
/parenright     %  41
/asterisk       %  42
/plus           %  43
/comma          %  44
/hyphen         %  45
/period         %  46
/slash          %  47
/zero           %  48
/one            %  49
/two            %  50
/three          %  51
/four           %  52
/five           %  53
/six            %  54
/seven          %  55
/eight          %  56
/nine           %  57
/colon          %  58
/semicolon      %  59
/less           %  60
/equal          %  61
/greater        %  62
/question       %  63
/at             %  64
/A              %  65
/B              %  66
/C              %  67
/D              %  68
/E              %  69
/F              %  70
/G              %  71
/H              %  72
/I              %  73
/J              %  74
/K              %  75
/L              %  76
/M              %  77
/N              %  78
/O              %  79
/P              %  80
/Q              %  81
/R              %  82
/S              %  83
/T              %  84
/U              %  85
/V              %  86
/W              %  87
/X              %  88
/Y              %  89
/Z              %  90
/bracketleft    %  91
/backslash      %  92
/bracketright   %  93
/asciicircum    %  94
/underscore     %  95
/quoteleft      %  96
/a              %  97
/b              %  98
/c              %  99
/d              % 100
/e              % 101
/f              % 102
/g              % 103
/h              % 104
/i              % 105
/j              % 106
/k              % 107
/l              % 108
/m              % 109
/n              % 110
/o              % 111
/p              % 112
/q              % 113
/r              % 114
/s              % 115
/t              % 116
/u              % 117
/v              % 118
/w              % 119
/x              % 120
/y              % 121
/z              % 122
/braceleft      % 123
/bar            % 124
/braceright     % 125
/asciitilde     % 126
/.notdef        % 127
/Ccedilla       % 128
/udieresis      % 129
/eacute         % 130
/acircumflex    % 131
/adieresis      % 132
/agrave         % 133
/aring          % 134
/ccedilla       % 135
/ecircumflex    % 136
/edieresis      % 137
/egrave         % 138
/idieresis      % 139
/icircumflex    % 140
/igrave         % 141
/Adieresis      % 142
/Aring          % 143
/Eacute         % 144
/ae             % 145
/AE             % 146
/ocircumflex    % 147
/odieresis      % 148
/ograve         % 149
/ucircumflex    % 150
/ugrave         % 151
/ydieresis      % 152
/Odieresis      % 153
/Udieresis      % 154
/cent           % 155
/sterling       % 156
/yen            % 157
/currency       % 158
/florin         % 159
/aacute         % 160
/iacute         % 161
/oacute         % 162
/uacute         % 163
/ntilde         % 164
/Ntilde         % 165
/ordfeminine    % 166
/ordmasculine   % 167
/questiondown   % 168
/quotedblleft   % 169
/quotedblright  % 170
/Aacute         % 171
/Acircumflex    % 172
/exclamdown     % 173
/Egrave         % 174
/Ecircumflex    % 175
/atilde         % 176
/otilde         % 177
/Edieresis      % 178
/Igrave         % 179
/oe             % 180
/OE             % 181
/Agrave         % 182
/Atilde         % 183
/Otilde         % 184
/section        % 185
/Iacute         % 186
/Icircumflex    % 187
/Idieresis      % 188
/Ograve         % 189
/Oacute         % 190
/Ocircumflex    % 191
/Ugrave         % 192
/Uacute         % 193
/Ucircumflex    % 194
/Ydieresis      % 195
/germandbls     % 196
/guillemotleft  % 197
/guillemotright % 198
/bullet         % 199
/.notdef        % 200
/.notdef        % 201
/.notdef        % 202
/.notdef        % 203
/.notdef        % 204
/.notdef        % 205
/.notdef        % 206
/.notdef        % 207
/.notdef        % 208
/.notdef        % 209
/.notdef        % 210
/.notdef        % 211
/.notdef        % 212
/.notdef        % 213
/.notdef        % 214
/.notdef        % 215
/.notdef        % 216
/.notdef        % 217
/.notdef        % 218
/.notdef        % 219
/.notdef        % 220
/.notdef        % 221
/.notdef        % 222
/.notdef        % 223
/.notdef        % 224
/.notdef        % 225
/.notdef        % 226
/.notdef        % 227
/.notdef        % 228
/.notdef        % 229
/.notdef        % 230
/.notdef        % 231
/.notdef        % 232
/.notdef        % 233
/.notdef        % 234
/.notdef        % 235
/.notdef        % 236
/.notdef        % 237
/.notdef        % 238
/.notdef        % 239
/.notdef        % 240
/.notdef        % 241
/.notdef        % 242
/.notdef        % 243
/.notdef        % 244
/.notdef        % 245
/.notdef        % 246
/.notdef        % 247
/.notdef        % 248
/.notdef        % 249
/.notdef        % 250
/.notdef        % 251
/.notdef        % 252
/.notdef        % 253
/.notdef        % 254
/.notdef        % 255
] 
def

/axumfindfont
{
   /axumfont axumencoding reencode
   /axumfont findfont
}
def


/MainFont /Helvetica axumfindfont 98 scalefont def
MainFont setfont
1 setlinejoin 0 setlinecap 0 setgray
 gsave 72 630 div dup scale
 0.0 setgray [40 20] 0 setdash

1 setlinewidth
 1847 2135 1856 2144 1864 2152 1872 2161 1881 2169 1889 2177 1897 2185 1906 2193 1914 2200
 1922 2208 1930 2215 1939 2222 1947 2229 1955 2236 1964 2243 1972 2249 1980 2255
 1989 2262 1997 2268 2005 2273 2014 2279 2022 2284 2030 2290 2038 2295 2047 2300
 2055 2304 2063 2309 2072 2313 2080 2318 2088 2322 2097 2326 2105 2330 2113 2333
 2122 2337 2130 2340 2138 2343 2146 2346 2155 2349 2163 2351 2171 2354 2180 2356
 2188 2358 2196 2360 2205 2362 2213 2363 2221 2365 2230 2366 2238 2367 2246 2368
 2254 2369 2263 2370 2271 2370 2279 2370 2288 2371 2296 2371 2304 2371 2313 2370
 2321 2370 2329 2369 2338 2368 2346 2368 2354 2367 2362 2365 2371 2364 2379 2363
 2387 2361 2396 2359 2404 2357 2412 2355 2421 2353 2429 2351 2437 2348 2446 2346
 2454 2343 2462 2340 2470 2337 2479 2334 2487 2331 2495 2328 2504 2324 2512 2320
 2520 2317 2529 2313 2537 2309 2545 2305 2554 2301 2562 2296 2570 2292 2578 2287
 2587 2283 2595 2278 2603 2273 2612 2268 2620 2263 2628 2258 2637 2252 2645 2247
 2653 2242 2662 2236 2670 2230 2678 2225 2686 2219 101 rps
 2686 2219 2695 2213 2703 2207 2711 2201 2720 2194 2728 2188 2736 2182 2745 2175 2753 2169
 2761 2162 2770 2156 2778 2149 2786 2142 2794 2135 2803 2129 2811 2122 2819 2115
 2828 2108 2836 2100 2844 2093 2853 2086 2861 2079 2869 2071 2878 2064 2886 2057
 2894 2049 2902 2042 2911 2034 2919 2027 2927 2019 2936 2012 2944 2004 2952 1996
 2961 1989 2969 1981 2977 1973 2986 1965 2994 1958 3002 1950 3010 1942 3019 1934
 3027 1927 3035 1919 3044 1911 3052 1903 3060 1895 3069 1888 3077 1880 3085 1872
 3093 1864 3102 1857 3110 1849 3118 1841 3127 1834 3135 1826 3143 1818 3152 1811
 3160 1803 3168 1796 3177 1788 3185 1781 3193 1773 3201 1766 3210 1758 3218 1751
 3226 1744 3235 1737 3243 1729 3251 1722 3260 1715 3268 1708 3276 1701 3285 1694
 3293 1687 3301 1681 3309 1674 3318 1667 3326 1661 3334 1654 3343 1648 3351 1641
 3359 1635 3368 1629 3376 1623 3384 1617 3393 1611 3401 1605 3409 1599 3417 1594
 3426 1588 3434 1583 3442 1577 3451 1572 3459 1567 3467 1562 3476 1556 3484 1552
 3492 1547 3501 1542 3509 1538 99 rps
 [] 0 setdash
 1314 1041 1314 2989 1 rps
 1347 2876 1314 2989 1 rps
 1280 2876 1314 2989 1 rps
 1314 1041 3717 1041 1 rps
 3604 1007 3717 1041 1 rps
 3604 1074 3717 1041 1 rps
 1314 1041 404 141 1 rps
 460 244 404 141 1 rps
 508 196 404 141 1 rps

/Times-Italic axumfindfont 128 scalefont setfont
 545 154 moveto  (x) show 
 3653 896 moveto  (y) show 
 1396 2884 moveto  (z) show 
 1269 823 moveto  (M) show 

/Times-Bold axumfindfont 121 scalefont setfont
 1469 1624 moveto  (r) show 

/Times-Italic axumfindfont 95 scalefont setfont
 1523 1596 moveto  (i) show 

/Times-Bold axumfindfont 121 scalefont setfont
 2452 1355 moveto  (r) show 

/Times-Italic axumfindfont 95 scalefont setfont
 2506 1327 moveto  (f) show 

/Times-Italic axumfindfont 128 scalefont setfont
 2429 2406 moveto  (m) show 

/Times-Bold axumfindfont 121 scalefont setfont
 2102 1779 moveto  (F) show 

/Times-Italic axumfindfont 128 scalefont setfont
 2739 2261 moveto  (d) show 

/Times-Bold axumfindfont 121 scalefont setfont
 2802 2261 moveto  (r) show 
 1314 1041 1842 2120 1 rps
 1842 2120
 1822 2029 1782 2049 1842 2120 3 3 1 roll cnp
 0.00 setgray
gsave eofill grestore  0.0 setgray
 stroke 0.0 setgray 0.0 setgray 1314 1041 3476 1533 1 rps
 3476 1533
 3393 1491 3383 1534 3476 1533 3 3 1 roll cnp
 0.00 setgray
gsave eofill grestore  0.0 setgray
 stroke 0.0 setgray 0.0 setgray 2475 2334 1947 1756 1 rps
 1947 1756
 1991 1837 2024 1807 1947 1756 3 3 1 roll cnp
 0.00 setgray
gsave eofill grestore  0.0 setgray
 stroke 0.0 setgray 0.0 setgray 2475 2334 2766 2197 1 rps
 2766 2197
 2674 2214 2694 2255 2766 2197 3 3 1 roll cnp
 0.00 setgray
gsave eofill grestore  0.0 setgray
 stroke 0.0 setgray 1851 2116
 1861 2116 1872 2122 1877 2127 1883 2138
 1883 2148 1877 2159 1872 2164 1861 2170
 1851 2170 1840 2164 1835 2159 1829 2148
 1829 2138 1835 2127 1840 2122 1851 2116
 16 3 1 roll cnp
 0.00 setgray
gsave eofill grestore  0.0 setgray
 stroke 0.0 setgray 3493 1515
 3503 1515 3514 1521 3519 1526 3525 1537
 3525 1547 3519 1558 3514 1563 3503 1569
 3493 1569 3482 1563 3477 1558 3471 1547
 3471 1537 3477 1526 3482 1521 3493 1515
 16 3 1 roll cnp
 0.00 setgray
gsave eofill grestore  0.0 setgray
 stroke 0.0 setgray 2470 2307
 2480 2307 2491 2313 2496 2318 2502 2329
 2502 2339 2496 2350 2491 2355 2480 2361
 2470 2361 2459 2355 2454 2350 2448 2339
 2448 2329 2454 2318 2459 2313 2470 2307
 16 3 1 roll cnp
 0.00 setgray
gsave eofill grestore  0.0 setgray
 stroke 0.0 setgray 1296 951
 1332 951 1368 969 1386 987 1404 1023
 1404 1059 1386 1095 1368 1113 1332 1131
 1296 1131 1260 1113 1242 1095 1224 1059
 1224 1023 1242 987 1260 969 1296 951
 16 3 1 roll cnp
 0.00 setgray
gsave eofill grestore  0.0 setgray
 stroke 0.0 setgray 0.0 setgray 2083 1992 2083 1992 1 add 1 rps
 2165 2284 2165 2284 1 rps
 grestore showpage
%Trailer
%EOF
